digraph KarmaDFEKernel_final{
	NodeConstantRawBits792 [shape=box, label="1.0\nID: 792"];
	NodeConstantRawBits14 [shape=box, label="1.0\nID: 14"];
	NodeConstantRawBits826 [shape=box, label="11.0\nID: 826"];
	NodeCounter17 [shape=hexagon, label="cnt\nID: 17"];
	NodeInputMappedReg15 [shape=box, peripheries=2, label="num_iteration\nID: 15"];
	NodeCounter16 [shape=hexagon, label="cnt\nID: 16"];
	NodeConstantRawBits844 [shape=box, label="0.0\nID: 844"];
	NodeEqInlined504 [label="==\nID: 504"];
	NodeFIFO813 [shape=plaintext, label=<<TABLE BORDER="0" CELLSPACING="0" CELLBORDER="1"> <TR><TD></TD></TR><TR><TD>9</TD></TR><TR><TD>ID: 813</TD></TR> <TR><TD></TD></TR> </TABLE>>];
	NodeFIFO825 [shape=plaintext, label=<<TABLE BORDER="0" CELLSPACING="0" CELLBORDER="1"> <TR><TD></TD></TR><TR><TD>1</TD></TR><TR><TD>ID: 825</TD></TR> <TR><TD></TD></TR> </TABLE>>];
	NodeInputMappedReg18 [shape=box, peripheries=2, label="dt\nID: 18"];
	NodeCast19 [label="{HWFloat:8, 40}\nID: 19"];
	NodeConstantRawBits6 [shape=box, label="0.8000000000001819\nID: 6"];
	NodeConstantRawBits843 [shape=box, label="0.0\nID: 843"];
	NodeEqInlined505 [label="==\nID: 505"];
	NodeConstantRawBits842 [shape=box, label="1.4285547780000343\nID: 842"];
	NodeConstantRawBits5 [shape=box, label="1.0\nID: 5"];
	NodeGt462 [label=">\nID: 462"];
	NodeCast463 [label="{HWFloat:8, 40}\nID: 463"];
	NodeMul465 [label="*\nID: 465"];
	NodeSub466 [label="-\nID: 466"];
	NodeConstantRawBits3 [shape=box, label="0.003999999999997783\nID: 3"];
	NodeMul468 [label="*\nID: 468"];
	NodeMul471 [label="*\nID: 471"];
	NodeAdd472 [label="+\nID: 472"];
	NodeStreamOffset796 [shape=diamond, label="-11\nID: 796"];
	NodeConstantRawBits26 [shape=box, label="0.0\nID: 26"];
	NodeMux27 [shape=invtrapezium, height=0.5, label="MUX\nID: 27"];
	NodeFIFO799 [shape=plaintext, label=<<TABLE BORDER="0" CELLSPACING="0" CELLBORDER="1"> <TR><TD></TD></TR><TR><TD>10</TD></TR><TR><TD>ID: 799</TD></TR> <TR><TD></TD></TR> </TABLE>>];
	NodeMul32 [label="*\nID: 32"];
	NodeMul33 [label="*\nID: 33"];
	NodeMul34 [label="*\nID: 34"];
	NodeMul35 [label="*\nID: 35"];
	NodeSub459 [label="-\nID: 459"];
	NodeConstantRawBits841 [shape=box, label="1.0\nID: 841"];
	NodeConstantRawBits840 [shape=box, label="1.0\nID: 840"];
	NodeConstantRawBits839 [shape=box, label="2.0\nID: 839"];
	NodeSlice428 [label="[46:39]\nID: 428"];
	NodeConstantRawBits429 [shape=box, label="0xff\nID: 429"];
	NodeEqInlined506 [label="==\nID: 506"];
	NodeSlice427 [label="[38:0]\nID: 427"];
	NodeConstantRawBits838 [shape=box, label="0x0000000000\nID: 838"];
	NodeNeqInlined507 [label="!=\nID: 507"];
	NodeAnd433 [label="&\nID: 433"];
	NodeFIFO812 [shape=plaintext, label=<<TABLE BORDER="0" CELLSPACING="0" CELLBORDER="1"> <TR><TD></TD></TR><TR><TD>8</TD></TR><TR><TD>ID: 812</TD></TR> <TR><TD></TD></TR> </TABLE>>];
	NodeSlice44 [label="[1:1]\nID: 44"];
	NodeReinterpret45 [label="<{HWOffsetFix:1, 0, UNSIGNED}>\nID: 45"];
	NodeConstantRawBits46 [shape=box, label="511.9999999999999\nID: 46"];
	NodeSlice508 [label="[52:52]\nID: 508"];
	NodeNot509 [label="~\nID: 509"];
	NodeCat561 [label="@\nID: 561"];
	NodeReinterpret101 [label="<{HWOffsetFix:53, -43, TWOSCOMPLEMENT}>\nID: 101"];
	NodeXor102 [label="^\nID: 102"];
	NodeMux103 [shape=invtrapezium, height=0.5, label="MUX\nID: 103"];
	NodeConstantRawBits106 [shape=box, label="1.4426950408889634\nID: 106"];
	NodeMul105 [label="*\nID: 105"];
	NodeConstantRawBits108 [shape=box, label="1024.0\nID: 108"];
	NodeSlice562 [label="[104:104]\nID: 562"];
	NodeNot563 [label="~\nID: 563"];
	NodeCat667 [label="@\nID: 667"];
	NodeReinterpret215 [label="<{HWOffsetFix:105, -94, TWOSCOMPLEMENT}>\nID: 215"];
	NodeXor216 [label="^\nID: 216"];
	NodeMux217 [shape=invtrapezium, height=0.5, label="MUX\nID: 217"];
	NodeCast218 [label="{HWOffsetFix:53, -43, TWOSCOMPLEMENT}\nID: 218"];
	NodeConstantRawBits220 [shape=box, label="511.9999999999999\nID: 220"];
	NodeSlice668 [label="[52:52]\nID: 668"];
	NodeNot669 [label="~\nID: 669"];
	NodeCat721 [label="@\nID: 721"];
	NodeReinterpret275 [label="<{HWOffsetFix:53, -43, TWOSCOMPLEMENT}>\nID: 275"];
	NodeXor276 [label="^\nID: 276"];
	NodeMux277 [shape=invtrapezium, height=0.5, label="MUX\nID: 277"];
	NodeDoubtBitOp286 [label="DoubtBitOp(REMOVE_DOUBT)\nID: 286"];
	NodeCast287 [label="{HWOffsetFix:10, 0, TWOSCOMPLEMENT}\nID: 287"];
	NodeFIFO804 [shape=plaintext, label=<<TABLE BORDER="0" CELLSPACING="0" CELLBORDER="1"> <TR><TD></TD></TR><TR><TD>2</TD></TR><TR><TD>ID: 804</TD></TR> <TR><TD></TD></TR> </TABLE>>];
	NodeCast347 [label="{HWOffsetFix:11, 0, TWOSCOMPLEMENT}\nID: 347"];
	NodeConstantRawBits837 [shape=box, label="127.0\nID: 837"];
	NodeAdd349 [label="+\nID: 349"];
	NodeConstantRawBits351 [shape=box, label="1023.0\nID: 351"];
	NodeSlice722 [label="[10:10]\nID: 722"];
	NodeNot723 [label="~\nID: 723"];
	NodeCat733 [label="@\nID: 733"];
	NodeReinterpret364 [label="<{HWOffsetFix:11, 0, TWOSCOMPLEMENT}>\nID: 364"];
	NodeXor365 [label="^\nID: 365"];
	NodeMux366 [shape=invtrapezium, height=0.5, label="MUX\nID: 366"];
	NodeConstantRawBits367 [shape=box, label="1.0\nID: 367"];
	NodeCast290 [label="{HWOffsetFix:10, -21, UNSIGNED}\nID: 290"];
	NodeReinterpret443 [label="<{HWOffsetFix:10, 0, UNSIGNED}>\nID: 443"];
	NodeROM444 [label="ROM\nID: 444"];
	NodeCast289 [label="{HWOffsetFix:10, -11, UNSIGNED}\nID: 289"];
	NodeReinterpret440 [label="<{HWOffsetFix:10, 0, UNSIGNED}>\nID: 440"];
	NodeROM441 [label="ROM\nID: 441"];
	NodeCast288 [label="{HWOffsetFix:1, -1, UNSIGNED}\nID: 288"];
	NodeReinterpret437 [label="<{HWOffsetFix:1, 0, UNSIGNED}>\nID: 437"];
	NodeROM438 [label="ROM\nID: 438"];
	NodeConstantRawBits294 [shape=box, label="0.6931471824645996\nID: 294"];
	NodeCast291 [label="{HWOffsetFix:22, -43, UNSIGNED}\nID: 291"];
	NodeFIFO805 [shape=plaintext, label=<<TABLE BORDER="0" CELLSPACING="0" CELLBORDER="1"> <TR><TD></TD></TR><TR><TD>2</TD></TR><TR><TD>ID: 805</TD></TR> <TR><TD></TD></TR> </TABLE>>];
	NodeMul293 [label="*\nID: 293"];
	NodeCast295 [label="{HWOffsetFix:22, -43, UNSIGNED}\nID: 295"];
	NodeConstantRawBits297 [shape=box, label="4.768370445162873E-7\nID: 297"];
	NodeMux298 [shape=invtrapezium, height=0.5, label="MUX\nID: 298"];
	NodeAdd299 [label="+\nID: 299"];
	NodeMul300 [label="*\nID: 300"];
	NodeAdd301 [label="+\nID: 301"];
	NodeConstantRawBits303 [shape=box, label="2.0\nID: 303"];
	NodeMux304 [shape=invtrapezium, height=0.5, label="MUX\nID: 304"];
	NodeCast305 [label="{HWOffsetFix:44, -43, UNSIGNED}\nID: 305"];
	NodeConstantRawBits307 [shape=box, label="1.9999999999998863\nID: 307"];
	NodeMux308 [shape=invtrapezium, height=0.5, label="MUX\nID: 308"];
	NodeAdd309 [label="+\nID: 309"];
	NodeMul310 [label="*\nID: 310"];
	NodeConstantRawBits312 [shape=box, label="1.0\nID: 312"];
	NodeMux313 [shape=invtrapezium, height=0.5, label="MUX\nID: 313"];
	NodeAdd314 [label="+\nID: 314"];
	NodeConstantRawBits316 [shape=box, label="4.0\nID: 316"];
	NodeMux317 [shape=invtrapezium, height=0.5, label="MUX\nID: 317"];
	NodeCast318 [label="{HWOffsetFix:45, -43, UNSIGNED}\nID: 318"];
	NodeConstantRawBits320 [shape=box, label="3.9999999999998863\nID: 320"];
	NodeMux321 [shape=invtrapezium, height=0.5, label="MUX\nID: 321"];
	NodeAdd322 [label="+\nID: 322"];
	NodeMul323 [label="*\nID: 323"];
	NodeConstantRawBits325 [shape=box, label="0.001953125\nID: 325"];
	NodeMux326 [shape=invtrapezium, height=0.5, label="MUX\nID: 326"];
	NodeAdd327 [label="+\nID: 327"];
	NodeConstantRawBits329 [shape=box, label="8.0\nID: 329"];
	NodeMux330 [shape=invtrapezium, height=0.5, label="MUX\nID: 330"];
	NodeCast331 [label="{HWOffsetFix:46, -43, UNSIGNED}\nID: 331"];
	NodeConstantRawBits333 [shape=box, label="7.999999999999886\nID: 333"];
	NodeMux334 [shape=invtrapezium, height=0.5, label="MUX\nID: 334"];
	NodeCast335 [label="{HWOffsetFix:40, -39, UNSIGNED}\nID: 335"];
	NodeConstantRawBits337 [shape=box, label="1.999999999998181\nID: 337"];
	NodeMux338 [shape=invtrapezium, height=0.5, label="MUX\nID: 338"];
	NodeConstantRawBits836 [shape=box, label="1.0\nID: 836"];
	NodeGteInlined734 [label=">=\nID: 734"];
	NodeCondAdd764 [label="+/0\nID: 764"];
	NodeConstantRawBits372 [shape=box, label="1023.0\nID: 372"];
	NodeSlice735 [label="[10:10]\nID: 735"];
	NodeNot736 [label="~\nID: 736"];
	NodeCat746 [label="@\nID: 746"];
	NodeReinterpret385 [label="<{HWOffsetFix:11, 0, TWOSCOMPLEMENT}>\nID: 385"];
	NodeXor386 [label="^\nID: 386"];
	NodeMux387 [shape=invtrapezium, height=0.5, label="MUX\nID: 387"];
	NodeSlice747 [label="[10:10]\nID: 747"];
	NodeReinterpret748 [label="<{HWOffsetFix:1, 0, UNSIGNED}>\nID: 748"];
	NodeConstantRawBits835 [shape=box, label="0.0\nID: 835"];
	NodeGt279 [label=">\nID: 279"];
	NodeFIFO806 [shape=plaintext, label=<<TABLE BORDER="0" CELLSPACING="0" CELLBORDER="1"> <TR><TD></TD></TR><TR><TD>6</TD></TR><TR><TD>ID: 806</TD></TR> <TR><TD></TD></TR> </TABLE>>];
	NodeDoubtBitOp280 [label="DoubtBitOp(GET_DOUBT)\nID: 280"];
	NodeAnd281 [label="&\nID: 281"];
	NodeFIFO807 [shape=plaintext, label=<<TABLE BORDER="0" CELLSPACING="0" CELLBORDER="1"> <TR><TD></TD></TR><TR><TD>2</TD></TR><TR><TD>ID: 807</TD></TR> <TR><TD></TD></TR> </TABLE>>];
	NodeNot390 [label="~\nID: 390"];
	NodeAnd391 [label="&\nID: 391"];
	NodeConstantRawBits834 [shape=box, label="0.0\nID: 834"];
	NodeLt283 [label="<\nID: 283"];
	NodeFIFO808 [shape=plaintext, label=<<TABLE BORDER="0" CELLSPACING="0" CELLBORDER="1"> <TR><TD></TD></TR><TR><TD>6</TD></TR><TR><TD>ID: 808</TD></TR> <TR><TD></TD></TR> </TABLE>>];
	NodeDoubtBitOp284 [label="DoubtBitOp(GET_DOUBT)\nID: 284"];
	NodeAnd285 [label="&\nID: 285"];
	NodeFIFO809 [shape=plaintext, label=<<TABLE BORDER="0" CELLSPACING="0" CELLBORDER="1"> <TR><TD></TD></TR><TR><TD>2</TD></TR><TR><TD>ID: 809</TD></TR> <TR><TD></TD></TR> </TABLE>>];
	NodeOr392 [label="|\nID: 392"];
	NodeConstantRawBits833 [shape=box, label="255.0\nID: 833"];
	NodeGteInlined749 [label=">=\nID: 749"];
	NodeNot413 [label="~\nID: 413"];
	NodeAnd414 [label="&\nID: 414"];
	NodeOr415 [label="|\nID: 415"];
	NodeCat416 [label="@\nID: 416"];
	NodeConstantRawBits408 [shape=box, label="0.0\nID: 408"];
	NodeCast393 [label="{HWOffsetFix:8, 0, TWOSCOMPLEMENT}\nID: 393"];
	NodeConstantRawBits395 [shape=box, label="127.0\nID: 395"];
	NodeSlice750 [label="[7:7]\nID: 750"];
	NodeNot751 [label="~\nID: 751"];
	NodeCat758 [label="@\nID: 758"];
	NodeReinterpret405 [label="<{HWOffsetFix:8, 0, TWOSCOMPLEMENT}>\nID: 405"];
	NodeXor406 [label="^\nID: 406"];
	NodeMux407 [shape=invtrapezium, height=0.5, label="MUX\nID: 407"];
	NodeConstantRawBits341 [shape=box, label="0.0\nID: 341"];
	NodeMux342 [shape=invtrapezium, height=0.5, label="MUX\nID: 342"];
	NodeCast343 [label="{HWOffsetFix:39, -39, UNSIGNED}\nID: 343"];
	NodeConstantRawBits345 [shape=box, label="0.999999999998181\nID: 345"];
	NodeMux346 [shape=invtrapezium, height=0.5, label="MUX\nID: 346"];
	NodeCat409 [label="@\nID: 409"];
	NodeReinterpret410 [label="<{HWFloat:8, 40}>\nID: 410"];
	NodeConstantRawBits417 [shape=box, label="0.0\nID: 417"];
	NodeConstantRawBits418 [shape=box, label="255.0\nID: 418"];
	NodeConstantRawBits420 [shape=box, label="0.0\nID: 420"];
	NodeCat759 [label="@\nID: 759"];
	NodeReinterpret422 [label="<{HWFloat:8, 40}>\nID: 422"];
	NodeConstantRawBits503 [shape=box, label="0.0\nID: 503"];
	NodeMux425 [shape=invtrapezium, height=0.5, label="MUX\nID: 425"];
	NodeConstantRawBits832 [shape=box, label="NaN\nID: 832"];
	NodeMux435 [shape=invtrapezium, height=0.5, label="MUX\nID: 435"];
	NodeConstantRawBits831 [shape=box, label="1.0\nID: 831"];
	NodeAdd446 [label="+\nID: 446"];
	NodeDiv448 [label="/\nID: 448"];
	NodeSub450 [label="-\nID: 450"];
	NodeSub453 [label="-\nID: 453"];
	NodeMul454 [label="*\nID: 454"];
	NodeMul455 [label="*\nID: 455"];
	NodePO2FPMult766 [label="PO2FPMult_N-1\nID: 766"];
	NodeMul460 [label="*\nID: 460"];
	NodeSub760 [label="-\nID: 760"];
	NodeConstantRawBits2 [shape=box, label="0.40000000000009095\nID: 2"];
	NodeMul467 [label="*\nID: 467"];
	NodeMul469 [label="*\nID: 469"];
	NodeAdd470 [label="+\nID: 470"];
	NodeStreamOffset797 [shape=diamond, label="-11\nID: 797"];
	NodeConstantRawBits22 [shape=box, label="1.5\nID: 22"];
	NodeMux23 [shape=invtrapezium, height=0.5, label="MUX\nID: 23"];
	NodeConstantRawBits4 [shape=box, label="3.0\nID: 4"];
	NodeSub38 [label="-\nID: 38"];
	NodePO2FPMult765 [label="PO2FPMult_N1\nID: 765"];
	NodeConstantRawBits41 [shape=box, label="0.0\nID: 41"];
	NodeDoubtBitOp42 [label="DoubtBitOp(ADD_DOUBT)\nID: 42"];
	NodeCast43 [label="{HWOffsetFix:53, -43, TWOSCOMPLEMENT}\nID: 43"];
	NodeExceptionMask770 [label="NodeExceptionMask\nID: 770"];
	NodeFIFO817 [shape=plaintext, label=<<TABLE BORDER="0" CELLSPACING="0" CELLBORDER="1"> <TR><TD></TD></TR><TR><TD>2</TD></TR><TR><TD>ID: 817</TD></TR> <TR><TD></TD></TR> </TABLE>>];
	NodeExceptionMask771 [label="NodeExceptionMask\nID: 771"];
	NodeFIFO818 [shape=plaintext, label=<<TABLE BORDER="0" CELLSPACING="0" CELLBORDER="1"> <TR><TD></TD></TR><TR><TD>2</TD></TR><TR><TD>ID: 818</TD></TR> <TR><TD></TD></TR> </TABLE>>];
	NodeExceptionMask772 [label="NodeExceptionMask\nID: 772"];
	NodeFIFO819 [shape=plaintext, label=<<TABLE BORDER="0" CELLSPACING="0" CELLBORDER="1"> <TR><TD></TD></TR><TR><TD>2</TD></TR><TR><TD>ID: 819</TD></TR> <TR><TD></TD></TR> </TABLE>>];
	NodeExceptionMask774 [label="NodeExceptionMask\nID: 774"];
	NodeExceptionMask775 [label="NodeExceptionMask\nID: 775"];
	NodeExceptionMask776 [label="NodeExceptionMask\nID: 776"];
	NodeExceptionMask777 [label="NodeExceptionMask\nID: 777"];
	NodeExceptionMask778 [label="NodeExceptionMask\nID: 778"];
	NodeExceptionMask779 [label="NodeExceptionMask\nID: 779"];
	NodeExceptionMask780 [label="NodeExceptionMask\nID: 780"];
	NodeExceptionMask781 [label="NodeExceptionMask\nID: 781"];
	NodeExceptionMask782 [label="NodeExceptionMask\nID: 782"];
	NodeExceptionMask783 [label="NodeExceptionMask\nID: 783"];
	NodeExceptionMask786 [label="NodeExceptionMask\nID: 786"];
	NodeExceptionMask773 [label="NodeExceptionMask\nID: 773"];
	NodeExceptionMask785 [label="NodeExceptionMask\nID: 785"];
	NodeExceptionMask787 [label="NodeExceptionMask\nID: 787"];
	NodeExceptionMask788 [label="NodeExceptionMask\nID: 788"];
	NodeExceptionMask789 [label="NodeExceptionMask\nID: 789"];
	NodeExceptionMask784 [label="NodeExceptionMask\nID: 784"];
	NodeExceptionMask769 [label="NodeExceptionMask\nID: 769"];
	NodeFIFO820 [shape=plaintext, label=<<TABLE BORDER="0" CELLSPACING="0" CELLBORDER="1"> <TR><TD></TD></TR><TR><TD>8</TD></TR><TR><TD>ID: 820</TD></TR> <TR><TD></TD></TR> </TABLE>>];
	NodeNumericExceptionsSim790 [label="NodeNumericExceptionsSim\nID: 790"];
	NodeOutputMappedReg791 [label="Scalar output (all_numeric_exceptions)\nID: 791"];
	NodeFIFO821 [shape=plaintext, label=<<TABLE BORDER="0" CELLSPACING="0" CELLBORDER="1"> <TR><TD></TD></TR><TR><TD>1</TD></TR><TR><TD>ID: 821</TD></TR> <TR><TD></TD></TR> </TABLE>>];
	NodeConstantRawBits830 [shape=box, label="1.0\nID: 830"];
	NodeSub478 [label="-\nID: 478"];
	NodeEqInlined761 [label="==\nID: 761"];
	NodeFIFO822 [shape=plaintext, label=<<TABLE BORDER="0" CELLSPACING="0" CELLBORDER="1"> <TR><TD></TD></TR><TR><TD>13</TD></TR><TR><TD>ID: 822</TD></TR> <TR><TD></TD></TR> </TABLE>>];
	NodeCast475 [label="{HWFloat:8, 24}\nID: 475"];
	NodeOutput483 [shape=house, label="u_out\nID: 483"];
	NodeConstantRawBits829 [shape=box, label="1.0\nID: 829"];
	NodeSub485 [label="-\nID: 485"];
	NodeEqInlined762 [label="==\nID: 762"];
	NodeFIFO824 [shape=plaintext, label=<<TABLE BORDER="0" CELLSPACING="0" CELLBORDER="1"> <TR><TD></TD></TR><TR><TD>13</TD></TR><TR><TD>ID: 824</TD></TR> <TR><TD></TD></TR> </TABLE>>];
	NodeCast476 [label="{HWFloat:8, 24}\nID: 476"];
	NodeOutput490 [shape=house, label="v_out\nID: 490"];
	NodeConstantRawBits14 -> NodeCounter17[label="enable" color="/dark28/1" photon_data="EDGE,SrcNode:14,SrcNodePort:value"];
	NodeConstantRawBits826 -> NodeCounter17[label="max" color="/dark28/2" photon_data="EDGE,SrcNode:826,SrcNodePort:value"];
	NodeCounter17 -> NodeCounter16[label="enable" color="/dark28/3" photon_data="EDGE,SrcNode:17,SrcNodePort:wrap"];
	NodeInputMappedReg15 -> NodeCounter16[label="max" color="/dark28/4" photon_data="EDGE,SrcNode:15,SrcNodePort:num_iteration"];
	NodeCounter16 -> NodeEqInlined504[color="/dark28/5" photon_data="EDGE,SrcNode:16,SrcNodePort:count"];
	NodeConstantRawBits844 -> NodeEqInlined504[color="/dark28/6" photon_data="EDGE,SrcNode:844,SrcNodePort:value"];
	NodeMux23 -> NodeFIFO813[headport="n" headport="n" tailport="s" color=red photon_data="EDGE,SrcNode:23,SrcNodePort:result"];
	NodeFIFO813 -> NodeFIFO825[tailport="s" headport="n" color="/dark28/7" photon_data="EDGE,SrcNode:813,SrcNodePort:output"];
	NodeInputMappedReg18 -> NodeCast19[color="/dark28/8" photon_data="EDGE,SrcNode:18,SrcNodePort:dt"];
	NodeCounter16 -> NodeEqInlined505[color="/dark28/1" photon_data="EDGE,SrcNode:16,SrcNodePort:count"];
	NodeConstantRawBits843 -> NodeEqInlined505[color="/dark28/2" photon_data="EDGE,SrcNode:843,SrcNodePort:value"];
	NodeFIFO825 -> NodeGt462[tailport="s" color="/dark28/3" photon_data="EDGE,SrcNode:825,SrcNodePort:output"];
	NodeConstantRawBits5 -> NodeGt462[color="/dark28/4" photon_data="EDGE,SrcNode:5,SrcNodePort:value"];
	NodeGt462 -> NodeCast463[color="/dark28/5" photon_data="EDGE,SrcNode:462,SrcNodePort:result"];
	NodeConstantRawBits842 -> NodeMul465[color="/dark28/6" photon_data="EDGE,SrcNode:842,SrcNodePort:value"];
	NodeCast463 -> NodeMul465[color="/dark28/7" photon_data="EDGE,SrcNode:463,SrcNodePort:o"];
	NodeMul465 -> NodeSub466[color="/dark28/8" photon_data="EDGE,SrcNode:465,SrcNodePort:result"];
	NodeFIFO799 -> NodeSub466[tailport="s" headport="n" tailport="s" color=red photon_data="EDGE,SrcNode:799,SrcNodePort:output"];
	NodeSub466 -> NodeMul468[color="/dark28/1" photon_data="EDGE,SrcNode:466,SrcNodePort:result"];
	NodeConstantRawBits3 -> NodeMul468[color="/dark28/2" photon_data="EDGE,SrcNode:3,SrcNodePort:value"];
	NodeCast19 -> NodeMul471[color="/dark28/3" photon_data="EDGE,SrcNode:19,SrcNodePort:o"];
	NodeMul468 -> NodeMul471[color="/dark28/4" photon_data="EDGE,SrcNode:468,SrcNodePort:result"];
	NodeFIFO799 -> NodeAdd472[tailport="s" headport="n" tailport="s" color=red photon_data="EDGE,SrcNode:799,SrcNodePort:output"];
	NodeMul471 -> NodeAdd472[color="/dark28/5" photon_data="EDGE,SrcNode:471,SrcNodePort:result"];
	NodeAdd472 -> NodeStreamOffset796[color="/dark28/6" photon_data="EDGE,SrcNode:472,SrcNodePort:result"];
	NodeEqInlined505 -> NodeMux27[headport="w" color="/dark28/7" photon_data="EDGE,SrcNode:505,SrcNodePort:result"];
	NodeStreamOffset796 -> NodeMux27[color="/dark28/8" photon_data="EDGE,SrcNode:796,SrcNodePort:output"];
	NodeConstantRawBits26 -> NodeMux27[color="/dark28/1" photon_data="EDGE,SrcNode:26,SrcNodePort:value"];
	NodeMux27 -> NodeFIFO799[headport="n" color="/dark28/2" photon_data="EDGE,SrcNode:27,SrcNodePort:result"];
	NodeFIFO799 -> NodeMul32[tailport="s" color="/dark28/3" photon_data="EDGE,SrcNode:799,SrcNodePort:output"];
	NodeFIFO799 -> NodeMul32[tailport="s" color="/dark28/4" photon_data="EDGE,SrcNode:799,SrcNodePort:output"];
	NodeFIFO799 -> NodeMul33[tailport="s" color="/dark28/5" photon_data="EDGE,SrcNode:799,SrcNodePort:output"];
	NodeMul32 -> NodeMul33[color="/dark28/6" photon_data="EDGE,SrcNode:32,SrcNodePort:result"];
	NodeMul33 -> NodeMul34[color="/dark28/7" photon_data="EDGE,SrcNode:33,SrcNodePort:result"];
	NodeMul32 -> NodeMul34[color="/dark28/8" photon_data="EDGE,SrcNode:32,SrcNodePort:result"];
	NodeMul34 -> NodeMul35[color="/dark28/1" photon_data="EDGE,SrcNode:34,SrcNodePort:result"];
	NodeMul34 -> NodeMul35[color="/dark28/2" photon_data="EDGE,SrcNode:34,SrcNodePort:result"];
	NodeConstantRawBits6 -> NodeSub459[color="/dark28/3" photon_data="EDGE,SrcNode:6,SrcNodePort:value"];
	NodeMul35 -> NodeSub459[color="/dark28/4" photon_data="EDGE,SrcNode:35,SrcNodePort:result"];
	NodePO2FPMult765 -> NodeSlice428[headport="n" tailport="s" color=red photon_data="EDGE,SrcNode:765,SrcNodePort:floatOut"];
	NodeSlice428 -> NodeEqInlined506[color="/dark28/5" photon_data="EDGE,SrcNode:428,SrcNodePort:result"];
	NodeConstantRawBits429 -> NodeEqInlined506[color="/dark28/6" photon_data="EDGE,SrcNode:429,SrcNodePort:value"];
	NodePO2FPMult765 -> NodeSlice427[headport="n" tailport="s" color=red photon_data="EDGE,SrcNode:765,SrcNodePort:floatOut"];
	NodeSlice427 -> NodeNeqInlined507[color="/dark28/7" photon_data="EDGE,SrcNode:427,SrcNodePort:result"];
	NodeConstantRawBits838 -> NodeNeqInlined507[color="/dark28/8" photon_data="EDGE,SrcNode:838,SrcNodePort:value"];
	NodeEqInlined506 -> NodeAnd433[color="/dark28/1" photon_data="EDGE,SrcNode:506,SrcNodePort:result"];
	NodeNeqInlined507 -> NodeAnd433[color="/dark28/2" photon_data="EDGE,SrcNode:507,SrcNodePort:result"];
	NodeAnd433 -> NodeFIFO812[headport="n" color="/dark28/3" photon_data="EDGE,SrcNode:433,SrcNodePort:result"];
	NodeCast43 -> NodeSlice44[headport="n" tailport="s" color=red photon_data="EDGE,SrcNode:43,SrcNodePort:exception"];
	NodeSlice44 -> NodeReinterpret45[color="/dark28/4" photon_data="EDGE,SrcNode:44,SrcNodePort:result"];
	NodeCast43 -> NodeSlice508[headport="n" tailport="s" color=red style=dashed photon_data="EDGE,SrcNode:43,SrcNodePort:o"];
	NodeSlice508 -> NodeNot509[color="/dark28/5" style=dashed photon_data="EDGE,SrcNode:508,SrcNodePort:result"];
	NodeNot509 -> NodeCat561[color="/dark28/6" style=dashed photon_data="EDGE,SrcNode:509,SrcNodePort:result"];
	NodeNot509 -> NodeCat561[color="/dark28/7" style=dashed photon_data="EDGE,SrcNode:509,SrcNodePort:result"];
	NodeNot509 -> NodeCat561[color="/dark28/8" style=dashed photon_data="EDGE,SrcNode:509,SrcNodePort:result"];
	NodeNot509 -> NodeCat561[color="/dark28/1" style=dashed photon_data="EDGE,SrcNode:509,SrcNodePort:result"];
	NodeNot509 -> NodeCat561[color="/dark28/2" style=dashed photon_data="EDGE,SrcNode:509,SrcNodePort:result"];
	NodeNot509 -> NodeCat561[color="/dark28/3" style=dashed photon_data="EDGE,SrcNode:509,SrcNodePort:result"];
	NodeNot509 -> NodeCat561[color="/dark28/4" style=dashed photon_data="EDGE,SrcNode:509,SrcNodePort:result"];
	NodeNot509 -> NodeCat561[color="/dark28/5" style=dashed photon_data="EDGE,SrcNode:509,SrcNodePort:result"];
	NodeNot509 -> NodeCat561[color="/dark28/6" style=dashed photon_data="EDGE,SrcNode:509,SrcNodePort:result"];
	NodeNot509 -> NodeCat561[color="/dark28/7" style=dashed photon_data="EDGE,SrcNode:509,SrcNodePort:result"];
	NodeNot509 -> NodeCat561[color="/dark28/8" style=dashed photon_data="EDGE,SrcNode:509,SrcNodePort:result"];
	NodeNot509 -> NodeCat561[color="/dark28/1" style=dashed photon_data="EDGE,SrcNode:509,SrcNodePort:result"];
	NodeNot509 -> NodeCat561[color="/dark28/2" style=dashed photon_data="EDGE,SrcNode:509,SrcNodePort:result"];
	NodeNot509 -> NodeCat561[color="/dark28/3" style=dashed photon_data="EDGE,SrcNode:509,SrcNodePort:result"];
	NodeNot509 -> NodeCat561[color="/dark28/4" style=dashed photon_data="EDGE,SrcNode:509,SrcNodePort:result"];
	NodeNot509 -> NodeCat561[color="/dark28/5" style=dashed photon_data="EDGE,SrcNode:509,SrcNodePort:result"];
	NodeNot509 -> NodeCat561[color="/dark28/6" style=dashed photon_data="EDGE,SrcNode:509,SrcNodePort:result"];
	NodeNot509 -> NodeCat561[color="/dark28/7" style=dashed photon_data="EDGE,SrcNode:509,SrcNodePort:result"];
	NodeNot509 -> NodeCat561[color="/dark28/8" style=dashed photon_data="EDGE,SrcNode:509,SrcNodePort:result"];
	NodeNot509 -> NodeCat561[color="/dark28/1" style=dashed photon_data="EDGE,SrcNode:509,SrcNodePort:result"];
	NodeNot509 -> NodeCat561[color="/dark28/2" style=dashed photon_data="EDGE,SrcNode:509,SrcNodePort:result"];
	NodeNot509 -> NodeCat561[color="/dark28/3" style=dashed photon_data="EDGE,SrcNode:509,SrcNodePort:result"];
	NodeNot509 -> NodeCat561[color="/dark28/4" style=dashed photon_data="EDGE,SrcNode:509,SrcNodePort:result"];
	NodeNot509 -> NodeCat561[color="/dark28/5" style=dashed photon_data="EDGE,SrcNode:509,SrcNodePort:result"];
	NodeNot509 -> NodeCat561[color="/dark28/6" style=dashed photon_data="EDGE,SrcNode:509,SrcNodePort:result"];
	NodeNot509 -> NodeCat561[color="/dark28/7" style=dashed photon_data="EDGE,SrcNode:509,SrcNodePort:result"];
	NodeNot509 -> NodeCat561[color="/dark28/8" style=dashed photon_data="EDGE,SrcNode:509,SrcNodePort:result"];
	NodeNot509 -> NodeCat561[color="/dark28/1" style=dashed photon_data="EDGE,SrcNode:509,SrcNodePort:result"];
	NodeNot509 -> NodeCat561[color="/dark28/2" style=dashed photon_data="EDGE,SrcNode:509,SrcNodePort:result"];
	NodeNot509 -> NodeCat561[color="/dark28/3" style=dashed photon_data="EDGE,SrcNode:509,SrcNodePort:result"];
	NodeNot509 -> NodeCat561[color="/dark28/4" style=dashed photon_data="EDGE,SrcNode:509,SrcNodePort:result"];
	NodeNot509 -> NodeCat561[color="/dark28/5" style=dashed photon_data="EDGE,SrcNode:509,SrcNodePort:result"];
	NodeNot509 -> NodeCat561[color="/dark28/6" style=dashed photon_data="EDGE,SrcNode:509,SrcNodePort:result"];
	NodeNot509 -> NodeCat561[color="/dark28/7" style=dashed photon_data="EDGE,SrcNode:509,SrcNodePort:result"];
	NodeNot509 -> NodeCat561[color="/dark28/8" style=dashed photon_data="EDGE,SrcNode:509,SrcNodePort:result"];
	NodeNot509 -> NodeCat561[color="/dark28/1" style=dashed photon_data="EDGE,SrcNode:509,SrcNodePort:result"];
	NodeNot509 -> NodeCat561[color="/dark28/2" style=dashed photon_data="EDGE,SrcNode:509,SrcNodePort:result"];
	NodeNot509 -> NodeCat561[color="/dark28/3" style=dashed photon_data="EDGE,SrcNode:509,SrcNodePort:result"];
	NodeNot509 -> NodeCat561[color="/dark28/4" style=dashed photon_data="EDGE,SrcNode:509,SrcNodePort:result"];
	NodeNot509 -> NodeCat561[color="/dark28/5" style=dashed photon_data="EDGE,SrcNode:509,SrcNodePort:result"];
	NodeNot509 -> NodeCat561[color="/dark28/6" style=dashed photon_data="EDGE,SrcNode:509,SrcNodePort:result"];
	NodeNot509 -> NodeCat561[color="/dark28/7" style=dashed photon_data="EDGE,SrcNode:509,SrcNodePort:result"];
	NodeNot509 -> NodeCat561[color="/dark28/8" style=dashed photon_data="EDGE,SrcNode:509,SrcNodePort:result"];
	NodeNot509 -> NodeCat561[color="/dark28/1" style=dashed photon_data="EDGE,SrcNode:509,SrcNodePort:result"];
	NodeNot509 -> NodeCat561[color="/dark28/2" style=dashed photon_data="EDGE,SrcNode:509,SrcNodePort:result"];
	NodeNot509 -> NodeCat561[color="/dark28/3" style=dashed photon_data="EDGE,SrcNode:509,SrcNodePort:result"];
	NodeNot509 -> NodeCat561[color="/dark28/4" style=dashed photon_data="EDGE,SrcNode:509,SrcNodePort:result"];
	NodeNot509 -> NodeCat561[color="/dark28/5" style=dashed photon_data="EDGE,SrcNode:509,SrcNodePort:result"];
	NodeNot509 -> NodeCat561[color="/dark28/6" style=dashed photon_data="EDGE,SrcNode:509,SrcNodePort:result"];
	NodeNot509 -> NodeCat561[color="/dark28/7" style=dashed photon_data="EDGE,SrcNode:509,SrcNodePort:result"];
	NodeNot509 -> NodeCat561[color="/dark28/8" style=dashed photon_data="EDGE,SrcNode:509,SrcNodePort:result"];
	NodeNot509 -> NodeCat561[color="/dark28/1" style=dashed photon_data="EDGE,SrcNode:509,SrcNodePort:result"];
	NodeNot509 -> NodeCat561[color="/dark28/2" style=dashed photon_data="EDGE,SrcNode:509,SrcNodePort:result"];
	NodeCat561 -> NodeReinterpret101[color="/dark28/3" style=dashed photon_data="EDGE,SrcNode:561,SrcNodePort:result"];
	NodeConstantRawBits46 -> NodeXor102[color="/dark28/4" photon_data="EDGE,SrcNode:46,SrcNodePort:value"];
	NodeReinterpret101 -> NodeXor102[color="/dark28/5" style=dashed photon_data="EDGE,SrcNode:101,SrcNodePort:output"];
	NodeReinterpret45 -> NodeMux103[headport="w" color="/dark28/6" photon_data="EDGE,SrcNode:45,SrcNodePort:output"];
	NodeCast43 -> NodeMux103[headport="n" tailport="s" color=red style=dashed photon_data="EDGE,SrcNode:43,SrcNodePort:o"];
	NodeXor102 -> NodeMux103[color="/dark28/7" style=dashed photon_data="EDGE,SrcNode:102,SrcNodePort:result"];
	NodeMux103 -> NodeMul105[color="/dark28/8" style=dashed photon_data="EDGE,SrcNode:103,SrcNodePort:result"];
	NodeConstantRawBits106 -> NodeMul105[color="/dark28/1" photon_data="EDGE,SrcNode:106,SrcNodePort:value"];
	NodeMul105 -> NodeSlice562[color="/dark28/2" style=dashed photon_data="EDGE,SrcNode:105,SrcNodePort:result"];
	NodeSlice562 -> NodeNot563[color="/dark28/3" style=dashed photon_data="EDGE,SrcNode:562,SrcNodePort:result"];
	NodeNot563 -> NodeCat667[color="/dark28/4" style=dashed photon_data="EDGE,SrcNode:563,SrcNodePort:result"];
	NodeNot563 -> NodeCat667[color="/dark28/5" style=dashed photon_data="EDGE,SrcNode:563,SrcNodePort:result"];
	NodeNot563 -> NodeCat667[color="/dark28/6" style=dashed photon_data="EDGE,SrcNode:563,SrcNodePort:result"];
	NodeNot563 -> NodeCat667[color="/dark28/7" style=dashed photon_data="EDGE,SrcNode:563,SrcNodePort:result"];
	NodeNot563 -> NodeCat667[color="/dark28/8" style=dashed photon_data="EDGE,SrcNode:563,SrcNodePort:result"];
	NodeNot563 -> NodeCat667[color="/dark28/1" style=dashed photon_data="EDGE,SrcNode:563,SrcNodePort:result"];
	NodeNot563 -> NodeCat667[color="/dark28/2" style=dashed photon_data="EDGE,SrcNode:563,SrcNodePort:result"];
	NodeNot563 -> NodeCat667[color="/dark28/3" style=dashed photon_data="EDGE,SrcNode:563,SrcNodePort:result"];
	NodeNot563 -> NodeCat667[color="/dark28/4" style=dashed photon_data="EDGE,SrcNode:563,SrcNodePort:result"];
	NodeNot563 -> NodeCat667[color="/dark28/5" style=dashed photon_data="EDGE,SrcNode:563,SrcNodePort:result"];
	NodeNot563 -> NodeCat667[color="/dark28/6" style=dashed photon_data="EDGE,SrcNode:563,SrcNodePort:result"];
	NodeNot563 -> NodeCat667[color="/dark28/7" style=dashed photon_data="EDGE,SrcNode:563,SrcNodePort:result"];
	NodeNot563 -> NodeCat667[color="/dark28/8" style=dashed photon_data="EDGE,SrcNode:563,SrcNodePort:result"];
	NodeNot563 -> NodeCat667[color="/dark28/1" style=dashed photon_data="EDGE,SrcNode:563,SrcNodePort:result"];
	NodeNot563 -> NodeCat667[color="/dark28/2" style=dashed photon_data="EDGE,SrcNode:563,SrcNodePort:result"];
	NodeNot563 -> NodeCat667[color="/dark28/3" style=dashed photon_data="EDGE,SrcNode:563,SrcNodePort:result"];
	NodeNot563 -> NodeCat667[color="/dark28/4" style=dashed photon_data="EDGE,SrcNode:563,SrcNodePort:result"];
	NodeNot563 -> NodeCat667[color="/dark28/5" style=dashed photon_data="EDGE,SrcNode:563,SrcNodePort:result"];
	NodeNot563 -> NodeCat667[color="/dark28/6" style=dashed photon_data="EDGE,SrcNode:563,SrcNodePort:result"];
	NodeNot563 -> NodeCat667[color="/dark28/7" style=dashed photon_data="EDGE,SrcNode:563,SrcNodePort:result"];
	NodeNot563 -> NodeCat667[color="/dark28/8" style=dashed photon_data="EDGE,SrcNode:563,SrcNodePort:result"];
	NodeNot563 -> NodeCat667[color="/dark28/1" style=dashed photon_data="EDGE,SrcNode:563,SrcNodePort:result"];
	NodeNot563 -> NodeCat667[color="/dark28/2" style=dashed photon_data="EDGE,SrcNode:563,SrcNodePort:result"];
	NodeNot563 -> NodeCat667[color="/dark28/3" style=dashed photon_data="EDGE,SrcNode:563,SrcNodePort:result"];
	NodeNot563 -> NodeCat667[color="/dark28/4" style=dashed photon_data="EDGE,SrcNode:563,SrcNodePort:result"];
	NodeNot563 -> NodeCat667[color="/dark28/5" style=dashed photon_data="EDGE,SrcNode:563,SrcNodePort:result"];
	NodeNot563 -> NodeCat667[color="/dark28/6" style=dashed photon_data="EDGE,SrcNode:563,SrcNodePort:result"];
	NodeNot563 -> NodeCat667[color="/dark28/7" style=dashed photon_data="EDGE,SrcNode:563,SrcNodePort:result"];
	NodeNot563 -> NodeCat667[color="/dark28/8" style=dashed photon_data="EDGE,SrcNode:563,SrcNodePort:result"];
	NodeNot563 -> NodeCat667[color="/dark28/1" style=dashed photon_data="EDGE,SrcNode:563,SrcNodePort:result"];
	NodeNot563 -> NodeCat667[color="/dark28/2" style=dashed photon_data="EDGE,SrcNode:563,SrcNodePort:result"];
	NodeNot563 -> NodeCat667[color="/dark28/3" style=dashed photon_data="EDGE,SrcNode:563,SrcNodePort:result"];
	NodeNot563 -> NodeCat667[color="/dark28/4" style=dashed photon_data="EDGE,SrcNode:563,SrcNodePort:result"];
	NodeNot563 -> NodeCat667[color="/dark28/5" style=dashed photon_data="EDGE,SrcNode:563,SrcNodePort:result"];
	NodeNot563 -> NodeCat667[color="/dark28/6" style=dashed photon_data="EDGE,SrcNode:563,SrcNodePort:result"];
	NodeNot563 -> NodeCat667[color="/dark28/7" style=dashed photon_data="EDGE,SrcNode:563,SrcNodePort:result"];
	NodeNot563 -> NodeCat667[color="/dark28/8" style=dashed photon_data="EDGE,SrcNode:563,SrcNodePort:result"];
	NodeNot563 -> NodeCat667[color="/dark28/1" style=dashed photon_data="EDGE,SrcNode:563,SrcNodePort:result"];
	NodeNot563 -> NodeCat667[color="/dark28/2" style=dashed photon_data="EDGE,SrcNode:563,SrcNodePort:result"];
	NodeNot563 -> NodeCat667[color="/dark28/3" style=dashed photon_data="EDGE,SrcNode:563,SrcNodePort:result"];
	NodeNot563 -> NodeCat667[color="/dark28/4" style=dashed photon_data="EDGE,SrcNode:563,SrcNodePort:result"];
	NodeNot563 -> NodeCat667[color="/dark28/5" style=dashed photon_data="EDGE,SrcNode:563,SrcNodePort:result"];
	NodeNot563 -> NodeCat667[color="/dark28/6" style=dashed photon_data="EDGE,SrcNode:563,SrcNodePort:result"];
	NodeNot563 -> NodeCat667[color="/dark28/7" style=dashed photon_data="EDGE,SrcNode:563,SrcNodePort:result"];
	NodeNot563 -> NodeCat667[color="/dark28/8" style=dashed photon_data="EDGE,SrcNode:563,SrcNodePort:result"];
	NodeNot563 -> NodeCat667[color="/dark28/1" style=dashed photon_data="EDGE,SrcNode:563,SrcNodePort:result"];
	NodeNot563 -> NodeCat667[color="/dark28/2" style=dashed photon_data="EDGE,SrcNode:563,SrcNodePort:result"];
	NodeNot563 -> NodeCat667[color="/dark28/3" style=dashed photon_data="EDGE,SrcNode:563,SrcNodePort:result"];
	NodeNot563 -> NodeCat667[color="/dark28/4" style=dashed photon_data="EDGE,SrcNode:563,SrcNodePort:result"];
	NodeNot563 -> NodeCat667[color="/dark28/5" style=dashed photon_data="EDGE,SrcNode:563,SrcNodePort:result"];
	NodeNot563 -> NodeCat667[color="/dark28/6" style=dashed photon_data="EDGE,SrcNode:563,SrcNodePort:result"];
	NodeNot563 -> NodeCat667[color="/dark28/7" style=dashed photon_data="EDGE,SrcNode:563,SrcNodePort:result"];
	NodeNot563 -> NodeCat667[color="/dark28/8" style=dashed photon_data="EDGE,SrcNode:563,SrcNodePort:result"];
	NodeNot563 -> NodeCat667[color="/dark28/1" style=dashed photon_data="EDGE,SrcNode:563,SrcNodePort:result"];
	NodeNot563 -> NodeCat667[color="/dark28/2" style=dashed photon_data="EDGE,SrcNode:563,SrcNodePort:result"];
	NodeNot563 -> NodeCat667[color="/dark28/3" style=dashed photon_data="EDGE,SrcNode:563,SrcNodePort:result"];
	NodeNot563 -> NodeCat667[color="/dark28/4" style=dashed photon_data="EDGE,SrcNode:563,SrcNodePort:result"];
	NodeNot563 -> NodeCat667[color="/dark28/5" style=dashed photon_data="EDGE,SrcNode:563,SrcNodePort:result"];
	NodeNot563 -> NodeCat667[color="/dark28/6" style=dashed photon_data="EDGE,SrcNode:563,SrcNodePort:result"];
	NodeNot563 -> NodeCat667[color="/dark28/7" style=dashed photon_data="EDGE,SrcNode:563,SrcNodePort:result"];
	NodeNot563 -> NodeCat667[color="/dark28/8" style=dashed photon_data="EDGE,SrcNode:563,SrcNodePort:result"];
	NodeNot563 -> NodeCat667[color="/dark28/1" style=dashed photon_data="EDGE,SrcNode:563,SrcNodePort:result"];
	NodeNot563 -> NodeCat667[color="/dark28/2" style=dashed photon_data="EDGE,SrcNode:563,SrcNodePort:result"];
	NodeNot563 -> NodeCat667[color="/dark28/3" style=dashed photon_data="EDGE,SrcNode:563,SrcNodePort:result"];
	NodeNot563 -> NodeCat667[color="/dark28/4" style=dashed photon_data="EDGE,SrcNode:563,SrcNodePort:result"];
	NodeNot563 -> NodeCat667[color="/dark28/5" style=dashed photon_data="EDGE,SrcNode:563,SrcNodePort:result"];
	NodeNot563 -> NodeCat667[color="/dark28/6" style=dashed photon_data="EDGE,SrcNode:563,SrcNodePort:result"];
	NodeNot563 -> NodeCat667[color="/dark28/7" style=dashed photon_data="EDGE,SrcNode:563,SrcNodePort:result"];
	NodeNot563 -> NodeCat667[color="/dark28/8" style=dashed photon_data="EDGE,SrcNode:563,SrcNodePort:result"];
	NodeNot563 -> NodeCat667[color="/dark28/1" style=dashed photon_data="EDGE,SrcNode:563,SrcNodePort:result"];
	NodeNot563 -> NodeCat667[color="/dark28/2" style=dashed photon_data="EDGE,SrcNode:563,SrcNodePort:result"];
	NodeNot563 -> NodeCat667[color="/dark28/3" style=dashed photon_data="EDGE,SrcNode:563,SrcNodePort:result"];
	NodeNot563 -> NodeCat667[color="/dark28/4" style=dashed photon_data="EDGE,SrcNode:563,SrcNodePort:result"];
	NodeNot563 -> NodeCat667[color="/dark28/5" style=dashed photon_data="EDGE,SrcNode:563,SrcNodePort:result"];
	NodeNot563 -> NodeCat667[color="/dark28/6" style=dashed photon_data="EDGE,SrcNode:563,SrcNodePort:result"];
	NodeNot563 -> NodeCat667[color="/dark28/7" style=dashed photon_data="EDGE,SrcNode:563,SrcNodePort:result"];
	NodeNot563 -> NodeCat667[color="/dark28/8" style=dashed photon_data="EDGE,SrcNode:563,SrcNodePort:result"];
	NodeNot563 -> NodeCat667[color="/dark28/1" style=dashed photon_data="EDGE,SrcNode:563,SrcNodePort:result"];
	NodeNot563 -> NodeCat667[color="/dark28/2" style=dashed photon_data="EDGE,SrcNode:563,SrcNodePort:result"];
	NodeNot563 -> NodeCat667[color="/dark28/3" style=dashed photon_data="EDGE,SrcNode:563,SrcNodePort:result"];
	NodeNot563 -> NodeCat667[color="/dark28/4" style=dashed photon_data="EDGE,SrcNode:563,SrcNodePort:result"];
	NodeNot563 -> NodeCat667[color="/dark28/5" style=dashed photon_data="EDGE,SrcNode:563,SrcNodePort:result"];
	NodeNot563 -> NodeCat667[color="/dark28/6" style=dashed photon_data="EDGE,SrcNode:563,SrcNodePort:result"];
	NodeNot563 -> NodeCat667[color="/dark28/7" style=dashed photon_data="EDGE,SrcNode:563,SrcNodePort:result"];
	NodeNot563 -> NodeCat667[color="/dark28/8" style=dashed photon_data="EDGE,SrcNode:563,SrcNodePort:result"];
	NodeNot563 -> NodeCat667[color="/dark28/1" style=dashed photon_data="EDGE,SrcNode:563,SrcNodePort:result"];
	NodeNot563 -> NodeCat667[color="/dark28/2" style=dashed photon_data="EDGE,SrcNode:563,SrcNodePort:result"];
	NodeNot563 -> NodeCat667[color="/dark28/3" style=dashed photon_data="EDGE,SrcNode:563,SrcNodePort:result"];
	NodeNot563 -> NodeCat667[color="/dark28/4" style=dashed photon_data="EDGE,SrcNode:563,SrcNodePort:result"];
	NodeNot563 -> NodeCat667[color="/dark28/5" style=dashed photon_data="EDGE,SrcNode:563,SrcNodePort:result"];
	NodeNot563 -> NodeCat667[color="/dark28/6" style=dashed photon_data="EDGE,SrcNode:563,SrcNodePort:result"];
	NodeNot563 -> NodeCat667[color="/dark28/7" style=dashed photon_data="EDGE,SrcNode:563,SrcNodePort:result"];
	NodeNot563 -> NodeCat667[color="/dark28/8" style=dashed photon_data="EDGE,SrcNode:563,SrcNodePort:result"];
	NodeNot563 -> NodeCat667[color="/dark28/1" style=dashed photon_data="EDGE,SrcNode:563,SrcNodePort:result"];
	NodeNot563 -> NodeCat667[color="/dark28/2" style=dashed photon_data="EDGE,SrcNode:563,SrcNodePort:result"];
	NodeNot563 -> NodeCat667[color="/dark28/3" style=dashed photon_data="EDGE,SrcNode:563,SrcNodePort:result"];
	NodeNot563 -> NodeCat667[color="/dark28/4" style=dashed photon_data="EDGE,SrcNode:563,SrcNodePort:result"];
	NodeNot563 -> NodeCat667[color="/dark28/5" style=dashed photon_data="EDGE,SrcNode:563,SrcNodePort:result"];
	NodeNot563 -> NodeCat667[color="/dark28/6" style=dashed photon_data="EDGE,SrcNode:563,SrcNodePort:result"];
	NodeNot563 -> NodeCat667[color="/dark28/7" style=dashed photon_data="EDGE,SrcNode:563,SrcNodePort:result"];
	NodeNot563 -> NodeCat667[color="/dark28/8" style=dashed photon_data="EDGE,SrcNode:563,SrcNodePort:result"];
	NodeNot563 -> NodeCat667[color="/dark28/1" style=dashed photon_data="EDGE,SrcNode:563,SrcNodePort:result"];
	NodeNot563 -> NodeCat667[color="/dark28/2" style=dashed photon_data="EDGE,SrcNode:563,SrcNodePort:result"];
	NodeNot563 -> NodeCat667[color="/dark28/3" style=dashed photon_data="EDGE,SrcNode:563,SrcNodePort:result"];
	NodeNot563 -> NodeCat667[color="/dark28/4" style=dashed photon_data="EDGE,SrcNode:563,SrcNodePort:result"];
	NodeCat667 -> NodeReinterpret215[color="/dark28/5" style=dashed photon_data="EDGE,SrcNode:667,SrcNodePort:result"];
	NodeConstantRawBits108 -> NodeXor216[color="/dark28/6" photon_data="EDGE,SrcNode:108,SrcNodePort:value"];
	NodeReinterpret215 -> NodeXor216[color="/dark28/7" style=dashed photon_data="EDGE,SrcNode:215,SrcNodePort:output"];
	NodeMul105 -> NodeMux217[headport="w" color="/dark28/8" photon_data="EDGE,SrcNode:105,SrcNodePort:exception"];
	NodeMul105 -> NodeMux217[color="/dark28/1" style=dashed photon_data="EDGE,SrcNode:105,SrcNodePort:result"];
	NodeXor216 -> NodeMux217[color="/dark28/2" style=dashed photon_data="EDGE,SrcNode:216,SrcNodePort:result"];
	NodeMux217 -> NodeCast218[color="/dark28/3" style=dashed photon_data="EDGE,SrcNode:217,SrcNodePort:result"];
	NodeCast218 -> NodeSlice668[color="/dark28/4" style=dashed photon_data="EDGE,SrcNode:218,SrcNodePort:o"];
	NodeSlice668 -> NodeNot669[color="/dark28/5" style=dashed photon_data="EDGE,SrcNode:668,SrcNodePort:result"];
	NodeNot669 -> NodeCat721[color="/dark28/6" style=dashed photon_data="EDGE,SrcNode:669,SrcNodePort:result"];
	NodeNot669 -> NodeCat721[color="/dark28/7" style=dashed photon_data="EDGE,SrcNode:669,SrcNodePort:result"];
	NodeNot669 -> NodeCat721[color="/dark28/8" style=dashed photon_data="EDGE,SrcNode:669,SrcNodePort:result"];
	NodeNot669 -> NodeCat721[color="/dark28/1" style=dashed photon_data="EDGE,SrcNode:669,SrcNodePort:result"];
	NodeNot669 -> NodeCat721[color="/dark28/2" style=dashed photon_data="EDGE,SrcNode:669,SrcNodePort:result"];
	NodeNot669 -> NodeCat721[color="/dark28/3" style=dashed photon_data="EDGE,SrcNode:669,SrcNodePort:result"];
	NodeNot669 -> NodeCat721[color="/dark28/4" style=dashed photon_data="EDGE,SrcNode:669,SrcNodePort:result"];
	NodeNot669 -> NodeCat721[color="/dark28/5" style=dashed photon_data="EDGE,SrcNode:669,SrcNodePort:result"];
	NodeNot669 -> NodeCat721[color="/dark28/6" style=dashed photon_data="EDGE,SrcNode:669,SrcNodePort:result"];
	NodeNot669 -> NodeCat721[color="/dark28/7" style=dashed photon_data="EDGE,SrcNode:669,SrcNodePort:result"];
	NodeNot669 -> NodeCat721[color="/dark28/8" style=dashed photon_data="EDGE,SrcNode:669,SrcNodePort:result"];
	NodeNot669 -> NodeCat721[color="/dark28/1" style=dashed photon_data="EDGE,SrcNode:669,SrcNodePort:result"];
	NodeNot669 -> NodeCat721[color="/dark28/2" style=dashed photon_data="EDGE,SrcNode:669,SrcNodePort:result"];
	NodeNot669 -> NodeCat721[color="/dark28/3" style=dashed photon_data="EDGE,SrcNode:669,SrcNodePort:result"];
	NodeNot669 -> NodeCat721[color="/dark28/4" style=dashed photon_data="EDGE,SrcNode:669,SrcNodePort:result"];
	NodeNot669 -> NodeCat721[color="/dark28/5" style=dashed photon_data="EDGE,SrcNode:669,SrcNodePort:result"];
	NodeNot669 -> NodeCat721[color="/dark28/6" style=dashed photon_data="EDGE,SrcNode:669,SrcNodePort:result"];
	NodeNot669 -> NodeCat721[color="/dark28/7" style=dashed photon_data="EDGE,SrcNode:669,SrcNodePort:result"];
	NodeNot669 -> NodeCat721[color="/dark28/8" style=dashed photon_data="EDGE,SrcNode:669,SrcNodePort:result"];
	NodeNot669 -> NodeCat721[color="/dark28/1" style=dashed photon_data="EDGE,SrcNode:669,SrcNodePort:result"];
	NodeNot669 -> NodeCat721[color="/dark28/2" style=dashed photon_data="EDGE,SrcNode:669,SrcNodePort:result"];
	NodeNot669 -> NodeCat721[color="/dark28/3" style=dashed photon_data="EDGE,SrcNode:669,SrcNodePort:result"];
	NodeNot669 -> NodeCat721[color="/dark28/4" style=dashed photon_data="EDGE,SrcNode:669,SrcNodePort:result"];
	NodeNot669 -> NodeCat721[color="/dark28/5" style=dashed photon_data="EDGE,SrcNode:669,SrcNodePort:result"];
	NodeNot669 -> NodeCat721[color="/dark28/6" style=dashed photon_data="EDGE,SrcNode:669,SrcNodePort:result"];
	NodeNot669 -> NodeCat721[color="/dark28/7" style=dashed photon_data="EDGE,SrcNode:669,SrcNodePort:result"];
	NodeNot669 -> NodeCat721[color="/dark28/8" style=dashed photon_data="EDGE,SrcNode:669,SrcNodePort:result"];
	NodeNot669 -> NodeCat721[color="/dark28/1" style=dashed photon_data="EDGE,SrcNode:669,SrcNodePort:result"];
	NodeNot669 -> NodeCat721[color="/dark28/2" style=dashed photon_data="EDGE,SrcNode:669,SrcNodePort:result"];
	NodeNot669 -> NodeCat721[color="/dark28/3" style=dashed photon_data="EDGE,SrcNode:669,SrcNodePort:result"];
	NodeNot669 -> NodeCat721[color="/dark28/4" style=dashed photon_data="EDGE,SrcNode:669,SrcNodePort:result"];
	NodeNot669 -> NodeCat721[color="/dark28/5" style=dashed photon_data="EDGE,SrcNode:669,SrcNodePort:result"];
	NodeNot669 -> NodeCat721[color="/dark28/6" style=dashed photon_data="EDGE,SrcNode:669,SrcNodePort:result"];
	NodeNot669 -> NodeCat721[color="/dark28/7" style=dashed photon_data="EDGE,SrcNode:669,SrcNodePort:result"];
	NodeNot669 -> NodeCat721[color="/dark28/8" style=dashed photon_data="EDGE,SrcNode:669,SrcNodePort:result"];
	NodeNot669 -> NodeCat721[color="/dark28/1" style=dashed photon_data="EDGE,SrcNode:669,SrcNodePort:result"];
	NodeNot669 -> NodeCat721[color="/dark28/2" style=dashed photon_data="EDGE,SrcNode:669,SrcNodePort:result"];
	NodeNot669 -> NodeCat721[color="/dark28/3" style=dashed photon_data="EDGE,SrcNode:669,SrcNodePort:result"];
	NodeNot669 -> NodeCat721[color="/dark28/4" style=dashed photon_data="EDGE,SrcNode:669,SrcNodePort:result"];
	NodeNot669 -> NodeCat721[color="/dark28/5" style=dashed photon_data="EDGE,SrcNode:669,SrcNodePort:result"];
	NodeNot669 -> NodeCat721[color="/dark28/6" style=dashed photon_data="EDGE,SrcNode:669,SrcNodePort:result"];
	NodeNot669 -> NodeCat721[color="/dark28/7" style=dashed photon_data="EDGE,SrcNode:669,SrcNodePort:result"];
	NodeNot669 -> NodeCat721[color="/dark28/8" style=dashed photon_data="EDGE,SrcNode:669,SrcNodePort:result"];
	NodeNot669 -> NodeCat721[color="/dark28/1" style=dashed photon_data="EDGE,SrcNode:669,SrcNodePort:result"];
	NodeNot669 -> NodeCat721[color="/dark28/2" style=dashed photon_data="EDGE,SrcNode:669,SrcNodePort:result"];
	NodeNot669 -> NodeCat721[color="/dark28/3" style=dashed photon_data="EDGE,SrcNode:669,SrcNodePort:result"];
	NodeNot669 -> NodeCat721[color="/dark28/4" style=dashed photon_data="EDGE,SrcNode:669,SrcNodePort:result"];
	NodeNot669 -> NodeCat721[color="/dark28/5" style=dashed photon_data="EDGE,SrcNode:669,SrcNodePort:result"];
	NodeNot669 -> NodeCat721[color="/dark28/6" style=dashed photon_data="EDGE,SrcNode:669,SrcNodePort:result"];
	NodeNot669 -> NodeCat721[color="/dark28/7" style=dashed photon_data="EDGE,SrcNode:669,SrcNodePort:result"];
	NodeNot669 -> NodeCat721[color="/dark28/8" style=dashed photon_data="EDGE,SrcNode:669,SrcNodePort:result"];
	NodeNot669 -> NodeCat721[color="/dark28/1" style=dashed photon_data="EDGE,SrcNode:669,SrcNodePort:result"];
	NodeNot669 -> NodeCat721[color="/dark28/2" style=dashed photon_data="EDGE,SrcNode:669,SrcNodePort:result"];
	NodeCat721 -> NodeReinterpret275[color="/dark28/3" style=dashed photon_data="EDGE,SrcNode:721,SrcNodePort:result"];
	NodeConstantRawBits220 -> NodeXor276[color="/dark28/4" photon_data="EDGE,SrcNode:220,SrcNodePort:value"];
	NodeReinterpret275 -> NodeXor276[color="/dark28/5" style=dashed photon_data="EDGE,SrcNode:275,SrcNodePort:output"];
	NodeCast218 -> NodeMux277[headport="w" color="/dark28/6" photon_data="EDGE,SrcNode:218,SrcNodePort:exception"];
	NodeCast218 -> NodeMux277[color="/dark28/7" style=dashed photon_data="EDGE,SrcNode:218,SrcNodePort:o"];
	NodeXor276 -> NodeMux277[color="/dark28/8" style=dashed photon_data="EDGE,SrcNode:276,SrcNodePort:result"];
	NodeMux277 -> NodeDoubtBitOp286[color="/dark28/1" style=dashed photon_data="EDGE,SrcNode:277,SrcNodePort:result"];
	NodeDoubtBitOp286 -> NodeCast287[color="/dark28/2" photon_data="EDGE,SrcNode:286,SrcNodePort:output"];
	NodeCast287 -> NodeFIFO804[headport="n" color="/dark28/3" photon_data="EDGE,SrcNode:287,SrcNodePort:o"];
	NodeFIFO804 -> NodeCast347[tailport="s" color="/dark28/4" photon_data="EDGE,SrcNode:804,SrcNodePort:output"];
	NodeCast347 -> NodeAdd349[color="/dark28/5" photon_data="EDGE,SrcNode:347,SrcNodePort:o"];
	NodeConstantRawBits837 -> NodeAdd349[color="/dark28/6" photon_data="EDGE,SrcNode:837,SrcNodePort:value"];
	NodeAdd349 -> NodeSlice722[color="/dark28/7" photon_data="EDGE,SrcNode:349,SrcNodePort:result"];
	NodeSlice722 -> NodeNot723[color="/dark28/8" photon_data="EDGE,SrcNode:722,SrcNodePort:result"];
	NodeNot723 -> NodeCat733[color="/dark28/1" photon_data="EDGE,SrcNode:723,SrcNodePort:result"];
	NodeNot723 -> NodeCat733[color="/dark28/2" photon_data="EDGE,SrcNode:723,SrcNodePort:result"];
	NodeNot723 -> NodeCat733[color="/dark28/3" photon_data="EDGE,SrcNode:723,SrcNodePort:result"];
	NodeNot723 -> NodeCat733[color="/dark28/4" photon_data="EDGE,SrcNode:723,SrcNodePort:result"];
	NodeNot723 -> NodeCat733[color="/dark28/5" photon_data="EDGE,SrcNode:723,SrcNodePort:result"];
	NodeNot723 -> NodeCat733[color="/dark28/6" photon_data="EDGE,SrcNode:723,SrcNodePort:result"];
	NodeNot723 -> NodeCat733[color="/dark28/7" photon_data="EDGE,SrcNode:723,SrcNodePort:result"];
	NodeNot723 -> NodeCat733[color="/dark28/8" photon_data="EDGE,SrcNode:723,SrcNodePort:result"];
	NodeNot723 -> NodeCat733[color="/dark28/1" photon_data="EDGE,SrcNode:723,SrcNodePort:result"];
	NodeNot723 -> NodeCat733[color="/dark28/2" photon_data="EDGE,SrcNode:723,SrcNodePort:result"];
	NodeNot723 -> NodeCat733[color="/dark28/3" photon_data="EDGE,SrcNode:723,SrcNodePort:result"];
	NodeCat733 -> NodeReinterpret364[color="/dark28/4" photon_data="EDGE,SrcNode:733,SrcNodePort:result"];
	NodeConstantRawBits351 -> NodeXor365[color="/dark28/5" photon_data="EDGE,SrcNode:351,SrcNodePort:value"];
	NodeReinterpret364 -> NodeXor365[color="/dark28/6" photon_data="EDGE,SrcNode:364,SrcNodePort:output"];
	NodeAdd349 -> NodeMux366[headport="w" color="/dark28/7" photon_data="EDGE,SrcNode:349,SrcNodePort:exception"];
	NodeAdd349 -> NodeMux366[color="/dark28/8" photon_data="EDGE,SrcNode:349,SrcNodePort:result"];
	NodeXor365 -> NodeMux366[color="/dark28/1" photon_data="EDGE,SrcNode:365,SrcNodePort:result"];
	NodeDoubtBitOp286 -> NodeCast290[color="/dark28/2" photon_data="EDGE,SrcNode:286,SrcNodePort:output"];
	NodeCast290 -> NodeReinterpret443[color="/dark28/3" photon_data="EDGE,SrcNode:290,SrcNodePort:o"];
	NodeReinterpret443 -> NodeROM444[color="/dark28/4" photon_data="EDGE,SrcNode:443,SrcNodePort:output"];
	NodeDoubtBitOp286 -> NodeCast289[color="/dark28/5" photon_data="EDGE,SrcNode:286,SrcNodePort:output"];
	NodeCast289 -> NodeReinterpret440[color="/dark28/6" photon_data="EDGE,SrcNode:289,SrcNodePort:o"];
	NodeReinterpret440 -> NodeROM441[color="/dark28/7" photon_data="EDGE,SrcNode:440,SrcNodePort:output"];
	NodeDoubtBitOp286 -> NodeCast288[color="/dark28/8" photon_data="EDGE,SrcNode:286,SrcNodePort:output"];
	NodeCast288 -> NodeReinterpret437[color="/dark28/1" photon_data="EDGE,SrcNode:288,SrcNodePort:o"];
	NodeReinterpret437 -> NodeROM438[color="/dark28/2" photon_data="EDGE,SrcNode:437,SrcNodePort:output"];
	NodeDoubtBitOp286 -> NodeCast291[color="/dark28/3" photon_data="EDGE,SrcNode:286,SrcNodePort:output"];
	NodeCast291 -> NodeFIFO805[headport="n" color="/dark28/4" photon_data="EDGE,SrcNode:291,SrcNodePort:o"];
	NodeConstantRawBits294 -> NodeMul293[color="/dark28/5" photon_data="EDGE,SrcNode:294,SrcNodePort:value"];
	NodeFIFO805 -> NodeMul293[tailport="s" color="/dark28/6" photon_data="EDGE,SrcNode:805,SrcNodePort:output"];
	NodeMul293 -> NodeCast295[color="/dark28/7" photon_data="EDGE,SrcNode:293,SrcNodePort:result"];
	NodeCast295 -> NodeMux298[headport="w" color="/dark28/8" photon_data="EDGE,SrcNode:295,SrcNodePort:exception"];
	NodeCast295 -> NodeMux298[color="/dark28/1" photon_data="EDGE,SrcNode:295,SrcNodePort:o"];
	NodeConstantRawBits297 -> NodeMux298[color="/dark28/2" photon_data="EDGE,SrcNode:297,SrcNodePort:value"];
	NodeROM438 -> NodeAdd299[color="/dark28/3" photon_data="EDGE,SrcNode:438,SrcNodePort:dout"];
	NodeMux298 -> NodeAdd299[color="/dark28/4" photon_data="EDGE,SrcNode:298,SrcNodePort:result"];
	NodeMux298 -> NodeMul300[color="/dark28/5" photon_data="EDGE,SrcNode:298,SrcNodePort:result"];
	NodeROM438 -> NodeMul300[color="/dark28/6" photon_data="EDGE,SrcNode:438,SrcNodePort:dout"];
	NodeAdd299 -> NodeAdd301[color="/dark28/7" photon_data="EDGE,SrcNode:299,SrcNodePort:result"];
	NodeMul300 -> NodeAdd301[color="/dark28/8" photon_data="EDGE,SrcNode:300,SrcNodePort:result"];
	NodeAdd301 -> NodeMux304[headport="w" color="/dark28/1" photon_data="EDGE,SrcNode:301,SrcNodePort:exception"];
	NodeAdd301 -> NodeMux304[color="/dark28/2" photon_data="EDGE,SrcNode:301,SrcNodePort:result"];
	NodeConstantRawBits303 -> NodeMux304[color="/dark28/3" photon_data="EDGE,SrcNode:303,SrcNodePort:value"];
	NodeMux304 -> NodeCast305[color="/dark28/4" photon_data="EDGE,SrcNode:304,SrcNodePort:result"];
	NodeCast305 -> NodeMux308[headport="w" color="/dark28/5" photon_data="EDGE,SrcNode:305,SrcNodePort:exception"];
	NodeCast305 -> NodeMux308[color="/dark28/6" photon_data="EDGE,SrcNode:305,SrcNodePort:o"];
	NodeConstantRawBits307 -> NodeMux308[color="/dark28/7" photon_data="EDGE,SrcNode:307,SrcNodePort:value"];
	NodeROM441 -> NodeAdd309[color="/dark28/8" photon_data="EDGE,SrcNode:441,SrcNodePort:dout"];
	NodeMux308 -> NodeAdd309[color="/dark28/1" photon_data="EDGE,SrcNode:308,SrcNodePort:result"];
	NodeMux308 -> NodeMul310[color="/dark28/2" photon_data="EDGE,SrcNode:308,SrcNodePort:result"];
	NodeROM441 -> NodeMul310[color="/dark28/3" photon_data="EDGE,SrcNode:441,SrcNodePort:dout"];
	NodeMul310 -> NodeMux313[headport="w" color="/dark28/4" photon_data="EDGE,SrcNode:310,SrcNodePort:exception"];
	NodeMul310 -> NodeMux313[color="/dark28/5" photon_data="EDGE,SrcNode:310,SrcNodePort:result"];
	NodeConstantRawBits312 -> NodeMux313[color="/dark28/6" photon_data="EDGE,SrcNode:312,SrcNodePort:value"];
	NodeAdd309 -> NodeAdd314[color="/dark28/7" photon_data="EDGE,SrcNode:309,SrcNodePort:result"];
	NodeMux313 -> NodeAdd314[color="/dark28/8" photon_data="EDGE,SrcNode:313,SrcNodePort:result"];
	NodeAdd314 -> NodeMux317[headport="w" color="/dark28/1" photon_data="EDGE,SrcNode:314,SrcNodePort:exception"];
	NodeAdd314 -> NodeMux317[color="/dark28/2" photon_data="EDGE,SrcNode:314,SrcNodePort:result"];
	NodeConstantRawBits316 -> NodeMux317[color="/dark28/3" photon_data="EDGE,SrcNode:316,SrcNodePort:value"];
	NodeMux317 -> NodeCast318[color="/dark28/4" photon_data="EDGE,SrcNode:317,SrcNodePort:result"];
	NodeCast318 -> NodeMux321[headport="w" color="/dark28/5" photon_data="EDGE,SrcNode:318,SrcNodePort:exception"];
	NodeCast318 -> NodeMux321[color="/dark28/6" photon_data="EDGE,SrcNode:318,SrcNodePort:o"];
	NodeConstantRawBits320 -> NodeMux321[color="/dark28/7" photon_data="EDGE,SrcNode:320,SrcNodePort:value"];
	NodeROM444 -> NodeAdd322[color="/dark28/8" photon_data="EDGE,SrcNode:444,SrcNodePort:dout"];
	NodeMux321 -> NodeAdd322[color="/dark28/1" photon_data="EDGE,SrcNode:321,SrcNodePort:result"];
	NodeMux321 -> NodeMul323[color="/dark28/2" photon_data="EDGE,SrcNode:321,SrcNodePort:result"];
	NodeROM444 -> NodeMul323[color="/dark28/3" photon_data="EDGE,SrcNode:444,SrcNodePort:dout"];
	NodeMul323 -> NodeMux326[headport="w" color="/dark28/4" photon_data="EDGE,SrcNode:323,SrcNodePort:exception"];
	NodeMul323 -> NodeMux326[color="/dark28/5" photon_data="EDGE,SrcNode:323,SrcNodePort:result"];
	NodeConstantRawBits325 -> NodeMux326[color="/dark28/6" photon_data="EDGE,SrcNode:325,SrcNodePort:value"];
	NodeAdd322 -> NodeAdd327[color="/dark28/7" photon_data="EDGE,SrcNode:322,SrcNodePort:result"];
	NodeMux326 -> NodeAdd327[color="/dark28/8" photon_data="EDGE,SrcNode:326,SrcNodePort:result"];
	NodeAdd327 -> NodeMux330[headport="w" color="/dark28/1" photon_data="EDGE,SrcNode:327,SrcNodePort:exception"];
	NodeAdd327 -> NodeMux330[color="/dark28/2" photon_data="EDGE,SrcNode:327,SrcNodePort:result"];
	NodeConstantRawBits329 -> NodeMux330[color="/dark28/3" photon_data="EDGE,SrcNode:329,SrcNodePort:value"];
	NodeMux330 -> NodeCast331[color="/dark28/4" photon_data="EDGE,SrcNode:330,SrcNodePort:result"];
	NodeCast331 -> NodeMux334[headport="w" color="/dark28/5" photon_data="EDGE,SrcNode:331,SrcNodePort:exception"];
	NodeCast331 -> NodeMux334[color="/dark28/6" photon_data="EDGE,SrcNode:331,SrcNodePort:o"];
	NodeConstantRawBits333 -> NodeMux334[color="/dark28/7" photon_data="EDGE,SrcNode:333,SrcNodePort:value"];
	NodeMux334 -> NodeCast335[color="/dark28/8" photon_data="EDGE,SrcNode:334,SrcNodePort:result"];
	NodeCast335 -> NodeMux338[headport="w" color="/dark28/1" photon_data="EDGE,SrcNode:335,SrcNodePort:exception"];
	NodeCast335 -> NodeMux338[color="/dark28/2" photon_data="EDGE,SrcNode:335,SrcNodePort:o"];
	NodeConstantRawBits337 -> NodeMux338[color="/dark28/3" photon_data="EDGE,SrcNode:337,SrcNodePort:value"];
	NodeMux338 -> NodeGteInlined734[color="/dark28/4" photon_data="EDGE,SrcNode:338,SrcNodePort:result"];
	NodeConstantRawBits836 -> NodeGteInlined734[color="/dark28/5" photon_data="EDGE,SrcNode:836,SrcNodePort:value"];
	NodeMux366 -> NodeCondAdd764[color="/dark28/6" photon_data="EDGE,SrcNode:366,SrcNodePort:result"];
	NodeConstantRawBits367 -> NodeCondAdd764[color="/dark28/7" photon_data="EDGE,SrcNode:367,SrcNodePort:value"];
	NodeGteInlined734 -> NodeCondAdd764[color="/dark28/8" photon_data="EDGE,SrcNode:734,SrcNodePort:result"];
	NodeCondAdd764 -> NodeSlice735[color="/dark28/1" photon_data="EDGE,SrcNode:764,SrcNodePort:result"];
	NodeSlice735 -> NodeNot736[color="/dark28/2" photon_data="EDGE,SrcNode:735,SrcNodePort:result"];
	NodeNot736 -> NodeCat746[color="/dark28/3" photon_data="EDGE,SrcNode:736,SrcNodePort:result"];
	NodeNot736 -> NodeCat746[color="/dark28/4" photon_data="EDGE,SrcNode:736,SrcNodePort:result"];
	NodeNot736 -> NodeCat746[color="/dark28/5" photon_data="EDGE,SrcNode:736,SrcNodePort:result"];
	NodeNot736 -> NodeCat746[color="/dark28/6" photon_data="EDGE,SrcNode:736,SrcNodePort:result"];
	NodeNot736 -> NodeCat746[color="/dark28/7" photon_data="EDGE,SrcNode:736,SrcNodePort:result"];
	NodeNot736 -> NodeCat746[color="/dark28/8" photon_data="EDGE,SrcNode:736,SrcNodePort:result"];
	NodeNot736 -> NodeCat746[color="/dark28/1" photon_data="EDGE,SrcNode:736,SrcNodePort:result"];
	NodeNot736 -> NodeCat746[color="/dark28/2" photon_data="EDGE,SrcNode:736,SrcNodePort:result"];
	NodeNot736 -> NodeCat746[color="/dark28/3" photon_data="EDGE,SrcNode:736,SrcNodePort:result"];
	NodeNot736 -> NodeCat746[color="/dark28/4" photon_data="EDGE,SrcNode:736,SrcNodePort:result"];
	NodeNot736 -> NodeCat746[color="/dark28/5" photon_data="EDGE,SrcNode:736,SrcNodePort:result"];
	NodeCat746 -> NodeReinterpret385[color="/dark28/6" photon_data="EDGE,SrcNode:746,SrcNodePort:result"];
	NodeConstantRawBits372 -> NodeXor386[color="/dark28/7" photon_data="EDGE,SrcNode:372,SrcNodePort:value"];
	NodeReinterpret385 -> NodeXor386[color="/dark28/8" photon_data="EDGE,SrcNode:385,SrcNodePort:output"];
	NodeCondAdd764 -> NodeMux387[headport="w" color="/dark28/1" photon_data="EDGE,SrcNode:764,SrcNodePort:exception"];
	NodeCondAdd764 -> NodeMux387[color="/dark28/2" photon_data="EDGE,SrcNode:764,SrcNodePort:result"];
	NodeXor386 -> NodeMux387[color="/dark28/3" photon_data="EDGE,SrcNode:386,SrcNodePort:result"];
	NodeMux387 -> NodeSlice747[color="/dark28/4" photon_data="EDGE,SrcNode:387,SrcNodePort:result"];
	NodeSlice747 -> NodeReinterpret748[color="/dark28/5" photon_data="EDGE,SrcNode:747,SrcNodePort:result"];
	NodePO2FPMult765 -> NodeGt279[headport="n" tailport="s" color=red photon_data="EDGE,SrcNode:765,SrcNodePort:floatOut"];
	NodeConstantRawBits835 -> NodeGt279[color="/dark28/6" photon_data="EDGE,SrcNode:835,SrcNodePort:value"];
	NodeGt279 -> NodeFIFO806[headport="n" color="/dark28/7" photon_data="EDGE,SrcNode:279,SrcNodePort:result"];
	NodeMux277 -> NodeDoubtBitOp280[color="/dark28/8" style=dashed photon_data="EDGE,SrcNode:277,SrcNodePort:result"];
	NodeFIFO806 -> NodeAnd281[tailport="s" color="/dark28/1" photon_data="EDGE,SrcNode:806,SrcNodePort:output"];
	NodeDoubtBitOp280 -> NodeAnd281[color="/dark28/2" photon_data="EDGE,SrcNode:280,SrcNodePort:output"];
	NodeAnd281 -> NodeFIFO807[headport="n" color="/dark28/3" photon_data="EDGE,SrcNode:281,SrcNodePort:result"];
	NodeFIFO807 -> NodeNot390[tailport="s" color="/dark28/4" photon_data="EDGE,SrcNode:807,SrcNodePort:output"];
	NodeReinterpret748 -> NodeAnd391[color="/dark28/5" photon_data="EDGE,SrcNode:748,SrcNodePort:output"];
	NodeNot390 -> NodeAnd391[color="/dark28/6" photon_data="EDGE,SrcNode:390,SrcNodePort:result"];
	NodePO2FPMult765 -> NodeLt283[headport="n" tailport="s" color=red photon_data="EDGE,SrcNode:765,SrcNodePort:floatOut"];
	NodeConstantRawBits834 -> NodeLt283[color="/dark28/7" photon_data="EDGE,SrcNode:834,SrcNodePort:value"];
	NodeLt283 -> NodeFIFO808[headport="n" color="/dark28/8" photon_data="EDGE,SrcNode:283,SrcNodePort:result"];
	NodeMux277 -> NodeDoubtBitOp284[color="/dark28/1" style=dashed photon_data="EDGE,SrcNode:277,SrcNodePort:result"];
	NodeFIFO808 -> NodeAnd285[tailport="s" color="/dark28/2" photon_data="EDGE,SrcNode:808,SrcNodePort:output"];
	NodeDoubtBitOp284 -> NodeAnd285[color="/dark28/3" photon_data="EDGE,SrcNode:284,SrcNodePort:output"];
	NodeAnd285 -> NodeFIFO809[headport="n" color="/dark28/4" photon_data="EDGE,SrcNode:285,SrcNodePort:result"];
	NodeAnd391 -> NodeOr392[color="/dark28/5" photon_data="EDGE,SrcNode:391,SrcNodePort:result"];
	NodeFIFO809 -> NodeOr392[tailport="s" color="/dark28/6" photon_data="EDGE,SrcNode:809,SrcNodePort:output"];
	NodeMux387 -> NodeGteInlined749[color="/dark28/7" photon_data="EDGE,SrcNode:387,SrcNodePort:result"];
	NodeConstantRawBits833 -> NodeGteInlined749[color="/dark28/8" photon_data="EDGE,SrcNode:833,SrcNodePort:value"];
	NodeFIFO809 -> NodeNot413[tailport="s" color="/dark28/1" photon_data="EDGE,SrcNode:809,SrcNodePort:output"];
	NodeGteInlined749 -> NodeAnd414[color="/dark28/2" photon_data="EDGE,SrcNode:749,SrcNodePort:result"];
	NodeNot413 -> NodeAnd414[color="/dark28/3" photon_data="EDGE,SrcNode:413,SrcNodePort:result"];
	NodeAnd414 -> NodeOr415[color="/dark28/4" photon_data="EDGE,SrcNode:414,SrcNodePort:result"];
	NodeFIFO807 -> NodeOr415[tailport="s" color="/dark28/5" photon_data="EDGE,SrcNode:807,SrcNodePort:output"];
	NodeOr392 -> NodeCat416[color="/dark28/6" photon_data="EDGE,SrcNode:392,SrcNodePort:result"];
	NodeOr415 -> NodeCat416[color="/dark28/7" photon_data="EDGE,SrcNode:415,SrcNodePort:result"];
	NodeMux387 -> NodeCast393[color="/dark28/8" photon_data="EDGE,SrcNode:387,SrcNodePort:result"];
	NodeCast393 -> NodeSlice750[color="/dark28/1" photon_data="EDGE,SrcNode:393,SrcNodePort:o"];
	NodeSlice750 -> NodeNot751[color="/dark28/2" photon_data="EDGE,SrcNode:750,SrcNodePort:result"];
	NodeNot751 -> NodeCat758[color="/dark28/3" photon_data="EDGE,SrcNode:751,SrcNodePort:result"];
	NodeNot751 -> NodeCat758[color="/dark28/4" photon_data="EDGE,SrcNode:751,SrcNodePort:result"];
	NodeNot751 -> NodeCat758[color="/dark28/5" photon_data="EDGE,SrcNode:751,SrcNodePort:result"];
	NodeNot751 -> NodeCat758[color="/dark28/6" photon_data="EDGE,SrcNode:751,SrcNodePort:result"];
	NodeNot751 -> NodeCat758[color="/dark28/7" photon_data="EDGE,SrcNode:751,SrcNodePort:result"];
	NodeNot751 -> NodeCat758[color="/dark28/8" photon_data="EDGE,SrcNode:751,SrcNodePort:result"];
	NodeNot751 -> NodeCat758[color="/dark28/1" photon_data="EDGE,SrcNode:751,SrcNodePort:result"];
	NodeNot751 -> NodeCat758[color="/dark28/2" photon_data="EDGE,SrcNode:751,SrcNodePort:result"];
	NodeCat758 -> NodeReinterpret405[color="/dark28/3" photon_data="EDGE,SrcNode:758,SrcNodePort:result"];
	NodeConstantRawBits395 -> NodeXor406[color="/dark28/4" photon_data="EDGE,SrcNode:395,SrcNodePort:value"];
	NodeReinterpret405 -> NodeXor406[color="/dark28/5" photon_data="EDGE,SrcNode:405,SrcNodePort:output"];
	NodeCast393 -> NodeMux407[headport="w" color="/dark28/6" photon_data="EDGE,SrcNode:393,SrcNodePort:exception"];
	NodeCast393 -> NodeMux407[color="/dark28/7" photon_data="EDGE,SrcNode:393,SrcNodePort:o"];
	NodeXor406 -> NodeMux407[color="/dark28/8" photon_data="EDGE,SrcNode:406,SrcNodePort:result"];
	NodeGteInlined734 -> NodeMux342[headport="w" color="/dark28/1" photon_data="EDGE,SrcNode:734,SrcNodePort:result"];
	NodeMux338 -> NodeMux342[color="/dark28/2" photon_data="EDGE,SrcNode:338,SrcNodePort:result"];
	NodeConstantRawBits341 -> NodeMux342[color="/dark28/3" photon_data="EDGE,SrcNode:341,SrcNodePort:value"];
	NodeMux342 -> NodeCast343[color="/dark28/4" photon_data="EDGE,SrcNode:342,SrcNodePort:result"];
	NodeCast343 -> NodeMux346[headport="w" color="/dark28/5" photon_data="EDGE,SrcNode:343,SrcNodePort:exception"];
	NodeCast343 -> NodeMux346[color="/dark28/6" photon_data="EDGE,SrcNode:343,SrcNodePort:o"];
	NodeConstantRawBits345 -> NodeMux346[color="/dark28/7" photon_data="EDGE,SrcNode:345,SrcNodePort:value"];
	NodeConstantRawBits408 -> NodeCat409[color="/dark28/8" photon_data="EDGE,SrcNode:408,SrcNodePort:value"];
	NodeMux407 -> NodeCat409[color="/dark28/1" photon_data="EDGE,SrcNode:407,SrcNodePort:result"];
	NodeMux346 -> NodeCat409[color="/dark28/2" photon_data="EDGE,SrcNode:346,SrcNodePort:result"];
	NodeCat409 -> NodeReinterpret410[color="/dark28/3" photon_data="EDGE,SrcNode:409,SrcNodePort:result"];
	NodeConstantRawBits417 -> NodeCat759[color="/dark28/4" photon_data="EDGE,SrcNode:417,SrcNodePort:value"];
	NodeConstantRawBits418 -> NodeCat759[color="/dark28/5" photon_data="EDGE,SrcNode:418,SrcNodePort:value"];
	NodeConstantRawBits420 -> NodeCat759[color="/dark28/6" photon_data="EDGE,SrcNode:420,SrcNodePort:value"];
	NodeCat759 -> NodeReinterpret422[color="/dark28/7" photon_data="EDGE,SrcNode:759,SrcNodePort:result"];
	NodeCat416 -> NodeMux425[headport="w" color="/dark28/8" photon_data="EDGE,SrcNode:416,SrcNodePort:result"];
	NodeReinterpret410 -> NodeMux425[color="/dark28/1" photon_data="EDGE,SrcNode:410,SrcNodePort:output"];
	NodeReinterpret422 -> NodeMux425[color="/dark28/2" photon_data="EDGE,SrcNode:422,SrcNodePort:output"];
	NodeConstantRawBits503 -> NodeMux425[color="/dark28/3" photon_data="EDGE,SrcNode:503,SrcNodePort:value"];
	NodeReinterpret422 -> NodeMux425[color="/dark28/4" photon_data="EDGE,SrcNode:422,SrcNodePort:output"];
	NodeFIFO812 -> NodeMux435[tailport="s" headport="w" color="/dark28/5" photon_data="EDGE,SrcNode:812,SrcNodePort:output"];
	NodeMux425 -> NodeMux435[color="/dark28/6" photon_data="EDGE,SrcNode:425,SrcNodePort:result"];
	NodeConstantRawBits832 -> NodeMux435[color="/dark28/7" photon_data="EDGE,SrcNode:832,SrcNodePort:value"];
	NodeMux435 -> NodeAdd446[color="/dark28/8" photon_data="EDGE,SrcNode:435,SrcNodePort:result"];
	NodeConstantRawBits831 -> NodeAdd446[color="/dark28/1" photon_data="EDGE,SrcNode:831,SrcNodePort:value"];
	NodeConstantRawBits839 -> NodeDiv448[color="/dark28/2" photon_data="EDGE,SrcNode:839,SrcNodePort:value"];
	NodeAdd446 -> NodeDiv448[color="/dark28/3" photon_data="EDGE,SrcNode:446,SrcNodePort:result"];
	NodeConstantRawBits840 -> NodeSub450[color="/dark28/4" photon_data="EDGE,SrcNode:840,SrcNodePort:value"];
	NodeDiv448 -> NodeSub450[color="/dark28/5" photon_data="EDGE,SrcNode:448,SrcNodePort:result"];
	NodeConstantRawBits841 -> NodeSub453[color="/dark28/6" photon_data="EDGE,SrcNode:841,SrcNodePort:value"];
	NodeSub450 -> NodeSub453[color="/dark28/7" photon_data="EDGE,SrcNode:450,SrcNodePort:result"];
	NodeSub453 -> NodeMul454[color="/dark28/8" photon_data="EDGE,SrcNode:453,SrcNodePort:result"];
	NodeFIFO813 -> NodeMul454[tailport="s" color="/dark28/1" photon_data="EDGE,SrcNode:813,SrcNodePort:output"];
	NodeMul454 -> NodeMul455[color="/dark28/2" photon_data="EDGE,SrcNode:454,SrcNodePort:result"];
	NodeFIFO813 -> NodeMul455[tailport="s" color="/dark28/3" photon_data="EDGE,SrcNode:813,SrcNodePort:output"];
	NodeMul455 -> NodePO2FPMult766[color="/dark28/4" photon_data="EDGE,SrcNode:455,SrcNodePort:result"];
	NodeSub459 -> NodeMul460[color="/dark28/5" photon_data="EDGE,SrcNode:459,SrcNodePort:result"];
	NodePO2FPMult766 -> NodeMul460[color="/dark28/6" photon_data="EDGE,SrcNode:766,SrcNodePort:floatOut"];
	NodeMul460 -> NodeSub760[color="/dark28/7" photon_data="EDGE,SrcNode:460,SrcNodePort:result"];
	NodeFIFO825 -> NodeSub760[tailport="s" color="/dark28/8" photon_data="EDGE,SrcNode:825,SrcNodePort:output"];
	NodeSub760 -> NodeMul467[color="/dark28/1" photon_data="EDGE,SrcNode:760,SrcNodePort:result"];
	NodeConstantRawBits2 -> NodeMul467[color="/dark28/2" photon_data="EDGE,SrcNode:2,SrcNodePort:value"];
	NodeCast19 -> NodeMul469[color="/dark28/3" photon_data="EDGE,SrcNode:19,SrcNodePort:o"];
	NodeMul467 -> NodeMul469[color="/dark28/4" photon_data="EDGE,SrcNode:467,SrcNodePort:result"];
	NodeFIFO825 -> NodeAdd470[tailport="s" color="/dark28/5" photon_data="EDGE,SrcNode:825,SrcNodePort:output"];
	NodeMul469 -> NodeAdd470[color="/dark28/6" photon_data="EDGE,SrcNode:469,SrcNodePort:result"];
	NodeAdd470 -> NodeStreamOffset797[color="/dark28/7" photon_data="EDGE,SrcNode:470,SrcNodePort:result"];
	NodeEqInlined504 -> NodeMux23[headport="w" color="/dark28/8" photon_data="EDGE,SrcNode:504,SrcNodePort:result"];
	NodeStreamOffset797 -> NodeMux23[color="/dark28/1" photon_data="EDGE,SrcNode:797,SrcNodePort:output"];
	NodeConstantRawBits22 -> NodeMux23[color="/dark28/2" photon_data="EDGE,SrcNode:22,SrcNodePort:value"];
	NodeMux23 -> NodeSub38[color="/dark28/3" photon_data="EDGE,SrcNode:23,SrcNodePort:result"];
	NodeConstantRawBits4 -> NodeSub38[color="/dark28/4" photon_data="EDGE,SrcNode:4,SrcNodePort:value"];
	NodeSub38 -> NodePO2FPMult765[color="/dark28/5" photon_data="EDGE,SrcNode:38,SrcNodePort:result"];
	NodePO2FPMult765 -> NodeDoubtBitOp42[color="/dark28/6" photon_data="EDGE,SrcNode:765,SrcNodePort:floatOut"];
	NodeConstantRawBits41 -> NodeDoubtBitOp42[color="/dark28/7" photon_data="EDGE,SrcNode:41,SrcNodePort:value"];
	NodeDoubtBitOp42 -> NodeCast43[color="/dark28/8" style=dashed photon_data="EDGE,SrcNode:42,SrcNodePort:output"];
	NodeCast43 -> NodeExceptionMask770[color="/dark28/1" photon_data="EDGE,SrcNode:43,SrcNodePort:exception"];
	NodeExceptionMask770 -> NodeFIFO817[headport="n" color="/dark28/2" photon_data="EDGE,SrcNode:770,SrcNodePort:exceptionOccurred"];
	NodeMul105 -> NodeExceptionMask771[color="/dark28/3" photon_data="EDGE,SrcNode:105,SrcNodePort:exception"];
	NodeExceptionMask771 -> NodeFIFO818[headport="n" color="/dark28/4" photon_data="EDGE,SrcNode:771,SrcNodePort:exceptionOccurred"];
	NodeCast218 -> NodeExceptionMask772[color="/dark28/5" photon_data="EDGE,SrcNode:218,SrcNodePort:exception"];
	NodeExceptionMask772 -> NodeFIFO819[headport="n" color="/dark28/6" photon_data="EDGE,SrcNode:772,SrcNodePort:exceptionOccurred"];
	NodeCast295 -> NodeExceptionMask774[color="/dark28/7" photon_data="EDGE,SrcNode:295,SrcNodePort:exception"];
	NodeAdd301 -> NodeExceptionMask775[color="/dark28/8" photon_data="EDGE,SrcNode:301,SrcNodePort:exception"];
	NodeCast305 -> NodeExceptionMask776[color="/dark28/1" photon_data="EDGE,SrcNode:305,SrcNodePort:exception"];
	NodeMul310 -> NodeExceptionMask777[color="/dark28/2" photon_data="EDGE,SrcNode:310,SrcNodePort:exception"];
	NodeAdd314 -> NodeExceptionMask778[color="/dark28/3" photon_data="EDGE,SrcNode:314,SrcNodePort:exception"];
	NodeCast318 -> NodeExceptionMask779[color="/dark28/4" photon_data="EDGE,SrcNode:318,SrcNodePort:exception"];
	NodeMul323 -> NodeExceptionMask780[color="/dark28/5" photon_data="EDGE,SrcNode:323,SrcNodePort:exception"];
	NodeAdd327 -> NodeExceptionMask781[color="/dark28/6" photon_data="EDGE,SrcNode:327,SrcNodePort:exception"];
	NodeCast331 -> NodeExceptionMask782[color="/dark28/7" photon_data="EDGE,SrcNode:331,SrcNodePort:exception"];
	NodeCast335 -> NodeExceptionMask783[color="/dark28/8" photon_data="EDGE,SrcNode:335,SrcNodePort:exception"];
	NodeCast343 -> NodeExceptionMask786[color="/dark28/1" photon_data="EDGE,SrcNode:343,SrcNodePort:exception"];
	NodeAdd349 -> NodeExceptionMask773[color="/dark28/2" photon_data="EDGE,SrcNode:349,SrcNodePort:exception"];
	NodeCast393 -> NodeExceptionMask785[color="/dark28/3" photon_data="EDGE,SrcNode:393,SrcNodePort:exception"];
	NodeAdd446 -> NodeExceptionMask787[color="/dark28/4" photon_data="EDGE,SrcNode:446,SrcNodePort:exception"];
	NodeDiv448 -> NodeExceptionMask788[color="/dark28/5" photon_data="EDGE,SrcNode:448,SrcNodePort:exception"];
	NodeSub450 -> NodeExceptionMask789[color="/dark28/6" photon_data="EDGE,SrcNode:450,SrcNodePort:exception"];
	NodeCondAdd764 -> NodeExceptionMask784[color="/dark28/7" photon_data="EDGE,SrcNode:764,SrcNodePort:exception"];
	NodePO2FPMult765 -> NodeExceptionMask769[color="/dark28/8" photon_data="EDGE,SrcNode:765,SrcNodePort:exception"];
	NodeExceptionMask769 -> NodeFIFO820[headport="n" color="/dark28/1" photon_data="EDGE,SrcNode:769,SrcNodePort:exceptionOccurred"];
	NodeFIFO817 -> NodeNumericExceptionsSim790[tailport="s" color="/dark28/2" photon_data="EDGE,SrcNode:817,SrcNodePort:output"];
	NodeFIFO818 -> NodeNumericExceptionsSim790[tailport="s" color="/dark28/3" photon_data="EDGE,SrcNode:818,SrcNodePort:output"];
	NodeFIFO819 -> NodeNumericExceptionsSim790[tailport="s" color="/dark28/4" photon_data="EDGE,SrcNode:819,SrcNodePort:output"];
	NodeExceptionMask774 -> NodeNumericExceptionsSim790[color="/dark28/5" photon_data="EDGE,SrcNode:774,SrcNodePort:exceptionOccurred"];
	NodeExceptionMask775 -> NodeNumericExceptionsSim790[color="/dark28/6" photon_data="EDGE,SrcNode:775,SrcNodePort:exceptionOccurred"];
	NodeExceptionMask776 -> NodeNumericExceptionsSim790[color="/dark28/7" photon_data="EDGE,SrcNode:776,SrcNodePort:exceptionOccurred"];
	NodeExceptionMask777 -> NodeNumericExceptionsSim790[color="/dark28/8" photon_data="EDGE,SrcNode:777,SrcNodePort:exceptionOccurred"];
	NodeExceptionMask778 -> NodeNumericExceptionsSim790[color="/dark28/1" photon_data="EDGE,SrcNode:778,SrcNodePort:exceptionOccurred"];
	NodeExceptionMask779 -> NodeNumericExceptionsSim790[color="/dark28/2" photon_data="EDGE,SrcNode:779,SrcNodePort:exceptionOccurred"];
	NodeExceptionMask780 -> NodeNumericExceptionsSim790[color="/dark28/3" photon_data="EDGE,SrcNode:780,SrcNodePort:exceptionOccurred"];
	NodeExceptionMask781 -> NodeNumericExceptionsSim790[color="/dark28/4" photon_data="EDGE,SrcNode:781,SrcNodePort:exceptionOccurred"];
	NodeExceptionMask782 -> NodeNumericExceptionsSim790[color="/dark28/5" photon_data="EDGE,SrcNode:782,SrcNodePort:exceptionOccurred"];
	NodeExceptionMask783 -> NodeNumericExceptionsSim790[color="/dark28/6" photon_data="EDGE,SrcNode:783,SrcNodePort:exceptionOccurred"];
	NodeExceptionMask786 -> NodeNumericExceptionsSim790[color="/dark28/7" photon_data="EDGE,SrcNode:786,SrcNodePort:exceptionOccurred"];
	NodeExceptionMask773 -> NodeNumericExceptionsSim790[color="/dark28/8" photon_data="EDGE,SrcNode:773,SrcNodePort:exceptionOccurred"];
	NodeExceptionMask785 -> NodeNumericExceptionsSim790[color="/dark28/1" photon_data="EDGE,SrcNode:785,SrcNodePort:exceptionOccurred"];
	NodeExceptionMask787 -> NodeNumericExceptionsSim790[color="/dark28/2" photon_data="EDGE,SrcNode:787,SrcNodePort:exceptionOccurred"];
	NodeExceptionMask788 -> NodeNumericExceptionsSim790[color="/dark28/3" photon_data="EDGE,SrcNode:788,SrcNodePort:exceptionOccurred"];
	NodeExceptionMask789 -> NodeNumericExceptionsSim790[color="/dark28/4" photon_data="EDGE,SrcNode:789,SrcNodePort:exceptionOccurred"];
	NodeExceptionMask784 -> NodeNumericExceptionsSim790[color="/dark28/5" photon_data="EDGE,SrcNode:784,SrcNodePort:exceptionOccurred"];
	NodeFIFO820 -> NodeNumericExceptionsSim790[tailport="s" color="/dark28/6" photon_data="EDGE,SrcNode:820,SrcNodePort:output"];
	NodeConstantRawBits792 -> NodeOutputMappedReg791[color="/dark28/7" photon_data="EDGE,SrcNode:792,SrcNodePort:value"];
	NodeNumericExceptionsSim790 -> NodeOutputMappedReg791[color="/dark28/8" photon_data="EDGE,SrcNode:790,SrcNodePort:all_exceptions"];
	NodeCounter17 -> NodeFIFO821[headport="n" color="/dark28/1" photon_data="EDGE,SrcNode:17,SrcNodePort:count"];
	NodeConstantRawBits826 -> NodeSub478[color="/dark28/2" photon_data="EDGE,SrcNode:826,SrcNodePort:value"];
	NodeConstantRawBits830 -> NodeSub478[color="/dark28/3" photon_data="EDGE,SrcNode:830,SrcNodePort:value"];
	NodeFIFO821 -> NodeEqInlined761[tailport="s" color="/dark28/4" photon_data="EDGE,SrcNode:821,SrcNodePort:output"];
	NodeSub478 -> NodeEqInlined761[color="/dark28/5" photon_data="EDGE,SrcNode:478,SrcNodePort:result"];
	NodeEqInlined761 -> NodeFIFO822[color="/dark28/6" ];
	NodeAdd470 -> NodeCast475[color="/dark28/7" photon_data="EDGE,SrcNode:470,SrcNodePort:result"];
	NodeCast475 -> NodeOutput483[color="/dark28/8" photon_data="EDGE,SrcNode:475,SrcNodePort:o"];
	NodeConstantRawBits826 -> NodeSub485[color="/dark28/1" photon_data="EDGE,SrcNode:826,SrcNodePort:value"];
	NodeConstantRawBits829 -> NodeSub485[color="/dark28/2" photon_data="EDGE,SrcNode:829,SrcNodePort:value"];
	NodeFIFO821 -> NodeEqInlined762[tailport="s" color="/dark28/3" photon_data="EDGE,SrcNode:821,SrcNodePort:output"];
	NodeSub485 -> NodeEqInlined762[color="/dark28/4" photon_data="EDGE,SrcNode:485,SrcNodePort:result"];
	NodeEqInlined762 -> NodeFIFO824[color="/dark28/5" ];
	NodeAdd472 -> NodeCast476[color="/dark28/6" photon_data="EDGE,SrcNode:472,SrcNodePort:result"];
	NodeCast476 -> NodeOutput490[color="/dark28/7" photon_data="EDGE,SrcNode:476,SrcNodePort:o"];
}
