digraph MinimalModelDFEKernel_tapnfold_2{
	NodeConstantRawBits40 [shape=box, label="1.0\nID: 40"];
	NodeEvalStreamOffset512 [label="EvalStreamOffset(106)\nID: 512"];
	NodeFIFO517 [shape=plaintext, label=<<TABLE BORDER="0" CELLSPACING="0" CELLBORDER="1"> <TR><TD></TD></TR><TR><TD>1</TD></TR><TR><TD>ID: 517</TD></TR> <TR><TD></TD></TR> </TABLE>>];
	NodeCounter43 [shape=hexagon, label="cnt\nID: 43"];
	NodeConstantDouble419 [shape=box, label="1.0\nID: 419"];
	NodeSub420 [label="-\nID: 420"];
	NodeEqInlined465 [label="==\nID: 465"];
	NodeFIFO574 [shape=plaintext, label=<<TABLE BORDER="0" CELLSPACING="0" CELLBORDER="1"> <TR><TD></TD></TR><TR><TD>106</TD></TR><TR><TD>ID: 574</TD></TR> <TR><TD></TD></TR> </TABLE>>];
	NodeInputMappedReg41 [shape=box, peripheries=2, label="num_iteration\nID: 41"];
	NodeCounter42 [shape=hexagon, label="cnt\nID: 42"];
	NodeConstantDouble46 [shape=box, label="0.0\nID: 46"];
	NodeEqInlined466 [label="==\nID: 466"];
	NodeStreamOffset513 [shape=diamond, label="-106\nID: 513"];
	NodeConstantRawBits38 [shape=box, label="1.0\nID: 38"];
	NodeMux48 [shape=invtrapezium, height=0.5, label="MUX\nID: 48"];
	NodeFIFO521 [shape=plaintext, label=<<TABLE BORDER="0" CELLSPACING="0" CELLBORDER="1"> <TR><TD></TD></TR><TR><TD>8</TD></TR><TR><TD>ID: 521</TD></TR> <TR><TD></TD></TR> </TABLE>>];
	NodeFIFO578 [shape=plaintext, label=<<TABLE BORDER="0" CELLSPACING="0" CELLBORDER="1"> <TR><TD></TD></TR><TR><TD>1</TD></TR><TR><TD>ID: 578</TD></TR> <TR><TD></TD></TR> </TABLE>>];
	NodeFIFO579 [shape=plaintext, label=<<TABLE BORDER="0" CELLSPACING="0" CELLBORDER="1"> <TR><TD></TD></TR><TR><TD>1</TD></TR><TR><TD>ID: 579</TD></TR> <TR><TD></TD></TR> </TABLE>>];
	NodeFIFO580 [shape=plaintext, label=<<TABLE BORDER="0" CELLSPACING="0" CELLBORDER="1"> <TR><TD></TD></TR><TR><TD>6</TD></TR><TR><TD>ID: 580</TD></TR> <TR><TD></TD></TR> </TABLE>>];
	NodeFIFO581 [shape=plaintext, label=<<TABLE BORDER="0" CELLSPACING="0" CELLBORDER="1"> <TR><TD></TD></TR><TR><TD>10</TD></TR><TR><TD>ID: 581</TD></TR> <TR><TD></TD></TR> </TABLE>>];
	NodeFIFO582 [shape=plaintext, label=<<TABLE BORDER="0" CELLSPACING="0" CELLBORDER="1"> <TR><TD></TD></TR><TR><TD>9</TD></TR><TR><TD>ID: 582</TD></TR> <TR><TD></TD></TR> </TABLE>>];
	NodeFIFO583 [shape=plaintext, label=<<TABLE BORDER="0" CELLSPACING="0" CELLBORDER="1"> <TR><TD></TD></TR><TR><TD>26</TD></TR><TR><TD>ID: 583</TD></TR> <TR><TD></TD></TR> </TABLE>>];
	NodeFIFO584 [shape=plaintext, label=<<TABLE BORDER="0" CELLSPACING="0" CELLBORDER="1"> <TR><TD></TD></TR><TR><TD>11</TD></TR><TR><TD>ID: 584</TD></TR> <TR><TD></TD></TR> </TABLE>>];
	NodeFIFO585 [shape=plaintext, label=<<TABLE BORDER="0" CELLSPACING="0" CELLBORDER="1"> <TR><TD></TD></TR><TR><TD>22</TD></TR><TR><TD>ID: 585</TD></TR> <TR><TD></TD></TR> </TABLE>>];
	NodeConstantRawBits15 [shape=box, label="0.30000001192092896\nID: 15"];
	NodeGt390 [label=">\nID: 390"];
	NodeConstantRawBits37 [shape=box, label="0.0\nID: 37"];
	NodeConstantDouble49 [shape=box, label="0.0\nID: 49"];
	NodeEqInlined467 [label="==\nID: 467"];
	NodeStreamOffset514 [shape=diamond, label="-106\nID: 514"];
	NodeFIFO519 [shape=plaintext, label=<<TABLE BORDER="0" CELLSPACING="0" CELLBORDER="1"> <TR><TD></TD></TR><TR><TD>86</TD></TR><TR><TD>ID: 519</TD></TR> <TR><TD></TD></TR> </TABLE>>];
	NodeMux51 [shape=invtrapezium, height=0.5, label="MUX\nID: 51"];
	NodeFIFO520 [shape=plaintext, label=<<TABLE BORDER="0" CELLSPACING="0" CELLBORDER="1"> <TR><TD></TD></TR><TR><TD>8</TD></TR><TR><TD>ID: 520</TD></TR> <TR><TD></TD></TR> </TABLE>>];
	NodeGt271 [label=">\nID: 271"];
	NodeConstantRawBits17 [shape=box, label="0.006000000052154064\nID: 17"];
	NodeGt262 [label=">\nID: 262"];
	NodeMux263 [shape=invtrapezium, height=0.5, label="MUX\nID: 263"];
	NodeSub274 [label="-\nID: 274"];
	NodeConstantRawBits16 [shape=box, label="0.006000000052154064\nID: 16"];
	NodeGt58 [label=">\nID: 58"];
	NodeConstantRawBits1 [shape=box, label="60.0\nID: 1"];
	NodeConstantRawBits2 [shape=box, label="1150.0\nID: 2"];
	NodeMux59 [shape=invtrapezium, height=0.5, label="MUX\nID: 59"];
	NodeDiv275 [label="/\nID: 275"];
	NodeNeg272 [label="(-)\nID: 272"];
	NodeConstantRawBits0 [shape=box, label="1.450600028038025\nID: 0"];
	NodeDiv273 [label="/\nID: 273"];
	NodeMux276 [shape=invtrapezium, height=0.5, label="MUX\nID: 276"];
	NodeInputMappedReg44 [shape=box, peripheries=2, label="dt\nID: 44"];
	NodeCast45 [label="{HWFloat:8, 24}\nID: 45"];
	NodeMul384 [label="*\nID: 384"];
	NodeAdd385 [label="+\nID: 385"];
	NodeNeg391 [label="(-)\nID: 391"];
	NodeSub392 [label="-\nID: 392"];
	NodeMul393 [label="*\nID: 393"];
	NodeConstantRawBits29 [shape=box, label="1.5499999523162842\nID: 29"];
	NodeSub394 [label="-\nID: 394"];
	NodeMul395 [label="*\nID: 395"];
	NodeConstantRawBits8 [shape=box, label="0.10999999940395355\nID: 8"];
	NodeDiv396 [label="/\nID: 396"];
	NodeMux397 [shape=invtrapezium, height=0.5, label="MUX\nID: 397"];
	NodeConstantRawBits20 [shape=box, label="0.12999999523162842\nID: 20"];
	NodeGt398 [label=">\nID: 398"];
	NodeConstantRawBits22 [shape=box, label="0.006000000052154064\nID: 22"];
	NodeGt260 [label=">\nID: 260"];
	NodeConstantRawBits9 [shape=box, label="400.0\nID: 9"];
	NodeConstantRawBits10 [shape=box, label="6.0\nID: 10"];
	NodeMux261 [shape=invtrapezium, height=0.5, label="MUX\nID: 261"];
	NodeDiv402 [label="/\nID: 402"];
	NodeConstantDouble399 [shape=box, label="1.0\nID: 399"];
	NodeConstantRawBits11 [shape=box, label="30.01810073852539\nID: 11"];
	NodeConstantRawBits36 [shape=box, label="-14.511199951171875\nID: 36"];
	NodeConstantDouble254 [shape=box, label="1.0\nID: 254"];
	NodeConstantDouble252 [shape=box, label="1.0\nID: 252"];
	NodeConstantDouble250 [shape=box, label="2.0\nID: 250"];
	NodeConstantRawBits25 [shape=box, label="2.045799970626831\nID: 25"];
	NodeConstantRawBits30 [shape=box, label="0.6499999761581421\nID: 30"];
	NodeSub159 [label="-\nID: 159"];
	NodeMul160 [label="*\nID: 160"];
	NodePO2FPMult504 [label="PO2FPMult_N1\nID: 504"];
	NodeSlice234 [label="[30:23]\nID: 234"];
	NodeConstantRawBits235 [shape=box, label="0xff\nID: 235"];
	NodeEqInlined468 [label="==\nID: 468"];
	NodeSlice233 [label="[22:0]\nID: 233"];
	NodeConstantDouble237 [shape=box, label="0.0\nID: 237"];
	NodeNeqInlined469 [label="!=\nID: 469"];
	NodeAnd239 [label="&\nID: 239"];
	NodeFIFO536 [shape=plaintext, label=<<TABLE BORDER="0" CELLSPACING="0" CELLBORDER="1"> <TR><TD></TD></TR><TR><TD>8</TD></TR><TR><TD>ID: 536</TD></TR> <TR><TD></TD></TR> </TABLE>>];
	NodeConstantRawBits163 [shape=box, label="0.0\nID: 163"];
	NodeDoubtBitOp164 [label="DoubtBitOp(ADD_DOUBT)\nID: 164"];
	NodeCast165 [label="{HWOffsetFix:36, -26, TWOSCOMPLEMENT}\nID: 165"];
	NodeConstantRawBits168 [shape=box, label="1.4426950408960693\nID: 168"];
	NodeMul167 [label="*\nID: 167"];
	NodeCast169 [label="{HWOffsetFix:36, -26, TWOSCOMPLEMENT}\nID: 169"];
	NodeDoubtBitOp178 [label="DoubtBitOp(REMOVE_DOUBT)\nID: 178"];
	NodeCast179 [label="{HWOffsetFix:10, 0, TWOSCOMPLEMENT}\nID: 179"];
	NodeFIFO527 [shape=plaintext, label=<<TABLE BORDER="0" CELLSPACING="0" CELLBORDER="1"> <TR><TD></TD></TR><TR><TD>2</TD></TR><TR><TD>ID: 527</TD></TR> <TR><TD></TD></TR> </TABLE>>];
	NodeCast201 [label="{HWOffsetFix:11, 0, TWOSCOMPLEMENT}\nID: 201"];
	NodeConstantRawBits204 [shape=box, label="1.0\nID: 204"];
	NodeConstantRawBits495 [shape=box, label="127.0\nID: 495"];
	NodeCast181 [label="{HWOffsetFix:10, -12, UNSIGNED}\nID: 181"];
	NodeReinterpret246 [label="<{HWOffsetFix:10, 0, UNSIGNED}>\nID: 246"];
	NodeROM247 [label="ROM\nID: 247"];
	NodeCast180 [label="{HWOffsetFix:2, -2, UNSIGNED}\nID: 180"];
	NodeReinterpret243 [label="<{HWOffsetFix:2, 0, UNSIGNED}>\nID: 243"];
	NodeROM244 [label="ROM\nID: 244"];
	NodeConstantRawBits185 [shape=box, label="0.69317626953125\nID: 185"];
	NodeCast182 [label="{HWOffsetFix:14, -26, UNSIGNED}\nID: 182"];
	NodeMul184 [label="*\nID: 184"];
	NodeCast186 [label="{HWOffsetFix:14, -26, UNSIGNED}\nID: 186"];
	NodeFIFO528 [shape=plaintext, label=<<TABLE BORDER="0" CELLSPACING="0" CELLBORDER="1"> <TR><TD></TD></TR><TR><TD>2</TD></TR><TR><TD>ID: 528</TD></TR> <TR><TD></TD></TR> </TABLE>>];
	NodeAdd187 [label="+\nID: 187"];
	NodeMul188 [label="*\nID: 188"];
	NodeAdd189 [label="+\nID: 189"];
	NodeCast190 [label="{HWOffsetFix:27, -26, UNSIGNED}\nID: 190"];
	NodeAdd191 [label="+\nID: 191"];
	NodeMul192 [label="*\nID: 192"];
	NodeAdd193 [label="+\nID: 193"];
	NodeCast194 [label="{HWOffsetFix:28, -26, UNSIGNED}\nID: 194"];
	NodeCast195 [label="{HWOffsetFix:24, -23, UNSIGNED}\nID: 195"];
	NodeConstantDouble196 [shape=box, label="1.0\nID: 196"];
	NodeGteInlined470 [label=">=\nID: 470"];
	NodeCondTriAdd503 [label="3 +/0\nID: 503"];
	NodeSlice471 [label="[10:10]\nID: 471"];
	NodeReinterpret472 [label="<{HWOffsetFix:1, 0, UNSIGNED}>\nID: 472"];
	NodeConstantDouble170 [shape=box, label="0.0\nID: 170"];
	NodeGt171 [label=">\nID: 171"];
	NodeFIFO530 [shape=plaintext, label=<<TABLE BORDER="0" CELLSPACING="0" CELLBORDER="1"> <TR><TD></TD></TR><TR><TD>6</TD></TR><TR><TD>ID: 530</TD></TR> <TR><TD></TD></TR> </TABLE>>];
	NodeDoubtBitOp172 [label="DoubtBitOp(GET_DOUBT)\nID: 172"];
	NodeAnd173 [label="&\nID: 173"];
	NodeFIFO531 [shape=plaintext, label=<<TABLE BORDER="0" CELLSPACING="0" CELLBORDER="1"> <TR><TD></TD></TR><TR><TD>2</TD></TR><TR><TD>ID: 531</TD></TR> <TR><TD></TD></TR> </TABLE>>];
	NodeNot210 [label="~\nID: 210"];
	NodeAnd211 [label="&\nID: 211"];
	NodeConstantDouble174 [shape=box, label="0.0\nID: 174"];
	NodeLt175 [label="<\nID: 175"];
	NodeFIFO532 [shape=plaintext, label=<<TABLE BORDER="0" CELLSPACING="0" CELLBORDER="1"> <TR><TD></TD></TR><TR><TD>6</TD></TR><TR><TD>ID: 532</TD></TR> <TR><TD></TD></TR> </TABLE>>];
	NodeDoubtBitOp176 [label="DoubtBitOp(GET_DOUBT)\nID: 176"];
	NodeAnd177 [label="&\nID: 177"];
	NodeFIFO533 [shape=plaintext, label=<<TABLE BORDER="0" CELLSPACING="0" CELLBORDER="1"> <TR><TD></TD></TR><TR><TD>2</TD></TR><TR><TD>ID: 533</TD></TR> <TR><TD></TD></TR> </TABLE>>];
	NodeOr212 [label="|\nID: 212"];
	NodeConstantDouble217 [shape=box, label="255.0\nID: 217"];
	NodeGteInlined473 [label=">=\nID: 473"];
	NodeNot219 [label="~\nID: 219"];
	NodeAnd220 [label="&\nID: 220"];
	NodeOr221 [label="|\nID: 221"];
	NodeCat222 [label="@\nID: 222"];
	NodeConstantRawBits214 [shape=box, label="0.0\nID: 214"];
	NodeCast213 [label="{HWOffsetFix:8, 0, TWOSCOMPLEMENT}\nID: 213"];
	NodeConstantRawBits198 [shape=box, label="0.0\nID: 198"];
	NodeMux199 [shape=invtrapezium, height=0.5, label="MUX\nID: 199"];
	NodeCast200 [label="{HWOffsetFix:23, -23, UNSIGNED}\nID: 200"];
	NodeCat215 [label="@\nID: 215"];
	NodeReinterpret216 [label="<{HWFloat:8, 24}>\nID: 216"];
	NodeConstantRawBits223 [shape=box, label="0.0\nID: 223"];
	NodeConstantRawBits224 [shape=box, label="255.0\nID: 224"];
	NodeConstantRawBits226 [shape=box, label="0.0\nID: 226"];
	NodeCat474 [label="@\nID: 474"];
	NodeReinterpret228 [label="<{HWFloat:8, 24}>\nID: 228"];
	NodeConstantRawBits462 [shape=box, label="0.0\nID: 462"];
	NodeMux231 [shape=invtrapezium, height=0.5, label="MUX\nID: 231"];
	NodeConstantDouble240 [shape=box, label="NaN\nID: 240"];
	NodeMux241 [shape=invtrapezium, height=0.5, label="MUX\nID: 241"];
	NodeConstantDouble248 [shape=box, label="1.0\nID: 248"];
	NodeAdd249 [label="+\nID: 249"];
	NodeDiv251 [label="/\nID: 251"];
	NodeSub253 [label="-\nID: 253"];
	NodeAdd255 [label="+\nID: 255"];
	NodeMul256 [label="*\nID: 256"];
	NodeAdd257 [label="+\nID: 257"];
	NodeDiv400 [label="/\nID: 400"];
	NodeMux403 [shape=invtrapezium, height=0.5, label="MUX\nID: 403"];
	NodeAdd410 [label="+\nID: 410"];
	NodeConstantRawBits21 [shape=box, label="0.12999999523162842\nID: 21"];
	NodeGt404 [label=">\nID: 404"];
	NodeConstantRawBits408 [shape=box, label="0.0\nID: 408"];
	NodeConstantDouble52 [shape=box, label="0.0\nID: 52"];
	NodeEqInlined475 [label="==\nID: 475"];
	NodeStreamOffset515 [shape=diamond, label="-106\nID: 515"];
	NodeFIFO539 [shape=plaintext, label=<<TABLE BORDER="0" CELLSPACING="0" CELLBORDER="1"> <TR><TD></TD></TR><TR><TD>67</TD></TR><TR><TD>ID: 539</TD></TR> <TR><TD></TD></TR> </TABLE>>];
	NodeMux54 [shape=invtrapezium, height=0.5, label="MUX\nID: 54"];
	NodeFIFO543 [shape=plaintext, label=<<TABLE BORDER="0" CELLSPACING="0" CELLBORDER="1"> <TR><TD></TD></TR><TR><TD>9</TD></TR><TR><TD>ID: 543</TD></TR> <TR><TD></TD></TR> </TABLE>>];
	NodeFIFO586 [shape=plaintext, label=<<TABLE BORDER="0" CELLSPACING="0" CELLBORDER="1"> <TR><TD></TD></TR><TR><TD>8</TD></TR><TR><TD>ID: 586</TD></TR> <TR><TD></TD></TR> </TABLE>>];
	NodeConstantRawBits18 [shape=box, label="0.12999999523162842\nID: 18"];
	NodeGt277 [label=">\nID: 277"];
	NodeConstantRawBits19 [shape=box, label="0.006000000052154064\nID: 19"];
	NodeGt264 [label=">\nID: 264"];
	NodeConstantDouble266 [shape=box, label="1.0\nID: 266"];
	NodeConstantRawBits14 [shape=box, label="0.07000000029802322\nID: 14"];
	NodeDiv265 [label="/\nID: 265"];
	NodeSub267 [label="-\nID: 267"];
	NodeConstantRawBits32 [shape=box, label="0.9399999976158142\nID: 32"];
	NodeMux268 [shape=invtrapezium, height=0.5, label="MUX\nID: 268"];
	NodeGt269 [label=">\nID: 269"];
	NodeMux270 [shape=invtrapezium, height=0.5, label="MUX\nID: 270"];
	NodeSub280 [label="-\nID: 280"];
	NodeConstantRawBits4 [shape=box, label="60.0\nID: 4"];
	NodeConstantRawBits35 [shape=box, label="-22.5\nID: 35"];
	NodeConstantDouble155 [shape=box, label="1.0\nID: 155"];
	NodeConstantDouble153 [shape=box, label="1.0\nID: 153"];
	NodeConstantDouble151 [shape=box, label="2.0\nID: 151"];
	NodeConstantRawBits23 [shape=box, label="65.0\nID: 23"];
	NodeConstantRawBits26 [shape=box, label="0.029999999329447746\nID: 26"];
	NodeSub60 [label="-\nID: 60"];
	NodeMul61 [label="*\nID: 61"];
	NodePO2FPMult505 [label="PO2FPMult_N1\nID: 505"];
	NodeSlice135 [label="[30:23]\nID: 135"];
	NodeConstantRawBits136 [shape=box, label="0xff\nID: 136"];
	NodeEqInlined476 [label="==\nID: 476"];
	NodeSlice134 [label="[22:0]\nID: 134"];
	NodeConstantDouble138 [shape=box, label="0.0\nID: 138"];
	NodeNeqInlined477 [label="!=\nID: 477"];
	NodeAnd140 [label="&\nID: 140"];
	NodeFIFO553 [shape=plaintext, label=<<TABLE BORDER="0" CELLSPACING="0" CELLBORDER="1"> <TR><TD></TD></TR><TR><TD>8</TD></TR><TR><TD>ID: 553</TD></TR> <TR><TD></TD></TR> </TABLE>>];
	NodeConstantRawBits64 [shape=box, label="0.0\nID: 64"];
	NodeDoubtBitOp65 [label="DoubtBitOp(ADD_DOUBT)\nID: 65"];
	NodeCast66 [label="{HWOffsetFix:36, -26, TWOSCOMPLEMENT}\nID: 66"];
	NodeConstantRawBits69 [shape=box, label="1.4426950408960693\nID: 69"];
	NodeMul68 [label="*\nID: 68"];
	NodeCast70 [label="{HWOffsetFix:36, -26, TWOSCOMPLEMENT}\nID: 70"];
	NodeDoubtBitOp79 [label="DoubtBitOp(REMOVE_DOUBT)\nID: 79"];
	NodeCast80 [label="{HWOffsetFix:10, 0, TWOSCOMPLEMENT}\nID: 80"];
	NodeFIFO544 [shape=plaintext, label=<<TABLE BORDER="0" CELLSPACING="0" CELLBORDER="1"> <TR><TD></TD></TR><TR><TD>2</TD></TR><TR><TD>ID: 544</TD></TR> <TR><TD></TD></TR> </TABLE>>];
	NodeCast102 [label="{HWOffsetFix:11, 0, TWOSCOMPLEMENT}\nID: 102"];
	NodeConstantRawBits105 [shape=box, label="1.0\nID: 105"];
	NodeConstantRawBits497 [shape=box, label="127.0\nID: 497"];
	NodeCast82 [label="{HWOffsetFix:10, -12, UNSIGNED}\nID: 82"];
	NodeReinterpret147 [label="<{HWOffsetFix:10, 0, UNSIGNED}>\nID: 147"];
	NodeROM148 [label="ROM\nID: 148"];
	NodeCast81 [label="{HWOffsetFix:2, -2, UNSIGNED}\nID: 81"];
	NodeReinterpret144 [label="<{HWOffsetFix:2, 0, UNSIGNED}>\nID: 144"];
	NodeROM145 [label="ROM\nID: 145"];
	NodeConstantRawBits86 [shape=box, label="0.69317626953125\nID: 86"];
	NodeCast83 [label="{HWOffsetFix:14, -26, UNSIGNED}\nID: 83"];
	NodeMul85 [label="*\nID: 85"];
	NodeCast87 [label="{HWOffsetFix:14, -26, UNSIGNED}\nID: 87"];
	NodeFIFO545 [shape=plaintext, label=<<TABLE BORDER="0" CELLSPACING="0" CELLBORDER="1"> <TR><TD></TD></TR><TR><TD>2</TD></TR><TR><TD>ID: 545</TD></TR> <TR><TD></TD></TR> </TABLE>>];
	NodeAdd88 [label="+\nID: 88"];
	NodeMul89 [label="*\nID: 89"];
	NodeAdd90 [label="+\nID: 90"];
	NodeCast91 [label="{HWOffsetFix:27, -26, UNSIGNED}\nID: 91"];
	NodeAdd92 [label="+\nID: 92"];
	NodeMul93 [label="*\nID: 93"];
	NodeAdd94 [label="+\nID: 94"];
	NodeCast95 [label="{HWOffsetFix:28, -26, UNSIGNED}\nID: 95"];
	NodeCast96 [label="{HWOffsetFix:24, -23, UNSIGNED}\nID: 96"];
	NodeConstantDouble97 [shape=box, label="1.0\nID: 97"];
	NodeGteInlined478 [label=">=\nID: 478"];
	NodeCondTriAdd502 [label="3 +/0\nID: 502"];
	NodeSlice479 [label="[10:10]\nID: 479"];
	NodeReinterpret480 [label="<{HWOffsetFix:1, 0, UNSIGNED}>\nID: 480"];
	NodeConstantDouble71 [shape=box, label="0.0\nID: 71"];
	NodeGt72 [label=">\nID: 72"];
	NodeFIFO547 [shape=plaintext, label=<<TABLE BORDER="0" CELLSPACING="0" CELLBORDER="1"> <TR><TD></TD></TR><TR><TD>6</TD></TR><TR><TD>ID: 547</TD></TR> <TR><TD></TD></TR> </TABLE>>];
	NodeDoubtBitOp73 [label="DoubtBitOp(GET_DOUBT)\nID: 73"];
	NodeAnd74 [label="&\nID: 74"];
	NodeFIFO548 [shape=plaintext, label=<<TABLE BORDER="0" CELLSPACING="0" CELLBORDER="1"> <TR><TD></TD></TR><TR><TD>2</TD></TR><TR><TD>ID: 548</TD></TR> <TR><TD></TD></TR> </TABLE>>];
	NodeNot111 [label="~\nID: 111"];
	NodeAnd112 [label="&\nID: 112"];
	NodeConstantDouble75 [shape=box, label="0.0\nID: 75"];
	NodeLt76 [label="<\nID: 76"];
	NodeFIFO549 [shape=plaintext, label=<<TABLE BORDER="0" CELLSPACING="0" CELLBORDER="1"> <TR><TD></TD></TR><TR><TD>6</TD></TR><TR><TD>ID: 549</TD></TR> <TR><TD></TD></TR> </TABLE>>];
	NodeDoubtBitOp77 [label="DoubtBitOp(GET_DOUBT)\nID: 77"];
	NodeAnd78 [label="&\nID: 78"];
	NodeFIFO550 [shape=plaintext, label=<<TABLE BORDER="0" CELLSPACING="0" CELLBORDER="1"> <TR><TD></TD></TR><TR><TD>2</TD></TR><TR><TD>ID: 550</TD></TR> <TR><TD></TD></TR> </TABLE>>];
	NodeOr113 [label="|\nID: 113"];
	NodeConstantDouble118 [shape=box, label="255.0\nID: 118"];
	NodeGteInlined481 [label=">=\nID: 481"];
	NodeNot120 [label="~\nID: 120"];
	NodeAnd121 [label="&\nID: 121"];
	NodeOr122 [label="|\nID: 122"];
	NodeCat123 [label="@\nID: 123"];
	NodeConstantRawBits115 [shape=box, label="0.0\nID: 115"];
	NodeCast114 [label="{HWOffsetFix:8, 0, TWOSCOMPLEMENT}\nID: 114"];
	NodeConstantRawBits99 [shape=box, label="0.0\nID: 99"];
	NodeMux100 [shape=invtrapezium, height=0.5, label="MUX\nID: 100"];
	NodeCast101 [label="{HWOffsetFix:23, -23, UNSIGNED}\nID: 101"];
	NodeCat116 [label="@\nID: 116"];
	NodeReinterpret117 [label="<{HWFloat:8, 24}>\nID: 117"];
	NodeConstantRawBits124 [shape=box, label="0.0\nID: 124"];
	NodeConstantRawBits125 [shape=box, label="255.0\nID: 125"];
	NodeConstantRawBits127 [shape=box, label="0.0\nID: 127"];
	NodeCat482 [label="@\nID: 482"];
	NodeReinterpret129 [label="<{HWFloat:8, 24}>\nID: 129"];
	NodeConstantRawBits463 [shape=box, label="0.0\nID: 463"];
	NodeMux132 [shape=invtrapezium, height=0.5, label="MUX\nID: 132"];
	NodeConstantDouble141 [shape=box, label="NaN\nID: 141"];
	NodeMux142 [shape=invtrapezium, height=0.5, label="MUX\nID: 142"];
	NodeConstantDouble149 [shape=box, label="1.0\nID: 149"];
	NodeAdd150 [label="+\nID: 150"];
	NodeDiv152 [label="/\nID: 152"];
	NodeSub154 [label="-\nID: 154"];
	NodeAdd156 [label="+\nID: 156"];
	NodeMul157 [label="*\nID: 157"];
	NodeAdd158 [label="+\nID: 158"];
	NodeDiv281 [label="/\nID: 281"];
	NodeNeg278 [label="(-)\nID: 278"];
	NodeConstantRawBits3 [shape=box, label="200.0\nID: 3"];
	NodeDiv279 [label="/\nID: 279"];
	NodeMux282 [shape=invtrapezium, height=0.5, label="MUX\nID: 282"];
	NodeMul386 [label="*\nID: 386"];
	NodeAdd387 [label="+\nID: 387"];
	NodeFIFO538 [shape=plaintext, label=<<TABLE BORDER="0" CELLSPACING="0" CELLBORDER="1"> <TR><TD></TD></TR><TR><TD>10</TD></TR><TR><TD>ID: 538</TD></TR> <TR><TD></TD></TR> </TABLE>>];
	NodeNeg405 [label="(-)\nID: 405"];
	NodeConstantDouble55 [shape=box, label="0.0\nID: 55"];
	NodeEqInlined483 [label="==\nID: 483"];
	NodeStreamOffset516 [shape=diamond, label="-106\nID: 516"];
	NodeFIFO558 [shape=plaintext, label=<<TABLE BORDER="0" CELLSPACING="0" CELLBORDER="1"> <TR><TD></TD></TR><TR><TD>67</TD></TR><TR><TD>ID: 558</TD></TR> <TR><TD></TD></TR> </TABLE>>];
	NodeMux57 [shape=invtrapezium, height=0.5, label="MUX\nID: 57"];
	NodeFIFO569 [shape=plaintext, label=<<TABLE BORDER="0" CELLSPACING="0" CELLBORDER="1"> <TR><TD></TD></TR><TR><TD>10</TD></TR><TR><TD>ID: 569</TD></TR> <TR><TD></TD></TR> </TABLE>>];
	NodeFIFO587 [shape=plaintext, label=<<TABLE BORDER="0" CELLSPACING="0" CELLBORDER="1"> <TR><TD></TD></TR><TR><TD>8</TD></TR><TR><TD>ID: 587</TD></TR> <TR><TD></TD></TR> </TABLE>>];
	NodeConstantDouble378 [shape=box, label="1.0\nID: 378"];
	NodeConstantDouble376 [shape=box, label="1.0\nID: 376"];
	NodeConstantDouble374 [shape=box, label="2.0\nID: 374"];
	NodeConstantRawBits24 [shape=box, label="2.099400043487549\nID: 24"];
	NodeConstantRawBits27 [shape=box, label="0.9086999893188477\nID: 27"];
	NodeSub283 [label="-\nID: 283"];
	NodeMul284 [label="*\nID: 284"];
	NodePO2FPMult506 [label="PO2FPMult_N1\nID: 506"];
	NodeSlice358 [label="[30:23]\nID: 358"];
	NodeConstantRawBits359 [shape=box, label="0xff\nID: 359"];
	NodeEqInlined484 [label="==\nID: 484"];
	NodeSlice357 [label="[22:0]\nID: 357"];
	NodeConstantDouble361 [shape=box, label="0.0\nID: 361"];
	NodeNeqInlined485 [label="!=\nID: 485"];
	NodeAnd363 [label="&\nID: 363"];
	NodeFIFO568 [shape=plaintext, label=<<TABLE BORDER="0" CELLSPACING="0" CELLBORDER="1"> <TR><TD></TD></TR><TR><TD>8</TD></TR><TR><TD>ID: 568</TD></TR> <TR><TD></TD></TR> </TABLE>>];
	NodeConstantRawBits287 [shape=box, label="0.0\nID: 287"];
	NodeDoubtBitOp288 [label="DoubtBitOp(ADD_DOUBT)\nID: 288"];
	NodeCast289 [label="{HWOffsetFix:36, -26, TWOSCOMPLEMENT}\nID: 289"];
	NodeConstantRawBits292 [shape=box, label="1.4426950408960693\nID: 292"];
	NodeMul291 [label="*\nID: 291"];
	NodeCast293 [label="{HWOffsetFix:36, -26, TWOSCOMPLEMENT}\nID: 293"];
	NodeDoubtBitOp302 [label="DoubtBitOp(REMOVE_DOUBT)\nID: 302"];
	NodeCast303 [label="{HWOffsetFix:10, 0, TWOSCOMPLEMENT}\nID: 303"];
	NodeFIFO559 [shape=plaintext, label=<<TABLE BORDER="0" CELLSPACING="0" CELLBORDER="1"> <TR><TD></TD></TR><TR><TD>2</TD></TR><TR><TD>ID: 559</TD></TR> <TR><TD></TD></TR> </TABLE>>];
	NodeCast325 [label="{HWOffsetFix:11, 0, TWOSCOMPLEMENT}\nID: 325"];
	NodeConstantRawBits328 [shape=box, label="1.0\nID: 328"];
	NodeConstantRawBits499 [shape=box, label="127.0\nID: 499"];
	NodeCast305 [label="{HWOffsetFix:10, -12, UNSIGNED}\nID: 305"];
	NodeReinterpret370 [label="<{HWOffsetFix:10, 0, UNSIGNED}>\nID: 370"];
	NodeROM371 [label="ROM\nID: 371"];
	NodeCast304 [label="{HWOffsetFix:2, -2, UNSIGNED}\nID: 304"];
	NodeReinterpret367 [label="<{HWOffsetFix:2, 0, UNSIGNED}>\nID: 367"];
	NodeROM368 [label="ROM\nID: 368"];
	NodeConstantRawBits309 [shape=box, label="0.69317626953125\nID: 309"];
	NodeCast306 [label="{HWOffsetFix:14, -26, UNSIGNED}\nID: 306"];
	NodeMul308 [label="*\nID: 308"];
	NodeCast310 [label="{HWOffsetFix:14, -26, UNSIGNED}\nID: 310"];
	NodeFIFO560 [shape=plaintext, label=<<TABLE BORDER="0" CELLSPACING="0" CELLBORDER="1"> <TR><TD></TD></TR><TR><TD>2</TD></TR><TR><TD>ID: 560</TD></TR> <TR><TD></TD></TR> </TABLE>>];
	NodeAdd311 [label="+\nID: 311"];
	NodeMul312 [label="*\nID: 312"];
	NodeAdd313 [label="+\nID: 313"];
	NodeCast314 [label="{HWOffsetFix:27, -26, UNSIGNED}\nID: 314"];
	NodeAdd315 [label="+\nID: 315"];
	NodeMul316 [label="*\nID: 316"];
	NodeAdd317 [label="+\nID: 317"];
	NodeCast318 [label="{HWOffsetFix:28, -26, UNSIGNED}\nID: 318"];
	NodeCast319 [label="{HWOffsetFix:24, -23, UNSIGNED}\nID: 319"];
	NodeConstantDouble320 [shape=box, label="1.0\nID: 320"];
	NodeGteInlined486 [label=">=\nID: 486"];
	NodeCondTriAdd501 [label="3 +/0\nID: 501"];
	NodeSlice487 [label="[10:10]\nID: 487"];
	NodeReinterpret488 [label="<{HWOffsetFix:1, 0, UNSIGNED}>\nID: 488"];
	NodeConstantDouble294 [shape=box, label="0.0\nID: 294"];
	NodeGt295 [label=">\nID: 295"];
	NodeFIFO562 [shape=plaintext, label=<<TABLE BORDER="0" CELLSPACING="0" CELLBORDER="1"> <TR><TD></TD></TR><TR><TD>6</TD></TR><TR><TD>ID: 562</TD></TR> <TR><TD></TD></TR> </TABLE>>];
	NodeDoubtBitOp296 [label="DoubtBitOp(GET_DOUBT)\nID: 296"];
	NodeAnd297 [label="&\nID: 297"];
	NodeFIFO563 [shape=plaintext, label=<<TABLE BORDER="0" CELLSPACING="0" CELLBORDER="1"> <TR><TD></TD></TR><TR><TD>2</TD></TR><TR><TD>ID: 563</TD></TR> <TR><TD></TD></TR> </TABLE>>];
	NodeNot334 [label="~\nID: 334"];
	NodeAnd335 [label="&\nID: 335"];
	NodeConstantDouble298 [shape=box, label="0.0\nID: 298"];
	NodeLt299 [label="<\nID: 299"];
	NodeFIFO564 [shape=plaintext, label=<<TABLE BORDER="0" CELLSPACING="0" CELLBORDER="1"> <TR><TD></TD></TR><TR><TD>6</TD></TR><TR><TD>ID: 564</TD></TR> <TR><TD></TD></TR> </TABLE>>];
	NodeDoubtBitOp300 [label="DoubtBitOp(GET_DOUBT)\nID: 300"];
	NodeAnd301 [label="&\nID: 301"];
	NodeFIFO565 [shape=plaintext, label=<<TABLE BORDER="0" CELLSPACING="0" CELLBORDER="1"> <TR><TD></TD></TR><TR><TD>2</TD></TR><TR><TD>ID: 565</TD></TR> <TR><TD></TD></TR> </TABLE>>];
	NodeOr336 [label="|\nID: 336"];
	NodeConstantDouble341 [shape=box, label="255.0\nID: 341"];
	NodeGteInlined489 [label=">=\nID: 489"];
	NodeNot343 [label="~\nID: 343"];
	NodeAnd344 [label="&\nID: 344"];
	NodeOr345 [label="|\nID: 345"];
	NodeCat346 [label="@\nID: 346"];
	NodeConstantRawBits338 [shape=box, label="0.0\nID: 338"];
	NodeCast337 [label="{HWOffsetFix:8, 0, TWOSCOMPLEMENT}\nID: 337"];
	NodeConstantRawBits322 [shape=box, label="0.0\nID: 322"];
	NodeMux323 [shape=invtrapezium, height=0.5, label="MUX\nID: 323"];
	NodeCast324 [label="{HWOffsetFix:23, -23, UNSIGNED}\nID: 324"];
	NodeCat339 [label="@\nID: 339"];
	NodeReinterpret340 [label="<{HWFloat:8, 24}>\nID: 340"];
	NodeConstantRawBits347 [shape=box, label="0.0\nID: 347"];
	NodeConstantRawBits348 [shape=box, label="255.0\nID: 348"];
	NodeConstantRawBits350 [shape=box, label="0.0\nID: 350"];
	NodeCat490 [label="@\nID: 490"];
	NodeReinterpret352 [label="<{HWFloat:8, 24}>\nID: 352"];
	NodeConstantRawBits464 [shape=box, label="0.0\nID: 464"];
	NodeMux355 [shape=invtrapezium, height=0.5, label="MUX\nID: 355"];
	NodeConstantDouble364 [shape=box, label="NaN\nID: 364"];
	NodeMux365 [shape=invtrapezium, height=0.5, label="MUX\nID: 365"];
	NodeConstantDouble372 [shape=box, label="1.0\nID: 372"];
	NodeAdd373 [label="+\nID: 373"];
	NodeDiv375 [label="/\nID: 375"];
	NodeSub377 [label="-\nID: 377"];
	NodeAdd379 [label="+\nID: 379"];
	NodePO2FPMult507 [label="PO2FPMult_N-1\nID: 507"];
	NodeSub382 [label="-\nID: 382"];
	NodeGt258 [label=">\nID: 258"];
	NodeConstantRawBits6 [shape=box, label="2.7342000007629395\nID: 6"];
	NodeConstantRawBits7 [shape=box, label="16.0\nID: 7"];
	NodeMux259 [shape=invtrapezium, height=0.5, label="MUX\nID: 259"];
	NodeDiv383 [label="/\nID: 383"];
	NodeMul388 [label="*\nID: 388"];
	NodeAdd389 [label="+\nID: 389"];
	NodeFIFO557 [shape=plaintext, label=<<TABLE BORDER="0" CELLSPACING="0" CELLBORDER="1"> <TR><TD></TD></TR><TR><TD>9</TD></TR><TR><TD>ID: 557</TD></TR> <TR><TD></TD></TR> </TABLE>>];
	NodeMul406 [label="*\nID: 406"];
	NodeConstantRawBits13 [shape=box, label="1.8875000476837158\nID: 13"];
	NodeDiv407 [label="/\nID: 407"];
	NodeMux409 [shape=invtrapezium, height=0.5, label="MUX\nID: 409"];
	NodeAdd411 [label="+\nID: 411"];
	NodeMul412 [label="*\nID: 412"];
	NodeSub413 [label="-\nID: 413"];
	NodeOutput425 [shape=house, label="u_out\nID: 425"];
	NodeConstantDouble427 [shape=box, label="1.0\nID: 427"];
	NodeSub428 [label="-\nID: 428"];
	NodeEqInlined491 [label="==\nID: 491"];
	NodeOutput433 [shape=house, label="v_out\nID: 433"];
	NodeConstantDouble435 [shape=box, label="1.0\nID: 435"];
	NodeSub436 [label="-\nID: 436"];
	NodeEqInlined492 [label="==\nID: 492"];
	NodeOutput441 [shape=house, label="w_out\nID: 441"];
	NodeConstantDouble443 [shape=box, label="1.0\nID: 443"];
	NodeSub444 [label="-\nID: 444"];
	NodeEqInlined493 [label="==\nID: 493"];
	NodeOutput449 [shape=house, label="s_out\nID: 449"];
	NodeEvalStreamOffset512 -> NodeFIFO517[headport="n" color="/dark28/1" photon_data="EDGE,SrcNode:512,SrcNodePort:output"];
	NodeConstantRawBits40 -> NodeCounter43[label="enable" color="/dark28/2" photon_data="EDGE,SrcNode:40,SrcNodePort:value"];
	NodeFIFO517 -> NodeCounter43[label="max" tailport="s" color="/dark28/3" photon_data="EDGE,SrcNode:517,SrcNodePort:output"];
	NodeEvalStreamOffset512 -> NodeSub420[color="/dark28/4" photon_data="EDGE,SrcNode:512,SrcNodePort:output"];
	NodeConstantDouble419 -> NodeSub420[color="/dark28/5" photon_data="EDGE,SrcNode:419,SrcNodePort:value"];
	NodeCounter43 -> NodeEqInlined465[color="/dark28/6" photon_data="EDGE,SrcNode:43,SrcNodePort:count"];
	NodeSub420 -> NodeEqInlined465[color="/dark28/7" photon_data="EDGE,SrcNode:420,SrcNodePort:result"];
	NodeEqInlined465 -> NodeFIFO574[color="/dark28/8" ];
	NodeCounter43 -> NodeCounter42[label="enable" color="/dark28/1" photon_data="EDGE,SrcNode:43,SrcNodePort:wrap"];
	NodeInputMappedReg41 -> NodeCounter42[label="max" color="/dark28/2" photon_data="EDGE,SrcNode:41,SrcNodePort:num_iteration"];
	NodeCounter42 -> NodeEqInlined466[color="/dark28/3" photon_data="EDGE,SrcNode:42,SrcNodePort:count"];
	NodeConstantDouble46 -> NodeEqInlined466[color="/dark28/4" photon_data="EDGE,SrcNode:46,SrcNodePort:value"];
	NodeSub413 -> NodeStreamOffset513[headport="n" tailport="s" color=red photon_data="EDGE,SrcNode:413,SrcNodePort:result"];
	NodeEqInlined466 -> NodeMux48[headport="w" color="/dark28/5" photon_data="EDGE,SrcNode:466,SrcNodePort:result"];
	NodeStreamOffset513 -> NodeMux48[color="/dark28/6" photon_data="EDGE,SrcNode:513,SrcNodePort:output"];
	NodeConstantRawBits38 -> NodeMux48[color="/dark28/7" photon_data="EDGE,SrcNode:38,SrcNodePort:value"];
	NodeMux48 -> NodeFIFO521[headport="n" color="/dark28/8" photon_data="EDGE,SrcNode:48,SrcNodePort:result"];
	NodeFIFO521 -> NodeFIFO578[tailport="s" headport="n" color="/dark28/1" photon_data="EDGE,SrcNode:521,SrcNodePort:output"];
	NodeFIFO578 -> NodeFIFO579[tailport="s" headport="n" color="/dark28/2" photon_data="EDGE,SrcNode:578,SrcNodePort:output"];
	NodeFIFO579 -> NodeFIFO580[tailport="s" headport="n" color="/dark28/3" photon_data="EDGE,SrcNode:579,SrcNodePort:output"];
	NodeFIFO580 -> NodeFIFO581[tailport="s" headport="n" color="/dark28/4" photon_data="EDGE,SrcNode:580,SrcNodePort:output"];
	NodeFIFO581 -> NodeFIFO582[tailport="s" headport="n" color="/dark28/5" photon_data="EDGE,SrcNode:581,SrcNodePort:output"];
	NodeFIFO582 -> NodeFIFO583[tailport="s" headport="n" color="/dark28/6" photon_data="EDGE,SrcNode:582,SrcNodePort:output"];
	NodeFIFO583 -> NodeFIFO584[tailport="s" headport="n" color="/dark28/7" photon_data="EDGE,SrcNode:583,SrcNodePort:output"];
	NodeFIFO584 -> NodeFIFO585[tailport="s" headport="n" color="/dark28/8" photon_data="EDGE,SrcNode:584,SrcNodePort:output"];
	NodeFIFO583 -> NodeGt390[tailport="s" color="/dark28/1" photon_data="EDGE,SrcNode:583,SrcNodePort:output"];
	NodeConstantRawBits15 -> NodeGt390[color="/dark28/2" photon_data="EDGE,SrcNode:15,SrcNodePort:value"];
	NodeCounter42 -> NodeEqInlined467[color="/dark28/3" photon_data="EDGE,SrcNode:42,SrcNodePort:count"];
	NodeConstantDouble49 -> NodeEqInlined467[color="/dark28/4" photon_data="EDGE,SrcNode:49,SrcNodePort:value"];
	NodeAdd385 -> NodeStreamOffset514[headport="n" tailport="s" color=red photon_data="EDGE,SrcNode:385,SrcNodePort:result"];
	NodeStreamOffset514 -> NodeFIFO519[headport="n" color="/dark28/5" photon_data="EDGE,SrcNode:514,SrcNodePort:output"];
	NodeEqInlined467 -> NodeMux51[headport="w" color="/dark28/6" photon_data="EDGE,SrcNode:467,SrcNodePort:result"];
	NodeFIFO519 -> NodeMux51[tailport="s" color="/dark28/7" photon_data="EDGE,SrcNode:519,SrcNodePort:output"];
	NodeConstantRawBits38 -> NodeMux51[color="/dark28/8" photon_data="EDGE,SrcNode:38,SrcNodePort:value"];
	NodeMux51 -> NodeFIFO520[headport="n" color="/dark28/1" photon_data="EDGE,SrcNode:51,SrcNodePort:result"];
	NodeMux48 -> NodeGt271[color="/dark28/2" photon_data="EDGE,SrcNode:48,SrcNodePort:result"];
	NodeConstantRawBits15 -> NodeGt271[color="/dark28/3" photon_data="EDGE,SrcNode:15,SrcNodePort:value"];
	NodeMux48 -> NodeGt262[color="/dark28/4" photon_data="EDGE,SrcNode:48,SrcNodePort:result"];
	NodeConstantRawBits17 -> NodeGt262[color="/dark28/5" photon_data="EDGE,SrcNode:17,SrcNodePort:value"];
	NodeGt262 -> NodeMux263[headport="w" color="/dark28/6" photon_data="EDGE,SrcNode:262,SrcNodePort:result"];
	NodeConstantRawBits38 -> NodeMux263[color="/dark28/7" photon_data="EDGE,SrcNode:38,SrcNodePort:value"];
	NodeConstantRawBits37 -> NodeMux263[color="/dark28/8" photon_data="EDGE,SrcNode:37,SrcNodePort:value"];
	NodeMux263 -> NodeSub274[color="/dark28/1" photon_data="EDGE,SrcNode:263,SrcNodePort:result"];
	NodeMux51 -> NodeSub274[color="/dark28/2" photon_data="EDGE,SrcNode:51,SrcNodePort:result"];
	NodeMux48 -> NodeGt58[color="/dark28/3" photon_data="EDGE,SrcNode:48,SrcNodePort:result"];
	NodeConstantRawBits16 -> NodeGt58[color="/dark28/4" photon_data="EDGE,SrcNode:16,SrcNodePort:value"];
	NodeGt58 -> NodeMux59[headport="w" color="/dark28/5" photon_data="EDGE,SrcNode:58,SrcNodePort:result"];
	NodeConstantRawBits1 -> NodeMux59[color="/dark28/6" photon_data="EDGE,SrcNode:1,SrcNodePort:value"];
	NodeConstantRawBits2 -> NodeMux59[color="/dark28/7" photon_data="EDGE,SrcNode:2,SrcNodePort:value"];
	NodeSub274 -> NodeDiv275[color="/dark28/8" photon_data="EDGE,SrcNode:274,SrcNodePort:result"];
	NodeMux59 -> NodeDiv275[color="/dark28/1" photon_data="EDGE,SrcNode:59,SrcNodePort:result"];
	NodeMux51 -> NodeNeg272[color="/dark28/2" photon_data="EDGE,SrcNode:51,SrcNodePort:result"];
	NodeNeg272 -> NodeDiv273[color="/dark28/3" photon_data="EDGE,SrcNode:272,SrcNodePort:result"];
	NodeConstantRawBits0 -> NodeDiv273[color="/dark28/4" photon_data="EDGE,SrcNode:0,SrcNodePort:value"];
	NodeGt271 -> NodeMux276[headport="w" color="/dark28/5" photon_data="EDGE,SrcNode:271,SrcNodePort:result"];
	NodeDiv275 -> NodeMux276[color="/dark28/6" photon_data="EDGE,SrcNode:275,SrcNodePort:result"];
	NodeDiv273 -> NodeMux276[color="/dark28/7" photon_data="EDGE,SrcNode:273,SrcNodePort:result"];
	NodeInputMappedReg44 -> NodeCast45[color="/dark28/8" photon_data="EDGE,SrcNode:44,SrcNodePort:dt"];
	NodeMux276 -> NodeMul384[color="/dark28/1" photon_data="EDGE,SrcNode:276,SrcNodePort:result"];
	NodeCast45 -> NodeMul384[color="/dark28/2" photon_data="EDGE,SrcNode:45,SrcNodePort:o"];
	NodeFIFO520 -> NodeAdd385[tailport="s" color="/dark28/3" photon_data="EDGE,SrcNode:520,SrcNodePort:output"];
	NodeMul384 -> NodeAdd385[color="/dark28/4" photon_data="EDGE,SrcNode:384,SrcNodePort:result"];
	NodeAdd385 -> NodeNeg391[color="/dark28/5" photon_data="EDGE,SrcNode:385,SrcNodePort:result"];
	NodeFIFO521 -> NodeSub392[tailport="s" color="/dark28/6" photon_data="EDGE,SrcNode:521,SrcNodePort:output"];
	NodeConstantRawBits15 -> NodeSub392[color="/dark28/7" photon_data="EDGE,SrcNode:15,SrcNodePort:value"];
	NodeNeg391 -> NodeMul393[color="/dark28/8" photon_data="EDGE,SrcNode:391,SrcNodePort:result"];
	NodeSub392 -> NodeMul393[color="/dark28/1" photon_data="EDGE,SrcNode:392,SrcNodePort:result"];
	NodeConstantRawBits29 -> NodeSub394[color="/dark28/2" photon_data="EDGE,SrcNode:29,SrcNodePort:value"];
	NodeFIFO580 -> NodeSub394[tailport="s" color="/dark28/3" photon_data="EDGE,SrcNode:580,SrcNodePort:output"];
	NodeMul393 -> NodeMul395[color="/dark28/4" photon_data="EDGE,SrcNode:393,SrcNodePort:result"];
	NodeSub394 -> NodeMul395[color="/dark28/5" photon_data="EDGE,SrcNode:394,SrcNodePort:result"];
	NodeMul395 -> NodeDiv396[color="/dark28/6" photon_data="EDGE,SrcNode:395,SrcNodePort:result"];
	NodeConstantRawBits8 -> NodeDiv396[color="/dark28/7" photon_data="EDGE,SrcNode:8,SrcNodePort:value"];
	NodeGt390 -> NodeMux397[headport="w" color="/dark28/8" photon_data="EDGE,SrcNode:390,SrcNodePort:result"];
	NodeConstantRawBits37 -> NodeMux397[color="/dark28/1" photon_data="EDGE,SrcNode:37,SrcNodePort:value"];
	NodeDiv396 -> NodeMux397[color="/dark28/2" photon_data="EDGE,SrcNode:396,SrcNodePort:result"];
	NodeFIFO583 -> NodeGt398[tailport="s" color="/dark28/3" photon_data="EDGE,SrcNode:583,SrcNodePort:output"];
	NodeConstantRawBits20 -> NodeGt398[color="/dark28/4" photon_data="EDGE,SrcNode:20,SrcNodePort:value"];
	NodeFIFO582 -> NodeGt260[tailport="s" color="/dark28/5" photon_data="EDGE,SrcNode:582,SrcNodePort:output"];
	NodeConstantRawBits22 -> NodeGt260[color="/dark28/6" photon_data="EDGE,SrcNode:22,SrcNodePort:value"];
	NodeGt260 -> NodeMux261[headport="w" color="/dark28/7" photon_data="EDGE,SrcNode:260,SrcNodePort:result"];
	NodeConstantRawBits9 -> NodeMux261[color="/dark28/8" photon_data="EDGE,SrcNode:9,SrcNodePort:value"];
	NodeConstantRawBits10 -> NodeMux261[color="/dark28/1" photon_data="EDGE,SrcNode:10,SrcNodePort:value"];
	NodeFIFO582 -> NodeDiv402[tailport="s" color="/dark28/2" photon_data="EDGE,SrcNode:582,SrcNodePort:output"];
	NodeMux261 -> NodeDiv402[color="/dark28/3" photon_data="EDGE,SrcNode:261,SrcNodePort:result"];
	NodeFIFO581 -> NodeSub159[tailport="s" color="/dark28/4" photon_data="EDGE,SrcNode:581,SrcNodePort:output"];
	NodeConstantRawBits30 -> NodeSub159[color="/dark28/5" photon_data="EDGE,SrcNode:30,SrcNodePort:value"];
	NodeConstantRawBits25 -> NodeMul160[color="/dark28/6" photon_data="EDGE,SrcNode:25,SrcNodePort:value"];
	NodeSub159 -> NodeMul160[color="/dark28/7" photon_data="EDGE,SrcNode:159,SrcNodePort:result"];
	NodeMul160 -> NodePO2FPMult504[color="/dark28/8" photon_data="EDGE,SrcNode:160,SrcNodePort:result"];
	NodePO2FPMult504 -> NodeSlice234[color="/dark28/1" photon_data="EDGE,SrcNode:504,SrcNodePort:floatOut"];
	NodeSlice234 -> NodeEqInlined468[color="/dark28/2" photon_data="EDGE,SrcNode:234,SrcNodePort:result"];
	NodeConstantRawBits235 -> NodeEqInlined468[color="/dark28/3" photon_data="EDGE,SrcNode:235,SrcNodePort:value"];
	NodePO2FPMult504 -> NodeSlice233[color="/dark28/4" photon_data="EDGE,SrcNode:504,SrcNodePort:floatOut"];
	NodeSlice233 -> NodeNeqInlined469[color="/dark28/5" photon_data="EDGE,SrcNode:233,SrcNodePort:result"];
	NodeConstantDouble237 -> NodeNeqInlined469[color="/dark28/6" photon_data="EDGE,SrcNode:237,SrcNodePort:value"];
	NodeEqInlined468 -> NodeAnd239[color="/dark28/7" photon_data="EDGE,SrcNode:468,SrcNodePort:result"];
	NodeNeqInlined469 -> NodeAnd239[color="/dark28/8" photon_data="EDGE,SrcNode:469,SrcNodePort:result"];
	NodeAnd239 -> NodeFIFO536[headport="n" color="/dark28/1" photon_data="EDGE,SrcNode:239,SrcNodePort:result"];
	NodePO2FPMult504 -> NodeDoubtBitOp164[color="/dark28/2" photon_data="EDGE,SrcNode:504,SrcNodePort:floatOut"];
	NodeConstantRawBits163 -> NodeDoubtBitOp164[color="/dark28/3" photon_data="EDGE,SrcNode:163,SrcNodePort:value"];
	NodeDoubtBitOp164 -> NodeCast165[color="/dark28/4" style=dashed photon_data="EDGE,SrcNode:164,SrcNodePort:output"];
	NodeCast165 -> NodeMul167[color="/dark28/5" style=dashed photon_data="EDGE,SrcNode:165,SrcNodePort:o"];
	NodeConstantRawBits168 -> NodeMul167[color="/dark28/6" photon_data="EDGE,SrcNode:168,SrcNodePort:value"];
	NodeMul167 -> NodeCast169[color="/dark28/7" style=dashed photon_data="EDGE,SrcNode:167,SrcNodePort:result"];
	NodeCast169 -> NodeDoubtBitOp178[color="/dark28/8" style=dashed photon_data="EDGE,SrcNode:169,SrcNodePort:o"];
	NodeDoubtBitOp178 -> NodeCast179[color="/dark28/1" photon_data="EDGE,SrcNode:178,SrcNodePort:output"];
	NodeCast179 -> NodeFIFO527[headport="n" color="/dark28/2" photon_data="EDGE,SrcNode:179,SrcNodePort:o"];
	NodeFIFO527 -> NodeCast201[tailport="s" color="/dark28/3" photon_data="EDGE,SrcNode:527,SrcNodePort:output"];
	NodeDoubtBitOp178 -> NodeCast181[color="/dark28/4" photon_data="EDGE,SrcNode:178,SrcNodePort:output"];
	NodeCast181 -> NodeReinterpret246[color="/dark28/5" photon_data="EDGE,SrcNode:181,SrcNodePort:o"];
	NodeReinterpret246 -> NodeROM247[color="/dark28/6" photon_data="EDGE,SrcNode:246,SrcNodePort:output"];
	NodeDoubtBitOp178 -> NodeCast180[color="/dark28/7" photon_data="EDGE,SrcNode:178,SrcNodePort:output"];
	NodeCast180 -> NodeReinterpret243[color="/dark28/8" photon_data="EDGE,SrcNode:180,SrcNodePort:o"];
	NodeReinterpret243 -> NodeROM244[color="/dark28/1" photon_data="EDGE,SrcNode:243,SrcNodePort:output"];
	NodeDoubtBitOp178 -> NodeCast182[color="/dark28/2" photon_data="EDGE,SrcNode:178,SrcNodePort:output"];
	NodeConstantRawBits185 -> NodeMul184[color="/dark28/3" photon_data="EDGE,SrcNode:185,SrcNodePort:value"];
	NodeCast182 -> NodeMul184[color="/dark28/4" photon_data="EDGE,SrcNode:182,SrcNodePort:o"];
	NodeMul184 -> NodeCast186[color="/dark28/5" photon_data="EDGE,SrcNode:184,SrcNodePort:result"];
	NodeCast186 -> NodeFIFO528[headport="n" color="/dark28/6" photon_data="EDGE,SrcNode:186,SrcNodePort:o"];
	NodeROM244 -> NodeAdd187[color="/dark28/7" photon_data="EDGE,SrcNode:244,SrcNodePort:dout"];
	NodeFIFO528 -> NodeAdd187[tailport="s" color="/dark28/8" photon_data="EDGE,SrcNode:528,SrcNodePort:output"];
	NodeFIFO528 -> NodeMul188[tailport="s" color="/dark28/1" photon_data="EDGE,SrcNode:528,SrcNodePort:output"];
	NodeROM244 -> NodeMul188[color="/dark28/2" photon_data="EDGE,SrcNode:244,SrcNodePort:dout"];
	NodeAdd187 -> NodeAdd189[color="/dark28/3" photon_data="EDGE,SrcNode:187,SrcNodePort:result"];
	NodeMul188 -> NodeAdd189[color="/dark28/4" photon_data="EDGE,SrcNode:188,SrcNodePort:result"];
	NodeAdd189 -> NodeCast190[color="/dark28/5" photon_data="EDGE,SrcNode:189,SrcNodePort:result"];
	NodeROM247 -> NodeAdd191[color="/dark28/6" photon_data="EDGE,SrcNode:247,SrcNodePort:dout"];
	NodeCast190 -> NodeAdd191[color="/dark28/7" photon_data="EDGE,SrcNode:190,SrcNodePort:o"];
	NodeCast190 -> NodeMul192[color="/dark28/8" photon_data="EDGE,SrcNode:190,SrcNodePort:o"];
	NodeROM247 -> NodeMul192[color="/dark28/1" photon_data="EDGE,SrcNode:247,SrcNodePort:dout"];
	NodeAdd191 -> NodeAdd193[color="/dark28/2" photon_data="EDGE,SrcNode:191,SrcNodePort:result"];
	NodeMul192 -> NodeAdd193[color="/dark28/3" photon_data="EDGE,SrcNode:192,SrcNodePort:result"];
	NodeAdd193 -> NodeCast194[color="/dark28/4" photon_data="EDGE,SrcNode:193,SrcNodePort:result"];
	NodeCast194 -> NodeCast195[color="/dark28/5" photon_data="EDGE,SrcNode:194,SrcNodePort:o"];
	NodeCast195 -> NodeGteInlined470[color="/dark28/6" photon_data="EDGE,SrcNode:195,SrcNodePort:o"];
	NodeConstantDouble196 -> NodeGteInlined470[color="/dark28/7" photon_data="EDGE,SrcNode:196,SrcNodePort:value"];
	NodeCast201 -> NodeCondTriAdd503[color="/dark28/8" photon_data="EDGE,SrcNode:201,SrcNodePort:o"];
	NodeConstantRawBits204 -> NodeCondTriAdd503[color="/dark28/1" photon_data="EDGE,SrcNode:204,SrcNodePort:value"];
	NodeConstantRawBits495 -> NodeCondTriAdd503[color="/dark28/2" photon_data="EDGE,SrcNode:495,SrcNodePort:value"];
	NodeGteInlined470 -> NodeCondTriAdd503[color="/dark28/3" photon_data="EDGE,SrcNode:470,SrcNodePort:result"];
	NodeCondTriAdd503 -> NodeSlice471[color="/dark28/4" photon_data="EDGE,SrcNode:503,SrcNodePort:result"];
	NodeSlice471 -> NodeReinterpret472[color="/dark28/5" photon_data="EDGE,SrcNode:471,SrcNodePort:result"];
	NodePO2FPMult504 -> NodeGt171[color="/dark28/6" photon_data="EDGE,SrcNode:504,SrcNodePort:floatOut"];
	NodeConstantDouble170 -> NodeGt171[color="/dark28/7" photon_data="EDGE,SrcNode:170,SrcNodePort:value"];
	NodeGt171 -> NodeFIFO530[headport="n" color="/dark28/8" photon_data="EDGE,SrcNode:171,SrcNodePort:result"];
	NodeCast169 -> NodeDoubtBitOp172[color="/dark28/1" style=dashed photon_data="EDGE,SrcNode:169,SrcNodePort:o"];
	NodeFIFO530 -> NodeAnd173[tailport="s" color="/dark28/2" photon_data="EDGE,SrcNode:530,SrcNodePort:output"];
	NodeDoubtBitOp172 -> NodeAnd173[color="/dark28/3" photon_data="EDGE,SrcNode:172,SrcNodePort:output"];
	NodeAnd173 -> NodeFIFO531[headport="n" color="/dark28/4" photon_data="EDGE,SrcNode:173,SrcNodePort:result"];
	NodeFIFO531 -> NodeNot210[tailport="s" color="/dark28/5" photon_data="EDGE,SrcNode:531,SrcNodePort:output"];
	NodeReinterpret472 -> NodeAnd211[color="/dark28/6" photon_data="EDGE,SrcNode:472,SrcNodePort:output"];
	NodeNot210 -> NodeAnd211[color="/dark28/7" photon_data="EDGE,SrcNode:210,SrcNodePort:result"];
	NodePO2FPMult504 -> NodeLt175[color="/dark28/8" photon_data="EDGE,SrcNode:504,SrcNodePort:floatOut"];
	NodeConstantDouble174 -> NodeLt175[color="/dark28/1" photon_data="EDGE,SrcNode:174,SrcNodePort:value"];
	NodeLt175 -> NodeFIFO532[headport="n" color="/dark28/2" photon_data="EDGE,SrcNode:175,SrcNodePort:result"];
	NodeCast169 -> NodeDoubtBitOp176[color="/dark28/3" style=dashed photon_data="EDGE,SrcNode:169,SrcNodePort:o"];
	NodeFIFO532 -> NodeAnd177[tailport="s" color="/dark28/4" photon_data="EDGE,SrcNode:532,SrcNodePort:output"];
	NodeDoubtBitOp176 -> NodeAnd177[color="/dark28/5" photon_data="EDGE,SrcNode:176,SrcNodePort:output"];
	NodeAnd177 -> NodeFIFO533[headport="n" color="/dark28/6" photon_data="EDGE,SrcNode:177,SrcNodePort:result"];
	NodeAnd211 -> NodeOr212[color="/dark28/7" photon_data="EDGE,SrcNode:211,SrcNodePort:result"];
	NodeFIFO533 -> NodeOr212[tailport="s" color="/dark28/8" photon_data="EDGE,SrcNode:533,SrcNodePort:output"];
	NodeCondTriAdd503 -> NodeGteInlined473[color="/dark28/1" photon_data="EDGE,SrcNode:503,SrcNodePort:result"];
	NodeConstantDouble217 -> NodeGteInlined473[color="/dark28/2" photon_data="EDGE,SrcNode:217,SrcNodePort:value"];
	NodeFIFO533 -> NodeNot219[tailport="s" color="/dark28/3" photon_data="EDGE,SrcNode:533,SrcNodePort:output"];
	NodeGteInlined473 -> NodeAnd220[color="/dark28/4" photon_data="EDGE,SrcNode:473,SrcNodePort:result"];
	NodeNot219 -> NodeAnd220[color="/dark28/5" photon_data="EDGE,SrcNode:219,SrcNodePort:result"];
	NodeAnd220 -> NodeOr221[color="/dark28/6" photon_data="EDGE,SrcNode:220,SrcNodePort:result"];
	NodeFIFO531 -> NodeOr221[tailport="s" color="/dark28/7" photon_data="EDGE,SrcNode:531,SrcNodePort:output"];
	NodeOr212 -> NodeCat222[color="/dark28/8" photon_data="EDGE,SrcNode:212,SrcNodePort:result"];
	NodeOr221 -> NodeCat222[color="/dark28/1" photon_data="EDGE,SrcNode:221,SrcNodePort:result"];
	NodeCondTriAdd503 -> NodeCast213[color="/dark28/2" photon_data="EDGE,SrcNode:503,SrcNodePort:result"];
	NodeGteInlined470 -> NodeMux199[headport="w" color="/dark28/3" photon_data="EDGE,SrcNode:470,SrcNodePort:result"];
	NodeCast195 -> NodeMux199[color="/dark28/4" photon_data="EDGE,SrcNode:195,SrcNodePort:o"];
	NodeConstantRawBits198 -> NodeMux199[color="/dark28/5" photon_data="EDGE,SrcNode:198,SrcNodePort:value"];
	NodeMux199 -> NodeCast200[color="/dark28/6" photon_data="EDGE,SrcNode:199,SrcNodePort:result"];
	NodeConstantRawBits214 -> NodeCat215[color="/dark28/7" photon_data="EDGE,SrcNode:214,SrcNodePort:value"];
	NodeCast213 -> NodeCat215[color="/dark28/8" photon_data="EDGE,SrcNode:213,SrcNodePort:o"];
	NodeCast200 -> NodeCat215[color="/dark28/1" photon_data="EDGE,SrcNode:200,SrcNodePort:o"];
	NodeCat215 -> NodeReinterpret216[color="/dark28/2" photon_data="EDGE,SrcNode:215,SrcNodePort:result"];
	NodeConstantRawBits223 -> NodeCat474[color="/dark28/3" photon_data="EDGE,SrcNode:223,SrcNodePort:value"];
	NodeConstantRawBits224 -> NodeCat474[color="/dark28/4" photon_data="EDGE,SrcNode:224,SrcNodePort:value"];
	NodeConstantRawBits226 -> NodeCat474[color="/dark28/5" photon_data="EDGE,SrcNode:226,SrcNodePort:value"];
	NodeCat474 -> NodeReinterpret228[color="/dark28/6" photon_data="EDGE,SrcNode:474,SrcNodePort:result"];
	NodeCat222 -> NodeMux231[headport="w" color="/dark28/7" photon_data="EDGE,SrcNode:222,SrcNodePort:result"];
	NodeReinterpret216 -> NodeMux231[color="/dark28/8" photon_data="EDGE,SrcNode:216,SrcNodePort:output"];
	NodeReinterpret228 -> NodeMux231[color="/dark28/1" photon_data="EDGE,SrcNode:228,SrcNodePort:output"];
	NodeConstantRawBits462 -> NodeMux231[color="/dark28/2" photon_data="EDGE,SrcNode:462,SrcNodePort:value"];
	NodeReinterpret228 -> NodeMux231[color="/dark28/3" photon_data="EDGE,SrcNode:228,SrcNodePort:output"];
	NodeFIFO536 -> NodeMux241[tailport="s" headport="w" color="/dark28/4" photon_data="EDGE,SrcNode:536,SrcNodePort:output"];
	NodeMux231 -> NodeMux241[color="/dark28/5" photon_data="EDGE,SrcNode:231,SrcNodePort:result"];
	NodeConstantDouble240 -> NodeMux241[color="/dark28/6" photon_data="EDGE,SrcNode:240,SrcNodePort:value"];
	NodeMux241 -> NodeAdd249[color="/dark28/7" photon_data="EDGE,SrcNode:241,SrcNodePort:result"];
	NodeConstantDouble248 -> NodeAdd249[color="/dark28/8" photon_data="EDGE,SrcNode:248,SrcNodePort:value"];
	NodeConstantDouble250 -> NodeDiv251[color="/dark28/1" photon_data="EDGE,SrcNode:250,SrcNodePort:value"];
	NodeAdd249 -> NodeDiv251[color="/dark28/2" photon_data="EDGE,SrcNode:249,SrcNodePort:result"];
	NodeConstantDouble252 -> NodeSub253[color="/dark28/3" photon_data="EDGE,SrcNode:252,SrcNodePort:value"];
	NodeDiv251 -> NodeSub253[color="/dark28/4" photon_data="EDGE,SrcNode:251,SrcNodePort:result"];
	NodeConstantDouble254 -> NodeAdd255[color="/dark28/5" photon_data="EDGE,SrcNode:254,SrcNodePort:value"];
	NodeSub253 -> NodeAdd255[color="/dark28/6" photon_data="EDGE,SrcNode:253,SrcNodePort:result"];
	NodeConstantRawBits36 -> NodeMul256[color="/dark28/7" photon_data="EDGE,SrcNode:36,SrcNodePort:value"];
	NodeAdd255 -> NodeMul256[color="/dark28/8" photon_data="EDGE,SrcNode:255,SrcNodePort:result"];
	NodeConstantRawBits11 -> NodeAdd257[color="/dark28/1" photon_data="EDGE,SrcNode:11,SrcNodePort:value"];
	NodeMul256 -> NodeAdd257[color="/dark28/2" photon_data="EDGE,SrcNode:256,SrcNodePort:result"];
	NodeConstantDouble399 -> NodeDiv400[color="/dark28/3" photon_data="EDGE,SrcNode:399,SrcNodePort:value"];
	NodeAdd257 -> NodeDiv400[color="/dark28/4" photon_data="EDGE,SrcNode:257,SrcNodePort:result"];
	NodeGt398 -> NodeMux403[headport="w" color="/dark28/5" photon_data="EDGE,SrcNode:398,SrcNodePort:result"];
	NodeDiv402 -> NodeMux403[color="/dark28/6" photon_data="EDGE,SrcNode:402,SrcNodePort:result"];
	NodeDiv400 -> NodeMux403[color="/dark28/7" photon_data="EDGE,SrcNode:400,SrcNodePort:result"];
	NodeMux397 -> NodeAdd410[color="/dark28/8" photon_data="EDGE,SrcNode:397,SrcNodePort:result"];
	NodeMux403 -> NodeAdd410[color="/dark28/1" photon_data="EDGE,SrcNode:403,SrcNodePort:result"];
	NodeFIFO584 -> NodeGt404[tailport="s" color="/dark28/2" photon_data="EDGE,SrcNode:584,SrcNodePort:output"];
	NodeConstantRawBits21 -> NodeGt404[color="/dark28/3" photon_data="EDGE,SrcNode:21,SrcNodePort:value"];
	NodeCounter42 -> NodeEqInlined475[color="/dark28/4" photon_data="EDGE,SrcNode:42,SrcNodePort:count"];
	NodeConstantDouble52 -> NodeEqInlined475[color="/dark28/5" photon_data="EDGE,SrcNode:52,SrcNodePort:value"];
	NodeFIFO538 -> NodeStreamOffset515[tailport="s" headport="n" tailport="s" color=red photon_data="EDGE,SrcNode:538,SrcNodePort:output"];
	NodeStreamOffset515 -> NodeFIFO539[headport="n" color="/dark28/6" photon_data="EDGE,SrcNode:515,SrcNodePort:output"];
	NodeEqInlined475 -> NodeMux54[headport="w" color="/dark28/7" photon_data="EDGE,SrcNode:475,SrcNodePort:result"];
	NodeFIFO539 -> NodeMux54[tailport="s" color="/dark28/8" photon_data="EDGE,SrcNode:539,SrcNodePort:output"];
	NodeConstantRawBits38 -> NodeMux54[color="/dark28/1" photon_data="EDGE,SrcNode:38,SrcNodePort:value"];
	NodeMux54 -> NodeFIFO543[headport="n" color="/dark28/2" photon_data="EDGE,SrcNode:54,SrcNodePort:result"];
	NodeFIFO543 -> NodeFIFO586[tailport="s" headport="n" color="/dark28/3" photon_data="EDGE,SrcNode:543,SrcNodePort:output"];
	NodeFIFO578 -> NodeGt277[tailport="s" color="/dark28/4" photon_data="EDGE,SrcNode:578,SrcNodePort:output"];
	NodeConstantRawBits18 -> NodeGt277[color="/dark28/5" photon_data="EDGE,SrcNode:18,SrcNodePort:value"];
	NodeFIFO578 -> NodeGt264[tailport="s" color="/dark28/6" photon_data="EDGE,SrcNode:578,SrcNodePort:output"];
	NodeConstantRawBits19 -> NodeGt264[color="/dark28/7" photon_data="EDGE,SrcNode:19,SrcNodePort:value"];
	NodeFIFO578 -> NodeDiv265[tailport="s" color="/dark28/8" photon_data="EDGE,SrcNode:578,SrcNodePort:output"];
	NodeConstantRawBits14 -> NodeDiv265[color="/dark28/1" photon_data="EDGE,SrcNode:14,SrcNodePort:value"];
	NodeConstantDouble266 -> NodeSub267[color="/dark28/2" photon_data="EDGE,SrcNode:266,SrcNodePort:value"];
	NodeDiv265 -> NodeSub267[color="/dark28/3" photon_data="EDGE,SrcNode:265,SrcNodePort:result"];
	NodeGt264 -> NodeMux268[headport="w" color="/dark28/4" photon_data="EDGE,SrcNode:264,SrcNodePort:result"];
	NodeSub267 -> NodeMux268[color="/dark28/5" photon_data="EDGE,SrcNode:267,SrcNodePort:result"];
	NodeConstantRawBits32 -> NodeMux268[color="/dark28/6" photon_data="EDGE,SrcNode:32,SrcNodePort:value"];
	NodeMux268 -> NodeGt269[color="/dark28/7" photon_data="EDGE,SrcNode:268,SrcNodePort:result"];
	NodeConstantRawBits38 -> NodeGt269[color="/dark28/8" photon_data="EDGE,SrcNode:38,SrcNodePort:value"];
	NodeGt269 -> NodeMux270[headport="w" color="/dark28/1" photon_data="EDGE,SrcNode:269,SrcNodePort:result"];
	NodeMux268 -> NodeMux270[color="/dark28/2" photon_data="EDGE,SrcNode:268,SrcNodePort:result"];
	NodeConstantRawBits38 -> NodeMux270[color="/dark28/3" photon_data="EDGE,SrcNode:38,SrcNodePort:value"];
	NodeMux270 -> NodeSub280[color="/dark28/4" photon_data="EDGE,SrcNode:270,SrcNodePort:result"];
	NodeFIFO543 -> NodeSub280[tailport="s" color="/dark28/5" photon_data="EDGE,SrcNode:543,SrcNodePort:output"];
	NodeMux48 -> NodeSub60[color="/dark28/6" photon_data="EDGE,SrcNode:48,SrcNodePort:result"];
	NodeConstantRawBits26 -> NodeSub60[color="/dark28/7" photon_data="EDGE,SrcNode:26,SrcNodePort:value"];
	NodeConstantRawBits23 -> NodeMul61[color="/dark28/8" photon_data="EDGE,SrcNode:23,SrcNodePort:value"];
	NodeSub60 -> NodeMul61[color="/dark28/1" photon_data="EDGE,SrcNode:60,SrcNodePort:result"];
	NodeMul61 -> NodePO2FPMult505[color="/dark28/2" photon_data="EDGE,SrcNode:61,SrcNodePort:result"];
	NodePO2FPMult505 -> NodeSlice135[color="/dark28/3" photon_data="EDGE,SrcNode:505,SrcNodePort:floatOut"];
	NodeSlice135 -> NodeEqInlined476[color="/dark28/4" photon_data="EDGE,SrcNode:135,SrcNodePort:result"];
	NodeConstantRawBits136 -> NodeEqInlined476[color="/dark28/5" photon_data="EDGE,SrcNode:136,SrcNodePort:value"];
	NodePO2FPMult505 -> NodeSlice134[color="/dark28/6" photon_data="EDGE,SrcNode:505,SrcNodePort:floatOut"];
	NodeSlice134 -> NodeNeqInlined477[color="/dark28/7" photon_data="EDGE,SrcNode:134,SrcNodePort:result"];
	NodeConstantDouble138 -> NodeNeqInlined477[color="/dark28/8" photon_data="EDGE,SrcNode:138,SrcNodePort:value"];
	NodeEqInlined476 -> NodeAnd140[color="/dark28/1" photon_data="EDGE,SrcNode:476,SrcNodePort:result"];
	NodeNeqInlined477 -> NodeAnd140[color="/dark28/2" photon_data="EDGE,SrcNode:477,SrcNodePort:result"];
	NodeAnd140 -> NodeFIFO553[headport="n" color="/dark28/3" photon_data="EDGE,SrcNode:140,SrcNodePort:result"];
	NodePO2FPMult505 -> NodeDoubtBitOp65[color="/dark28/4" photon_data="EDGE,SrcNode:505,SrcNodePort:floatOut"];
	NodeConstantRawBits64 -> NodeDoubtBitOp65[color="/dark28/5" photon_data="EDGE,SrcNode:64,SrcNodePort:value"];
	NodeDoubtBitOp65 -> NodeCast66[color="/dark28/6" style=dashed photon_data="EDGE,SrcNode:65,SrcNodePort:output"];
	NodeCast66 -> NodeMul68[color="/dark28/7" style=dashed photon_data="EDGE,SrcNode:66,SrcNodePort:o"];
	NodeConstantRawBits69 -> NodeMul68[color="/dark28/8" photon_data="EDGE,SrcNode:69,SrcNodePort:value"];
	NodeMul68 -> NodeCast70[color="/dark28/1" style=dashed photon_data="EDGE,SrcNode:68,SrcNodePort:result"];
	NodeCast70 -> NodeDoubtBitOp79[color="/dark28/2" style=dashed photon_data="EDGE,SrcNode:70,SrcNodePort:o"];
	NodeDoubtBitOp79 -> NodeCast80[color="/dark28/3" photon_data="EDGE,SrcNode:79,SrcNodePort:output"];
	NodeCast80 -> NodeFIFO544[headport="n" color="/dark28/4" photon_data="EDGE,SrcNode:80,SrcNodePort:o"];
	NodeFIFO544 -> NodeCast102[tailport="s" color="/dark28/5" photon_data="EDGE,SrcNode:544,SrcNodePort:output"];
	NodeDoubtBitOp79 -> NodeCast82[color="/dark28/6" photon_data="EDGE,SrcNode:79,SrcNodePort:output"];
	NodeCast82 -> NodeReinterpret147[color="/dark28/7" photon_data="EDGE,SrcNode:82,SrcNodePort:o"];
	NodeReinterpret147 -> NodeROM148[color="/dark28/8" photon_data="EDGE,SrcNode:147,SrcNodePort:output"];
	NodeDoubtBitOp79 -> NodeCast81[color="/dark28/1" photon_data="EDGE,SrcNode:79,SrcNodePort:output"];
	NodeCast81 -> NodeReinterpret144[color="/dark28/2" photon_data="EDGE,SrcNode:81,SrcNodePort:o"];
	NodeReinterpret144 -> NodeROM145[color="/dark28/3" photon_data="EDGE,SrcNode:144,SrcNodePort:output"];
	NodeDoubtBitOp79 -> NodeCast83[color="/dark28/4" photon_data="EDGE,SrcNode:79,SrcNodePort:output"];
	NodeConstantRawBits86 -> NodeMul85[color="/dark28/5" photon_data="EDGE,SrcNode:86,SrcNodePort:value"];
	NodeCast83 -> NodeMul85[color="/dark28/6" photon_data="EDGE,SrcNode:83,SrcNodePort:o"];
	NodeMul85 -> NodeCast87[color="/dark28/7" photon_data="EDGE,SrcNode:85,SrcNodePort:result"];
	NodeCast87 -> NodeFIFO545[headport="n" color="/dark28/8" photon_data="EDGE,SrcNode:87,SrcNodePort:o"];
	NodeROM145 -> NodeAdd88[color="/dark28/1" photon_data="EDGE,SrcNode:145,SrcNodePort:dout"];
	NodeFIFO545 -> NodeAdd88[tailport="s" color="/dark28/2" photon_data="EDGE,SrcNode:545,SrcNodePort:output"];
	NodeFIFO545 -> NodeMul89[tailport="s" color="/dark28/3" photon_data="EDGE,SrcNode:545,SrcNodePort:output"];
	NodeROM145 -> NodeMul89[color="/dark28/4" photon_data="EDGE,SrcNode:145,SrcNodePort:dout"];
	NodeAdd88 -> NodeAdd90[color="/dark28/5" photon_data="EDGE,SrcNode:88,SrcNodePort:result"];
	NodeMul89 -> NodeAdd90[color="/dark28/6" photon_data="EDGE,SrcNode:89,SrcNodePort:result"];
	NodeAdd90 -> NodeCast91[color="/dark28/7" photon_data="EDGE,SrcNode:90,SrcNodePort:result"];
	NodeROM148 -> NodeAdd92[color="/dark28/8" photon_data="EDGE,SrcNode:148,SrcNodePort:dout"];
	NodeCast91 -> NodeAdd92[color="/dark28/1" photon_data="EDGE,SrcNode:91,SrcNodePort:o"];
	NodeCast91 -> NodeMul93[color="/dark28/2" photon_data="EDGE,SrcNode:91,SrcNodePort:o"];
	NodeROM148 -> NodeMul93[color="/dark28/3" photon_data="EDGE,SrcNode:148,SrcNodePort:dout"];
	NodeAdd92 -> NodeAdd94[color="/dark28/4" photon_data="EDGE,SrcNode:92,SrcNodePort:result"];
	NodeMul93 -> NodeAdd94[color="/dark28/5" photon_data="EDGE,SrcNode:93,SrcNodePort:result"];
	NodeAdd94 -> NodeCast95[color="/dark28/6" photon_data="EDGE,SrcNode:94,SrcNodePort:result"];
	NodeCast95 -> NodeCast96[color="/dark28/7" photon_data="EDGE,SrcNode:95,SrcNodePort:o"];
	NodeCast96 -> NodeGteInlined478[color="/dark28/8" photon_data="EDGE,SrcNode:96,SrcNodePort:o"];
	NodeConstantDouble97 -> NodeGteInlined478[color="/dark28/1" photon_data="EDGE,SrcNode:97,SrcNodePort:value"];
	NodeCast102 -> NodeCondTriAdd502[color="/dark28/2" photon_data="EDGE,SrcNode:102,SrcNodePort:o"];
	NodeConstantRawBits105 -> NodeCondTriAdd502[color="/dark28/3" photon_data="EDGE,SrcNode:105,SrcNodePort:value"];
	NodeConstantRawBits497 -> NodeCondTriAdd502[color="/dark28/4" photon_data="EDGE,SrcNode:497,SrcNodePort:value"];
	NodeGteInlined478 -> NodeCondTriAdd502[color="/dark28/5" photon_data="EDGE,SrcNode:478,SrcNodePort:result"];
	NodeCondTriAdd502 -> NodeSlice479[color="/dark28/6" photon_data="EDGE,SrcNode:502,SrcNodePort:result"];
	NodeSlice479 -> NodeReinterpret480[color="/dark28/7" photon_data="EDGE,SrcNode:479,SrcNodePort:result"];
	NodePO2FPMult505 -> NodeGt72[color="/dark28/8" photon_data="EDGE,SrcNode:505,SrcNodePort:floatOut"];
	NodeConstantDouble71 -> NodeGt72[color="/dark28/1" photon_data="EDGE,SrcNode:71,SrcNodePort:value"];
	NodeGt72 -> NodeFIFO547[headport="n" color="/dark28/2" photon_data="EDGE,SrcNode:72,SrcNodePort:result"];
	NodeCast70 -> NodeDoubtBitOp73[color="/dark28/3" style=dashed photon_data="EDGE,SrcNode:70,SrcNodePort:o"];
	NodeFIFO547 -> NodeAnd74[tailport="s" color="/dark28/4" photon_data="EDGE,SrcNode:547,SrcNodePort:output"];
	NodeDoubtBitOp73 -> NodeAnd74[color="/dark28/5" photon_data="EDGE,SrcNode:73,SrcNodePort:output"];
	NodeAnd74 -> NodeFIFO548[headport="n" color="/dark28/6" photon_data="EDGE,SrcNode:74,SrcNodePort:result"];
	NodeFIFO548 -> NodeNot111[tailport="s" color="/dark28/7" photon_data="EDGE,SrcNode:548,SrcNodePort:output"];
	NodeReinterpret480 -> NodeAnd112[color="/dark28/8" photon_data="EDGE,SrcNode:480,SrcNodePort:output"];
	NodeNot111 -> NodeAnd112[color="/dark28/1" photon_data="EDGE,SrcNode:111,SrcNodePort:result"];
	NodePO2FPMult505 -> NodeLt76[color="/dark28/2" photon_data="EDGE,SrcNode:505,SrcNodePort:floatOut"];
	NodeConstantDouble75 -> NodeLt76[color="/dark28/3" photon_data="EDGE,SrcNode:75,SrcNodePort:value"];
	NodeLt76 -> NodeFIFO549[headport="n" color="/dark28/4" photon_data="EDGE,SrcNode:76,SrcNodePort:result"];
	NodeCast70 -> NodeDoubtBitOp77[color="/dark28/5" style=dashed photon_data="EDGE,SrcNode:70,SrcNodePort:o"];
	NodeFIFO549 -> NodeAnd78[tailport="s" color="/dark28/6" photon_data="EDGE,SrcNode:549,SrcNodePort:output"];
	NodeDoubtBitOp77 -> NodeAnd78[color="/dark28/7" photon_data="EDGE,SrcNode:77,SrcNodePort:output"];
	NodeAnd78 -> NodeFIFO550[headport="n" color="/dark28/8" photon_data="EDGE,SrcNode:78,SrcNodePort:result"];
	NodeAnd112 -> NodeOr113[color="/dark28/1" photon_data="EDGE,SrcNode:112,SrcNodePort:result"];
	NodeFIFO550 -> NodeOr113[tailport="s" color="/dark28/2" photon_data="EDGE,SrcNode:550,SrcNodePort:output"];
	NodeCondTriAdd502 -> NodeGteInlined481[color="/dark28/3" photon_data="EDGE,SrcNode:502,SrcNodePort:result"];
	NodeConstantDouble118 -> NodeGteInlined481[color="/dark28/4" photon_data="EDGE,SrcNode:118,SrcNodePort:value"];
	NodeFIFO550 -> NodeNot120[tailport="s" color="/dark28/5" photon_data="EDGE,SrcNode:550,SrcNodePort:output"];
	NodeGteInlined481 -> NodeAnd121[color="/dark28/6" photon_data="EDGE,SrcNode:481,SrcNodePort:result"];
	NodeNot120 -> NodeAnd121[color="/dark28/7" photon_data="EDGE,SrcNode:120,SrcNodePort:result"];
	NodeAnd121 -> NodeOr122[color="/dark28/8" photon_data="EDGE,SrcNode:121,SrcNodePort:result"];
	NodeFIFO548 -> NodeOr122[tailport="s" color="/dark28/1" photon_data="EDGE,SrcNode:548,SrcNodePort:output"];
	NodeOr113 -> NodeCat123[color="/dark28/2" photon_data="EDGE,SrcNode:113,SrcNodePort:result"];
	NodeOr122 -> NodeCat123[color="/dark28/3" photon_data="EDGE,SrcNode:122,SrcNodePort:result"];
	NodeCondTriAdd502 -> NodeCast114[color="/dark28/4" photon_data="EDGE,SrcNode:502,SrcNodePort:result"];
	NodeGteInlined478 -> NodeMux100[headport="w" color="/dark28/5" photon_data="EDGE,SrcNode:478,SrcNodePort:result"];
	NodeCast96 -> NodeMux100[color="/dark28/6" photon_data="EDGE,SrcNode:96,SrcNodePort:o"];
	NodeConstantRawBits99 -> NodeMux100[color="/dark28/7" photon_data="EDGE,SrcNode:99,SrcNodePort:value"];
	NodeMux100 -> NodeCast101[color="/dark28/8" photon_data="EDGE,SrcNode:100,SrcNodePort:result"];
	NodeConstantRawBits115 -> NodeCat116[color="/dark28/1" photon_data="EDGE,SrcNode:115,SrcNodePort:value"];
	NodeCast114 -> NodeCat116[color="/dark28/2" photon_data="EDGE,SrcNode:114,SrcNodePort:o"];
	NodeCast101 -> NodeCat116[color="/dark28/3" photon_data="EDGE,SrcNode:101,SrcNodePort:o"];
	NodeCat116 -> NodeReinterpret117[color="/dark28/4" photon_data="EDGE,SrcNode:116,SrcNodePort:result"];
	NodeConstantRawBits124 -> NodeCat482[color="/dark28/5" photon_data="EDGE,SrcNode:124,SrcNodePort:value"];
	NodeConstantRawBits125 -> NodeCat482[color="/dark28/6" photon_data="EDGE,SrcNode:125,SrcNodePort:value"];
	NodeConstantRawBits127 -> NodeCat482[color="/dark28/7" photon_data="EDGE,SrcNode:127,SrcNodePort:value"];
	NodeCat482 -> NodeReinterpret129[color="/dark28/8" photon_data="EDGE,SrcNode:482,SrcNodePort:result"];
	NodeCat123 -> NodeMux132[headport="w" color="/dark28/1" photon_data="EDGE,SrcNode:123,SrcNodePort:result"];
	NodeReinterpret117 -> NodeMux132[color="/dark28/2" photon_data="EDGE,SrcNode:117,SrcNodePort:output"];
	NodeReinterpret129 -> NodeMux132[color="/dark28/3" photon_data="EDGE,SrcNode:129,SrcNodePort:output"];
	NodeConstantRawBits463 -> NodeMux132[color="/dark28/4" photon_data="EDGE,SrcNode:463,SrcNodePort:value"];
	NodeReinterpret129 -> NodeMux132[color="/dark28/5" photon_data="EDGE,SrcNode:129,SrcNodePort:output"];
	NodeFIFO553 -> NodeMux142[tailport="s" headport="w" color="/dark28/6" photon_data="EDGE,SrcNode:553,SrcNodePort:output"];
	NodeMux132 -> NodeMux142[color="/dark28/7" photon_data="EDGE,SrcNode:132,SrcNodePort:result"];
	NodeConstantDouble141 -> NodeMux142[color="/dark28/8" photon_data="EDGE,SrcNode:141,SrcNodePort:value"];
	NodeMux142 -> NodeAdd150[color="/dark28/1" photon_data="EDGE,SrcNode:142,SrcNodePort:result"];
	NodeConstantDouble149 -> NodeAdd150[color="/dark28/2" photon_data="EDGE,SrcNode:149,SrcNodePort:value"];
	NodeConstantDouble151 -> NodeDiv152[color="/dark28/3" photon_data="EDGE,SrcNode:151,SrcNodePort:value"];
	NodeAdd150 -> NodeDiv152[color="/dark28/4" photon_data="EDGE,SrcNode:150,SrcNodePort:result"];
	NodeConstantDouble153 -> NodeSub154[color="/dark28/5" photon_data="EDGE,SrcNode:153,SrcNodePort:value"];
	NodeDiv152 -> NodeSub154[color="/dark28/6" photon_data="EDGE,SrcNode:152,SrcNodePort:result"];
	NodeConstantDouble155 -> NodeAdd156[color="/dark28/7" photon_data="EDGE,SrcNode:155,SrcNodePort:value"];
	NodeSub154 -> NodeAdd156[color="/dark28/8" photon_data="EDGE,SrcNode:154,SrcNodePort:result"];
	NodeConstantRawBits35 -> NodeMul157[color="/dark28/1" photon_data="EDGE,SrcNode:35,SrcNodePort:value"];
	NodeAdd156 -> NodeMul157[color="/dark28/2" photon_data="EDGE,SrcNode:156,SrcNodePort:result"];
	NodeConstantRawBits4 -> NodeAdd158[color="/dark28/3" photon_data="EDGE,SrcNode:4,SrcNodePort:value"];
	NodeMul157 -> NodeAdd158[color="/dark28/4" photon_data="EDGE,SrcNode:157,SrcNodePort:result"];
	NodeSub280 -> NodeDiv281[color="/dark28/5" photon_data="EDGE,SrcNode:280,SrcNodePort:result"];
	NodeAdd158 -> NodeDiv281[color="/dark28/6" photon_data="EDGE,SrcNode:158,SrcNodePort:result"];
	NodeFIFO543 -> NodeNeg278[tailport="s" color="/dark28/7" photon_data="EDGE,SrcNode:543,SrcNodePort:output"];
	NodeNeg278 -> NodeDiv279[color="/dark28/8" photon_data="EDGE,SrcNode:278,SrcNodePort:result"];
	NodeConstantRawBits3 -> NodeDiv279[color="/dark28/1" photon_data="EDGE,SrcNode:3,SrcNodePort:value"];
	NodeGt277 -> NodeMux282[headport="w" color="/dark28/2" photon_data="EDGE,SrcNode:277,SrcNodePort:result"];
	NodeDiv281 -> NodeMux282[color="/dark28/3" photon_data="EDGE,SrcNode:281,SrcNodePort:result"];
	NodeDiv279 -> NodeMux282[color="/dark28/4" photon_data="EDGE,SrcNode:279,SrcNodePort:result"];
	NodeMux282 -> NodeMul386[color="/dark28/5" photon_data="EDGE,SrcNode:282,SrcNodePort:result"];
	NodeCast45 -> NodeMul386[color="/dark28/6" photon_data="EDGE,SrcNode:45,SrcNodePort:o"];
	NodeFIFO586 -> NodeAdd387[tailport="s" color="/dark28/7" photon_data="EDGE,SrcNode:586,SrcNodePort:output"];
	NodeMul386 -> NodeAdd387[color="/dark28/8" photon_data="EDGE,SrcNode:386,SrcNodePort:result"];
	NodeAdd387 -> NodeFIFO538[headport="n" color="/dark28/1" photon_data="EDGE,SrcNode:387,SrcNodePort:result"];
	NodeFIFO538 -> NodeNeg405[tailport="s" color="/dark28/2" photon_data="EDGE,SrcNode:538,SrcNodePort:output"];
	NodeCounter42 -> NodeEqInlined483[color="/dark28/3" photon_data="EDGE,SrcNode:42,SrcNodePort:count"];
	NodeConstantDouble55 -> NodeEqInlined483[color="/dark28/4" photon_data="EDGE,SrcNode:55,SrcNodePort:value"];
	NodeFIFO557 -> NodeStreamOffset516[tailport="s" headport="n" tailport="s" color=red photon_data="EDGE,SrcNode:557,SrcNodePort:output"];
	NodeStreamOffset516 -> NodeFIFO558[headport="n" color="/dark28/5" photon_data="EDGE,SrcNode:516,SrcNodePort:output"];
	NodeEqInlined483 -> NodeMux57[headport="w" color="/dark28/6" photon_data="EDGE,SrcNode:483,SrcNodePort:result"];
	NodeFIFO558 -> NodeMux57[tailport="s" color="/dark28/7" photon_data="EDGE,SrcNode:558,SrcNodePort:output"];
	NodeConstantRawBits37 -> NodeMux57[color="/dark28/8" photon_data="EDGE,SrcNode:37,SrcNodePort:value"];
	NodeMux57 -> NodeFIFO569[headport="n" color="/dark28/1" photon_data="EDGE,SrcNode:57,SrcNodePort:result"];
	NodeFIFO569 -> NodeFIFO587[tailport="s" headport="n" color="/dark28/2" photon_data="EDGE,SrcNode:569,SrcNodePort:output"];
	NodeMux48 -> NodeSub283[color="/dark28/3" photon_data="EDGE,SrcNode:48,SrcNodePort:result"];
	NodeConstantRawBits27 -> NodeSub283[color="/dark28/4" photon_data="EDGE,SrcNode:27,SrcNodePort:value"];
	NodeConstantRawBits24 -> NodeMul284[color="/dark28/5" photon_data="EDGE,SrcNode:24,SrcNodePort:value"];
	NodeSub283 -> NodeMul284[color="/dark28/6" photon_data="EDGE,SrcNode:283,SrcNodePort:result"];
	NodeMul284 -> NodePO2FPMult506[color="/dark28/7" photon_data="EDGE,SrcNode:284,SrcNodePort:result"];
	NodePO2FPMult506 -> NodeSlice358[color="/dark28/8" photon_data="EDGE,SrcNode:506,SrcNodePort:floatOut"];
	NodeSlice358 -> NodeEqInlined484[color="/dark28/1" photon_data="EDGE,SrcNode:358,SrcNodePort:result"];
	NodeConstantRawBits359 -> NodeEqInlined484[color="/dark28/2" photon_data="EDGE,SrcNode:359,SrcNodePort:value"];
	NodePO2FPMult506 -> NodeSlice357[color="/dark28/3" photon_data="EDGE,SrcNode:506,SrcNodePort:floatOut"];
	NodeSlice357 -> NodeNeqInlined485[color="/dark28/4" photon_data="EDGE,SrcNode:357,SrcNodePort:result"];
	NodeConstantDouble361 -> NodeNeqInlined485[color="/dark28/5" photon_data="EDGE,SrcNode:361,SrcNodePort:value"];
	NodeEqInlined484 -> NodeAnd363[color="/dark28/6" photon_data="EDGE,SrcNode:484,SrcNodePort:result"];
	NodeNeqInlined485 -> NodeAnd363[color="/dark28/7" photon_data="EDGE,SrcNode:485,SrcNodePort:result"];
	NodeAnd363 -> NodeFIFO568[headport="n" color="/dark28/8" photon_data="EDGE,SrcNode:363,SrcNodePort:result"];
	NodePO2FPMult506 -> NodeDoubtBitOp288[color="/dark28/1" photon_data="EDGE,SrcNode:506,SrcNodePort:floatOut"];
	NodeConstantRawBits287 -> NodeDoubtBitOp288[color="/dark28/2" photon_data="EDGE,SrcNode:287,SrcNodePort:value"];
	NodeDoubtBitOp288 -> NodeCast289[color="/dark28/3" style=dashed photon_data="EDGE,SrcNode:288,SrcNodePort:output"];
	NodeCast289 -> NodeMul291[color="/dark28/4" style=dashed photon_data="EDGE,SrcNode:289,SrcNodePort:o"];
	NodeConstantRawBits292 -> NodeMul291[color="/dark28/5" photon_data="EDGE,SrcNode:292,SrcNodePort:value"];
	NodeMul291 -> NodeCast293[color="/dark28/6" style=dashed photon_data="EDGE,SrcNode:291,SrcNodePort:result"];
	NodeCast293 -> NodeDoubtBitOp302[color="/dark28/7" style=dashed photon_data="EDGE,SrcNode:293,SrcNodePort:o"];
	NodeDoubtBitOp302 -> NodeCast303[color="/dark28/8" photon_data="EDGE,SrcNode:302,SrcNodePort:output"];
	NodeCast303 -> NodeFIFO559[headport="n" color="/dark28/1" photon_data="EDGE,SrcNode:303,SrcNodePort:o"];
	NodeFIFO559 -> NodeCast325[tailport="s" color="/dark28/2" photon_data="EDGE,SrcNode:559,SrcNodePort:output"];
	NodeDoubtBitOp302 -> NodeCast305[color="/dark28/3" photon_data="EDGE,SrcNode:302,SrcNodePort:output"];
	NodeCast305 -> NodeReinterpret370[color="/dark28/4" photon_data="EDGE,SrcNode:305,SrcNodePort:o"];
	NodeReinterpret370 -> NodeROM371[color="/dark28/5" photon_data="EDGE,SrcNode:370,SrcNodePort:output"];
	NodeDoubtBitOp302 -> NodeCast304[color="/dark28/6" photon_data="EDGE,SrcNode:302,SrcNodePort:output"];
	NodeCast304 -> NodeReinterpret367[color="/dark28/7" photon_data="EDGE,SrcNode:304,SrcNodePort:o"];
	NodeReinterpret367 -> NodeROM368[color="/dark28/8" photon_data="EDGE,SrcNode:367,SrcNodePort:output"];
	NodeDoubtBitOp302 -> NodeCast306[color="/dark28/1" photon_data="EDGE,SrcNode:302,SrcNodePort:output"];
	NodeConstantRawBits309 -> NodeMul308[color="/dark28/2" photon_data="EDGE,SrcNode:309,SrcNodePort:value"];
	NodeCast306 -> NodeMul308[color="/dark28/3" photon_data="EDGE,SrcNode:306,SrcNodePort:o"];
	NodeMul308 -> NodeCast310[color="/dark28/4" photon_data="EDGE,SrcNode:308,SrcNodePort:result"];
	NodeCast310 -> NodeFIFO560[headport="n" color="/dark28/5" photon_data="EDGE,SrcNode:310,SrcNodePort:o"];
	NodeROM368 -> NodeAdd311[color="/dark28/6" photon_data="EDGE,SrcNode:368,SrcNodePort:dout"];
	NodeFIFO560 -> NodeAdd311[tailport="s" color="/dark28/7" photon_data="EDGE,SrcNode:560,SrcNodePort:output"];
	NodeFIFO560 -> NodeMul312[tailport="s" color="/dark28/8" photon_data="EDGE,SrcNode:560,SrcNodePort:output"];
	NodeROM368 -> NodeMul312[color="/dark28/1" photon_data="EDGE,SrcNode:368,SrcNodePort:dout"];
	NodeAdd311 -> NodeAdd313[color="/dark28/2" photon_data="EDGE,SrcNode:311,SrcNodePort:result"];
	NodeMul312 -> NodeAdd313[color="/dark28/3" photon_data="EDGE,SrcNode:312,SrcNodePort:result"];
	NodeAdd313 -> NodeCast314[color="/dark28/4" photon_data="EDGE,SrcNode:313,SrcNodePort:result"];
	NodeROM371 -> NodeAdd315[color="/dark28/5" photon_data="EDGE,SrcNode:371,SrcNodePort:dout"];
	NodeCast314 -> NodeAdd315[color="/dark28/6" photon_data="EDGE,SrcNode:314,SrcNodePort:o"];
	NodeCast314 -> NodeMul316[color="/dark28/7" photon_data="EDGE,SrcNode:314,SrcNodePort:o"];
	NodeROM371 -> NodeMul316[color="/dark28/8" photon_data="EDGE,SrcNode:371,SrcNodePort:dout"];
	NodeAdd315 -> NodeAdd317[color="/dark28/1" photon_data="EDGE,SrcNode:315,SrcNodePort:result"];
	NodeMul316 -> NodeAdd317[color="/dark28/2" photon_data="EDGE,SrcNode:316,SrcNodePort:result"];
	NodeAdd317 -> NodeCast318[color="/dark28/3" photon_data="EDGE,SrcNode:317,SrcNodePort:result"];
	NodeCast318 -> NodeCast319[color="/dark28/4" photon_data="EDGE,SrcNode:318,SrcNodePort:o"];
	NodeCast319 -> NodeGteInlined486[color="/dark28/5" photon_data="EDGE,SrcNode:319,SrcNodePort:o"];
	NodeConstantDouble320 -> NodeGteInlined486[color="/dark28/6" photon_data="EDGE,SrcNode:320,SrcNodePort:value"];
	NodeCast325 -> NodeCondTriAdd501[color="/dark28/7" photon_data="EDGE,SrcNode:325,SrcNodePort:o"];
	NodeConstantRawBits328 -> NodeCondTriAdd501[color="/dark28/8" photon_data="EDGE,SrcNode:328,SrcNodePort:value"];
	NodeConstantRawBits499 -> NodeCondTriAdd501[color="/dark28/1" photon_data="EDGE,SrcNode:499,SrcNodePort:value"];
	NodeGteInlined486 -> NodeCondTriAdd501[color="/dark28/2" photon_data="EDGE,SrcNode:486,SrcNodePort:result"];
	NodeCondTriAdd501 -> NodeSlice487[color="/dark28/3" photon_data="EDGE,SrcNode:501,SrcNodePort:result"];
	NodeSlice487 -> NodeReinterpret488[color="/dark28/4" photon_data="EDGE,SrcNode:487,SrcNodePort:result"];
	NodePO2FPMult506 -> NodeGt295[color="/dark28/5" photon_data="EDGE,SrcNode:506,SrcNodePort:floatOut"];
	NodeConstantDouble294 -> NodeGt295[color="/dark28/6" photon_data="EDGE,SrcNode:294,SrcNodePort:value"];
	NodeGt295 -> NodeFIFO562[headport="n" color="/dark28/7" photon_data="EDGE,SrcNode:295,SrcNodePort:result"];
	NodeCast293 -> NodeDoubtBitOp296[color="/dark28/8" style=dashed photon_data="EDGE,SrcNode:293,SrcNodePort:o"];
	NodeFIFO562 -> NodeAnd297[tailport="s" color="/dark28/1" photon_data="EDGE,SrcNode:562,SrcNodePort:output"];
	NodeDoubtBitOp296 -> NodeAnd297[color="/dark28/2" photon_data="EDGE,SrcNode:296,SrcNodePort:output"];
	NodeAnd297 -> NodeFIFO563[headport="n" color="/dark28/3" photon_data="EDGE,SrcNode:297,SrcNodePort:result"];
	NodeFIFO563 -> NodeNot334[tailport="s" color="/dark28/4" photon_data="EDGE,SrcNode:563,SrcNodePort:output"];
	NodeReinterpret488 -> NodeAnd335[color="/dark28/5" photon_data="EDGE,SrcNode:488,SrcNodePort:output"];
	NodeNot334 -> NodeAnd335[color="/dark28/6" photon_data="EDGE,SrcNode:334,SrcNodePort:result"];
	NodePO2FPMult506 -> NodeLt299[color="/dark28/7" photon_data="EDGE,SrcNode:506,SrcNodePort:floatOut"];
	NodeConstantDouble298 -> NodeLt299[color="/dark28/8" photon_data="EDGE,SrcNode:298,SrcNodePort:value"];
	NodeLt299 -> NodeFIFO564[headport="n" color="/dark28/1" photon_data="EDGE,SrcNode:299,SrcNodePort:result"];
	NodeCast293 -> NodeDoubtBitOp300[color="/dark28/2" style=dashed photon_data="EDGE,SrcNode:293,SrcNodePort:o"];
	NodeFIFO564 -> NodeAnd301[tailport="s" color="/dark28/3" photon_data="EDGE,SrcNode:564,SrcNodePort:output"];
	NodeDoubtBitOp300 -> NodeAnd301[color="/dark28/4" photon_data="EDGE,SrcNode:300,SrcNodePort:output"];
	NodeAnd301 -> NodeFIFO565[headport="n" color="/dark28/5" photon_data="EDGE,SrcNode:301,SrcNodePort:result"];
	NodeAnd335 -> NodeOr336[color="/dark28/6" photon_data="EDGE,SrcNode:335,SrcNodePort:result"];
	NodeFIFO565 -> NodeOr336[tailport="s" color="/dark28/7" photon_data="EDGE,SrcNode:565,SrcNodePort:output"];
	NodeCondTriAdd501 -> NodeGteInlined489[color="/dark28/8" photon_data="EDGE,SrcNode:501,SrcNodePort:result"];
	NodeConstantDouble341 -> NodeGteInlined489[color="/dark28/1" photon_data="EDGE,SrcNode:341,SrcNodePort:value"];
	NodeFIFO565 -> NodeNot343[tailport="s" color="/dark28/2" photon_data="EDGE,SrcNode:565,SrcNodePort:output"];
	NodeGteInlined489 -> NodeAnd344[color="/dark28/3" photon_data="EDGE,SrcNode:489,SrcNodePort:result"];
	NodeNot343 -> NodeAnd344[color="/dark28/4" photon_data="EDGE,SrcNode:343,SrcNodePort:result"];
	NodeAnd344 -> NodeOr345[color="/dark28/5" photon_data="EDGE,SrcNode:344,SrcNodePort:result"];
	NodeFIFO563 -> NodeOr345[tailport="s" color="/dark28/6" photon_data="EDGE,SrcNode:563,SrcNodePort:output"];
	NodeOr336 -> NodeCat346[color="/dark28/7" photon_data="EDGE,SrcNode:336,SrcNodePort:result"];
	NodeOr345 -> NodeCat346[color="/dark28/8" photon_data="EDGE,SrcNode:345,SrcNodePort:result"];
	NodeCondTriAdd501 -> NodeCast337[color="/dark28/1" photon_data="EDGE,SrcNode:501,SrcNodePort:result"];
	NodeGteInlined486 -> NodeMux323[headport="w" color="/dark28/2" photon_data="EDGE,SrcNode:486,SrcNodePort:result"];
	NodeCast319 -> NodeMux323[color="/dark28/3" photon_data="EDGE,SrcNode:319,SrcNodePort:o"];
	NodeConstantRawBits322 -> NodeMux323[color="/dark28/4" photon_data="EDGE,SrcNode:322,SrcNodePort:value"];
	NodeMux323 -> NodeCast324[color="/dark28/5" photon_data="EDGE,SrcNode:323,SrcNodePort:result"];
	NodeConstantRawBits338 -> NodeCat339[color="/dark28/6" photon_data="EDGE,SrcNode:338,SrcNodePort:value"];
	NodeCast337 -> NodeCat339[color="/dark28/7" photon_data="EDGE,SrcNode:337,SrcNodePort:o"];
	NodeCast324 -> NodeCat339[color="/dark28/8" photon_data="EDGE,SrcNode:324,SrcNodePort:o"];
	NodeCat339 -> NodeReinterpret340[color="/dark28/1" photon_data="EDGE,SrcNode:339,SrcNodePort:result"];
	NodeConstantRawBits347 -> NodeCat490[color="/dark28/2" photon_data="EDGE,SrcNode:347,SrcNodePort:value"];
	NodeConstantRawBits348 -> NodeCat490[color="/dark28/3" photon_data="EDGE,SrcNode:348,SrcNodePort:value"];
	NodeConstantRawBits350 -> NodeCat490[color="/dark28/4" photon_data="EDGE,SrcNode:350,SrcNodePort:value"];
	NodeCat490 -> NodeReinterpret352[color="/dark28/5" photon_data="EDGE,SrcNode:490,SrcNodePort:result"];
	NodeCat346 -> NodeMux355[headport="w" color="/dark28/6" photon_data="EDGE,SrcNode:346,SrcNodePort:result"];
	NodeReinterpret340 -> NodeMux355[color="/dark28/7" photon_data="EDGE,SrcNode:340,SrcNodePort:output"];
	NodeReinterpret352 -> NodeMux355[color="/dark28/8" photon_data="EDGE,SrcNode:352,SrcNodePort:output"];
	NodeConstantRawBits464 -> NodeMux355[color="/dark28/1" photon_data="EDGE,SrcNode:464,SrcNodePort:value"];
	NodeReinterpret352 -> NodeMux355[color="/dark28/2" photon_data="EDGE,SrcNode:352,SrcNodePort:output"];
	NodeFIFO568 -> NodeMux365[tailport="s" headport="w" color="/dark28/3" photon_data="EDGE,SrcNode:568,SrcNodePort:output"];
	NodeMux355 -> NodeMux365[color="/dark28/4" photon_data="EDGE,SrcNode:355,SrcNodePort:result"];
	NodeConstantDouble364 -> NodeMux365[color="/dark28/5" photon_data="EDGE,SrcNode:364,SrcNodePort:value"];
	NodeMux365 -> NodeAdd373[color="/dark28/6" photon_data="EDGE,SrcNode:365,SrcNodePort:result"];
	NodeConstantDouble372 -> NodeAdd373[color="/dark28/7" photon_data="EDGE,SrcNode:372,SrcNodePort:value"];
	NodeConstantDouble374 -> NodeDiv375[color="/dark28/8" photon_data="EDGE,SrcNode:374,SrcNodePort:value"];
	NodeAdd373 -> NodeDiv375[color="/dark28/1" photon_data="EDGE,SrcNode:373,SrcNodePort:result"];
	NodeConstantDouble376 -> NodeSub377[color="/dark28/2" photon_data="EDGE,SrcNode:376,SrcNodePort:value"];
	NodeDiv375 -> NodeSub377[color="/dark28/3" photon_data="EDGE,SrcNode:375,SrcNodePort:result"];
	NodeConstantDouble378 -> NodeAdd379[color="/dark28/4" photon_data="EDGE,SrcNode:378,SrcNodePort:value"];
	NodeSub377 -> NodeAdd379[color="/dark28/5" photon_data="EDGE,SrcNode:377,SrcNodePort:result"];
	NodeAdd379 -> NodePO2FPMult507[color="/dark28/6" photon_data="EDGE,SrcNode:379,SrcNodePort:result"];
	NodePO2FPMult507 -> NodeSub382[color="/dark28/7" photon_data="EDGE,SrcNode:507,SrcNodePort:floatOut"];
	NodeFIFO569 -> NodeSub382[tailport="s" color="/dark28/8" photon_data="EDGE,SrcNode:569,SrcNodePort:output"];
	NodeFIFO579 -> NodeGt258[tailport="s" color="/dark28/1" photon_data="EDGE,SrcNode:579,SrcNodePort:output"];
	NodeConstantRawBits18 -> NodeGt258[color="/dark28/2" photon_data="EDGE,SrcNode:18,SrcNodePort:value"];
	NodeGt258 -> NodeMux259[headport="w" color="/dark28/3" photon_data="EDGE,SrcNode:258,SrcNodePort:result"];
	NodeConstantRawBits6 -> NodeMux259[color="/dark28/4" photon_data="EDGE,SrcNode:6,SrcNodePort:value"];
	NodeConstantRawBits7 -> NodeMux259[color="/dark28/5" photon_data="EDGE,SrcNode:7,SrcNodePort:value"];
	NodeSub382 -> NodeDiv383[color="/dark28/6" photon_data="EDGE,SrcNode:382,SrcNodePort:result"];
	NodeMux259 -> NodeDiv383[color="/dark28/7" photon_data="EDGE,SrcNode:259,SrcNodePort:result"];
	NodeDiv383 -> NodeMul388[color="/dark28/8" photon_data="EDGE,SrcNode:383,SrcNodePort:result"];
	NodeCast45 -> NodeMul388[color="/dark28/1" photon_data="EDGE,SrcNode:45,SrcNodePort:o"];
	NodeFIFO587 -> NodeAdd389[tailport="s" color="/dark28/2" photon_data="EDGE,SrcNode:587,SrcNodePort:output"];
	NodeMul388 -> NodeAdd389[color="/dark28/3" photon_data="EDGE,SrcNode:388,SrcNodePort:result"];
	NodeAdd389 -> NodeFIFO557[headport="n" color="/dark28/4" photon_data="EDGE,SrcNode:389,SrcNodePort:result"];
	NodeNeg405 -> NodeMul406[color="/dark28/5" photon_data="EDGE,SrcNode:405,SrcNodePort:result"];
	NodeFIFO557 -> NodeMul406[tailport="s" color="/dark28/6" photon_data="EDGE,SrcNode:557,SrcNodePort:output"];
	NodeMul406 -> NodeDiv407[color="/dark28/7" photon_data="EDGE,SrcNode:406,SrcNodePort:result"];
	NodeConstantRawBits13 -> NodeDiv407[color="/dark28/8" photon_data="EDGE,SrcNode:13,SrcNodePort:value"];
	NodeGt404 -> NodeMux409[headport="w" color="/dark28/1" photon_data="EDGE,SrcNode:404,SrcNodePort:result"];
	NodeConstantRawBits408 -> NodeMux409[color="/dark28/2" photon_data="EDGE,SrcNode:408,SrcNodePort:value"];
	NodeDiv407 -> NodeMux409[color="/dark28/3" photon_data="EDGE,SrcNode:407,SrcNodePort:result"];
	NodeAdd410 -> NodeAdd411[color="/dark28/4" photon_data="EDGE,SrcNode:410,SrcNodePort:result"];
	NodeMux409 -> NodeAdd411[color="/dark28/5" photon_data="EDGE,SrcNode:409,SrcNodePort:result"];
	NodeAdd411 -> NodeMul412[color="/dark28/6" photon_data="EDGE,SrcNode:411,SrcNodePort:result"];
	NodeCast45 -> NodeMul412[color="/dark28/7" photon_data="EDGE,SrcNode:45,SrcNodePort:o"];
	NodeFIFO585 -> NodeSub413[tailport="s" color="/dark28/8" photon_data="EDGE,SrcNode:585,SrcNodePort:output"];
	NodeMul412 -> NodeSub413[color="/dark28/1" photon_data="EDGE,SrcNode:412,SrcNodePort:result"];
	NodeSub413 -> NodeOutput425[color="/dark28/2" photon_data="EDGE,SrcNode:413,SrcNodePort:result"];
	NodeEvalStreamOffset512 -> NodeSub428[color="/dark28/3" photon_data="EDGE,SrcNode:512,SrcNodePort:output"];
	NodeConstantDouble427 -> NodeSub428[color="/dark28/4" photon_data="EDGE,SrcNode:427,SrcNodePort:value"];
	NodeCounter43 -> NodeEqInlined491[color="/dark28/5" photon_data="EDGE,SrcNode:43,SrcNodePort:count"];
	NodeSub428 -> NodeEqInlined491[color="/dark28/6" photon_data="EDGE,SrcNode:428,SrcNodePort:result"];
	NodeEqInlined491 -> NodeOutput433[headport="w" color="/dark28/7" ];
	NodeFIFO519 -> NodeOutput433[tailport="s" color="/dark28/8" photon_data="EDGE,SrcNode:519,SrcNodePort:output"];
	NodeEvalStreamOffset512 -> NodeSub436[color="/dark28/1" photon_data="EDGE,SrcNode:512,SrcNodePort:output"];
	NodeConstantDouble435 -> NodeSub436[color="/dark28/2" photon_data="EDGE,SrcNode:435,SrcNodePort:value"];
	NodeCounter43 -> NodeEqInlined492[color="/dark28/3" photon_data="EDGE,SrcNode:43,SrcNodePort:count"];
	NodeSub436 -> NodeEqInlined492[color="/dark28/4" photon_data="EDGE,SrcNode:436,SrcNodePort:result"];
	NodeEqInlined492 -> NodeOutput441[headport="w" color="/dark28/5" ];
	NodeFIFO539 -> NodeOutput441[tailport="s" color="/dark28/6" photon_data="EDGE,SrcNode:539,SrcNodePort:output"];
	NodeEvalStreamOffset512 -> NodeSub444[color="/dark28/7" photon_data="EDGE,SrcNode:512,SrcNodePort:output"];
	NodeConstantDouble443 -> NodeSub444[color="/dark28/8" photon_data="EDGE,SrcNode:443,SrcNodePort:value"];
	NodeCounter43 -> NodeEqInlined493[color="/dark28/1" photon_data="EDGE,SrcNode:43,SrcNodePort:count"];
	NodeSub444 -> NodeEqInlined493[color="/dark28/2" photon_data="EDGE,SrcNode:444,SrcNodePort:result"];
	NodeEqInlined493 -> NodeOutput449[headport="w" color="/dark28/3" ];
	NodeFIFO558 -> NodeOutput449[tailport="s" color="/dark28/4" photon_data="EDGE,SrcNode:558,SrcNodePort:output"];
}
