digraph manager_compiler_graph {
CellCableDFE56Kernel[shape=plaintext, label=<<TABLE  BORDER="1" CELLPADDING="1" CELLSPACING="1"><TR><TD BGCOLOR="white" BORDER="0" PORT="node_info" ROWSPAN="1" COLSPAN="1">Kernel : CellCableDFE56Kernel</TD></TR><TR><TD BGCOLOR="white" BORDER="0" PORT="outputs" ROWSPAN="1" COLSPAN="1"><TABLE  BORDER="1" CELLPADDING="1" CELLSPACING="4"><TR><TD BGCOLOR="white" BORDER="1" PORT="u_out" ROWSPAN="1" COLSPAN="1">u_out<BR/>clk=STREAM (100.0MHz)<BR/>width=64<BR/>PUSH 5</TD><TD BGCOLOR="white" BORDER="1" PORT="v_out" ROWSPAN="1" COLSPAN="1">v_out<BR/>clk=STREAM (100.0MHz)<BR/>width=64<BR/>PUSH 5</TD><TD BGCOLOR="white" BORDER="1" PORT="w_out" ROWSPAN="1" COLSPAN="1">w_out<BR/>clk=STREAM (100.0MHz)<BR/>width=64<BR/>PUSH 5</TD><TD BGCOLOR="white" BORDER="1" PORT="s_out" ROWSPAN="1" COLSPAN="1">s_out<BR/>clk=STREAM (100.0MHz)<BR/>width=64<BR/>PUSH 5</TD></TR></TABLE></TD></TR></TABLE>>];
u_out[shape=plaintext, label=<<TABLE  BORDER="1" CELLPADDING="1" CELLSPACING="1"><TR><TD BGCOLOR="white" BORDER="0" PORT="inputs" ROWSPAN="1" COLSPAN="1"><TABLE  BORDER="1" CELLPADDING="1" CELLSPACING="4"><TR><TD BGCOLOR="white" BORDER="1" PORT="u_out" ROWSPAN="1" COLSPAN="1">u_out<BR/>clk=PCIE (125.0MHz)<BR/>width=128<BR/>PUSH 1</TD></TR></TABLE></TD></TR><TR><TD BGCOLOR="white" BORDER="0" PORT="node_info" ROWSPAN="1" COLSPAN="1">PCIe_To_Host : u_out</TD></TR></TABLE>>];
v_out[shape=plaintext, label=<<TABLE  BORDER="1" CELLPADDING="1" CELLSPACING="1"><TR><TD BGCOLOR="white" BORDER="0" PORT="inputs" ROWSPAN="1" COLSPAN="1"><TABLE  BORDER="1" CELLPADDING="1" CELLSPACING="4"><TR><TD BGCOLOR="white" BORDER="1" PORT="v_out" ROWSPAN="1" COLSPAN="1">v_out<BR/>clk=PCIE (125.0MHz)<BR/>width=128<BR/>PUSH 1</TD></TR></TABLE></TD></TR><TR><TD BGCOLOR="white" BORDER="0" PORT="node_info" ROWSPAN="1" COLSPAN="1">PCIe_To_Host : v_out</TD></TR></TABLE>>];
w_out[shape=plaintext, label=<<TABLE  BORDER="1" CELLPADDING="1" CELLSPACING="1"><TR><TD BGCOLOR="white" BORDER="0" PORT="inputs" ROWSPAN="1" COLSPAN="1"><TABLE  BORDER="1" CELLPADDING="1" CELLSPACING="4"><TR><TD BGCOLOR="white" BORDER="1" PORT="w_out" ROWSPAN="1" COLSPAN="1">w_out<BR/>clk=PCIE (125.0MHz)<BR/>width=128<BR/>PUSH 1</TD></TR></TABLE></TD></TR><TR><TD BGCOLOR="white" BORDER="0" PORT="node_info" ROWSPAN="1" COLSPAN="1">PCIe_To_Host : w_out</TD></TR></TABLE>>];
s_out[shape=plaintext, label=<<TABLE  BORDER="1" CELLPADDING="1" CELLSPACING="1"><TR><TD BGCOLOR="white" BORDER="0" PORT="inputs" ROWSPAN="1" COLSPAN="1"><TABLE  BORDER="1" CELLPADDING="1" CELLSPACING="4"><TR><TD BGCOLOR="white" BORDER="1" PORT="s_out" ROWSPAN="1" COLSPAN="1">s_out<BR/>clk=PCIE (125.0MHz)<BR/>width=128<BR/>PUSH 1</TD></TR></TABLE></TD></TR><TR><TD BGCOLOR="white" BORDER="0" PORT="node_info" ROWSPAN="1" COLSPAN="1">PCIe_To_Host : s_out</TD></TR></TABLE>>];
Stream_2[shape=plaintext, label=<<TABLE  BORDER="1" CELLPADDING="1" CELLSPACING="1"><TR><TD BGCOLOR="white" BORDER="0" PORT="inputs" ROWSPAN="1" COLSPAN="1"><TABLE  BORDER="1" CELLPADDING="1" CELLSPACING="4"><TR><TD BGCOLOR="white" BORDER="1" PORT="input" ROWSPAN="1" COLSPAN="1">input<BR/>clk=PCIE (125.0MHz)<BR/>width=64<BR/>PULL el=1</TD></TR></TABLE></TD></TR><TR><TD BGCOLOR="white" BORDER="0" PORT="node_info" ROWSPAN="1" COLSPAN="1">DualAspectReg : Stream_2</TD></TR><TR><TD BGCOLOR="white" BORDER="0" PORT="outputs" ROWSPAN="1" COLSPAN="1"><TABLE  BORDER="1" CELLPADDING="1" CELLSPACING="4"><TR><TD BGCOLOR="white" BORDER="1" PORT="output" ROWSPAN="1" COLSPAN="1">output<BR/>clk=PCIE (125.0MHz)<BR/>width=128<BR/>PULL el=1</TD></TR></TABLE></TD></TR></TABLE>>];
Stream_5[shape=plaintext, label=<<TABLE  BORDER="1" CELLPADDING="1" CELLSPACING="1"><TR><TD BGCOLOR="white" BORDER="0" PORT="inputs" ROWSPAN="1" COLSPAN="1"><TABLE  BORDER="1" CELLPADDING="1" CELLSPACING="4"><TR><TD BGCOLOR="white" BORDER="1" PORT="input" ROWSPAN="1" COLSPAN="1">input<BR/>clk=PCIE (125.0MHz)<BR/>width=64<BR/>PULL el=1</TD></TR></TABLE></TD></TR><TR><TD BGCOLOR="white" BORDER="0" PORT="node_info" ROWSPAN="1" COLSPAN="1">DualAspectReg : Stream_5</TD></TR><TR><TD BGCOLOR="white" BORDER="0" PORT="outputs" ROWSPAN="1" COLSPAN="1"><TABLE  BORDER="1" CELLPADDING="1" CELLSPACING="4"><TR><TD BGCOLOR="white" BORDER="1" PORT="output" ROWSPAN="1" COLSPAN="1">output<BR/>clk=PCIE (125.0MHz)<BR/>width=128<BR/>PULL el=1</TD></TR></TABLE></TD></TR></TABLE>>];
Stream_8[shape=plaintext, label=<<TABLE  BORDER="1" CELLPADDING="1" CELLSPACING="1"><TR><TD BGCOLOR="white" BORDER="0" PORT="inputs" ROWSPAN="1" COLSPAN="1"><TABLE  BORDER="1" CELLPADDING="1" CELLSPACING="4"><TR><TD BGCOLOR="white" BORDER="1" PORT="input" ROWSPAN="1" COLSPAN="1">input<BR/>clk=PCIE (125.0MHz)<BR/>width=64<BR/>PULL el=1</TD></TR></TABLE></TD></TR><TR><TD BGCOLOR="white" BORDER="0" PORT="node_info" ROWSPAN="1" COLSPAN="1">DualAspectReg : Stream_8</TD></TR><TR><TD BGCOLOR="white" BORDER="0" PORT="outputs" ROWSPAN="1" COLSPAN="1"><TABLE  BORDER="1" CELLPADDING="1" CELLSPACING="4"><TR><TD BGCOLOR="white" BORDER="1" PORT="output" ROWSPAN="1" COLSPAN="1">output<BR/>clk=PCIE (125.0MHz)<BR/>width=128<BR/>PULL el=1</TD></TR></TABLE></TD></TR></TABLE>>];
Stream_11[shape=plaintext, label=<<TABLE  BORDER="1" CELLPADDING="1" CELLSPACING="1"><TR><TD BGCOLOR="white" BORDER="0" PORT="inputs" ROWSPAN="1" COLSPAN="1"><TABLE  BORDER="1" CELLPADDING="1" CELLSPACING="4"><TR><TD BGCOLOR="white" BORDER="1" PORT="input" ROWSPAN="1" COLSPAN="1">input<BR/>clk=PCIE (125.0MHz)<BR/>width=64<BR/>PULL el=1</TD></TR></TABLE></TD></TR><TR><TD BGCOLOR="white" BORDER="0" PORT="node_info" ROWSPAN="1" COLSPAN="1">DualAspectReg : Stream_11</TD></TR><TR><TD BGCOLOR="white" BORDER="0" PORT="outputs" ROWSPAN="1" COLSPAN="1"><TABLE  BORDER="1" CELLPADDING="1" CELLSPACING="4"><TR><TD BGCOLOR="white" BORDER="1" PORT="output" ROWSPAN="1" COLSPAN="1">output<BR/>clk=PCIE (125.0MHz)<BR/>width=128<BR/>PULL el=1</TD></TR></TABLE></TD></TR></TABLE>>];
Stream_16[shape=plaintext, label=<<TABLE  BORDER="1" CELLPADDING="1" CELLSPACING="1"><TR><TD BGCOLOR="white" BORDER="0" PORT="inputs" ROWSPAN="1" COLSPAN="1"><TABLE  BORDER="1" CELLPADDING="1" CELLSPACING="4"><TR><TD BGCOLOR="white" BORDER="1" PORT="input" ROWSPAN="1" COLSPAN="1">input<BR/>clk=PCIE (125.0MHz)<BR/>width=128<BR/>PULL el=1</TD></TR></TABLE></TD></TR><TR><TD BGCOLOR="white" BORDER="0" PORT="node_info" ROWSPAN="1" COLSPAN="1">StreamPullPushAdapter : Stream_16</TD></TR><TR><TD BGCOLOR="white" BORDER="0" PORT="outputs" ROWSPAN="1" COLSPAN="1"><TABLE  BORDER="1" CELLPADDING="1" CELLSPACING="4"><TR><TD BGCOLOR="white" BORDER="1" PORT="output" ROWSPAN="1" COLSPAN="1">output<BR/>clk=PCIE (125.0MHz)<BR/>width=128<BR/>PUSH 1</TD></TR></TABLE></TD></TR></TABLE>>];
Stream_20[shape=plaintext, label=<<TABLE  BORDER="1" CELLPADDING="1" CELLSPACING="1"><TR><TD BGCOLOR="white" BORDER="0" PORT="inputs" ROWSPAN="1" COLSPAN="1"><TABLE  BORDER="1" CELLPADDING="1" CELLSPACING="4"><TR><TD BGCOLOR="white" BORDER="1" PORT="input" ROWSPAN="1" COLSPAN="1">input<BR/>clk=PCIE (125.0MHz)<BR/>width=128<BR/>PULL el=1</TD></TR></TABLE></TD></TR><TR><TD BGCOLOR="white" BORDER="0" PORT="node_info" ROWSPAN="1" COLSPAN="1">StreamPullPushAdapter : Stream_20</TD></TR><TR><TD BGCOLOR="white" BORDER="0" PORT="outputs" ROWSPAN="1" COLSPAN="1"><TABLE  BORDER="1" CELLPADDING="1" CELLSPACING="4"><TR><TD BGCOLOR="white" BORDER="1" PORT="output" ROWSPAN="1" COLSPAN="1">output<BR/>clk=PCIE (125.0MHz)<BR/>width=128<BR/>PUSH 1</TD></TR></TABLE></TD></TR></TABLE>>];
Stream_24[shape=plaintext, label=<<TABLE  BORDER="1" CELLPADDING="1" CELLSPACING="1"><TR><TD BGCOLOR="white" BORDER="0" PORT="inputs" ROWSPAN="1" COLSPAN="1"><TABLE  BORDER="1" CELLPADDING="1" CELLSPACING="4"><TR><TD BGCOLOR="white" BORDER="1" PORT="input" ROWSPAN="1" COLSPAN="1">input<BR/>clk=PCIE (125.0MHz)<BR/>width=128<BR/>PULL el=1</TD></TR></TABLE></TD></TR><TR><TD BGCOLOR="white" BORDER="0" PORT="node_info" ROWSPAN="1" COLSPAN="1">StreamPullPushAdapter : Stream_24</TD></TR><TR><TD BGCOLOR="white" BORDER="0" PORT="outputs" ROWSPAN="1" COLSPAN="1"><TABLE  BORDER="1" CELLPADDING="1" CELLSPACING="4"><TR><TD BGCOLOR="white" BORDER="1" PORT="output" ROWSPAN="1" COLSPAN="1">output<BR/>clk=PCIE (125.0MHz)<BR/>width=128<BR/>PUSH 1</TD></TR></TABLE></TD></TR></TABLE>>];
Stream_28[shape=plaintext, label=<<TABLE  BORDER="1" CELLPADDING="1" CELLSPACING="1"><TR><TD BGCOLOR="white" BORDER="0" PORT="inputs" ROWSPAN="1" COLSPAN="1"><TABLE  BORDER="1" CELLPADDING="1" CELLSPACING="4"><TR><TD BGCOLOR="white" BORDER="1" PORT="input" ROWSPAN="1" COLSPAN="1">input<BR/>clk=PCIE (125.0MHz)<BR/>width=128<BR/>PULL el=1</TD></TR></TABLE></TD></TR><TR><TD BGCOLOR="white" BORDER="0" PORT="node_info" ROWSPAN="1" COLSPAN="1">StreamPullPushAdapter : Stream_28</TD></TR><TR><TD BGCOLOR="white" BORDER="0" PORT="outputs" ROWSPAN="1" COLSPAN="1"><TABLE  BORDER="1" CELLPADDING="1" CELLSPACING="4"><TR><TD BGCOLOR="white" BORDER="1" PORT="output" ROWSPAN="1" COLSPAN="1">output<BR/>clk=PCIE (125.0MHz)<BR/>width=128<BR/>PUSH 1</TD></TR></TABLE></TD></TR></TABLE>>];
Stream_14[shape=plaintext, label=<<TABLE BORDER="0" CELLSPACING="0" CELLBORDER="1"> <TR><TD PORT="input"></TD><TD BORDER="0" ROWSPAN="6" WIDTH="1">Stream_14</TD></TR> <TR><TD></TD></TR> <TR><TD></TD></TR> <TR><TD></TD></TR> <TR><TD></TD></TR> <TR HEIGHT="0" CELLPADDING="0" BORDER="0" ><TD CELLPADDING="0" BORDER="0" PORT="output"></TD></TR> </TABLE>>];
Stream_18[shape=plaintext, label=<<TABLE BORDER="0" CELLSPACING="0" CELLBORDER="1"> <TR><TD PORT="input"></TD><TD BORDER="0" ROWSPAN="6" WIDTH="1">Stream_18</TD></TR> <TR><TD></TD></TR> <TR><TD></TD></TR> <TR><TD></TD></TR> <TR><TD></TD></TR> <TR HEIGHT="0" CELLPADDING="0" BORDER="0" ><TD CELLPADDING="0" BORDER="0" PORT="output"></TD></TR> </TABLE>>];
Stream_22[shape=plaintext, label=<<TABLE BORDER="0" CELLSPACING="0" CELLBORDER="1"> <TR><TD PORT="input"></TD><TD BORDER="0" ROWSPAN="6" WIDTH="1">Stream_22</TD></TR> <TR><TD></TD></TR> <TR><TD></TD></TR> <TR><TD></TD></TR> <TR><TD></TD></TR> <TR HEIGHT="0" CELLPADDING="0" BORDER="0" ><TD CELLPADDING="0" BORDER="0" PORT="output"></TD></TR> </TABLE>>];
Stream_26[shape=plaintext, label=<<TABLE BORDER="0" CELLSPACING="0" CELLBORDER="1"> <TR><TD PORT="input"></TD><TD BORDER="0" ROWSPAN="6" WIDTH="1">Stream_26</TD></TR> <TR><TD></TD></TR> <TR><TD></TD></TR> <TR><TD></TD></TR> <TR><TD></TD></TR> <TR HEIGHT="0" CELLPADDING="0" BORDER="0" ><TD CELLPADDING="0" BORDER="0" PORT="output"></TD></TR> </TABLE>>];
CellCableDFE56Kernel -> Stream_14 [headport="input" tailport="u_out" label="{D{data:1}}"]
CellCableDFE56Kernel -> Stream_18 [headport="input" tailport="v_out" label="{D{data:1}}"]
CellCableDFE56Kernel -> Stream_22 [headport="input" tailport="w_out" label="{D{data:1}}"]
CellCableDFE56Kernel -> Stream_26 [headport="input" tailport="s_out" label="{D{data:1}}"]
Stream_2 -> Stream_16 [headport="input" tailport="output" label="{D{data:1}}"]
Stream_5 -> Stream_20 [headport="input" tailport="output" label="{D{data:1}}"]
Stream_8 -> Stream_24 [headport="input" tailport="output" label="{D{data:1}}"]
Stream_11 -> Stream_28 [headport="input" tailport="output" label="{D{data:1}}"]
Stream_16 -> u_out [headport="u_out" tailport="output" label="{D{data:1}}"]
Stream_20 -> v_out [headport="v_out" tailport="output" label="{D{data:1}}"]
Stream_24 -> w_out [headport="w_out" tailport="output" label="{D{data:1}}"]
Stream_28 -> s_out [headport="s_out" tailport="output" label="{D{data:1}}"]
Stream_14 -> Stream_2 [headport="input" tailport="output" label="{D{data:1}}"]
Stream_18 -> Stream_5 [headport="input" tailport="output" label="{D{data:1}}"]
Stream_22 -> Stream_8 [headport="input" tailport="output" label="{D{data:1}}"]
Stream_26 -> Stream_11 [headport="input" tailport="output" label="{D{data:1}}"]
}
