digraph MinimalModelDFEKernel_post_dsp_extraction{
	NodeConstantRawBits40 [shape=box, label="1.0\nID: 40"];
	NodeEvalStreamOffset39 [label="EvalStreamOffset(loopLength)\nID: 39"];
	NodeCounter43 [shape=hexagon, label="cnt\nID: 43"];
	NodeConstantDouble443 [shape=box, label="1.0\nID: 443"];
	NodeSub444 [label="-\nID: 444"];
	NodeEqInlined489 [label="==\nID: 489"];
	NodeInputMappedReg41 [shape=box, peripheries=2, label="num_iteration\nID: 41"];
	NodeCounter42 [shape=hexagon, label="cnt\nID: 42"];
	NodeConstantDouble46 [shape=box, label="0.0\nID: 46"];
	NodeEqInlined490 [label="==\nID: 490"];
	NodeStreamOffset438 [shape=diamond, label="-loopLength\nID: 438"];
	NodeConstantRawBits38 [shape=box, label="1.0\nID: 38"];
	NodeMux48 [shape=invtrapezium, height=0.5, label="MUX\nID: 48"];
	NodeConstantRawBits15 [shape=box, label="0.29999999999999716\nID: 15"];
	NodeGt414 [label=">\nID: 414"];
	NodeConstantRawBits37 [shape=box, label="0.0\nID: 37"];
	NodeConstantDouble49 [shape=box, label="0.0\nID: 49"];
	NodeEqInlined491 [label="==\nID: 491"];
	NodeStreamOffset439 [shape=diamond, label="-loopLength\nID: 439"];
	NodeMux51 [shape=invtrapezium, height=0.5, label="MUX\nID: 51"];
	NodeGt287 [label=">\nID: 287"];
	NodeConstantRawBits17 [shape=box, label="0.006000000000000005\nID: 17"];
	NodeGt278 [label=">\nID: 278"];
	NodeMux279 [shape=invtrapezium, height=0.5, label="MUX\nID: 279"];
	NodeSub290 [label="-\nID: 290"];
	NodeConstantRawBits16 [shape=box, label="0.006000000000000005\nID: 16"];
	NodeGt58 [label=">\nID: 58"];
	NodeConstantRawBits1 [shape=box, label="60.0\nID: 1"];
	NodeConstantRawBits2 [shape=box, label="1150.0\nID: 2"];
	NodeMux59 [shape=invtrapezium, height=0.5, label="MUX\nID: 59"];
	NodeDiv291 [label="/\nID: 291"];
	NodeNeg288 [label="(-)\nID: 288"];
	NodeConstantRawBits0 [shape=box, label="1.4506000000000085\nID: 0"];
	NodeDiv289 [label="/\nID: 289"];
	NodeMux292 [shape=invtrapezium, height=0.5, label="MUX\nID: 292"];
	NodeInputMappedReg44 [shape=box, peripheries=2, label="dt\nID: 44"];
	NodeCast45 [label="{HWFloat:11, 45}\nID: 45"];
	NodeMul408 [label="*\nID: 408"];
	NodeAdd409 [label="+\nID: 409"];
	NodeNeg415 [label="(-)\nID: 415"];
	NodeSub416 [label="-\nID: 416"];
	NodeMul417 [label="*\nID: 417"];
	NodeConstantRawBits29 [shape=box, label="1.5500000000000114\nID: 29"];
	NodeSub418 [label="-\nID: 418"];
	NodeMul419 [label="*\nID: 419"];
	NodeConstantRawBits8 [shape=box, label="0.10999999999999943\nID: 8"];
	NodeDiv420 [label="/\nID: 420"];
	NodeMux421 [shape=invtrapezium, height=0.5, label="MUX\nID: 421"];
	NodeConstantRawBits20 [shape=box, label="0.13000000000000256\nID: 20"];
	NodeGt422 [label=">\nID: 422"];
	NodeConstantRawBits22 [shape=box, label="0.006000000000000005\nID: 22"];
	NodeGt276 [label=">\nID: 276"];
	NodeConstantRawBits9 [shape=box, label="400.0\nID: 9"];
	NodeConstantRawBits10 [shape=box, label="6.0\nID: 10"];
	NodeMux277 [shape=invtrapezium, height=0.5, label="MUX\nID: 277"];
	NodeDiv426 [label="/\nID: 426"];
	NodeConstantDouble423 [shape=box, label="1.0\nID: 423"];
	NodeConstantRawBits11 [shape=box, label="30.01810000000023\nID: 11"];
	NodeConstantRawBits36 [shape=box, label="-14.511199999999917\nID: 36"];
	NodeConstantDouble270 [shape=box, label="1.0\nID: 270"];
	NodeConstantDouble268 [shape=box, label="1.0\nID: 268"];
	NodeConstantDouble266 [shape=box, label="2.0\nID: 266"];
	NodeConstantDouble169 [shape=box, label="2.0\nID: 169"];
	NodeConstantRawBits25 [shape=box, label="2.0457999999999856\nID: 25"];
	NodeConstantRawBits30 [shape=box, label="0.6500000000000057\nID: 30"];
	NodeSub167 [label="-\nID: 167"];
	NodeMul168 [label="*\nID: 168"];
	NodeMul170 [label="*\nID: 170"];
	NodeSlice247 [label="[54:44]\nID: 247"];
	NodeConstantRawBits248 [shape=box, label="0x7ff\nID: 248"];
	NodeEqInlined492 [label="==\nID: 492"];
	NodeSlice246 [label="[43:0]\nID: 246"];
	NodeConstantDouble250 [shape=box, label="0.0\nID: 250"];
	NodeNeqInlined493 [label="!=\nID: 493"];
	NodeAnd252 [label="&\nID: 252"];
	NodeConstantRawBits171 [shape=box, label="0.0\nID: 171"];
	NodeDoubtBitOp172 [label="DoubtBitOp(ADD_DOUBT)\nID: 172"];
	NodeCast173 [label="{HWOffsetFix:61, -48, TWOSCOMPLEMENT}\nID: 173"];
	NodeConstantRawBits176 [shape=box, label="1.4426950408889634\nID: 176"];
	NodeMul175 [label="*\nID: 175"];
	NodeCast177 [label="{HWOffsetFix:61, -48, TWOSCOMPLEMENT}\nID: 177"];
	NodeDoubtBitOp186 [label="DoubtBitOp(REMOVE_DOUBT)\nID: 186"];
	NodeCast187 [label="{HWOffsetFix:13, 0, TWOSCOMPLEMENT}\nID: 187"];
	NodeCast214 [label="{HWOffsetFix:14, 0, TWOSCOMPLEMENT}\nID: 214"];
	NodeConstantDouble215 [shape=box, label="1023.0\nID: 215"];
	NodeAdd216 [label="+\nID: 216"];
	NodeCast190 [label="{HWOffsetFix:10, -23, UNSIGNED}\nID: 190"];
	NodeReinterpret262 [label="<{HWOffsetFix:10, 0, UNSIGNED}>\nID: 262"];
	NodeROM263 [label="ROM\nID: 263"];
	NodeCast189 [label="{HWOffsetFix:10, -13, UNSIGNED}\nID: 189"];
	NodeReinterpret259 [label="<{HWOffsetFix:10, 0, UNSIGNED}>\nID: 259"];
	NodeROM260 [label="ROM\nID: 260"];
	NodeCast188 [label="{HWOffsetFix:3, -3, UNSIGNED}\nID: 188"];
	NodeReinterpret256 [label="<{HWOffsetFix:3, 0, UNSIGNED}>\nID: 256"];
	NodeROM257 [label="ROM\nID: 257"];
	NodeConstantRawBits194 [shape=box, label="0.6931471824645996\nID: 194"];
	NodeCast191 [label="{HWOffsetFix:25, -48, UNSIGNED}\nID: 191"];
	NodeMul193 [label="*\nID: 193"];
	NodeCast195 [label="{HWOffsetFix:25, -48, UNSIGNED}\nID: 195"];
	NodeAdd196 [label="+\nID: 196"];
	NodeMul197 [label="*\nID: 197"];
	NodeAdd198 [label="+\nID: 198"];
	NodeCast199 [label="{HWOffsetFix:49, -48, UNSIGNED}\nID: 199"];
	NodeAdd200 [label="+\nID: 200"];
	NodeMul201 [label="*\nID: 201"];
	NodeAdd202 [label="+\nID: 202"];
	NodeCast203 [label="{HWOffsetFix:50, -48, UNSIGNED}\nID: 203"];
	NodeAdd204 [label="+\nID: 204"];
	NodeMul205 [label="*\nID: 205"];
	NodeAdd206 [label="+\nID: 206"];
	NodeCast207 [label="{HWOffsetFix:51, -48, UNSIGNED}\nID: 207"];
	NodeCast208 [label="{HWOffsetFix:45, -44, UNSIGNED}\nID: 208"];
	NodeConstantDouble209 [shape=box, label="1.0\nID: 209"];
	NodeGteInlined494 [label=">=\nID: 494"];
	NodeConstantRawBits218 [shape=box, label="0.0\nID: 218"];
	NodeConstantRawBits217 [shape=box, label="1.0\nID: 217"];
	NodeMux219 [shape=invtrapezium, height=0.5, label="MUX\nID: 219"];
	NodeAdd220 [label="+\nID: 220"];
	NodeSlice495 [label="[13:13]\nID: 495"];
	NodeReinterpret496 [label="<{HWOffsetFix:1, 0, UNSIGNED}>\nID: 496"];
	NodeConstantDouble178 [shape=box, label="0.0\nID: 178"];
	NodeGt179 [label=">\nID: 179"];
	NodeDoubtBitOp180 [label="DoubtBitOp(GET_DOUBT)\nID: 180"];
	NodeAnd181 [label="&\nID: 181"];
	NodeNot223 [label="~\nID: 223"];
	NodeAnd224 [label="&\nID: 224"];
	NodeConstantDouble182 [shape=box, label="0.0\nID: 182"];
	NodeLt183 [label="<\nID: 183"];
	NodeDoubtBitOp184 [label="DoubtBitOp(GET_DOUBT)\nID: 184"];
	NodeAnd185 [label="&\nID: 185"];
	NodeOr225 [label="|\nID: 225"];
	NodeConstantDouble230 [shape=box, label="2047.0\nID: 230"];
	NodeGteInlined497 [label=">=\nID: 497"];
	NodeNot232 [label="~\nID: 232"];
	NodeAnd233 [label="&\nID: 233"];
	NodeOr234 [label="|\nID: 234"];
	NodeCat235 [label="@\nID: 235"];
	NodeConstantRawBits227 [shape=box, label="0.0\nID: 227"];
	NodeCast226 [label="{HWOffsetFix:11, 0, TWOSCOMPLEMENT}\nID: 226"];
	NodeConstantRawBits211 [shape=box, label="0.0\nID: 211"];
	NodeMux212 [shape=invtrapezium, height=0.5, label="MUX\nID: 212"];
	NodeCast213 [label="{HWOffsetFix:44, -44, UNSIGNED}\nID: 213"];
	NodeCat228 [label="@\nID: 228"];
	NodeReinterpret229 [label="<{HWFloat:11, 45}>\nID: 229"];
	NodeConstantRawBits236 [shape=box, label="0.0\nID: 236"];
	NodeConstantRawBits237 [shape=box, label="2047.0\nID: 237"];
	NodeConstantRawBits239 [shape=box, label="0.0\nID: 239"];
	NodeCat498 [label="@\nID: 498"];
	NodeReinterpret241 [label="<{HWFloat:11, 45}>\nID: 241"];
	NodeConstantRawBits486 [shape=box, label="0.0\nID: 486"];
	NodeMux244 [shape=invtrapezium, height=0.5, label="MUX\nID: 244"];
	NodeConstantDouble253 [shape=box, label="NaN\nID: 253"];
	NodeMux254 [shape=invtrapezium, height=0.5, label="MUX\nID: 254"];
	NodeConstantDouble264 [shape=box, label="1.0\nID: 264"];
	NodeAdd265 [label="+\nID: 265"];
	NodeDiv267 [label="/\nID: 267"];
	NodeSub269 [label="-\nID: 269"];
	NodeAdd271 [label="+\nID: 271"];
	NodeMul272 [label="*\nID: 272"];
	NodeAdd273 [label="+\nID: 273"];
	NodeDiv424 [label="/\nID: 424"];
	NodeMux427 [shape=invtrapezium, height=0.5, label="MUX\nID: 427"];
	NodeAdd434 [label="+\nID: 434"];
	NodeConstantRawBits21 [shape=box, label="0.13000000000000256\nID: 21"];
	NodeGt428 [label=">\nID: 428"];
	NodeConstantRawBits432 [shape=box, label="0.0\nID: 432"];
	NodeConstantDouble52 [shape=box, label="0.0\nID: 52"];
	NodeEqInlined499 [label="==\nID: 499"];
	NodeStreamOffset440 [shape=diamond, label="-loopLength\nID: 440"];
	NodeMux54 [shape=invtrapezium, height=0.5, label="MUX\nID: 54"];
	NodeConstantRawBits18 [shape=box, label="0.13000000000000256\nID: 18"];
	NodeGt293 [label=">\nID: 293"];
	NodeConstantRawBits19 [shape=box, label="0.006000000000000005\nID: 19"];
	NodeGt280 [label=">\nID: 280"];
	NodeConstantDouble282 [shape=box, label="1.0\nID: 282"];
	NodeConstantRawBits14 [shape=box, label="0.07000000000000028\nID: 14"];
	NodeDiv281 [label="/\nID: 281"];
	NodeSub283 [label="-\nID: 283"];
	NodeConstantRawBits32 [shape=box, label="0.9399999999999977\nID: 32"];
	NodeMux284 [shape=invtrapezium, height=0.5, label="MUX\nID: 284"];
	NodeGt285 [label=">\nID: 285"];
	NodeMux286 [shape=invtrapezium, height=0.5, label="MUX\nID: 286"];
	NodeSub296 [label="-\nID: 296"];
	NodeConstantRawBits4 [shape=box, label="60.0\nID: 4"];
	NodeConstantRawBits35 [shape=box, label="-22.5\nID: 35"];
	NodeConstantDouble163 [shape=box, label="1.0\nID: 163"];
	NodeConstantDouble161 [shape=box, label="1.0\nID: 161"];
	NodeConstantDouble159 [shape=box, label="2.0\nID: 159"];
	NodeConstantDouble62 [shape=box, label="2.0\nID: 62"];
	NodeConstantRawBits23 [shape=box, label="65.0\nID: 23"];
	NodeConstantRawBits26 [shape=box, label="0.03000000000000025\nID: 26"];
	NodeSub60 [label="-\nID: 60"];
	NodeMul61 [label="*\nID: 61"];
	NodeMul63 [label="*\nID: 63"];
	NodeSlice140 [label="[54:44]\nID: 140"];
	NodeConstantRawBits141 [shape=box, label="0x7ff\nID: 141"];
	NodeEqInlined500 [label="==\nID: 500"];
	NodeSlice139 [label="[43:0]\nID: 139"];
	NodeConstantDouble143 [shape=box, label="0.0\nID: 143"];
	NodeNeqInlined501 [label="!=\nID: 501"];
	NodeAnd145 [label="&\nID: 145"];
	NodeConstantRawBits64 [shape=box, label="0.0\nID: 64"];
	NodeDoubtBitOp65 [label="DoubtBitOp(ADD_DOUBT)\nID: 65"];
	NodeCast66 [label="{HWOffsetFix:61, -48, TWOSCOMPLEMENT}\nID: 66"];
	NodeConstantRawBits69 [shape=box, label="1.4426950408889634\nID: 69"];
	NodeMul68 [label="*\nID: 68"];
	NodeCast70 [label="{HWOffsetFix:61, -48, TWOSCOMPLEMENT}\nID: 70"];
	NodeDoubtBitOp79 [label="DoubtBitOp(REMOVE_DOUBT)\nID: 79"];
	NodeCast80 [label="{HWOffsetFix:13, 0, TWOSCOMPLEMENT}\nID: 80"];
	NodeCast107 [label="{HWOffsetFix:14, 0, TWOSCOMPLEMENT}\nID: 107"];
	NodeConstantDouble108 [shape=box, label="1023.0\nID: 108"];
	NodeAdd109 [label="+\nID: 109"];
	NodeCast83 [label="{HWOffsetFix:10, -23, UNSIGNED}\nID: 83"];
	NodeReinterpret155 [label="<{HWOffsetFix:10, 0, UNSIGNED}>\nID: 155"];
	NodeROM156 [label="ROM\nID: 156"];
	NodeCast82 [label="{HWOffsetFix:10, -13, UNSIGNED}\nID: 82"];
	NodeReinterpret152 [label="<{HWOffsetFix:10, 0, UNSIGNED}>\nID: 152"];
	NodeROM153 [label="ROM\nID: 153"];
	NodeCast81 [label="{HWOffsetFix:3, -3, UNSIGNED}\nID: 81"];
	NodeReinterpret149 [label="<{HWOffsetFix:3, 0, UNSIGNED}>\nID: 149"];
	NodeROM150 [label="ROM\nID: 150"];
	NodeConstantRawBits87 [shape=box, label="0.6931471824645996\nID: 87"];
	NodeCast84 [label="{HWOffsetFix:25, -48, UNSIGNED}\nID: 84"];
	NodeMul86 [label="*\nID: 86"];
	NodeCast88 [label="{HWOffsetFix:25, -48, UNSIGNED}\nID: 88"];
	NodeAdd89 [label="+\nID: 89"];
	NodeMul90 [label="*\nID: 90"];
	NodeAdd91 [label="+\nID: 91"];
	NodeCast92 [label="{HWOffsetFix:49, -48, UNSIGNED}\nID: 92"];
	NodeAdd93 [label="+\nID: 93"];
	NodeMul94 [label="*\nID: 94"];
	NodeAdd95 [label="+\nID: 95"];
	NodeCast96 [label="{HWOffsetFix:50, -48, UNSIGNED}\nID: 96"];
	NodeAdd97 [label="+\nID: 97"];
	NodeMul98 [label="*\nID: 98"];
	NodeAdd99 [label="+\nID: 99"];
	NodeCast100 [label="{HWOffsetFix:51, -48, UNSIGNED}\nID: 100"];
	NodeCast101 [label="{HWOffsetFix:45, -44, UNSIGNED}\nID: 101"];
	NodeConstantDouble102 [shape=box, label="1.0\nID: 102"];
	NodeGteInlined502 [label=">=\nID: 502"];
	NodeConstantRawBits111 [shape=box, label="0.0\nID: 111"];
	NodeConstantRawBits110 [shape=box, label="1.0\nID: 110"];
	NodeMux112 [shape=invtrapezium, height=0.5, label="MUX\nID: 112"];
	NodeAdd113 [label="+\nID: 113"];
	NodeSlice503 [label="[13:13]\nID: 503"];
	NodeReinterpret504 [label="<{HWOffsetFix:1, 0, UNSIGNED}>\nID: 504"];
	NodeConstantDouble71 [shape=box, label="0.0\nID: 71"];
	NodeGt72 [label=">\nID: 72"];
	NodeDoubtBitOp73 [label="DoubtBitOp(GET_DOUBT)\nID: 73"];
	NodeAnd74 [label="&\nID: 74"];
	NodeNot116 [label="~\nID: 116"];
	NodeAnd117 [label="&\nID: 117"];
	NodeConstantDouble75 [shape=box, label="0.0\nID: 75"];
	NodeLt76 [label="<\nID: 76"];
	NodeDoubtBitOp77 [label="DoubtBitOp(GET_DOUBT)\nID: 77"];
	NodeAnd78 [label="&\nID: 78"];
	NodeOr118 [label="|\nID: 118"];
	NodeConstantDouble123 [shape=box, label="2047.0\nID: 123"];
	NodeGteInlined505 [label=">=\nID: 505"];
	NodeNot125 [label="~\nID: 125"];
	NodeAnd126 [label="&\nID: 126"];
	NodeOr127 [label="|\nID: 127"];
	NodeCat128 [label="@\nID: 128"];
	NodeConstantRawBits120 [shape=box, label="0.0\nID: 120"];
	NodeCast119 [label="{HWOffsetFix:11, 0, TWOSCOMPLEMENT}\nID: 119"];
	NodeConstantRawBits104 [shape=box, label="0.0\nID: 104"];
	NodeMux105 [shape=invtrapezium, height=0.5, label="MUX\nID: 105"];
	NodeCast106 [label="{HWOffsetFix:44, -44, UNSIGNED}\nID: 106"];
	NodeCat121 [label="@\nID: 121"];
	NodeReinterpret122 [label="<{HWFloat:11, 45}>\nID: 122"];
	NodeConstantRawBits129 [shape=box, label="0.0\nID: 129"];
	NodeConstantRawBits130 [shape=box, label="2047.0\nID: 130"];
	NodeConstantRawBits132 [shape=box, label="0.0\nID: 132"];
	NodeCat506 [label="@\nID: 506"];
	NodeReinterpret134 [label="<{HWFloat:11, 45}>\nID: 134"];
	NodeConstantRawBits487 [shape=box, label="0.0\nID: 487"];
	NodeMux137 [shape=invtrapezium, height=0.5, label="MUX\nID: 137"];
	NodeConstantDouble146 [shape=box, label="NaN\nID: 146"];
	NodeMux147 [shape=invtrapezium, height=0.5, label="MUX\nID: 147"];
	NodeConstantDouble157 [shape=box, label="1.0\nID: 157"];
	NodeAdd158 [label="+\nID: 158"];
	NodeDiv160 [label="/\nID: 160"];
	NodeSub162 [label="-\nID: 162"];
	NodeAdd164 [label="+\nID: 164"];
	NodeMul165 [label="*\nID: 165"];
	NodeAdd166 [label="+\nID: 166"];
	NodeDiv297 [label="/\nID: 297"];
	NodeNeg294 [label="(-)\nID: 294"];
	NodeConstantRawBits3 [shape=box, label="200.0\nID: 3"];
	NodeDiv295 [label="/\nID: 295"];
	NodeMux298 [shape=invtrapezium, height=0.5, label="MUX\nID: 298"];
	NodeMul410 [label="*\nID: 410"];
	NodeAdd411 [label="+\nID: 411"];
	NodeNeg429 [label="(-)\nID: 429"];
	NodeConstantDouble55 [shape=box, label="0.0\nID: 55"];
	NodeEqInlined507 [label="==\nID: 507"];
	NodeStreamOffset441 [shape=diamond, label="-loopLength\nID: 441"];
	NodeMux57 [shape=invtrapezium, height=0.5, label="MUX\nID: 57"];
	NodeConstantDouble402 [shape=box, label="1.0\nID: 402"];
	NodeConstantDouble400 [shape=box, label="1.0\nID: 400"];
	NodeConstantDouble398 [shape=box, label="2.0\nID: 398"];
	NodeConstantDouble301 [shape=box, label="2.0\nID: 301"];
	NodeConstantRawBits24 [shape=box, label="2.099399999999946\nID: 24"];
	NodeConstantRawBits27 [shape=box, label="0.9087000000000103\nID: 27"];
	NodeSub299 [label="-\nID: 299"];
	NodeMul300 [label="*\nID: 300"];
	NodeMul302 [label="*\nID: 302"];
	NodeSlice379 [label="[54:44]\nID: 379"];
	NodeConstantRawBits380 [shape=box, label="0x7ff\nID: 380"];
	NodeEqInlined508 [label="==\nID: 508"];
	NodeSlice378 [label="[43:0]\nID: 378"];
	NodeConstantDouble382 [shape=box, label="0.0\nID: 382"];
	NodeNeqInlined509 [label="!=\nID: 509"];
	NodeAnd384 [label="&\nID: 384"];
	NodeConstantRawBits303 [shape=box, label="0.0\nID: 303"];
	NodeDoubtBitOp304 [label="DoubtBitOp(ADD_DOUBT)\nID: 304"];
	NodeCast305 [label="{HWOffsetFix:61, -48, TWOSCOMPLEMENT}\nID: 305"];
	NodeConstantRawBits308 [shape=box, label="1.4426950408889634\nID: 308"];
	NodeMul307 [label="*\nID: 307"];
	NodeCast309 [label="{HWOffsetFix:61, -48, TWOSCOMPLEMENT}\nID: 309"];
	NodeDoubtBitOp318 [label="DoubtBitOp(REMOVE_DOUBT)\nID: 318"];
	NodeCast319 [label="{HWOffsetFix:13, 0, TWOSCOMPLEMENT}\nID: 319"];
	NodeCast346 [label="{HWOffsetFix:14, 0, TWOSCOMPLEMENT}\nID: 346"];
	NodeConstantDouble347 [shape=box, label="1023.0\nID: 347"];
	NodeAdd348 [label="+\nID: 348"];
	NodeCast322 [label="{HWOffsetFix:10, -23, UNSIGNED}\nID: 322"];
	NodeReinterpret394 [label="<{HWOffsetFix:10, 0, UNSIGNED}>\nID: 394"];
	NodeROM395 [label="ROM\nID: 395"];
	NodeCast321 [label="{HWOffsetFix:10, -13, UNSIGNED}\nID: 321"];
	NodeReinterpret391 [label="<{HWOffsetFix:10, 0, UNSIGNED}>\nID: 391"];
	NodeROM392 [label="ROM\nID: 392"];
	NodeCast320 [label="{HWOffsetFix:3, -3, UNSIGNED}\nID: 320"];
	NodeReinterpret388 [label="<{HWOffsetFix:3, 0, UNSIGNED}>\nID: 388"];
	NodeROM389 [label="ROM\nID: 389"];
	NodeConstantRawBits326 [shape=box, label="0.6931471824645996\nID: 326"];
	NodeCast323 [label="{HWOffsetFix:25, -48, UNSIGNED}\nID: 323"];
	NodeMul325 [label="*\nID: 325"];
	NodeCast327 [label="{HWOffsetFix:25, -48, UNSIGNED}\nID: 327"];
	NodeAdd328 [label="+\nID: 328"];
	NodeMul329 [label="*\nID: 329"];
	NodeAdd330 [label="+\nID: 330"];
	NodeCast331 [label="{HWOffsetFix:49, -48, UNSIGNED}\nID: 331"];
	NodeAdd332 [label="+\nID: 332"];
	NodeMul333 [label="*\nID: 333"];
	NodeAdd334 [label="+\nID: 334"];
	NodeCast335 [label="{HWOffsetFix:50, -48, UNSIGNED}\nID: 335"];
	NodeAdd336 [label="+\nID: 336"];
	NodeMul337 [label="*\nID: 337"];
	NodeAdd338 [label="+\nID: 338"];
	NodeCast339 [label="{HWOffsetFix:51, -48, UNSIGNED}\nID: 339"];
	NodeCast340 [label="{HWOffsetFix:45, -44, UNSIGNED}\nID: 340"];
	NodeConstantDouble341 [shape=box, label="1.0\nID: 341"];
	NodeGteInlined510 [label=">=\nID: 510"];
	NodeConstantRawBits350 [shape=box, label="0.0\nID: 350"];
	NodeConstantRawBits349 [shape=box, label="1.0\nID: 349"];
	NodeMux351 [shape=invtrapezium, height=0.5, label="MUX\nID: 351"];
	NodeAdd352 [label="+\nID: 352"];
	NodeSlice511 [label="[13:13]\nID: 511"];
	NodeReinterpret512 [label="<{HWOffsetFix:1, 0, UNSIGNED}>\nID: 512"];
	NodeConstantDouble310 [shape=box, label="0.0\nID: 310"];
	NodeGt311 [label=">\nID: 311"];
	NodeDoubtBitOp312 [label="DoubtBitOp(GET_DOUBT)\nID: 312"];
	NodeAnd313 [label="&\nID: 313"];
	NodeNot355 [label="~\nID: 355"];
	NodeAnd356 [label="&\nID: 356"];
	NodeConstantDouble314 [shape=box, label="0.0\nID: 314"];
	NodeLt315 [label="<\nID: 315"];
	NodeDoubtBitOp316 [label="DoubtBitOp(GET_DOUBT)\nID: 316"];
	NodeAnd317 [label="&\nID: 317"];
	NodeOr357 [label="|\nID: 357"];
	NodeConstantDouble362 [shape=box, label="2047.0\nID: 362"];
	NodeGteInlined513 [label=">=\nID: 513"];
	NodeNot364 [label="~\nID: 364"];
	NodeAnd365 [label="&\nID: 365"];
	NodeOr366 [label="|\nID: 366"];
	NodeCat367 [label="@\nID: 367"];
	NodeConstantRawBits359 [shape=box, label="0.0\nID: 359"];
	NodeCast358 [label="{HWOffsetFix:11, 0, TWOSCOMPLEMENT}\nID: 358"];
	NodeConstantRawBits343 [shape=box, label="0.0\nID: 343"];
	NodeMux344 [shape=invtrapezium, height=0.5, label="MUX\nID: 344"];
	NodeCast345 [label="{HWOffsetFix:44, -44, UNSIGNED}\nID: 345"];
	NodeCat360 [label="@\nID: 360"];
	NodeReinterpret361 [label="<{HWFloat:11, 45}>\nID: 361"];
	NodeConstantRawBits368 [shape=box, label="0.0\nID: 368"];
	NodeConstantRawBits369 [shape=box, label="2047.0\nID: 369"];
	NodeConstantRawBits371 [shape=box, label="0.0\nID: 371"];
	NodeCat514 [label="@\nID: 514"];
	NodeReinterpret373 [label="<{HWFloat:11, 45}>\nID: 373"];
	NodeConstantRawBits488 [shape=box, label="0.0\nID: 488"];
	NodeMux376 [shape=invtrapezium, height=0.5, label="MUX\nID: 376"];
	NodeConstantDouble385 [shape=box, label="NaN\nID: 385"];
	NodeMux386 [shape=invtrapezium, height=0.5, label="MUX\nID: 386"];
	NodeConstantDouble396 [shape=box, label="1.0\nID: 396"];
	NodeAdd397 [label="+\nID: 397"];
	NodeDiv399 [label="/\nID: 399"];
	NodeSub401 [label="-\nID: 401"];
	NodeAdd403 [label="+\nID: 403"];
	NodeConstantDouble404 [shape=box, label="2.0\nID: 404"];
	NodeDiv405 [label="/\nID: 405"];
	NodeSub406 [label="-\nID: 406"];
	NodeGt274 [label=">\nID: 274"];
	NodeConstantRawBits6 [shape=box, label="2.734199999999987\nID: 6"];
	NodeConstantRawBits7 [shape=box, label="16.0\nID: 7"];
	NodeMux275 [shape=invtrapezium, height=0.5, label="MUX\nID: 275"];
	NodeDiv407 [label="/\nID: 407"];
	NodeMul412 [label="*\nID: 412"];
	NodeAdd413 [label="+\nID: 413"];
	NodeMul430 [label="*\nID: 430"];
	NodeConstantRawBits13 [shape=box, label="1.8874999999999886\nID: 13"];
	NodeDiv431 [label="/\nID: 431"];
	NodeMux433 [shape=invtrapezium, height=0.5, label="MUX\nID: 433"];
	NodeAdd435 [label="+\nID: 435"];
	NodeMul436 [label="*\nID: 436"];
	NodeSub437 [label="-\nID: 437"];
	NodeCast442 [label="{HWFloat:11, 53}\nID: 442"];
	NodeOutput449 [shape=house, label="u_out\nID: 449"];
	NodeConstantDouble451 [shape=box, label="1.0\nID: 451"];
	NodeSub452 [label="-\nID: 452"];
	NodeEqInlined515 [label="==\nID: 515"];
	NodeCast450 [label="{HWFloat:11, 53}\nID: 450"];
	NodeOutput457 [shape=house, label="v_out\nID: 457"];
	NodeConstantDouble459 [shape=box, label="1.0\nID: 459"];
	NodeSub460 [label="-\nID: 460"];
	NodeEqInlined516 [label="==\nID: 516"];
	NodeCast458 [label="{HWFloat:11, 53}\nID: 458"];
	NodeOutput465 [shape=house, label="w_out\nID: 465"];
	NodeConstantDouble467 [shape=box, label="1.0\nID: 467"];
	NodeSub468 [label="-\nID: 468"];
	NodeEqInlined517 [label="==\nID: 517"];
	NodeCast466 [label="{HWFloat:11, 53}\nID: 466"];
	NodeOutput473 [shape=house, label="s_out\nID: 473"];
	NodeConstantRawBits40 -> NodeCounter43[label="enable" color="/dark28/1" photon_data="EDGE,SrcNode:40,SrcNodePort:value"];
	NodeEvalStreamOffset39 -> NodeCounter43[label="max" color="/dark28/2" photon_data="EDGE,SrcNode:39,SrcNodePort:output"];
	NodeEvalStreamOffset39 -> NodeSub444[color="/dark28/3" photon_data="EDGE,SrcNode:39,SrcNodePort:output"];
	NodeConstantDouble443 -> NodeSub444[color="/dark28/4" photon_data="EDGE,SrcNode:443,SrcNodePort:value"];
	NodeCounter43 -> NodeEqInlined489[color="/dark28/5" photon_data="EDGE,SrcNode:43,SrcNodePort:count"];
	NodeSub444 -> NodeEqInlined489[color="/dark28/6" photon_data="EDGE,SrcNode:444,SrcNodePort:result"];
	NodeEqInlined489 -> NodeOutput449[headport="w" color="/dark28/7" ];
	NodeCounter43 -> NodeCounter42[label="enable" color="/dark28/8" photon_data="EDGE,SrcNode:43,SrcNodePort:wrap"];
	NodeInputMappedReg41 -> NodeCounter42[label="max" color="/dark28/1" photon_data="EDGE,SrcNode:41,SrcNodePort:num_iteration"];
	NodeCounter42 -> NodeEqInlined490[color="/dark28/2" photon_data="EDGE,SrcNode:42,SrcNodePort:count"];
	NodeConstantDouble46 -> NodeEqInlined490[color="/dark28/3" photon_data="EDGE,SrcNode:46,SrcNodePort:value"];
	NodeSub437 -> NodeStreamOffset438[headport="n" tailport="s" color=red photon_data="EDGE,SrcNode:437,SrcNodePort:result"];
	NodeEqInlined490 -> NodeMux48[headport="w" color="/dark28/4" photon_data="EDGE,SrcNode:490,SrcNodePort:result"];
	NodeStreamOffset438 -> NodeMux48[color="/dark28/5" photon_data="EDGE,SrcNode:438,SrcNodePort:output"];
	NodeConstantRawBits38 -> NodeMux48[color="/dark28/6" photon_data="EDGE,SrcNode:38,SrcNodePort:value"];
	NodeMux48 -> NodeGt414[color="/dark28/7" photon_data="EDGE,SrcNode:48,SrcNodePort:result"];
	NodeConstantRawBits15 -> NodeGt414[color="/dark28/8" photon_data="EDGE,SrcNode:15,SrcNodePort:value"];
	NodeCounter42 -> NodeEqInlined491[color="/dark28/1" photon_data="EDGE,SrcNode:42,SrcNodePort:count"];
	NodeConstantDouble49 -> NodeEqInlined491[color="/dark28/2" photon_data="EDGE,SrcNode:49,SrcNodePort:value"];
	NodeAdd409 -> NodeStreamOffset439[headport="n" tailport="s" color=red photon_data="EDGE,SrcNode:409,SrcNodePort:result"];
	NodeEqInlined491 -> NodeMux51[headport="w" color="/dark28/3" photon_data="EDGE,SrcNode:491,SrcNodePort:result"];
	NodeStreamOffset439 -> NodeMux51[color="/dark28/4" photon_data="EDGE,SrcNode:439,SrcNodePort:output"];
	NodeConstantRawBits38 -> NodeMux51[color="/dark28/5" photon_data="EDGE,SrcNode:38,SrcNodePort:value"];
	NodeMux48 -> NodeGt287[color="/dark28/6" photon_data="EDGE,SrcNode:48,SrcNodePort:result"];
	NodeConstantRawBits15 -> NodeGt287[color="/dark28/7" photon_data="EDGE,SrcNode:15,SrcNodePort:value"];
	NodeMux48 -> NodeGt278[color="/dark28/8" photon_data="EDGE,SrcNode:48,SrcNodePort:result"];
	NodeConstantRawBits17 -> NodeGt278[color="/dark28/1" photon_data="EDGE,SrcNode:17,SrcNodePort:value"];
	NodeGt278 -> NodeMux279[headport="w" color="/dark28/2" photon_data="EDGE,SrcNode:278,SrcNodePort:result"];
	NodeConstantRawBits38 -> NodeMux279[color="/dark28/3" photon_data="EDGE,SrcNode:38,SrcNodePort:value"];
	NodeConstantRawBits37 -> NodeMux279[color="/dark28/4" photon_data="EDGE,SrcNode:37,SrcNodePort:value"];
	NodeMux279 -> NodeSub290[color="/dark28/5" photon_data="EDGE,SrcNode:279,SrcNodePort:result"];
	NodeMux51 -> NodeSub290[color="/dark28/6" photon_data="EDGE,SrcNode:51,SrcNodePort:result"];
	NodeMux48 -> NodeGt58[color="/dark28/7" photon_data="EDGE,SrcNode:48,SrcNodePort:result"];
	NodeConstantRawBits16 -> NodeGt58[color="/dark28/8" photon_data="EDGE,SrcNode:16,SrcNodePort:value"];
	NodeGt58 -> NodeMux59[headport="w" color="/dark28/1" photon_data="EDGE,SrcNode:58,SrcNodePort:result"];
	NodeConstantRawBits1 -> NodeMux59[color="/dark28/2" photon_data="EDGE,SrcNode:1,SrcNodePort:value"];
	NodeConstantRawBits2 -> NodeMux59[color="/dark28/3" photon_data="EDGE,SrcNode:2,SrcNodePort:value"];
	NodeSub290 -> NodeDiv291[color="/dark28/4" photon_data="EDGE,SrcNode:290,SrcNodePort:result"];
	NodeMux59 -> NodeDiv291[color="/dark28/5" photon_data="EDGE,SrcNode:59,SrcNodePort:result"];
	NodeMux51 -> NodeNeg288[color="/dark28/6" photon_data="EDGE,SrcNode:51,SrcNodePort:result"];
	NodeNeg288 -> NodeDiv289[color="/dark28/7" photon_data="EDGE,SrcNode:288,SrcNodePort:result"];
	NodeConstantRawBits0 -> NodeDiv289[color="/dark28/8" photon_data="EDGE,SrcNode:0,SrcNodePort:value"];
	NodeGt287 -> NodeMux292[headport="w" color="/dark28/1" photon_data="EDGE,SrcNode:287,SrcNodePort:result"];
	NodeDiv291 -> NodeMux292[color="/dark28/2" photon_data="EDGE,SrcNode:291,SrcNodePort:result"];
	NodeDiv289 -> NodeMux292[color="/dark28/3" photon_data="EDGE,SrcNode:289,SrcNodePort:result"];
	NodeInputMappedReg44 -> NodeCast45[color="/dark28/4" photon_data="EDGE,SrcNode:44,SrcNodePort:dt"];
	NodeMux292 -> NodeMul408[color="/dark28/5" photon_data="EDGE,SrcNode:292,SrcNodePort:result"];
	NodeCast45 -> NodeMul408[color="/dark28/6" photon_data="EDGE,SrcNode:45,SrcNodePort:o"];
	NodeMux51 -> NodeAdd409[color="/dark28/7" photon_data="EDGE,SrcNode:51,SrcNodePort:result"];
	NodeMul408 -> NodeAdd409[color="/dark28/8" photon_data="EDGE,SrcNode:408,SrcNodePort:result"];
	NodeAdd409 -> NodeNeg415[color="/dark28/1" photon_data="EDGE,SrcNode:409,SrcNodePort:result"];
	NodeMux48 -> NodeSub416[color="/dark28/2" photon_data="EDGE,SrcNode:48,SrcNodePort:result"];
	NodeConstantRawBits15 -> NodeSub416[color="/dark28/3" photon_data="EDGE,SrcNode:15,SrcNodePort:value"];
	NodeNeg415 -> NodeMul417[color="/dark28/4" photon_data="EDGE,SrcNode:415,SrcNodePort:result"];
	NodeSub416 -> NodeMul417[color="/dark28/5" photon_data="EDGE,SrcNode:416,SrcNodePort:result"];
	NodeConstantRawBits29 -> NodeSub418[color="/dark28/6" photon_data="EDGE,SrcNode:29,SrcNodePort:value"];
	NodeMux48 -> NodeSub418[color="/dark28/7" photon_data="EDGE,SrcNode:48,SrcNodePort:result"];
	NodeMul417 -> NodeMul419[color="/dark28/8" photon_data="EDGE,SrcNode:417,SrcNodePort:result"];
	NodeSub418 -> NodeMul419[color="/dark28/1" photon_data="EDGE,SrcNode:418,SrcNodePort:result"];
	NodeMul419 -> NodeDiv420[color="/dark28/2" photon_data="EDGE,SrcNode:419,SrcNodePort:result"];
	NodeConstantRawBits8 -> NodeDiv420[color="/dark28/3" photon_data="EDGE,SrcNode:8,SrcNodePort:value"];
	NodeGt414 -> NodeMux421[headport="w" color="/dark28/4" photon_data="EDGE,SrcNode:414,SrcNodePort:result"];
	NodeConstantRawBits37 -> NodeMux421[color="/dark28/5" photon_data="EDGE,SrcNode:37,SrcNodePort:value"];
	NodeDiv420 -> NodeMux421[color="/dark28/6" photon_data="EDGE,SrcNode:420,SrcNodePort:result"];
	NodeMux48 -> NodeGt422[color="/dark28/7" photon_data="EDGE,SrcNode:48,SrcNodePort:result"];
	NodeConstantRawBits20 -> NodeGt422[color="/dark28/8" photon_data="EDGE,SrcNode:20,SrcNodePort:value"];
	NodeMux48 -> NodeGt276[color="/dark28/1" photon_data="EDGE,SrcNode:48,SrcNodePort:result"];
	NodeConstantRawBits22 -> NodeGt276[color="/dark28/2" photon_data="EDGE,SrcNode:22,SrcNodePort:value"];
	NodeGt276 -> NodeMux277[headport="w" color="/dark28/3" photon_data="EDGE,SrcNode:276,SrcNodePort:result"];
	NodeConstantRawBits9 -> NodeMux277[color="/dark28/4" photon_data="EDGE,SrcNode:9,SrcNodePort:value"];
	NodeConstantRawBits10 -> NodeMux277[color="/dark28/5" photon_data="EDGE,SrcNode:10,SrcNodePort:value"];
	NodeMux48 -> NodeDiv426[color="/dark28/6" photon_data="EDGE,SrcNode:48,SrcNodePort:result"];
	NodeMux277 -> NodeDiv426[color="/dark28/7" photon_data="EDGE,SrcNode:277,SrcNodePort:result"];
	NodeMux48 -> NodeSub167[color="/dark28/8" photon_data="EDGE,SrcNode:48,SrcNodePort:result"];
	NodeConstantRawBits30 -> NodeSub167[color="/dark28/1" photon_data="EDGE,SrcNode:30,SrcNodePort:value"];
	NodeConstantRawBits25 -> NodeMul168[color="/dark28/2" photon_data="EDGE,SrcNode:25,SrcNodePort:value"];
	NodeSub167 -> NodeMul168[color="/dark28/3" photon_data="EDGE,SrcNode:167,SrcNodePort:result"];
	NodeConstantDouble169 -> NodeMul170[color="/dark28/4" photon_data="EDGE,SrcNode:169,SrcNodePort:value"];
	NodeMul168 -> NodeMul170[color="/dark28/5" photon_data="EDGE,SrcNode:168,SrcNodePort:result"];
	NodeMul170 -> NodeSlice247[color="/dark28/6" photon_data="EDGE,SrcNode:170,SrcNodePort:result"];
	NodeSlice247 -> NodeEqInlined492[color="/dark28/7" photon_data="EDGE,SrcNode:247,SrcNodePort:result"];
	NodeConstantRawBits248 -> NodeEqInlined492[color="/dark28/8" photon_data="EDGE,SrcNode:248,SrcNodePort:value"];
	NodeMul170 -> NodeSlice246[color="/dark28/1" photon_data="EDGE,SrcNode:170,SrcNodePort:result"];
	NodeSlice246 -> NodeNeqInlined493[color="/dark28/2" photon_data="EDGE,SrcNode:246,SrcNodePort:result"];
	NodeConstantDouble250 -> NodeNeqInlined493[color="/dark28/3" photon_data="EDGE,SrcNode:250,SrcNodePort:value"];
	NodeEqInlined492 -> NodeAnd252[color="/dark28/4" photon_data="EDGE,SrcNode:492,SrcNodePort:result"];
	NodeNeqInlined493 -> NodeAnd252[color="/dark28/5" photon_data="EDGE,SrcNode:493,SrcNodePort:result"];
	NodeMul170 -> NodeDoubtBitOp172[color="/dark28/6" photon_data="EDGE,SrcNode:170,SrcNodePort:result"];
	NodeConstantRawBits171 -> NodeDoubtBitOp172[color="/dark28/7" photon_data="EDGE,SrcNode:171,SrcNodePort:value"];
	NodeDoubtBitOp172 -> NodeCast173[color="/dark28/8" style=dashed photon_data="EDGE,SrcNode:172,SrcNodePort:output"];
	NodeCast173 -> NodeMul175[color="/dark28/1" style=dashed photon_data="EDGE,SrcNode:173,SrcNodePort:o"];
	NodeConstantRawBits176 -> NodeMul175[color="/dark28/2" photon_data="EDGE,SrcNode:176,SrcNodePort:value"];
	NodeMul175 -> NodeCast177[color="/dark28/3" style=dashed photon_data="EDGE,SrcNode:175,SrcNodePort:result"];
	NodeCast177 -> NodeDoubtBitOp186[color="/dark28/4" style=dashed photon_data="EDGE,SrcNode:177,SrcNodePort:o"];
	NodeDoubtBitOp186 -> NodeCast187[color="/dark28/5" photon_data="EDGE,SrcNode:186,SrcNodePort:output"];
	NodeCast187 -> NodeCast214[color="/dark28/6" photon_data="EDGE,SrcNode:187,SrcNodePort:o"];
	NodeCast214 -> NodeAdd216[color="/dark28/7" photon_data="EDGE,SrcNode:214,SrcNodePort:o"];
	NodeConstantDouble215 -> NodeAdd216[color="/dark28/8" photon_data="EDGE,SrcNode:215,SrcNodePort:value"];
	NodeDoubtBitOp186 -> NodeCast190[color="/dark28/1" photon_data="EDGE,SrcNode:186,SrcNodePort:output"];
	NodeCast190 -> NodeReinterpret262[color="/dark28/2" photon_data="EDGE,SrcNode:190,SrcNodePort:o"];
	NodeReinterpret262 -> NodeROM263[color="/dark28/3" photon_data="EDGE,SrcNode:262,SrcNodePort:output"];
	NodeDoubtBitOp186 -> NodeCast189[color="/dark28/4" photon_data="EDGE,SrcNode:186,SrcNodePort:output"];
	NodeCast189 -> NodeReinterpret259[color="/dark28/5" photon_data="EDGE,SrcNode:189,SrcNodePort:o"];
	NodeReinterpret259 -> NodeROM260[color="/dark28/6" photon_data="EDGE,SrcNode:259,SrcNodePort:output"];
	NodeDoubtBitOp186 -> NodeCast188[color="/dark28/7" photon_data="EDGE,SrcNode:186,SrcNodePort:output"];
	NodeCast188 -> NodeReinterpret256[color="/dark28/8" photon_data="EDGE,SrcNode:188,SrcNodePort:o"];
	NodeReinterpret256 -> NodeROM257[color="/dark28/1" photon_data="EDGE,SrcNode:256,SrcNodePort:output"];
	NodeDoubtBitOp186 -> NodeCast191[color="/dark28/2" photon_data="EDGE,SrcNode:186,SrcNodePort:output"];
	NodeConstantRawBits194 -> NodeMul193[color="/dark28/3" photon_data="EDGE,SrcNode:194,SrcNodePort:value"];
	NodeCast191 -> NodeMul193[color="/dark28/4" photon_data="EDGE,SrcNode:191,SrcNodePort:o"];
	NodeMul193 -> NodeCast195[color="/dark28/5" photon_data="EDGE,SrcNode:193,SrcNodePort:result"];
	NodeROM257 -> NodeAdd196[color="/dark28/6" photon_data="EDGE,SrcNode:257,SrcNodePort:dout"];
	NodeCast195 -> NodeAdd196[color="/dark28/7" photon_data="EDGE,SrcNode:195,SrcNodePort:o"];
	NodeCast195 -> NodeMul197[color="/dark28/8" photon_data="EDGE,SrcNode:195,SrcNodePort:o"];
	NodeROM257 -> NodeMul197[color="/dark28/1" photon_data="EDGE,SrcNode:257,SrcNodePort:dout"];
	NodeAdd196 -> NodeAdd198[color="/dark28/2" photon_data="EDGE,SrcNode:196,SrcNodePort:result"];
	NodeMul197 -> NodeAdd198[color="/dark28/3" photon_data="EDGE,SrcNode:197,SrcNodePort:result"];
	NodeAdd198 -> NodeCast199[color="/dark28/4" photon_data="EDGE,SrcNode:198,SrcNodePort:result"];
	NodeROM260 -> NodeAdd200[color="/dark28/5" photon_data="EDGE,SrcNode:260,SrcNodePort:dout"];
	NodeCast199 -> NodeAdd200[color="/dark28/6" photon_data="EDGE,SrcNode:199,SrcNodePort:o"];
	NodeCast199 -> NodeMul201[color="/dark28/7" photon_data="EDGE,SrcNode:199,SrcNodePort:o"];
	NodeROM260 -> NodeMul201[color="/dark28/8" photon_data="EDGE,SrcNode:260,SrcNodePort:dout"];
	NodeAdd200 -> NodeAdd202[color="/dark28/1" photon_data="EDGE,SrcNode:200,SrcNodePort:result"];
	NodeMul201 -> NodeAdd202[color="/dark28/2" photon_data="EDGE,SrcNode:201,SrcNodePort:result"];
	NodeAdd202 -> NodeCast203[color="/dark28/3" photon_data="EDGE,SrcNode:202,SrcNodePort:result"];
	NodeROM263 -> NodeAdd204[color="/dark28/4" photon_data="EDGE,SrcNode:263,SrcNodePort:dout"];
	NodeCast203 -> NodeAdd204[color="/dark28/5" photon_data="EDGE,SrcNode:203,SrcNodePort:o"];
	NodeCast203 -> NodeMul205[color="/dark28/6" photon_data="EDGE,SrcNode:203,SrcNodePort:o"];
	NodeROM263 -> NodeMul205[color="/dark28/7" photon_data="EDGE,SrcNode:263,SrcNodePort:dout"];
	NodeAdd204 -> NodeAdd206[color="/dark28/8" photon_data="EDGE,SrcNode:204,SrcNodePort:result"];
	NodeMul205 -> NodeAdd206[color="/dark28/1" photon_data="EDGE,SrcNode:205,SrcNodePort:result"];
	NodeAdd206 -> NodeCast207[color="/dark28/2" photon_data="EDGE,SrcNode:206,SrcNodePort:result"];
	NodeCast207 -> NodeCast208[color="/dark28/3" photon_data="EDGE,SrcNode:207,SrcNodePort:o"];
	NodeCast208 -> NodeGteInlined494[color="/dark28/4" photon_data="EDGE,SrcNode:208,SrcNodePort:o"];
	NodeConstantDouble209 -> NodeGteInlined494[color="/dark28/5" photon_data="EDGE,SrcNode:209,SrcNodePort:value"];
	NodeGteInlined494 -> NodeMux219[headport="w" color="/dark28/6" photon_data="EDGE,SrcNode:494,SrcNodePort:result"];
	NodeConstantRawBits218 -> NodeMux219[color="/dark28/7" photon_data="EDGE,SrcNode:218,SrcNodePort:value"];
	NodeConstantRawBits217 -> NodeMux219[color="/dark28/8" photon_data="EDGE,SrcNode:217,SrcNodePort:value"];
	NodeAdd216 -> NodeAdd220[color="/dark28/1" photon_data="EDGE,SrcNode:216,SrcNodePort:result"];
	NodeMux219 -> NodeAdd220[color="/dark28/2" photon_data="EDGE,SrcNode:219,SrcNodePort:result"];
	NodeAdd220 -> NodeSlice495[color="/dark28/3" photon_data="EDGE,SrcNode:220,SrcNodePort:result"];
	NodeSlice495 -> NodeReinterpret496[color="/dark28/4" photon_data="EDGE,SrcNode:495,SrcNodePort:result"];
	NodeMul170 -> NodeGt179[color="/dark28/5" photon_data="EDGE,SrcNode:170,SrcNodePort:result"];
	NodeConstantDouble178 -> NodeGt179[color="/dark28/6" photon_data="EDGE,SrcNode:178,SrcNodePort:value"];
	NodeCast177 -> NodeDoubtBitOp180[color="/dark28/7" style=dashed photon_data="EDGE,SrcNode:177,SrcNodePort:o"];
	NodeGt179 -> NodeAnd181[color="/dark28/8" photon_data="EDGE,SrcNode:179,SrcNodePort:result"];
	NodeDoubtBitOp180 -> NodeAnd181[color="/dark28/1" photon_data="EDGE,SrcNode:180,SrcNodePort:output"];
	NodeAnd181 -> NodeNot223[color="/dark28/2" photon_data="EDGE,SrcNode:181,SrcNodePort:result"];
	NodeReinterpret496 -> NodeAnd224[color="/dark28/3" photon_data="EDGE,SrcNode:496,SrcNodePort:output"];
	NodeNot223 -> NodeAnd224[color="/dark28/4" photon_data="EDGE,SrcNode:223,SrcNodePort:result"];
	NodeMul170 -> NodeLt183[color="/dark28/5" photon_data="EDGE,SrcNode:170,SrcNodePort:result"];
	NodeConstantDouble182 -> NodeLt183[color="/dark28/6" photon_data="EDGE,SrcNode:182,SrcNodePort:value"];
	NodeCast177 -> NodeDoubtBitOp184[color="/dark28/7" style=dashed photon_data="EDGE,SrcNode:177,SrcNodePort:o"];
	NodeLt183 -> NodeAnd185[color="/dark28/8" photon_data="EDGE,SrcNode:183,SrcNodePort:result"];
	NodeDoubtBitOp184 -> NodeAnd185[color="/dark28/1" photon_data="EDGE,SrcNode:184,SrcNodePort:output"];
	NodeAnd224 -> NodeOr225[color="/dark28/2" photon_data="EDGE,SrcNode:224,SrcNodePort:result"];
	NodeAnd185 -> NodeOr225[color="/dark28/3" photon_data="EDGE,SrcNode:185,SrcNodePort:result"];
	NodeAdd220 -> NodeGteInlined497[color="/dark28/4" photon_data="EDGE,SrcNode:220,SrcNodePort:result"];
	NodeConstantDouble230 -> NodeGteInlined497[color="/dark28/5" photon_data="EDGE,SrcNode:230,SrcNodePort:value"];
	NodeAnd185 -> NodeNot232[color="/dark28/6" photon_data="EDGE,SrcNode:185,SrcNodePort:result"];
	NodeGteInlined497 -> NodeAnd233[color="/dark28/7" photon_data="EDGE,SrcNode:497,SrcNodePort:result"];
	NodeNot232 -> NodeAnd233[color="/dark28/8" photon_data="EDGE,SrcNode:232,SrcNodePort:result"];
	NodeAnd233 -> NodeOr234[color="/dark28/1" photon_data="EDGE,SrcNode:233,SrcNodePort:result"];
	NodeAnd181 -> NodeOr234[color="/dark28/2" photon_data="EDGE,SrcNode:181,SrcNodePort:result"];
	NodeOr225 -> NodeCat235[color="/dark28/3" photon_data="EDGE,SrcNode:225,SrcNodePort:result"];
	NodeOr234 -> NodeCat235[color="/dark28/4" photon_data="EDGE,SrcNode:234,SrcNodePort:result"];
	NodeAdd220 -> NodeCast226[color="/dark28/5" photon_data="EDGE,SrcNode:220,SrcNodePort:result"];
	NodeGteInlined494 -> NodeMux212[headport="w" color="/dark28/6" photon_data="EDGE,SrcNode:494,SrcNodePort:result"];
	NodeCast208 -> NodeMux212[color="/dark28/7" photon_data="EDGE,SrcNode:208,SrcNodePort:o"];
	NodeConstantRawBits211 -> NodeMux212[color="/dark28/8" photon_data="EDGE,SrcNode:211,SrcNodePort:value"];
	NodeMux212 -> NodeCast213[color="/dark28/1" photon_data="EDGE,SrcNode:212,SrcNodePort:result"];
	NodeConstantRawBits227 -> NodeCat228[color="/dark28/2" photon_data="EDGE,SrcNode:227,SrcNodePort:value"];
	NodeCast226 -> NodeCat228[color="/dark28/3" photon_data="EDGE,SrcNode:226,SrcNodePort:o"];
	NodeCast213 -> NodeCat228[color="/dark28/4" photon_data="EDGE,SrcNode:213,SrcNodePort:o"];
	NodeCat228 -> NodeReinterpret229[color="/dark28/5" photon_data="EDGE,SrcNode:228,SrcNodePort:result"];
	NodeConstantRawBits236 -> NodeCat498[color="/dark28/6" photon_data="EDGE,SrcNode:236,SrcNodePort:value"];
	NodeConstantRawBits237 -> NodeCat498[color="/dark28/7" photon_data="EDGE,SrcNode:237,SrcNodePort:value"];
	NodeConstantRawBits239 -> NodeCat498[color="/dark28/8" photon_data="EDGE,SrcNode:239,SrcNodePort:value"];
	NodeCat498 -> NodeReinterpret241[color="/dark28/1" photon_data="EDGE,SrcNode:498,SrcNodePort:result"];
	NodeCat235 -> NodeMux244[headport="w" color="/dark28/2" photon_data="EDGE,SrcNode:235,SrcNodePort:result"];
	NodeReinterpret229 -> NodeMux244[color="/dark28/3" photon_data="EDGE,SrcNode:229,SrcNodePort:output"];
	NodeReinterpret241 -> NodeMux244[color="/dark28/4" photon_data="EDGE,SrcNode:241,SrcNodePort:output"];
	NodeConstantRawBits486 -> NodeMux244[color="/dark28/5" photon_data="EDGE,SrcNode:486,SrcNodePort:value"];
	NodeReinterpret241 -> NodeMux244[color="/dark28/6" photon_data="EDGE,SrcNode:241,SrcNodePort:output"];
	NodeAnd252 -> NodeMux254[headport="w" color="/dark28/7" photon_data="EDGE,SrcNode:252,SrcNodePort:result"];
	NodeMux244 -> NodeMux254[color="/dark28/8" photon_data="EDGE,SrcNode:244,SrcNodePort:result"];
	NodeConstantDouble253 -> NodeMux254[color="/dark28/1" photon_data="EDGE,SrcNode:253,SrcNodePort:value"];
	NodeMux254 -> NodeAdd265[color="/dark28/2" photon_data="EDGE,SrcNode:254,SrcNodePort:result"];
	NodeConstantDouble264 -> NodeAdd265[color="/dark28/3" photon_data="EDGE,SrcNode:264,SrcNodePort:value"];
	NodeConstantDouble266 -> NodeDiv267[color="/dark28/4" photon_data="EDGE,SrcNode:266,SrcNodePort:value"];
	NodeAdd265 -> NodeDiv267[color="/dark28/5" photon_data="EDGE,SrcNode:265,SrcNodePort:result"];
	NodeConstantDouble268 -> NodeSub269[color="/dark28/6" photon_data="EDGE,SrcNode:268,SrcNodePort:value"];
	NodeDiv267 -> NodeSub269[color="/dark28/7" photon_data="EDGE,SrcNode:267,SrcNodePort:result"];
	NodeConstantDouble270 -> NodeAdd271[color="/dark28/8" photon_data="EDGE,SrcNode:270,SrcNodePort:value"];
	NodeSub269 -> NodeAdd271[color="/dark28/1" photon_data="EDGE,SrcNode:269,SrcNodePort:result"];
	NodeConstantRawBits36 -> NodeMul272[color="/dark28/2" photon_data="EDGE,SrcNode:36,SrcNodePort:value"];
	NodeAdd271 -> NodeMul272[color="/dark28/3" photon_data="EDGE,SrcNode:271,SrcNodePort:result"];
	NodeConstantRawBits11 -> NodeAdd273[color="/dark28/4" photon_data="EDGE,SrcNode:11,SrcNodePort:value"];
	NodeMul272 -> NodeAdd273[color="/dark28/5" photon_data="EDGE,SrcNode:272,SrcNodePort:result"];
	NodeConstantDouble423 -> NodeDiv424[color="/dark28/6" photon_data="EDGE,SrcNode:423,SrcNodePort:value"];
	NodeAdd273 -> NodeDiv424[color="/dark28/7" photon_data="EDGE,SrcNode:273,SrcNodePort:result"];
	NodeGt422 -> NodeMux427[headport="w" color="/dark28/8" photon_data="EDGE,SrcNode:422,SrcNodePort:result"];
	NodeDiv426 -> NodeMux427[color="/dark28/1" photon_data="EDGE,SrcNode:426,SrcNodePort:result"];
	NodeDiv424 -> NodeMux427[color="/dark28/2" photon_data="EDGE,SrcNode:424,SrcNodePort:result"];
	NodeMux421 -> NodeAdd434[color="/dark28/3" photon_data="EDGE,SrcNode:421,SrcNodePort:result"];
	NodeMux427 -> NodeAdd434[color="/dark28/4" photon_data="EDGE,SrcNode:427,SrcNodePort:result"];
	NodeMux48 -> NodeGt428[color="/dark28/5" photon_data="EDGE,SrcNode:48,SrcNodePort:result"];
	NodeConstantRawBits21 -> NodeGt428[color="/dark28/6" photon_data="EDGE,SrcNode:21,SrcNodePort:value"];
	NodeCounter42 -> NodeEqInlined499[color="/dark28/7" photon_data="EDGE,SrcNode:42,SrcNodePort:count"];
	NodeConstantDouble52 -> NodeEqInlined499[color="/dark28/8" photon_data="EDGE,SrcNode:52,SrcNodePort:value"];
	NodeAdd411 -> NodeStreamOffset440[headport="n" tailport="s" color=red photon_data="EDGE,SrcNode:411,SrcNodePort:result"];
	NodeEqInlined499 -> NodeMux54[headport="w" color="/dark28/1" photon_data="EDGE,SrcNode:499,SrcNodePort:result"];
	NodeStreamOffset440 -> NodeMux54[color="/dark28/2" photon_data="EDGE,SrcNode:440,SrcNodePort:output"];
	NodeConstantRawBits38 -> NodeMux54[color="/dark28/3" photon_data="EDGE,SrcNode:38,SrcNodePort:value"];
	NodeMux48 -> NodeGt293[color="/dark28/4" photon_data="EDGE,SrcNode:48,SrcNodePort:result"];
	NodeConstantRawBits18 -> NodeGt293[color="/dark28/5" photon_data="EDGE,SrcNode:18,SrcNodePort:value"];
	NodeMux48 -> NodeGt280[color="/dark28/6" photon_data="EDGE,SrcNode:48,SrcNodePort:result"];
	NodeConstantRawBits19 -> NodeGt280[color="/dark28/7" photon_data="EDGE,SrcNode:19,SrcNodePort:value"];
	NodeMux48 -> NodeDiv281[color="/dark28/8" photon_data="EDGE,SrcNode:48,SrcNodePort:result"];
	NodeConstantRawBits14 -> NodeDiv281[color="/dark28/1" photon_data="EDGE,SrcNode:14,SrcNodePort:value"];
	NodeConstantDouble282 -> NodeSub283[color="/dark28/2" photon_data="EDGE,SrcNode:282,SrcNodePort:value"];
	NodeDiv281 -> NodeSub283[color="/dark28/3" photon_data="EDGE,SrcNode:281,SrcNodePort:result"];
	NodeGt280 -> NodeMux284[headport="w" color="/dark28/4" photon_data="EDGE,SrcNode:280,SrcNodePort:result"];
	NodeSub283 -> NodeMux284[color="/dark28/5" photon_data="EDGE,SrcNode:283,SrcNodePort:result"];
	NodeConstantRawBits32 -> NodeMux284[color="/dark28/6" photon_data="EDGE,SrcNode:32,SrcNodePort:value"];
	NodeMux284 -> NodeGt285[color="/dark28/7" photon_data="EDGE,SrcNode:284,SrcNodePort:result"];
	NodeConstantRawBits38 -> NodeGt285[color="/dark28/8" photon_data="EDGE,SrcNode:38,SrcNodePort:value"];
	NodeGt285 -> NodeMux286[headport="w" color="/dark28/1" photon_data="EDGE,SrcNode:285,SrcNodePort:result"];
	NodeMux284 -> NodeMux286[color="/dark28/2" photon_data="EDGE,SrcNode:284,SrcNodePort:result"];
	NodeConstantRawBits38 -> NodeMux286[color="/dark28/3" photon_data="EDGE,SrcNode:38,SrcNodePort:value"];
	NodeMux286 -> NodeSub296[color="/dark28/4" photon_data="EDGE,SrcNode:286,SrcNodePort:result"];
	NodeMux54 -> NodeSub296[color="/dark28/5" photon_data="EDGE,SrcNode:54,SrcNodePort:result"];
	NodeMux48 -> NodeSub60[color="/dark28/6" photon_data="EDGE,SrcNode:48,SrcNodePort:result"];
	NodeConstantRawBits26 -> NodeSub60[color="/dark28/7" photon_data="EDGE,SrcNode:26,SrcNodePort:value"];
	NodeConstantRawBits23 -> NodeMul61[color="/dark28/8" photon_data="EDGE,SrcNode:23,SrcNodePort:value"];
	NodeSub60 -> NodeMul61[color="/dark28/1" photon_data="EDGE,SrcNode:60,SrcNodePort:result"];
	NodeConstantDouble62 -> NodeMul63[color="/dark28/2" photon_data="EDGE,SrcNode:62,SrcNodePort:value"];
	NodeMul61 -> NodeMul63[color="/dark28/3" photon_data="EDGE,SrcNode:61,SrcNodePort:result"];
	NodeMul63 -> NodeSlice140[color="/dark28/4" photon_data="EDGE,SrcNode:63,SrcNodePort:result"];
	NodeSlice140 -> NodeEqInlined500[color="/dark28/5" photon_data="EDGE,SrcNode:140,SrcNodePort:result"];
	NodeConstantRawBits141 -> NodeEqInlined500[color="/dark28/6" photon_data="EDGE,SrcNode:141,SrcNodePort:value"];
	NodeMul63 -> NodeSlice139[color="/dark28/7" photon_data="EDGE,SrcNode:63,SrcNodePort:result"];
	NodeSlice139 -> NodeNeqInlined501[color="/dark28/8" photon_data="EDGE,SrcNode:139,SrcNodePort:result"];
	NodeConstantDouble143 -> NodeNeqInlined501[color="/dark28/1" photon_data="EDGE,SrcNode:143,SrcNodePort:value"];
	NodeEqInlined500 -> NodeAnd145[color="/dark28/2" photon_data="EDGE,SrcNode:500,SrcNodePort:result"];
	NodeNeqInlined501 -> NodeAnd145[color="/dark28/3" photon_data="EDGE,SrcNode:501,SrcNodePort:result"];
	NodeMul63 -> NodeDoubtBitOp65[color="/dark28/4" photon_data="EDGE,SrcNode:63,SrcNodePort:result"];
	NodeConstantRawBits64 -> NodeDoubtBitOp65[color="/dark28/5" photon_data="EDGE,SrcNode:64,SrcNodePort:value"];
	NodeDoubtBitOp65 -> NodeCast66[color="/dark28/6" style=dashed photon_data="EDGE,SrcNode:65,SrcNodePort:output"];
	NodeCast66 -> NodeMul68[color="/dark28/7" style=dashed photon_data="EDGE,SrcNode:66,SrcNodePort:o"];
	NodeConstantRawBits69 -> NodeMul68[color="/dark28/8" photon_data="EDGE,SrcNode:69,SrcNodePort:value"];
	NodeMul68 -> NodeCast70[color="/dark28/1" style=dashed photon_data="EDGE,SrcNode:68,SrcNodePort:result"];
	NodeCast70 -> NodeDoubtBitOp79[color="/dark28/2" style=dashed photon_data="EDGE,SrcNode:70,SrcNodePort:o"];
	NodeDoubtBitOp79 -> NodeCast80[color="/dark28/3" photon_data="EDGE,SrcNode:79,SrcNodePort:output"];
	NodeCast80 -> NodeCast107[color="/dark28/4" photon_data="EDGE,SrcNode:80,SrcNodePort:o"];
	NodeCast107 -> NodeAdd109[color="/dark28/5" photon_data="EDGE,SrcNode:107,SrcNodePort:o"];
	NodeConstantDouble108 -> NodeAdd109[color="/dark28/6" photon_data="EDGE,SrcNode:108,SrcNodePort:value"];
	NodeDoubtBitOp79 -> NodeCast83[color="/dark28/7" photon_data="EDGE,SrcNode:79,SrcNodePort:output"];
	NodeCast83 -> NodeReinterpret155[color="/dark28/8" photon_data="EDGE,SrcNode:83,SrcNodePort:o"];
	NodeReinterpret155 -> NodeROM156[color="/dark28/1" photon_data="EDGE,SrcNode:155,SrcNodePort:output"];
	NodeDoubtBitOp79 -> NodeCast82[color="/dark28/2" photon_data="EDGE,SrcNode:79,SrcNodePort:output"];
	NodeCast82 -> NodeReinterpret152[color="/dark28/3" photon_data="EDGE,SrcNode:82,SrcNodePort:o"];
	NodeReinterpret152 -> NodeROM153[color="/dark28/4" photon_data="EDGE,SrcNode:152,SrcNodePort:output"];
	NodeDoubtBitOp79 -> NodeCast81[color="/dark28/5" photon_data="EDGE,SrcNode:79,SrcNodePort:output"];
	NodeCast81 -> NodeReinterpret149[color="/dark28/6" photon_data="EDGE,SrcNode:81,SrcNodePort:o"];
	NodeReinterpret149 -> NodeROM150[color="/dark28/7" photon_data="EDGE,SrcNode:149,SrcNodePort:output"];
	NodeDoubtBitOp79 -> NodeCast84[color="/dark28/8" photon_data="EDGE,SrcNode:79,SrcNodePort:output"];
	NodeConstantRawBits87 -> NodeMul86[color="/dark28/1" photon_data="EDGE,SrcNode:87,SrcNodePort:value"];
	NodeCast84 -> NodeMul86[color="/dark28/2" photon_data="EDGE,SrcNode:84,SrcNodePort:o"];
	NodeMul86 -> NodeCast88[color="/dark28/3" photon_data="EDGE,SrcNode:86,SrcNodePort:result"];
	NodeROM150 -> NodeAdd89[color="/dark28/4" photon_data="EDGE,SrcNode:150,SrcNodePort:dout"];
	NodeCast88 -> NodeAdd89[color="/dark28/5" photon_data="EDGE,SrcNode:88,SrcNodePort:o"];
	NodeCast88 -> NodeMul90[color="/dark28/6" photon_data="EDGE,SrcNode:88,SrcNodePort:o"];
	NodeROM150 -> NodeMul90[color="/dark28/7" photon_data="EDGE,SrcNode:150,SrcNodePort:dout"];
	NodeAdd89 -> NodeAdd91[color="/dark28/8" photon_data="EDGE,SrcNode:89,SrcNodePort:result"];
	NodeMul90 -> NodeAdd91[color="/dark28/1" photon_data="EDGE,SrcNode:90,SrcNodePort:result"];
	NodeAdd91 -> NodeCast92[color="/dark28/2" photon_data="EDGE,SrcNode:91,SrcNodePort:result"];
	NodeROM153 -> NodeAdd93[color="/dark28/3" photon_data="EDGE,SrcNode:153,SrcNodePort:dout"];
	NodeCast92 -> NodeAdd93[color="/dark28/4" photon_data="EDGE,SrcNode:92,SrcNodePort:o"];
	NodeCast92 -> NodeMul94[color="/dark28/5" photon_data="EDGE,SrcNode:92,SrcNodePort:o"];
	NodeROM153 -> NodeMul94[color="/dark28/6" photon_data="EDGE,SrcNode:153,SrcNodePort:dout"];
	NodeAdd93 -> NodeAdd95[color="/dark28/7" photon_data="EDGE,SrcNode:93,SrcNodePort:result"];
	NodeMul94 -> NodeAdd95[color="/dark28/8" photon_data="EDGE,SrcNode:94,SrcNodePort:result"];
	NodeAdd95 -> NodeCast96[color="/dark28/1" photon_data="EDGE,SrcNode:95,SrcNodePort:result"];
	NodeROM156 -> NodeAdd97[color="/dark28/2" photon_data="EDGE,SrcNode:156,SrcNodePort:dout"];
	NodeCast96 -> NodeAdd97[color="/dark28/3" photon_data="EDGE,SrcNode:96,SrcNodePort:o"];
	NodeCast96 -> NodeMul98[color="/dark28/4" photon_data="EDGE,SrcNode:96,SrcNodePort:o"];
	NodeROM156 -> NodeMul98[color="/dark28/5" photon_data="EDGE,SrcNode:156,SrcNodePort:dout"];
	NodeAdd97 -> NodeAdd99[color="/dark28/6" photon_data="EDGE,SrcNode:97,SrcNodePort:result"];
	NodeMul98 -> NodeAdd99[color="/dark28/7" photon_data="EDGE,SrcNode:98,SrcNodePort:result"];
	NodeAdd99 -> NodeCast100[color="/dark28/8" photon_data="EDGE,SrcNode:99,SrcNodePort:result"];
	NodeCast100 -> NodeCast101[color="/dark28/1" photon_data="EDGE,SrcNode:100,SrcNodePort:o"];
	NodeCast101 -> NodeGteInlined502[color="/dark28/2" photon_data="EDGE,SrcNode:101,SrcNodePort:o"];
	NodeConstantDouble102 -> NodeGteInlined502[color="/dark28/3" photon_data="EDGE,SrcNode:102,SrcNodePort:value"];
	NodeGteInlined502 -> NodeMux112[headport="w" color="/dark28/4" photon_data="EDGE,SrcNode:502,SrcNodePort:result"];
	NodeConstantRawBits111 -> NodeMux112[color="/dark28/5" photon_data="EDGE,SrcNode:111,SrcNodePort:value"];
	NodeConstantRawBits110 -> NodeMux112[color="/dark28/6" photon_data="EDGE,SrcNode:110,SrcNodePort:value"];
	NodeAdd109 -> NodeAdd113[color="/dark28/7" photon_data="EDGE,SrcNode:109,SrcNodePort:result"];
	NodeMux112 -> NodeAdd113[color="/dark28/8" photon_data="EDGE,SrcNode:112,SrcNodePort:result"];
	NodeAdd113 -> NodeSlice503[color="/dark28/1" photon_data="EDGE,SrcNode:113,SrcNodePort:result"];
	NodeSlice503 -> NodeReinterpret504[color="/dark28/2" photon_data="EDGE,SrcNode:503,SrcNodePort:result"];
	NodeMul63 -> NodeGt72[color="/dark28/3" photon_data="EDGE,SrcNode:63,SrcNodePort:result"];
	NodeConstantDouble71 -> NodeGt72[color="/dark28/4" photon_data="EDGE,SrcNode:71,SrcNodePort:value"];
	NodeCast70 -> NodeDoubtBitOp73[color="/dark28/5" style=dashed photon_data="EDGE,SrcNode:70,SrcNodePort:o"];
	NodeGt72 -> NodeAnd74[color="/dark28/6" photon_data="EDGE,SrcNode:72,SrcNodePort:result"];
	NodeDoubtBitOp73 -> NodeAnd74[color="/dark28/7" photon_data="EDGE,SrcNode:73,SrcNodePort:output"];
	NodeAnd74 -> NodeNot116[color="/dark28/8" photon_data="EDGE,SrcNode:74,SrcNodePort:result"];
	NodeReinterpret504 -> NodeAnd117[color="/dark28/1" photon_data="EDGE,SrcNode:504,SrcNodePort:output"];
	NodeNot116 -> NodeAnd117[color="/dark28/2" photon_data="EDGE,SrcNode:116,SrcNodePort:result"];
	NodeMul63 -> NodeLt76[color="/dark28/3" photon_data="EDGE,SrcNode:63,SrcNodePort:result"];
	NodeConstantDouble75 -> NodeLt76[color="/dark28/4" photon_data="EDGE,SrcNode:75,SrcNodePort:value"];
	NodeCast70 -> NodeDoubtBitOp77[color="/dark28/5" style=dashed photon_data="EDGE,SrcNode:70,SrcNodePort:o"];
	NodeLt76 -> NodeAnd78[color="/dark28/6" photon_data="EDGE,SrcNode:76,SrcNodePort:result"];
	NodeDoubtBitOp77 -> NodeAnd78[color="/dark28/7" photon_data="EDGE,SrcNode:77,SrcNodePort:output"];
	NodeAnd117 -> NodeOr118[color="/dark28/8" photon_data="EDGE,SrcNode:117,SrcNodePort:result"];
	NodeAnd78 -> NodeOr118[color="/dark28/1" photon_data="EDGE,SrcNode:78,SrcNodePort:result"];
	NodeAdd113 -> NodeGteInlined505[color="/dark28/2" photon_data="EDGE,SrcNode:113,SrcNodePort:result"];
	NodeConstantDouble123 -> NodeGteInlined505[color="/dark28/3" photon_data="EDGE,SrcNode:123,SrcNodePort:value"];
	NodeAnd78 -> NodeNot125[color="/dark28/4" photon_data="EDGE,SrcNode:78,SrcNodePort:result"];
	NodeGteInlined505 -> NodeAnd126[color="/dark28/5" photon_data="EDGE,SrcNode:505,SrcNodePort:result"];
	NodeNot125 -> NodeAnd126[color="/dark28/6" photon_data="EDGE,SrcNode:125,SrcNodePort:result"];
	NodeAnd126 -> NodeOr127[color="/dark28/7" photon_data="EDGE,SrcNode:126,SrcNodePort:result"];
	NodeAnd74 -> NodeOr127[color="/dark28/8" photon_data="EDGE,SrcNode:74,SrcNodePort:result"];
	NodeOr118 -> NodeCat128[color="/dark28/1" photon_data="EDGE,SrcNode:118,SrcNodePort:result"];
	NodeOr127 -> NodeCat128[color="/dark28/2" photon_data="EDGE,SrcNode:127,SrcNodePort:result"];
	NodeAdd113 -> NodeCast119[color="/dark28/3" photon_data="EDGE,SrcNode:113,SrcNodePort:result"];
	NodeGteInlined502 -> NodeMux105[headport="w" color="/dark28/4" photon_data="EDGE,SrcNode:502,SrcNodePort:result"];
	NodeCast101 -> NodeMux105[color="/dark28/5" photon_data="EDGE,SrcNode:101,SrcNodePort:o"];
	NodeConstantRawBits104 -> NodeMux105[color="/dark28/6" photon_data="EDGE,SrcNode:104,SrcNodePort:value"];
	NodeMux105 -> NodeCast106[color="/dark28/7" photon_data="EDGE,SrcNode:105,SrcNodePort:result"];
	NodeConstantRawBits120 -> NodeCat121[color="/dark28/8" photon_data="EDGE,SrcNode:120,SrcNodePort:value"];
	NodeCast119 -> NodeCat121[color="/dark28/1" photon_data="EDGE,SrcNode:119,SrcNodePort:o"];
	NodeCast106 -> NodeCat121[color="/dark28/2" photon_data="EDGE,SrcNode:106,SrcNodePort:o"];
	NodeCat121 -> NodeReinterpret122[color="/dark28/3" photon_data="EDGE,SrcNode:121,SrcNodePort:result"];
	NodeConstantRawBits129 -> NodeCat506[color="/dark28/4" photon_data="EDGE,SrcNode:129,SrcNodePort:value"];
	NodeConstantRawBits130 -> NodeCat506[color="/dark28/5" photon_data="EDGE,SrcNode:130,SrcNodePort:value"];
	NodeConstantRawBits132 -> NodeCat506[color="/dark28/6" photon_data="EDGE,SrcNode:132,SrcNodePort:value"];
	NodeCat506 -> NodeReinterpret134[color="/dark28/7" photon_data="EDGE,SrcNode:506,SrcNodePort:result"];
	NodeCat128 -> NodeMux137[headport="w" color="/dark28/8" photon_data="EDGE,SrcNode:128,SrcNodePort:result"];
	NodeReinterpret122 -> NodeMux137[color="/dark28/1" photon_data="EDGE,SrcNode:122,SrcNodePort:output"];
	NodeReinterpret134 -> NodeMux137[color="/dark28/2" photon_data="EDGE,SrcNode:134,SrcNodePort:output"];
	NodeConstantRawBits487 -> NodeMux137[color="/dark28/3" photon_data="EDGE,SrcNode:487,SrcNodePort:value"];
	NodeReinterpret134 -> NodeMux137[color="/dark28/4" photon_data="EDGE,SrcNode:134,SrcNodePort:output"];
	NodeAnd145 -> NodeMux147[headport="w" color="/dark28/5" photon_data="EDGE,SrcNode:145,SrcNodePort:result"];
	NodeMux137 -> NodeMux147[color="/dark28/6" photon_data="EDGE,SrcNode:137,SrcNodePort:result"];
	NodeConstantDouble146 -> NodeMux147[color="/dark28/7" photon_data="EDGE,SrcNode:146,SrcNodePort:value"];
	NodeMux147 -> NodeAdd158[color="/dark28/8" photon_data="EDGE,SrcNode:147,SrcNodePort:result"];
	NodeConstantDouble157 -> NodeAdd158[color="/dark28/1" photon_data="EDGE,SrcNode:157,SrcNodePort:value"];
	NodeConstantDouble159 -> NodeDiv160[color="/dark28/2" photon_data="EDGE,SrcNode:159,SrcNodePort:value"];
	NodeAdd158 -> NodeDiv160[color="/dark28/3" photon_data="EDGE,SrcNode:158,SrcNodePort:result"];
	NodeConstantDouble161 -> NodeSub162[color="/dark28/4" photon_data="EDGE,SrcNode:161,SrcNodePort:value"];
	NodeDiv160 -> NodeSub162[color="/dark28/5" photon_data="EDGE,SrcNode:160,SrcNodePort:result"];
	NodeConstantDouble163 -> NodeAdd164[color="/dark28/6" photon_data="EDGE,SrcNode:163,SrcNodePort:value"];
	NodeSub162 -> NodeAdd164[color="/dark28/7" photon_data="EDGE,SrcNode:162,SrcNodePort:result"];
	NodeConstantRawBits35 -> NodeMul165[color="/dark28/8" photon_data="EDGE,SrcNode:35,SrcNodePort:value"];
	NodeAdd164 -> NodeMul165[color="/dark28/1" photon_data="EDGE,SrcNode:164,SrcNodePort:result"];
	NodeConstantRawBits4 -> NodeAdd166[color="/dark28/2" photon_data="EDGE,SrcNode:4,SrcNodePort:value"];
	NodeMul165 -> NodeAdd166[color="/dark28/3" photon_data="EDGE,SrcNode:165,SrcNodePort:result"];
	NodeSub296 -> NodeDiv297[color="/dark28/4" photon_data="EDGE,SrcNode:296,SrcNodePort:result"];
	NodeAdd166 -> NodeDiv297[color="/dark28/5" photon_data="EDGE,SrcNode:166,SrcNodePort:result"];
	NodeMux54 -> NodeNeg294[color="/dark28/6" photon_data="EDGE,SrcNode:54,SrcNodePort:result"];
	NodeNeg294 -> NodeDiv295[color="/dark28/7" photon_data="EDGE,SrcNode:294,SrcNodePort:result"];
	NodeConstantRawBits3 -> NodeDiv295[color="/dark28/8" photon_data="EDGE,SrcNode:3,SrcNodePort:value"];
	NodeGt293 -> NodeMux298[headport="w" color="/dark28/1" photon_data="EDGE,SrcNode:293,SrcNodePort:result"];
	NodeDiv297 -> NodeMux298[color="/dark28/2" photon_data="EDGE,SrcNode:297,SrcNodePort:result"];
	NodeDiv295 -> NodeMux298[color="/dark28/3" photon_data="EDGE,SrcNode:295,SrcNodePort:result"];
	NodeMux298 -> NodeMul410[color="/dark28/4" photon_data="EDGE,SrcNode:298,SrcNodePort:result"];
	NodeCast45 -> NodeMul410[color="/dark28/5" photon_data="EDGE,SrcNode:45,SrcNodePort:o"];
	NodeMux54 -> NodeAdd411[color="/dark28/6" photon_data="EDGE,SrcNode:54,SrcNodePort:result"];
	NodeMul410 -> NodeAdd411[color="/dark28/7" photon_data="EDGE,SrcNode:410,SrcNodePort:result"];
	NodeAdd411 -> NodeNeg429[color="/dark28/8" photon_data="EDGE,SrcNode:411,SrcNodePort:result"];
	NodeCounter42 -> NodeEqInlined507[color="/dark28/1" photon_data="EDGE,SrcNode:42,SrcNodePort:count"];
	NodeConstantDouble55 -> NodeEqInlined507[color="/dark28/2" photon_data="EDGE,SrcNode:55,SrcNodePort:value"];
	NodeAdd413 -> NodeStreamOffset441[headport="n" tailport="s" color=red photon_data="EDGE,SrcNode:413,SrcNodePort:result"];
	NodeEqInlined507 -> NodeMux57[headport="w" color="/dark28/3" photon_data="EDGE,SrcNode:507,SrcNodePort:result"];
	NodeStreamOffset441 -> NodeMux57[color="/dark28/4" photon_data="EDGE,SrcNode:441,SrcNodePort:output"];
	NodeConstantRawBits37 -> NodeMux57[color="/dark28/5" photon_data="EDGE,SrcNode:37,SrcNodePort:value"];
	NodeMux48 -> NodeSub299[color="/dark28/6" photon_data="EDGE,SrcNode:48,SrcNodePort:result"];
	NodeConstantRawBits27 -> NodeSub299[color="/dark28/7" photon_data="EDGE,SrcNode:27,SrcNodePort:value"];
	NodeConstantRawBits24 -> NodeMul300[color="/dark28/8" photon_data="EDGE,SrcNode:24,SrcNodePort:value"];
	NodeSub299 -> NodeMul300[color="/dark28/1" photon_data="EDGE,SrcNode:299,SrcNodePort:result"];
	NodeConstantDouble301 -> NodeMul302[color="/dark28/2" photon_data="EDGE,SrcNode:301,SrcNodePort:value"];
	NodeMul300 -> NodeMul302[color="/dark28/3" photon_data="EDGE,SrcNode:300,SrcNodePort:result"];
	NodeMul302 -> NodeSlice379[color="/dark28/4" photon_data="EDGE,SrcNode:302,SrcNodePort:result"];
	NodeSlice379 -> NodeEqInlined508[color="/dark28/5" photon_data="EDGE,SrcNode:379,SrcNodePort:result"];
	NodeConstantRawBits380 -> NodeEqInlined508[color="/dark28/6" photon_data="EDGE,SrcNode:380,SrcNodePort:value"];
	NodeMul302 -> NodeSlice378[color="/dark28/7" photon_data="EDGE,SrcNode:302,SrcNodePort:result"];
	NodeSlice378 -> NodeNeqInlined509[color="/dark28/8" photon_data="EDGE,SrcNode:378,SrcNodePort:result"];
	NodeConstantDouble382 -> NodeNeqInlined509[color="/dark28/1" photon_data="EDGE,SrcNode:382,SrcNodePort:value"];
	NodeEqInlined508 -> NodeAnd384[color="/dark28/2" photon_data="EDGE,SrcNode:508,SrcNodePort:result"];
	NodeNeqInlined509 -> NodeAnd384[color="/dark28/3" photon_data="EDGE,SrcNode:509,SrcNodePort:result"];
	NodeMul302 -> NodeDoubtBitOp304[color="/dark28/4" photon_data="EDGE,SrcNode:302,SrcNodePort:result"];
	NodeConstantRawBits303 -> NodeDoubtBitOp304[color="/dark28/5" photon_data="EDGE,SrcNode:303,SrcNodePort:value"];
	NodeDoubtBitOp304 -> NodeCast305[color="/dark28/6" style=dashed photon_data="EDGE,SrcNode:304,SrcNodePort:output"];
	NodeCast305 -> NodeMul307[color="/dark28/7" style=dashed photon_data="EDGE,SrcNode:305,SrcNodePort:o"];
	NodeConstantRawBits308 -> NodeMul307[color="/dark28/8" photon_data="EDGE,SrcNode:308,SrcNodePort:value"];
	NodeMul307 -> NodeCast309[color="/dark28/1" style=dashed photon_data="EDGE,SrcNode:307,SrcNodePort:result"];
	NodeCast309 -> NodeDoubtBitOp318[color="/dark28/2" style=dashed photon_data="EDGE,SrcNode:309,SrcNodePort:o"];
	NodeDoubtBitOp318 -> NodeCast319[color="/dark28/3" photon_data="EDGE,SrcNode:318,SrcNodePort:output"];
	NodeCast319 -> NodeCast346[color="/dark28/4" photon_data="EDGE,SrcNode:319,SrcNodePort:o"];
	NodeCast346 -> NodeAdd348[color="/dark28/5" photon_data="EDGE,SrcNode:346,SrcNodePort:o"];
	NodeConstantDouble347 -> NodeAdd348[color="/dark28/6" photon_data="EDGE,SrcNode:347,SrcNodePort:value"];
	NodeDoubtBitOp318 -> NodeCast322[color="/dark28/7" photon_data="EDGE,SrcNode:318,SrcNodePort:output"];
	NodeCast322 -> NodeReinterpret394[color="/dark28/8" photon_data="EDGE,SrcNode:322,SrcNodePort:o"];
	NodeReinterpret394 -> NodeROM395[color="/dark28/1" photon_data="EDGE,SrcNode:394,SrcNodePort:output"];
	NodeDoubtBitOp318 -> NodeCast321[color="/dark28/2" photon_data="EDGE,SrcNode:318,SrcNodePort:output"];
	NodeCast321 -> NodeReinterpret391[color="/dark28/3" photon_data="EDGE,SrcNode:321,SrcNodePort:o"];
	NodeReinterpret391 -> NodeROM392[color="/dark28/4" photon_data="EDGE,SrcNode:391,SrcNodePort:output"];
	NodeDoubtBitOp318 -> NodeCast320[color="/dark28/5" photon_data="EDGE,SrcNode:318,SrcNodePort:output"];
	NodeCast320 -> NodeReinterpret388[color="/dark28/6" photon_data="EDGE,SrcNode:320,SrcNodePort:o"];
	NodeReinterpret388 -> NodeROM389[color="/dark28/7" photon_data="EDGE,SrcNode:388,SrcNodePort:output"];
	NodeDoubtBitOp318 -> NodeCast323[color="/dark28/8" photon_data="EDGE,SrcNode:318,SrcNodePort:output"];
	NodeConstantRawBits326 -> NodeMul325[color="/dark28/1" photon_data="EDGE,SrcNode:326,SrcNodePort:value"];
	NodeCast323 -> NodeMul325[color="/dark28/2" photon_data="EDGE,SrcNode:323,SrcNodePort:o"];
	NodeMul325 -> NodeCast327[color="/dark28/3" photon_data="EDGE,SrcNode:325,SrcNodePort:result"];
	NodeROM389 -> NodeAdd328[color="/dark28/4" photon_data="EDGE,SrcNode:389,SrcNodePort:dout"];
	NodeCast327 -> NodeAdd328[color="/dark28/5" photon_data="EDGE,SrcNode:327,SrcNodePort:o"];
	NodeCast327 -> NodeMul329[color="/dark28/6" photon_data="EDGE,SrcNode:327,SrcNodePort:o"];
	NodeROM389 -> NodeMul329[color="/dark28/7" photon_data="EDGE,SrcNode:389,SrcNodePort:dout"];
	NodeAdd328 -> NodeAdd330[color="/dark28/8" photon_data="EDGE,SrcNode:328,SrcNodePort:result"];
	NodeMul329 -> NodeAdd330[color="/dark28/1" photon_data="EDGE,SrcNode:329,SrcNodePort:result"];
	NodeAdd330 -> NodeCast331[color="/dark28/2" photon_data="EDGE,SrcNode:330,SrcNodePort:result"];
	NodeROM392 -> NodeAdd332[color="/dark28/3" photon_data="EDGE,SrcNode:392,SrcNodePort:dout"];
	NodeCast331 -> NodeAdd332[color="/dark28/4" photon_data="EDGE,SrcNode:331,SrcNodePort:o"];
	NodeCast331 -> NodeMul333[color="/dark28/5" photon_data="EDGE,SrcNode:331,SrcNodePort:o"];
	NodeROM392 -> NodeMul333[color="/dark28/6" photon_data="EDGE,SrcNode:392,SrcNodePort:dout"];
	NodeAdd332 -> NodeAdd334[color="/dark28/7" photon_data="EDGE,SrcNode:332,SrcNodePort:result"];
	NodeMul333 -> NodeAdd334[color="/dark28/8" photon_data="EDGE,SrcNode:333,SrcNodePort:result"];
	NodeAdd334 -> NodeCast335[color="/dark28/1" photon_data="EDGE,SrcNode:334,SrcNodePort:result"];
	NodeROM395 -> NodeAdd336[color="/dark28/2" photon_data="EDGE,SrcNode:395,SrcNodePort:dout"];
	NodeCast335 -> NodeAdd336[color="/dark28/3" photon_data="EDGE,SrcNode:335,SrcNodePort:o"];
	NodeCast335 -> NodeMul337[color="/dark28/4" photon_data="EDGE,SrcNode:335,SrcNodePort:o"];
	NodeROM395 -> NodeMul337[color="/dark28/5" photon_data="EDGE,SrcNode:395,SrcNodePort:dout"];
	NodeAdd336 -> NodeAdd338[color="/dark28/6" photon_data="EDGE,SrcNode:336,SrcNodePort:result"];
	NodeMul337 -> NodeAdd338[color="/dark28/7" photon_data="EDGE,SrcNode:337,SrcNodePort:result"];
	NodeAdd338 -> NodeCast339[color="/dark28/8" photon_data="EDGE,SrcNode:338,SrcNodePort:result"];
	NodeCast339 -> NodeCast340[color="/dark28/1" photon_data="EDGE,SrcNode:339,SrcNodePort:o"];
	NodeCast340 -> NodeGteInlined510[color="/dark28/2" photon_data="EDGE,SrcNode:340,SrcNodePort:o"];
	NodeConstantDouble341 -> NodeGteInlined510[color="/dark28/3" photon_data="EDGE,SrcNode:341,SrcNodePort:value"];
	NodeGteInlined510 -> NodeMux351[headport="w" color="/dark28/4" photon_data="EDGE,SrcNode:510,SrcNodePort:result"];
	NodeConstantRawBits350 -> NodeMux351[color="/dark28/5" photon_data="EDGE,SrcNode:350,SrcNodePort:value"];
	NodeConstantRawBits349 -> NodeMux351[color="/dark28/6" photon_data="EDGE,SrcNode:349,SrcNodePort:value"];
	NodeAdd348 -> NodeAdd352[color="/dark28/7" photon_data="EDGE,SrcNode:348,SrcNodePort:result"];
	NodeMux351 -> NodeAdd352[color="/dark28/8" photon_data="EDGE,SrcNode:351,SrcNodePort:result"];
	NodeAdd352 -> NodeSlice511[color="/dark28/1" photon_data="EDGE,SrcNode:352,SrcNodePort:result"];
	NodeSlice511 -> NodeReinterpret512[color="/dark28/2" photon_data="EDGE,SrcNode:511,SrcNodePort:result"];
	NodeMul302 -> NodeGt311[color="/dark28/3" photon_data="EDGE,SrcNode:302,SrcNodePort:result"];
	NodeConstantDouble310 -> NodeGt311[color="/dark28/4" photon_data="EDGE,SrcNode:310,SrcNodePort:value"];
	NodeCast309 -> NodeDoubtBitOp312[color="/dark28/5" style=dashed photon_data="EDGE,SrcNode:309,SrcNodePort:o"];
	NodeGt311 -> NodeAnd313[color="/dark28/6" photon_data="EDGE,SrcNode:311,SrcNodePort:result"];
	NodeDoubtBitOp312 -> NodeAnd313[color="/dark28/7" photon_data="EDGE,SrcNode:312,SrcNodePort:output"];
	NodeAnd313 -> NodeNot355[color="/dark28/8" photon_data="EDGE,SrcNode:313,SrcNodePort:result"];
	NodeReinterpret512 -> NodeAnd356[color="/dark28/1" photon_data="EDGE,SrcNode:512,SrcNodePort:output"];
	NodeNot355 -> NodeAnd356[color="/dark28/2" photon_data="EDGE,SrcNode:355,SrcNodePort:result"];
	NodeMul302 -> NodeLt315[color="/dark28/3" photon_data="EDGE,SrcNode:302,SrcNodePort:result"];
	NodeConstantDouble314 -> NodeLt315[color="/dark28/4" photon_data="EDGE,SrcNode:314,SrcNodePort:value"];
	NodeCast309 -> NodeDoubtBitOp316[color="/dark28/5" style=dashed photon_data="EDGE,SrcNode:309,SrcNodePort:o"];
	NodeLt315 -> NodeAnd317[color="/dark28/6" photon_data="EDGE,SrcNode:315,SrcNodePort:result"];
	NodeDoubtBitOp316 -> NodeAnd317[color="/dark28/7" photon_data="EDGE,SrcNode:316,SrcNodePort:output"];
	NodeAnd356 -> NodeOr357[color="/dark28/8" photon_data="EDGE,SrcNode:356,SrcNodePort:result"];
	NodeAnd317 -> NodeOr357[color="/dark28/1" photon_data="EDGE,SrcNode:317,SrcNodePort:result"];
	NodeAdd352 -> NodeGteInlined513[color="/dark28/2" photon_data="EDGE,SrcNode:352,SrcNodePort:result"];
	NodeConstantDouble362 -> NodeGteInlined513[color="/dark28/3" photon_data="EDGE,SrcNode:362,SrcNodePort:value"];
	NodeAnd317 -> NodeNot364[color="/dark28/4" photon_data="EDGE,SrcNode:317,SrcNodePort:result"];
	NodeGteInlined513 -> NodeAnd365[color="/dark28/5" photon_data="EDGE,SrcNode:513,SrcNodePort:result"];
	NodeNot364 -> NodeAnd365[color="/dark28/6" photon_data="EDGE,SrcNode:364,SrcNodePort:result"];
	NodeAnd365 -> NodeOr366[color="/dark28/7" photon_data="EDGE,SrcNode:365,SrcNodePort:result"];
	NodeAnd313 -> NodeOr366[color="/dark28/8" photon_data="EDGE,SrcNode:313,SrcNodePort:result"];
	NodeOr357 -> NodeCat367[color="/dark28/1" photon_data="EDGE,SrcNode:357,SrcNodePort:result"];
	NodeOr366 -> NodeCat367[color="/dark28/2" photon_data="EDGE,SrcNode:366,SrcNodePort:result"];
	NodeAdd352 -> NodeCast358[color="/dark28/3" photon_data="EDGE,SrcNode:352,SrcNodePort:result"];
	NodeGteInlined510 -> NodeMux344[headport="w" color="/dark28/4" photon_data="EDGE,SrcNode:510,SrcNodePort:result"];
	NodeCast340 -> NodeMux344[color="/dark28/5" photon_data="EDGE,SrcNode:340,SrcNodePort:o"];
	NodeConstantRawBits343 -> NodeMux344[color="/dark28/6" photon_data="EDGE,SrcNode:343,SrcNodePort:value"];
	NodeMux344 -> NodeCast345[color="/dark28/7" photon_data="EDGE,SrcNode:344,SrcNodePort:result"];
	NodeConstantRawBits359 -> NodeCat360[color="/dark28/8" photon_data="EDGE,SrcNode:359,SrcNodePort:value"];
	NodeCast358 -> NodeCat360[color="/dark28/1" photon_data="EDGE,SrcNode:358,SrcNodePort:o"];
	NodeCast345 -> NodeCat360[color="/dark28/2" photon_data="EDGE,SrcNode:345,SrcNodePort:o"];
	NodeCat360 -> NodeReinterpret361[color="/dark28/3" photon_data="EDGE,SrcNode:360,SrcNodePort:result"];
	NodeConstantRawBits368 -> NodeCat514[color="/dark28/4" photon_data="EDGE,SrcNode:368,SrcNodePort:value"];
	NodeConstantRawBits369 -> NodeCat514[color="/dark28/5" photon_data="EDGE,SrcNode:369,SrcNodePort:value"];
	NodeConstantRawBits371 -> NodeCat514[color="/dark28/6" photon_data="EDGE,SrcNode:371,SrcNodePort:value"];
	NodeCat514 -> NodeReinterpret373[color="/dark28/7" photon_data="EDGE,SrcNode:514,SrcNodePort:result"];
	NodeCat367 -> NodeMux376[headport="w" color="/dark28/8" photon_data="EDGE,SrcNode:367,SrcNodePort:result"];
	NodeReinterpret361 -> NodeMux376[color="/dark28/1" photon_data="EDGE,SrcNode:361,SrcNodePort:output"];
	NodeReinterpret373 -> NodeMux376[color="/dark28/2" photon_data="EDGE,SrcNode:373,SrcNodePort:output"];
	NodeConstantRawBits488 -> NodeMux376[color="/dark28/3" photon_data="EDGE,SrcNode:488,SrcNodePort:value"];
	NodeReinterpret373 -> NodeMux376[color="/dark28/4" photon_data="EDGE,SrcNode:373,SrcNodePort:output"];
	NodeAnd384 -> NodeMux386[headport="w" color="/dark28/5" photon_data="EDGE,SrcNode:384,SrcNodePort:result"];
	NodeMux376 -> NodeMux386[color="/dark28/6" photon_data="EDGE,SrcNode:376,SrcNodePort:result"];
	NodeConstantDouble385 -> NodeMux386[color="/dark28/7" photon_data="EDGE,SrcNode:385,SrcNodePort:value"];
	NodeMux386 -> NodeAdd397[color="/dark28/8" photon_data="EDGE,SrcNode:386,SrcNodePort:result"];
	NodeConstantDouble396 -> NodeAdd397[color="/dark28/1" photon_data="EDGE,SrcNode:396,SrcNodePort:value"];
	NodeConstantDouble398 -> NodeDiv399[color="/dark28/2" photon_data="EDGE,SrcNode:398,SrcNodePort:value"];
	NodeAdd397 -> NodeDiv399[color="/dark28/3" photon_data="EDGE,SrcNode:397,SrcNodePort:result"];
	NodeConstantDouble400 -> NodeSub401[color="/dark28/4" photon_data="EDGE,SrcNode:400,SrcNodePort:value"];
	NodeDiv399 -> NodeSub401[color="/dark28/5" photon_data="EDGE,SrcNode:399,SrcNodePort:result"];
	NodeConstantDouble402 -> NodeAdd403[color="/dark28/6" photon_data="EDGE,SrcNode:402,SrcNodePort:value"];
	NodeSub401 -> NodeAdd403[color="/dark28/7" photon_data="EDGE,SrcNode:401,SrcNodePort:result"];
	NodeAdd403 -> NodeDiv405[color="/dark28/8" photon_data="EDGE,SrcNode:403,SrcNodePort:result"];
	NodeConstantDouble404 -> NodeDiv405[color="/dark28/1" photon_data="EDGE,SrcNode:404,SrcNodePort:value"];
	NodeDiv405 -> NodeSub406[color="/dark28/2" photon_data="EDGE,SrcNode:405,SrcNodePort:result"];
	NodeMux57 -> NodeSub406[color="/dark28/3" photon_data="EDGE,SrcNode:57,SrcNodePort:result"];
	NodeMux48 -> NodeGt274[color="/dark28/4" photon_data="EDGE,SrcNode:48,SrcNodePort:result"];
	NodeConstantRawBits18 -> NodeGt274[color="/dark28/5" photon_data="EDGE,SrcNode:18,SrcNodePort:value"];
	NodeGt274 -> NodeMux275[headport="w" color="/dark28/6" photon_data="EDGE,SrcNode:274,SrcNodePort:result"];
	NodeConstantRawBits6 -> NodeMux275[color="/dark28/7" photon_data="EDGE,SrcNode:6,SrcNodePort:value"];
	NodeConstantRawBits7 -> NodeMux275[color="/dark28/8" photon_data="EDGE,SrcNode:7,SrcNodePort:value"];
	NodeSub406 -> NodeDiv407[color="/dark28/1" photon_data="EDGE,SrcNode:406,SrcNodePort:result"];
	NodeMux275 -> NodeDiv407[color="/dark28/2" photon_data="EDGE,SrcNode:275,SrcNodePort:result"];
	NodeDiv407 -> NodeMul412[color="/dark28/3" photon_data="EDGE,SrcNode:407,SrcNodePort:result"];
	NodeCast45 -> NodeMul412[color="/dark28/4" photon_data="EDGE,SrcNode:45,SrcNodePort:o"];
	NodeMux57 -> NodeAdd413[color="/dark28/5" photon_data="EDGE,SrcNode:57,SrcNodePort:result"];
	NodeMul412 -> NodeAdd413[color="/dark28/6" photon_data="EDGE,SrcNode:412,SrcNodePort:result"];
	NodeNeg429 -> NodeMul430[color="/dark28/7" photon_data="EDGE,SrcNode:429,SrcNodePort:result"];
	NodeAdd413 -> NodeMul430[color="/dark28/8" photon_data="EDGE,SrcNode:413,SrcNodePort:result"];
	NodeMul430 -> NodeDiv431[color="/dark28/1" photon_data="EDGE,SrcNode:430,SrcNodePort:result"];
	NodeConstantRawBits13 -> NodeDiv431[color="/dark28/2" photon_data="EDGE,SrcNode:13,SrcNodePort:value"];
	NodeGt428 -> NodeMux433[headport="w" color="/dark28/3" photon_data="EDGE,SrcNode:428,SrcNodePort:result"];
	NodeConstantRawBits432 -> NodeMux433[color="/dark28/4" photon_data="EDGE,SrcNode:432,SrcNodePort:value"];
	NodeDiv431 -> NodeMux433[color="/dark28/5" photon_data="EDGE,SrcNode:431,SrcNodePort:result"];
	NodeAdd434 -> NodeAdd435[color="/dark28/6" photon_data="EDGE,SrcNode:434,SrcNodePort:result"];
	NodeMux433 -> NodeAdd435[color="/dark28/7" photon_data="EDGE,SrcNode:433,SrcNodePort:result"];
	NodeAdd435 -> NodeMul436[color="/dark28/8" photon_data="EDGE,SrcNode:435,SrcNodePort:result"];
	NodeCast45 -> NodeMul436[color="/dark28/1" photon_data="EDGE,SrcNode:45,SrcNodePort:o"];
	NodeMux48 -> NodeSub437[color="/dark28/2" photon_data="EDGE,SrcNode:48,SrcNodePort:result"];
	NodeMul436 -> NodeSub437[color="/dark28/3" photon_data="EDGE,SrcNode:436,SrcNodePort:result"];
	NodeSub437 -> NodeCast442[color="/dark28/4" photon_data="EDGE,SrcNode:437,SrcNodePort:result"];
	NodeCast442 -> NodeOutput449[color="/dark28/5" photon_data="EDGE,SrcNode:442,SrcNodePort:o"];
	NodeEvalStreamOffset39 -> NodeSub452[color="/dark28/6" photon_data="EDGE,SrcNode:39,SrcNodePort:output"];
	NodeConstantDouble451 -> NodeSub452[color="/dark28/7" photon_data="EDGE,SrcNode:451,SrcNodePort:value"];
	NodeCounter43 -> NodeEqInlined515[color="/dark28/8" photon_data="EDGE,SrcNode:43,SrcNodePort:count"];
	NodeSub452 -> NodeEqInlined515[color="/dark28/1" photon_data="EDGE,SrcNode:452,SrcNodePort:result"];
	NodeEqInlined515 -> NodeOutput457[headport="w" color="/dark28/2" ];
	NodeStreamOffset439 -> NodeCast450[color="/dark28/3" photon_data="EDGE,SrcNode:439,SrcNodePort:output"];
	NodeCast450 -> NodeOutput457[color="/dark28/4" photon_data="EDGE,SrcNode:450,SrcNodePort:o"];
	NodeEvalStreamOffset39 -> NodeSub460[color="/dark28/5" photon_data="EDGE,SrcNode:39,SrcNodePort:output"];
	NodeConstantDouble459 -> NodeSub460[color="/dark28/6" photon_data="EDGE,SrcNode:459,SrcNodePort:value"];
	NodeCounter43 -> NodeEqInlined516[color="/dark28/7" photon_data="EDGE,SrcNode:43,SrcNodePort:count"];
	NodeSub460 -> NodeEqInlined516[color="/dark28/8" photon_data="EDGE,SrcNode:460,SrcNodePort:result"];
	NodeEqInlined516 -> NodeOutput465[headport="w" color="/dark28/1" ];
	NodeStreamOffset440 -> NodeCast458[color="/dark28/2" photon_data="EDGE,SrcNode:440,SrcNodePort:output"];
	NodeCast458 -> NodeOutput465[color="/dark28/3" photon_data="EDGE,SrcNode:458,SrcNodePort:o"];
	NodeEvalStreamOffset39 -> NodeSub468[color="/dark28/4" photon_data="EDGE,SrcNode:39,SrcNodePort:output"];
	NodeConstantDouble467 -> NodeSub468[color="/dark28/5" photon_data="EDGE,SrcNode:467,SrcNodePort:value"];
	NodeCounter43 -> NodeEqInlined517[color="/dark28/6" photon_data="EDGE,SrcNode:43,SrcNodePort:count"];
	NodeSub468 -> NodeEqInlined517[color="/dark28/7" photon_data="EDGE,SrcNode:468,SrcNodePort:result"];
	NodeEqInlined517 -> NodeOutput473[headport="w" color="/dark28/8" ];
	NodeStreamOffset441 -> NodeCast466[color="/dark28/1" photon_data="EDGE,SrcNode:441,SrcNodePort:output"];
	NodeCast466 -> NodeOutput473[color="/dark28/2" photon_data="EDGE,SrcNode:466,SrcNodePort:o"];
}
