              NodeID Stall origin Node ID
                 632                 none
                  14                 none
                 666                 none
                  17                 none
                  15                 none
                  16                 none
                 684                 none
                 416                 none
                 653                 none
                 665                 none
                  18                 none
                  19                 none
                   6                 none
                 683                 none
                 417                 none
                 682                 none
                   5                 none
                 374                 none
                 375                 none
                 377                 none
                 378                 none
                   3                 none
                 380                 none
                 383                 none
                 384                 none
                 636                 none
                  26                 none
                  27                 none
                 639                 none
                  32                 none
                  33                 none
                  34                 none
                  35                 none
                 371                 none
                 681                 none
                 680                 none
                 679                 none
                 343                 none
                 344                 none
                 418                 none
                 342                 none
                 678                 none
                 419                 none
                 348                 none
                 652                 none
                  44                 none
                  45                 none
                  46                 none
                 420                 none
                 421                 none
                 456                 none
                  84                 none
                  85                 none
                  86                 none
                  89                 none
                  88                 none
                  91                 none
                 457                 none
                 458                 none
                 528                 none
                 164                 none
                 165                 none
                 166                 none
                 167                 none
                 169                 none
                 529                 none
                 530                 none
                 565                 none
                 207                 none
                 208                 none
                 209                 none
                 218                 none
                 219                 none
                 644                 none
                 262                 none
                 677                 none
                 264                 none
                 266                 none
                 566                 none
                 567                 none
                 577                 none
                 279                 none
                 280                 none
                 281                 none
                 282                 none
                 221                 none
                 355                 none
                 356                 none
                 220                 none
                 352                 none
                 353                 none
                 225                 none
                 222                 none
                 645                 none
                 224                 none
                 226                 none
                 228                 none
                 229                 none
                 230                 none
                 231                 none
                 232                 none
                 234                 none
                 235                 none
                 236                 none
                 238                 none
                 239                 none
                 240                 none
                 241                 none
                 242                 none
                 244                 none
                 245                 none
                 246                 none
                 248                 none
                 249                 none
                 250                 none
                 252                 none
                 253                 none
                 676                 none
                 578                 none
                 608                 none
                 287                 none
                 579                 none
                 580                 none
                 590                 none
                 300                 none
                 301                 none
                 302                 none
                 591                 none
                 592                 none
                 675                 none
                 211                 none
                 646                 none
                 212                 none
                 213                 none
                 647                 none
                 305                 none
                 306                 none
                 674                 none
                 215                 none
                 648                 none
                 216                 none
                 217                 none
                 649                 none
                 307                 none
                 673                 none
                 593                 none
                 328                 none
                 329                 none
                 330                 none
                 331                 none
                 323                 none
                 308                 none
                 310                 none
                 594                 none
                 595                 none
                 602                 none
                 320                 none
                 321                 none
                 322                 none
                 256                 none
                 257                 none
                 258                 none
                 260                 none
                 261                 none
                 324                 none
                 325                 none
                 332                 none
                 333                 none
                 335                 none
                 603                 none
                 337                 none
                 415                 none
                 340                 none
                 672                 none
                 350                 none
                 671                 none
                 358                 none
                 360                 none
                 362                 none
                 365                 none
                 366                 none
                 367                 none
                 610                 none
                 372                 none
                 604                 none
                   2                 none
                 379                 none
                 381                 none
                 382                 none
                 637                 none
                  22                 none
                  23                 none
                   4                 none
                  38                 none
                 609                 none
                  41                 none
                  42                 none
                  43                 none
                 614                 none
                 657                 none
                 615                 none
                 658                 none
                 616                 none
                 659                 none
                 618                 none
                 619                 none
                 620                 none
                 621                 none
                 622                 none
                 623                 none
                 626                 none
                 617                 none
                 625                 none
                 627                 none
                 628                 none
                 629                 none
                 624                 none
                 613                 none
                 660                 none
                 630                 none
                 631                 none
                 611                 none
                 612                 none
                  28                 none
                 661                 none
                 670                 none
                 390                 none
                 605                 none
                 392                 none
                 393                 none
                 394                 none
                 662                 none
                 395                 none
                 669                 none
                 397                 none
                 606                 none
                 399                 none
                 400                 none
                 401                 none
                 664                 none
                 402                 none
                 407                 none
                 668                 none
                 404                 none
                 405                 none
                 406                 none
                 408                 none
                 667                 none
                 410                 none
                 411                 none
                 413                 none
                 607                 none
                 412                 none
