digraph KarmaDFEKernel_post_dsp_extraction{
	NodeConstantRawBits14 [shape=box, label="1.0\nID: 14"];
	NodeEvalStreamOffset13 [label="EvalStreamOffset(loopLength)\nID: 13"];
	NodeCounter17 [shape=hexagon, label="cnt\nID: 17"];
	NodeInputMappedReg15 [shape=box, peripheries=2, label="num_iteration\nID: 15"];
	NodeCounter16 [shape=hexagon, label="cnt\nID: 16"];
	NodeConstantDouble20 [shape=box, label="0.0\nID: 20"];
	NodeEqInlined416 [label="==\nID: 416"];
	NodeConstantRawBits22 [shape=box, label="1.5\nID: 22"];
	NodeMux23 [shape=invtrapezium, height=0.5, label="MUX\nID: 23"];
	NodeInputMappedReg18 [shape=box, peripheries=2, label="dt\nID: 18"];
	NodeCast19 [label="{HWFloat:8, 24}\nID: 19"];
	NodeConstantRawBits6 [shape=box, label="0.800000011920929\nID: 6"];
	NodeConstantDouble24 [shape=box, label="0.0\nID: 24"];
	NodeEqInlined417 [label="==\nID: 417"];
	NodeConstantDouble376 [shape=box, label="1.428554778\nID: 376"];
	NodeConstantRawBits5 [shape=box, label="1.0\nID: 5"];
	NodeGt374 [label=">\nID: 374"];
	NodeCast375 [label="{HWFloat:8, 24}\nID: 375"];
	NodeMul377 [label="*\nID: 377"];
	NodeSub378 [label="-\nID: 378"];
	NodeConstantRawBits3 [shape=box, label="0.004000000189989805\nID: 3"];
	NodeMul380 [label="*\nID: 380"];
	NodeMul383 [label="*\nID: 383"];
	NodeAdd384 [label="+\nID: 384"];
	NodeStreamOffset386 [shape=diamond, label="-loopLength\nID: 386"];
	NodeConstantRawBits26 [shape=box, label="0.0\nID: 26"];
	NodeMux27 [shape=invtrapezium, height=0.5, label="MUX\nID: 27"];
	NodeMul32 [label="*\nID: 32"];
	NodeMul33 [label="*\nID: 33"];
	NodeMul34 [label="*\nID: 34"];
	NodeMul35 [label="*\nID: 35"];
	NodeSub371 [label="-\nID: 371"];
	NodeConstantDouble364 [shape=box, label="1.0\nID: 364"];
	NodeConstantDouble361 [shape=box, label="1.0\nID: 361"];
	NodeConstantDouble359 [shape=box, label="2.0\nID: 359"];
	NodeConstantDouble39 [shape=box, label="2.0\nID: 39"];
	NodeConstantRawBits4 [shape=box, label="3.0\nID: 4"];
	NodeSub38 [label="-\nID: 38"];
	NodeMul40 [label="*\nID: 40"];
	NodeSlice343 [label="[30:23]\nID: 343"];
	NodeConstantRawBits344 [shape=box, label="0xff\nID: 344"];
	NodeEqInlined418 [label="==\nID: 418"];
	NodeSlice342 [label="[22:0]\nID: 342"];
	NodeConstantDouble346 [shape=box, label="0.0\nID: 346"];
	NodeNeqInlined419 [label="!=\nID: 419"];
	NodeAnd348 [label="&\nID: 348"];
	NodeConstantRawBits41 [shape=box, label="0.0\nID: 41"];
	NodeDoubtBitOp42 [label="DoubtBitOp(ADD_DOUBT)\nID: 42"];
	NodeCast43 [label="{HWOffsetFix:36, -26, TWOSCOMPLEMENT}\nID: 43"];
	NodeSlice44 [label="[1:1]\nID: 44"];
	NodeReinterpret45 [label="<{HWOffsetFix:1, 0, UNSIGNED}>\nID: 45"];
	NodeConstantRawBits46 [shape=box, label="511.99999998509884\nID: 46"];
	NodeSlice420 [label="[35:35]\nID: 420"];
	NodeNot421 [label="~\nID: 421"];
	NodeCat456 [label="@\nID: 456"];
	NodeReinterpret84 [label="<{HWOffsetFix:36, -26, TWOSCOMPLEMENT}>\nID: 84"];
	NodeXor85 [label="^\nID: 85"];
	NodeMux86 [shape=invtrapezium, height=0.5, label="MUX\nID: 86"];
	NodeConstantRawBits89 [shape=box, label="1.4426950408960693\nID: 89"];
	NodeMul88 [label="*\nID: 88"];
	NodeConstantRawBits91 [shape=box, label="1024.0\nID: 91"];
	NodeSlice457 [label="[70:70]\nID: 457"];
	NodeNot458 [label="~\nID: 458"];
	NodeCat528 [label="@\nID: 528"];
	NodeReinterpret164 [label="<{HWOffsetFix:71, -60, TWOSCOMPLEMENT}>\nID: 164"];
	NodeXor165 [label="^\nID: 165"];
	NodeMux166 [shape=invtrapezium, height=0.5, label="MUX\nID: 166"];
	NodeCast167 [label="{HWOffsetFix:36, -26, TWOSCOMPLEMENT}\nID: 167"];
	NodeConstantRawBits169 [shape=box, label="511.99999998509884\nID: 169"];
	NodeSlice529 [label="[35:35]\nID: 529"];
	NodeNot530 [label="~\nID: 530"];
	NodeCat565 [label="@\nID: 565"];
	NodeReinterpret207 [label="<{HWOffsetFix:36, -26, TWOSCOMPLEMENT}>\nID: 207"];
	NodeXor208 [label="^\nID: 208"];
	NodeMux209 [shape=invtrapezium, height=0.5, label="MUX\nID: 209"];
	NodeDoubtBitOp218 [label="DoubtBitOp(REMOVE_DOUBT)\nID: 218"];
	NodeCast219 [label="{HWOffsetFix:10, 0, TWOSCOMPLEMENT}\nID: 219"];
	NodeCast262 [label="{HWOffsetFix:11, 0, TWOSCOMPLEMENT}\nID: 262"];
	NodeConstantDouble263 [shape=box, label="127.0\nID: 263"];
	NodeAdd264 [label="+\nID: 264"];
	NodeConstantRawBits266 [shape=box, label="1023.0\nID: 266"];
	NodeSlice566 [label="[10:10]\nID: 566"];
	NodeNot567 [label="~\nID: 567"];
	NodeCat577 [label="@\nID: 577"];
	NodeReinterpret279 [label="<{HWOffsetFix:11, 0, TWOSCOMPLEMENT}>\nID: 279"];
	NodeXor280 [label="^\nID: 280"];
	NodeMux281 [shape=invtrapezium, height=0.5, label="MUX\nID: 281"];
	NodeCast221 [label="{HWOffsetFix:10, -12, UNSIGNED}\nID: 221"];
	NodeReinterpret355 [label="<{HWOffsetFix:10, 0, UNSIGNED}>\nID: 355"];
	NodeROM356 [label="ROM\nID: 356"];
	NodeCast220 [label="{HWOffsetFix:2, -2, UNSIGNED}\nID: 220"];
	NodeReinterpret352 [label="<{HWOffsetFix:2, 0, UNSIGNED}>\nID: 352"];
	NodeROM353 [label="ROM\nID: 353"];
	NodeConstantRawBits225 [shape=box, label="0.69317626953125\nID: 225"];
	NodeCast222 [label="{HWOffsetFix:14, -26, UNSIGNED}\nID: 222"];
	NodeMul224 [label="*\nID: 224"];
	NodeCast226 [label="{HWOffsetFix:14, -26, UNSIGNED}\nID: 226"];
	NodeConstantRawBits228 [shape=box, label="2.4412572383880615E-4\nID: 228"];
	NodeMux229 [shape=invtrapezium, height=0.5, label="MUX\nID: 229"];
	NodeAdd230 [label="+\nID: 230"];
	NodeMul231 [label="*\nID: 231"];
	NodeAdd232 [label="+\nID: 232"];
	NodeConstantRawBits234 [shape=box, label="1.9999999999999991\nID: 234"];
	NodeMux235 [shape=invtrapezium, height=0.5, label="MUX\nID: 235"];
	NodeCast236 [label="{HWOffsetFix:27, -26, UNSIGNED}\nID: 236"];
	NodeConstantRawBits238 [shape=box, label="1.9999999850988388\nID: 238"];
	NodeMux239 [shape=invtrapezium, height=0.5, label="MUX\nID: 239"];
	NodeAdd240 [label="+\nID: 240"];
	NodeMul241 [label="*\nID: 241"];
	NodeAdd242 [label="+\nID: 242"];
	NodeConstantRawBits244 [shape=box, label="3.999999999999999\nID: 244"];
	NodeMux245 [shape=invtrapezium, height=0.5, label="MUX\nID: 245"];
	NodeCast246 [label="{HWOffsetFix:28, -26, UNSIGNED}\nID: 246"];
	NodeConstantRawBits248 [shape=box, label="3.999999985098839\nID: 248"];
	NodeMux249 [shape=invtrapezium, height=0.5, label="MUX\nID: 249"];
	NodeCast250 [label="{HWOffsetFix:24, -23, UNSIGNED}\nID: 250"];
	NodeConstantRawBits252 [shape=box, label="1.9999998807907104\nID: 252"];
	NodeMux253 [shape=invtrapezium, height=0.5, label="MUX\nID: 253"];
	NodeConstantDouble254 [shape=box, label="1.0\nID: 254"];
	NodeGteInlined578 [label=">=\nID: 578"];
	NodeConstantRawBits283 [shape=box, label="0.0\nID: 283"];
	NodeConstantRawBits282 [shape=box, label="1.0\nID: 282"];
	NodeMux284 [shape=invtrapezium, height=0.5, label="MUX\nID: 284"];
	NodeAdd285 [label="+\nID: 285"];
	NodeConstantRawBits287 [shape=box, label="1023.0\nID: 287"];
	NodeSlice579 [label="[10:10]\nID: 579"];
	NodeNot580 [label="~\nID: 580"];
	NodeCat590 [label="@\nID: 590"];
	NodeReinterpret300 [label="<{HWOffsetFix:11, 0, TWOSCOMPLEMENT}>\nID: 300"];
	NodeXor301 [label="^\nID: 301"];
	NodeMux302 [shape=invtrapezium, height=0.5, label="MUX\nID: 302"];
	NodeSlice591 [label="[10:10]\nID: 591"];
	NodeReinterpret592 [label="<{HWOffsetFix:1, 0, UNSIGNED}>\nID: 592"];
	NodeConstantDouble210 [shape=box, label="0.0\nID: 210"];
	NodeGt211 [label=">\nID: 211"];
	NodeDoubtBitOp212 [label="DoubtBitOp(GET_DOUBT)\nID: 212"];
	NodeAnd213 [label="&\nID: 213"];
	NodeNot305 [label="~\nID: 305"];
	NodeAnd306 [label="&\nID: 306"];
	NodeConstantDouble214 [shape=box, label="0.0\nID: 214"];
	NodeLt215 [label="<\nID: 215"];
	NodeDoubtBitOp216 [label="DoubtBitOp(GET_DOUBT)\nID: 216"];
	NodeAnd217 [label="&\nID: 217"];
	NodeOr307 [label="|\nID: 307"];
	NodeConstantDouble326 [shape=box, label="255.0\nID: 326"];
	NodeGteInlined593 [label=">=\nID: 593"];
	NodeNot328 [label="~\nID: 328"];
	NodeAnd329 [label="&\nID: 329"];
	NodeOr330 [label="|\nID: 330"];
	NodeCat331 [label="@\nID: 331"];
	NodeConstantRawBits323 [shape=box, label="0.0\nID: 323"];
	NodeCast308 [label="{HWOffsetFix:8, 0, TWOSCOMPLEMENT}\nID: 308"];
	NodeConstantRawBits310 [shape=box, label="127.0\nID: 310"];
	NodeSlice594 [label="[7:7]\nID: 594"];
	NodeNot595 [label="~\nID: 595"];
	NodeCat602 [label="@\nID: 602"];
	NodeReinterpret320 [label="<{HWOffsetFix:8, 0, TWOSCOMPLEMENT}>\nID: 320"];
	NodeXor321 [label="^\nID: 321"];
	NodeMux322 [shape=invtrapezium, height=0.5, label="MUX\nID: 322"];
	NodeConstantRawBits256 [shape=box, label="0.0\nID: 256"];
	NodeMux257 [shape=invtrapezium, height=0.5, label="MUX\nID: 257"];
	NodeCast258 [label="{HWOffsetFix:23, -23, UNSIGNED}\nID: 258"];
	NodeConstantRawBits260 [shape=box, label="0.9999998807907104\nID: 260"];
	NodeMux261 [shape=invtrapezium, height=0.5, label="MUX\nID: 261"];
	NodeCat324 [label="@\nID: 324"];
	NodeReinterpret325 [label="<{HWFloat:8, 24}>\nID: 325"];
	NodeConstantRawBits332 [shape=box, label="0.0\nID: 332"];
	NodeConstantRawBits333 [shape=box, label="255.0\nID: 333"];
	NodeConstantRawBits335 [shape=box, label="0.0\nID: 335"];
	NodeCat603 [label="@\nID: 603"];
	NodeReinterpret337 [label="<{HWFloat:8, 24}>\nID: 337"];
	NodeConstantRawBits415 [shape=box, label="0.0\nID: 415"];
	NodeMux340 [shape=invtrapezium, height=0.5, label="MUX\nID: 340"];
	NodeConstantDouble349 [shape=box, label="NaN\nID: 349"];
	NodeMux350 [shape=invtrapezium, height=0.5, label="MUX\nID: 350"];
	NodeConstantDouble357 [shape=box, label="1.0\nID: 357"];
	NodeAdd358 [label="+\nID: 358"];
	NodeDiv360 [label="/\nID: 360"];
	NodeSub362 [label="-\nID: 362"];
	NodeSub365 [label="-\nID: 365"];
	NodeMul366 [label="*\nID: 366"];
	NodeMul367 [label="*\nID: 367"];
	NodeConstantDouble368 [shape=box, label="0.5\nID: 368"];
	NodeMul369 [label="*\nID: 369"];
	NodeMul372 [label="*\nID: 372"];
	NodeSub604 [label="-\nID: 604"];
	NodeConstantRawBits2 [shape=box, label="0.4000000059604645\nID: 2"];
	NodeMul379 [label="*\nID: 379"];
	NodeMul381 [label="*\nID: 381"];
	NodeAdd382 [label="+\nID: 382"];
	NodeStreamOffset385 [shape=diamond, label="-loopLength\nID: 385"];
	NodeConstantDouble389 [shape=box, label="1.0\nID: 389"];
	NodeSub390 [label="-\nID: 390"];
	NodeEqInlined605 [label="==\nID: 605"];
	NodeOutput395 [shape=house, label="u_out\nID: 395"];
	NodeConstantDouble396 [shape=box, label="1.0\nID: 396"];
	NodeSub397 [label="-\nID: 397"];
	NodeEqInlined606 [label="==\nID: 606"];
	NodeOutput402 [shape=house, label="v_out\nID: 402"];
	NodeConstantRawBits14 -> NodeCounter17[label="enable" color="/dark28/1" photon_data="EDGE,SrcNode:14,SrcNodePort:value"];
	NodeEvalStreamOffset13 -> NodeCounter17[label="max" color="/dark28/2" photon_data="EDGE,SrcNode:13,SrcNodePort:output"];
	NodeCounter17 -> NodeCounter16[label="enable" color="/dark28/3" photon_data="EDGE,SrcNode:17,SrcNodePort:wrap"];
	NodeInputMappedReg15 -> NodeCounter16[label="max" color="/dark28/4" photon_data="EDGE,SrcNode:15,SrcNodePort:num_iteration"];
	NodeCounter16 -> NodeEqInlined416[color="/dark28/5" photon_data="EDGE,SrcNode:16,SrcNodePort:count"];
	NodeConstantDouble20 -> NodeEqInlined416[color="/dark28/6" photon_data="EDGE,SrcNode:20,SrcNodePort:value"];
	NodeEqInlined416 -> NodeMux23[headport="w" color="/dark28/7" photon_data="EDGE,SrcNode:416,SrcNodePort:result"];
	NodeStreamOffset385 -> NodeMux23[headport="n" tailport="s" color=red photon_data="EDGE,SrcNode:385,SrcNodePort:output"];
	NodeConstantRawBits22 -> NodeMux23[color="/dark28/8" photon_data="EDGE,SrcNode:22,SrcNodePort:value"];
	NodeInputMappedReg18 -> NodeCast19[color="/dark28/1" photon_data="EDGE,SrcNode:18,SrcNodePort:dt"];
	NodeCounter16 -> NodeEqInlined417[color="/dark28/2" photon_data="EDGE,SrcNode:16,SrcNodePort:count"];
	NodeConstantDouble24 -> NodeEqInlined417[color="/dark28/3" photon_data="EDGE,SrcNode:24,SrcNodePort:value"];
	NodeMux23 -> NodeGt374[color="/dark28/4" photon_data="EDGE,SrcNode:23,SrcNodePort:result"];
	NodeConstantRawBits5 -> NodeGt374[color="/dark28/5" photon_data="EDGE,SrcNode:5,SrcNodePort:value"];
	NodeGt374 -> NodeCast375[color="/dark28/6" photon_data="EDGE,SrcNode:374,SrcNodePort:result"];
	NodeConstantDouble376 -> NodeMul377[color="/dark28/7" photon_data="EDGE,SrcNode:376,SrcNodePort:value"];
	NodeCast375 -> NodeMul377[color="/dark28/8" photon_data="EDGE,SrcNode:375,SrcNodePort:o"];
	NodeMul377 -> NodeSub378[color="/dark28/1" photon_data="EDGE,SrcNode:377,SrcNodePort:result"];
	NodeMux27 -> NodeSub378[headport="n" tailport="s" color=red photon_data="EDGE,SrcNode:27,SrcNodePort:result"];
	NodeSub378 -> NodeMul380[color="/dark28/2" photon_data="EDGE,SrcNode:378,SrcNodePort:result"];
	NodeConstantRawBits3 -> NodeMul380[color="/dark28/3" photon_data="EDGE,SrcNode:3,SrcNodePort:value"];
	NodeCast19 -> NodeMul383[color="/dark28/4" photon_data="EDGE,SrcNode:19,SrcNodePort:o"];
	NodeMul380 -> NodeMul383[color="/dark28/5" photon_data="EDGE,SrcNode:380,SrcNodePort:result"];
	NodeMux27 -> NodeAdd384[headport="n" tailport="s" color=red photon_data="EDGE,SrcNode:27,SrcNodePort:result"];
	NodeMul383 -> NodeAdd384[color="/dark28/6" photon_data="EDGE,SrcNode:383,SrcNodePort:result"];
	NodeAdd384 -> NodeStreamOffset386[color="/dark28/7" photon_data="EDGE,SrcNode:384,SrcNodePort:result"];
	NodeEqInlined417 -> NodeMux27[headport="w" color="/dark28/8" photon_data="EDGE,SrcNode:417,SrcNodePort:result"];
	NodeStreamOffset386 -> NodeMux27[color="/dark28/1" photon_data="EDGE,SrcNode:386,SrcNodePort:output"];
	NodeConstantRawBits26 -> NodeMux27[color="/dark28/2" photon_data="EDGE,SrcNode:26,SrcNodePort:value"];
	NodeMux27 -> NodeMul32[color="/dark28/3" photon_data="EDGE,SrcNode:27,SrcNodePort:result"];
	NodeMux27 -> NodeMul32[color="/dark28/4" photon_data="EDGE,SrcNode:27,SrcNodePort:result"];
	NodeMux27 -> NodeMul33[color="/dark28/5" photon_data="EDGE,SrcNode:27,SrcNodePort:result"];
	NodeMul32 -> NodeMul33[color="/dark28/6" photon_data="EDGE,SrcNode:32,SrcNodePort:result"];
	NodeMul33 -> NodeMul34[color="/dark28/7" photon_data="EDGE,SrcNode:33,SrcNodePort:result"];
	NodeMul32 -> NodeMul34[color="/dark28/8" photon_data="EDGE,SrcNode:32,SrcNodePort:result"];
	NodeMul34 -> NodeMul35[color="/dark28/1" photon_data="EDGE,SrcNode:34,SrcNodePort:result"];
	NodeMul34 -> NodeMul35[color="/dark28/2" photon_data="EDGE,SrcNode:34,SrcNodePort:result"];
	NodeConstantRawBits6 -> NodeSub371[color="/dark28/3" photon_data="EDGE,SrcNode:6,SrcNodePort:value"];
	NodeMul35 -> NodeSub371[color="/dark28/4" photon_data="EDGE,SrcNode:35,SrcNodePort:result"];
	NodeMux23 -> NodeSub38[color="/dark28/5" photon_data="EDGE,SrcNode:23,SrcNodePort:result"];
	NodeConstantRawBits4 -> NodeSub38[color="/dark28/6" photon_data="EDGE,SrcNode:4,SrcNodePort:value"];
	NodeConstantDouble39 -> NodeMul40[color="/dark28/7" photon_data="EDGE,SrcNode:39,SrcNodePort:value"];
	NodeSub38 -> NodeMul40[color="/dark28/8" photon_data="EDGE,SrcNode:38,SrcNodePort:result"];
	NodeMul40 -> NodeSlice343[color="/dark28/1" photon_data="EDGE,SrcNode:40,SrcNodePort:result"];
	NodeSlice343 -> NodeEqInlined418[color="/dark28/2" photon_data="EDGE,SrcNode:343,SrcNodePort:result"];
	NodeConstantRawBits344 -> NodeEqInlined418[color="/dark28/3" photon_data="EDGE,SrcNode:344,SrcNodePort:value"];
	NodeMul40 -> NodeSlice342[color="/dark28/4" photon_data="EDGE,SrcNode:40,SrcNodePort:result"];
	NodeSlice342 -> NodeNeqInlined419[color="/dark28/5" photon_data="EDGE,SrcNode:342,SrcNodePort:result"];
	NodeConstantDouble346 -> NodeNeqInlined419[color="/dark28/6" photon_data="EDGE,SrcNode:346,SrcNodePort:value"];
	NodeEqInlined418 -> NodeAnd348[color="/dark28/7" photon_data="EDGE,SrcNode:418,SrcNodePort:result"];
	NodeNeqInlined419 -> NodeAnd348[color="/dark28/8" photon_data="EDGE,SrcNode:419,SrcNodePort:result"];
	NodeMul40 -> NodeDoubtBitOp42[color="/dark28/1" photon_data="EDGE,SrcNode:40,SrcNodePort:result"];
	NodeConstantRawBits41 -> NodeDoubtBitOp42[color="/dark28/2" photon_data="EDGE,SrcNode:41,SrcNodePort:value"];
	NodeDoubtBitOp42 -> NodeCast43[color="/dark28/3" style=dashed photon_data="EDGE,SrcNode:42,SrcNodePort:output"];
	NodeCast43 -> NodeSlice44[color="/dark28/4" photon_data="EDGE,SrcNode:43,SrcNodePort:exception"];
	NodeSlice44 -> NodeReinterpret45[color="/dark28/5" photon_data="EDGE,SrcNode:44,SrcNodePort:result"];
	NodeCast43 -> NodeSlice420[color="/dark28/6" style=dashed photon_data="EDGE,SrcNode:43,SrcNodePort:o"];
	NodeSlice420 -> NodeNot421[color="/dark28/7" style=dashed photon_data="EDGE,SrcNode:420,SrcNodePort:result"];
	NodeNot421 -> NodeCat456[color="/dark28/8" style=dashed photon_data="EDGE,SrcNode:421,SrcNodePort:result"];
	NodeNot421 -> NodeCat456[color="/dark28/1" style=dashed photon_data="EDGE,SrcNode:421,SrcNodePort:result"];
	NodeNot421 -> NodeCat456[color="/dark28/2" style=dashed photon_data="EDGE,SrcNode:421,SrcNodePort:result"];
	NodeNot421 -> NodeCat456[color="/dark28/3" style=dashed photon_data="EDGE,SrcNode:421,SrcNodePort:result"];
	NodeNot421 -> NodeCat456[color="/dark28/4" style=dashed photon_data="EDGE,SrcNode:421,SrcNodePort:result"];
	NodeNot421 -> NodeCat456[color="/dark28/5" style=dashed photon_data="EDGE,SrcNode:421,SrcNodePort:result"];
	NodeNot421 -> NodeCat456[color="/dark28/6" style=dashed photon_data="EDGE,SrcNode:421,SrcNodePort:result"];
	NodeNot421 -> NodeCat456[color="/dark28/7" style=dashed photon_data="EDGE,SrcNode:421,SrcNodePort:result"];
	NodeNot421 -> NodeCat456[color="/dark28/8" style=dashed photon_data="EDGE,SrcNode:421,SrcNodePort:result"];
	NodeNot421 -> NodeCat456[color="/dark28/1" style=dashed photon_data="EDGE,SrcNode:421,SrcNodePort:result"];
	NodeNot421 -> NodeCat456[color="/dark28/2" style=dashed photon_data="EDGE,SrcNode:421,SrcNodePort:result"];
	NodeNot421 -> NodeCat456[color="/dark28/3" style=dashed photon_data="EDGE,SrcNode:421,SrcNodePort:result"];
	NodeNot421 -> NodeCat456[color="/dark28/4" style=dashed photon_data="EDGE,SrcNode:421,SrcNodePort:result"];
	NodeNot421 -> NodeCat456[color="/dark28/5" style=dashed photon_data="EDGE,SrcNode:421,SrcNodePort:result"];
	NodeNot421 -> NodeCat456[color="/dark28/6" style=dashed photon_data="EDGE,SrcNode:421,SrcNodePort:result"];
	NodeNot421 -> NodeCat456[color="/dark28/7" style=dashed photon_data="EDGE,SrcNode:421,SrcNodePort:result"];
	NodeNot421 -> NodeCat456[color="/dark28/8" style=dashed photon_data="EDGE,SrcNode:421,SrcNodePort:result"];
	NodeNot421 -> NodeCat456[color="/dark28/1" style=dashed photon_data="EDGE,SrcNode:421,SrcNodePort:result"];
	NodeNot421 -> NodeCat456[color="/dark28/2" style=dashed photon_data="EDGE,SrcNode:421,SrcNodePort:result"];
	NodeNot421 -> NodeCat456[color="/dark28/3" style=dashed photon_data="EDGE,SrcNode:421,SrcNodePort:result"];
	NodeNot421 -> NodeCat456[color="/dark28/4" style=dashed photon_data="EDGE,SrcNode:421,SrcNodePort:result"];
	NodeNot421 -> NodeCat456[color="/dark28/5" style=dashed photon_data="EDGE,SrcNode:421,SrcNodePort:result"];
	NodeNot421 -> NodeCat456[color="/dark28/6" style=dashed photon_data="EDGE,SrcNode:421,SrcNodePort:result"];
	NodeNot421 -> NodeCat456[color="/dark28/7" style=dashed photon_data="EDGE,SrcNode:421,SrcNodePort:result"];
	NodeNot421 -> NodeCat456[color="/dark28/8" style=dashed photon_data="EDGE,SrcNode:421,SrcNodePort:result"];
	NodeNot421 -> NodeCat456[color="/dark28/1" style=dashed photon_data="EDGE,SrcNode:421,SrcNodePort:result"];
	NodeNot421 -> NodeCat456[color="/dark28/2" style=dashed photon_data="EDGE,SrcNode:421,SrcNodePort:result"];
	NodeNot421 -> NodeCat456[color="/dark28/3" style=dashed photon_data="EDGE,SrcNode:421,SrcNodePort:result"];
	NodeNot421 -> NodeCat456[color="/dark28/4" style=dashed photon_data="EDGE,SrcNode:421,SrcNodePort:result"];
	NodeNot421 -> NodeCat456[color="/dark28/5" style=dashed photon_data="EDGE,SrcNode:421,SrcNodePort:result"];
	NodeNot421 -> NodeCat456[color="/dark28/6" style=dashed photon_data="EDGE,SrcNode:421,SrcNodePort:result"];
	NodeNot421 -> NodeCat456[color="/dark28/7" style=dashed photon_data="EDGE,SrcNode:421,SrcNodePort:result"];
	NodeNot421 -> NodeCat456[color="/dark28/8" style=dashed photon_data="EDGE,SrcNode:421,SrcNodePort:result"];
	NodeNot421 -> NodeCat456[color="/dark28/1" style=dashed photon_data="EDGE,SrcNode:421,SrcNodePort:result"];
	NodeNot421 -> NodeCat456[color="/dark28/2" style=dashed photon_data="EDGE,SrcNode:421,SrcNodePort:result"];
	NodeNot421 -> NodeCat456[color="/dark28/3" style=dashed photon_data="EDGE,SrcNode:421,SrcNodePort:result"];
	NodeCat456 -> NodeReinterpret84[color="/dark28/4" style=dashed photon_data="EDGE,SrcNode:456,SrcNodePort:result"];
	NodeConstantRawBits46 -> NodeXor85[color="/dark28/5" photon_data="EDGE,SrcNode:46,SrcNodePort:value"];
	NodeReinterpret84 -> NodeXor85[color="/dark28/6" style=dashed photon_data="EDGE,SrcNode:84,SrcNodePort:output"];
	NodeReinterpret45 -> NodeMux86[headport="w" color="/dark28/7" photon_data="EDGE,SrcNode:45,SrcNodePort:output"];
	NodeCast43 -> NodeMux86[color="/dark28/8" style=dashed photon_data="EDGE,SrcNode:43,SrcNodePort:o"];
	NodeXor85 -> NodeMux86[color="/dark28/1" style=dashed photon_data="EDGE,SrcNode:85,SrcNodePort:result"];
	NodeMux86 -> NodeMul88[color="/dark28/2" style=dashed photon_data="EDGE,SrcNode:86,SrcNodePort:result"];
	NodeConstantRawBits89 -> NodeMul88[color="/dark28/3" photon_data="EDGE,SrcNode:89,SrcNodePort:value"];
	NodeMul88 -> NodeSlice457[color="/dark28/4" style=dashed photon_data="EDGE,SrcNode:88,SrcNodePort:result"];
	NodeSlice457 -> NodeNot458[color="/dark28/5" style=dashed photon_data="EDGE,SrcNode:457,SrcNodePort:result"];
	NodeNot458 -> NodeCat528[color="/dark28/6" style=dashed photon_data="EDGE,SrcNode:458,SrcNodePort:result"];
	NodeNot458 -> NodeCat528[color="/dark28/7" style=dashed photon_data="EDGE,SrcNode:458,SrcNodePort:result"];
	NodeNot458 -> NodeCat528[color="/dark28/8" style=dashed photon_data="EDGE,SrcNode:458,SrcNodePort:result"];
	NodeNot458 -> NodeCat528[color="/dark28/1" style=dashed photon_data="EDGE,SrcNode:458,SrcNodePort:result"];
	NodeNot458 -> NodeCat528[color="/dark28/2" style=dashed photon_data="EDGE,SrcNode:458,SrcNodePort:result"];
	NodeNot458 -> NodeCat528[color="/dark28/3" style=dashed photon_data="EDGE,SrcNode:458,SrcNodePort:result"];
	NodeNot458 -> NodeCat528[color="/dark28/4" style=dashed photon_data="EDGE,SrcNode:458,SrcNodePort:result"];
	NodeNot458 -> NodeCat528[color="/dark28/5" style=dashed photon_data="EDGE,SrcNode:458,SrcNodePort:result"];
	NodeNot458 -> NodeCat528[color="/dark28/6" style=dashed photon_data="EDGE,SrcNode:458,SrcNodePort:result"];
	NodeNot458 -> NodeCat528[color="/dark28/7" style=dashed photon_data="EDGE,SrcNode:458,SrcNodePort:result"];
	NodeNot458 -> NodeCat528[color="/dark28/8" style=dashed photon_data="EDGE,SrcNode:458,SrcNodePort:result"];
	NodeNot458 -> NodeCat528[color="/dark28/1" style=dashed photon_data="EDGE,SrcNode:458,SrcNodePort:result"];
	NodeNot458 -> NodeCat528[color="/dark28/2" style=dashed photon_data="EDGE,SrcNode:458,SrcNodePort:result"];
	NodeNot458 -> NodeCat528[color="/dark28/3" style=dashed photon_data="EDGE,SrcNode:458,SrcNodePort:result"];
	NodeNot458 -> NodeCat528[color="/dark28/4" style=dashed photon_data="EDGE,SrcNode:458,SrcNodePort:result"];
	NodeNot458 -> NodeCat528[color="/dark28/5" style=dashed photon_data="EDGE,SrcNode:458,SrcNodePort:result"];
	NodeNot458 -> NodeCat528[color="/dark28/6" style=dashed photon_data="EDGE,SrcNode:458,SrcNodePort:result"];
	NodeNot458 -> NodeCat528[color="/dark28/7" style=dashed photon_data="EDGE,SrcNode:458,SrcNodePort:result"];
	NodeNot458 -> NodeCat528[color="/dark28/8" style=dashed photon_data="EDGE,SrcNode:458,SrcNodePort:result"];
	NodeNot458 -> NodeCat528[color="/dark28/1" style=dashed photon_data="EDGE,SrcNode:458,SrcNodePort:result"];
	NodeNot458 -> NodeCat528[color="/dark28/2" style=dashed photon_data="EDGE,SrcNode:458,SrcNodePort:result"];
	NodeNot458 -> NodeCat528[color="/dark28/3" style=dashed photon_data="EDGE,SrcNode:458,SrcNodePort:result"];
	NodeNot458 -> NodeCat528[color="/dark28/4" style=dashed photon_data="EDGE,SrcNode:458,SrcNodePort:result"];
	NodeNot458 -> NodeCat528[color="/dark28/5" style=dashed photon_data="EDGE,SrcNode:458,SrcNodePort:result"];
	NodeNot458 -> NodeCat528[color="/dark28/6" style=dashed photon_data="EDGE,SrcNode:458,SrcNodePort:result"];
	NodeNot458 -> NodeCat528[color="/dark28/7" style=dashed photon_data="EDGE,SrcNode:458,SrcNodePort:result"];
	NodeNot458 -> NodeCat528[color="/dark28/8" style=dashed photon_data="EDGE,SrcNode:458,SrcNodePort:result"];
	NodeNot458 -> NodeCat528[color="/dark28/1" style=dashed photon_data="EDGE,SrcNode:458,SrcNodePort:result"];
	NodeNot458 -> NodeCat528[color="/dark28/2" style=dashed photon_data="EDGE,SrcNode:458,SrcNodePort:result"];
	NodeNot458 -> NodeCat528[color="/dark28/3" style=dashed photon_data="EDGE,SrcNode:458,SrcNodePort:result"];
	NodeNot458 -> NodeCat528[color="/dark28/4" style=dashed photon_data="EDGE,SrcNode:458,SrcNodePort:result"];
	NodeNot458 -> NodeCat528[color="/dark28/5" style=dashed photon_data="EDGE,SrcNode:458,SrcNodePort:result"];
	NodeNot458 -> NodeCat528[color="/dark28/6" style=dashed photon_data="EDGE,SrcNode:458,SrcNodePort:result"];
	NodeNot458 -> NodeCat528[color="/dark28/7" style=dashed photon_data="EDGE,SrcNode:458,SrcNodePort:result"];
	NodeNot458 -> NodeCat528[color="/dark28/8" style=dashed photon_data="EDGE,SrcNode:458,SrcNodePort:result"];
	NodeNot458 -> NodeCat528[color="/dark28/1" style=dashed photon_data="EDGE,SrcNode:458,SrcNodePort:result"];
	NodeNot458 -> NodeCat528[color="/dark28/2" style=dashed photon_data="EDGE,SrcNode:458,SrcNodePort:result"];
	NodeNot458 -> NodeCat528[color="/dark28/3" style=dashed photon_data="EDGE,SrcNode:458,SrcNodePort:result"];
	NodeNot458 -> NodeCat528[color="/dark28/4" style=dashed photon_data="EDGE,SrcNode:458,SrcNodePort:result"];
	NodeNot458 -> NodeCat528[color="/dark28/5" style=dashed photon_data="EDGE,SrcNode:458,SrcNodePort:result"];
	NodeNot458 -> NodeCat528[color="/dark28/6" style=dashed photon_data="EDGE,SrcNode:458,SrcNodePort:result"];
	NodeNot458 -> NodeCat528[color="/dark28/7" style=dashed photon_data="EDGE,SrcNode:458,SrcNodePort:result"];
	NodeNot458 -> NodeCat528[color="/dark28/8" style=dashed photon_data="EDGE,SrcNode:458,SrcNodePort:result"];
	NodeNot458 -> NodeCat528[color="/dark28/1" style=dashed photon_data="EDGE,SrcNode:458,SrcNodePort:result"];
	NodeNot458 -> NodeCat528[color="/dark28/2" style=dashed photon_data="EDGE,SrcNode:458,SrcNodePort:result"];
	NodeNot458 -> NodeCat528[color="/dark28/3" style=dashed photon_data="EDGE,SrcNode:458,SrcNodePort:result"];
	NodeNot458 -> NodeCat528[color="/dark28/4" style=dashed photon_data="EDGE,SrcNode:458,SrcNodePort:result"];
	NodeNot458 -> NodeCat528[color="/dark28/5" style=dashed photon_data="EDGE,SrcNode:458,SrcNodePort:result"];
	NodeNot458 -> NodeCat528[color="/dark28/6" style=dashed photon_data="EDGE,SrcNode:458,SrcNodePort:result"];
	NodeNot458 -> NodeCat528[color="/dark28/7" style=dashed photon_data="EDGE,SrcNode:458,SrcNodePort:result"];
	NodeNot458 -> NodeCat528[color="/dark28/8" style=dashed photon_data="EDGE,SrcNode:458,SrcNodePort:result"];
	NodeNot458 -> NodeCat528[color="/dark28/1" style=dashed photon_data="EDGE,SrcNode:458,SrcNodePort:result"];
	NodeNot458 -> NodeCat528[color="/dark28/2" style=dashed photon_data="EDGE,SrcNode:458,SrcNodePort:result"];
	NodeNot458 -> NodeCat528[color="/dark28/3" style=dashed photon_data="EDGE,SrcNode:458,SrcNodePort:result"];
	NodeNot458 -> NodeCat528[color="/dark28/4" style=dashed photon_data="EDGE,SrcNode:458,SrcNodePort:result"];
	NodeNot458 -> NodeCat528[color="/dark28/5" style=dashed photon_data="EDGE,SrcNode:458,SrcNodePort:result"];
	NodeNot458 -> NodeCat528[color="/dark28/6" style=dashed photon_data="EDGE,SrcNode:458,SrcNodePort:result"];
	NodeNot458 -> NodeCat528[color="/dark28/7" style=dashed photon_data="EDGE,SrcNode:458,SrcNodePort:result"];
	NodeNot458 -> NodeCat528[color="/dark28/8" style=dashed photon_data="EDGE,SrcNode:458,SrcNodePort:result"];
	NodeNot458 -> NodeCat528[color="/dark28/1" style=dashed photon_data="EDGE,SrcNode:458,SrcNodePort:result"];
	NodeNot458 -> NodeCat528[color="/dark28/2" style=dashed photon_data="EDGE,SrcNode:458,SrcNodePort:result"];
	NodeNot458 -> NodeCat528[color="/dark28/3" style=dashed photon_data="EDGE,SrcNode:458,SrcNodePort:result"];
	NodeNot458 -> NodeCat528[color="/dark28/4" style=dashed photon_data="EDGE,SrcNode:458,SrcNodePort:result"];
	NodeNot458 -> NodeCat528[color="/dark28/5" style=dashed photon_data="EDGE,SrcNode:458,SrcNodePort:result"];
	NodeNot458 -> NodeCat528[color="/dark28/6" style=dashed photon_data="EDGE,SrcNode:458,SrcNodePort:result"];
	NodeNot458 -> NodeCat528[color="/dark28/7" style=dashed photon_data="EDGE,SrcNode:458,SrcNodePort:result"];
	NodeNot458 -> NodeCat528[color="/dark28/8" style=dashed photon_data="EDGE,SrcNode:458,SrcNodePort:result"];
	NodeNot458 -> NodeCat528[color="/dark28/1" style=dashed photon_data="EDGE,SrcNode:458,SrcNodePort:result"];
	NodeNot458 -> NodeCat528[color="/dark28/2" style=dashed photon_data="EDGE,SrcNode:458,SrcNodePort:result"];
	NodeNot458 -> NodeCat528[color="/dark28/3" style=dashed photon_data="EDGE,SrcNode:458,SrcNodePort:result"];
	NodeNot458 -> NodeCat528[color="/dark28/4" style=dashed photon_data="EDGE,SrcNode:458,SrcNodePort:result"];
	NodeCat528 -> NodeReinterpret164[color="/dark28/5" style=dashed photon_data="EDGE,SrcNode:528,SrcNodePort:result"];
	NodeConstantRawBits91 -> NodeXor165[color="/dark28/6" photon_data="EDGE,SrcNode:91,SrcNodePort:value"];
	NodeReinterpret164 -> NodeXor165[color="/dark28/7" style=dashed photon_data="EDGE,SrcNode:164,SrcNodePort:output"];
	NodeMul88 -> NodeMux166[headport="w" color="/dark28/8" photon_data="EDGE,SrcNode:88,SrcNodePort:exception"];
	NodeMul88 -> NodeMux166[color="/dark28/1" style=dashed photon_data="EDGE,SrcNode:88,SrcNodePort:result"];
	NodeXor165 -> NodeMux166[color="/dark28/2" style=dashed photon_data="EDGE,SrcNode:165,SrcNodePort:result"];
	NodeMux166 -> NodeCast167[color="/dark28/3" style=dashed photon_data="EDGE,SrcNode:166,SrcNodePort:result"];
	NodeCast167 -> NodeSlice529[color="/dark28/4" style=dashed photon_data="EDGE,SrcNode:167,SrcNodePort:o"];
	NodeSlice529 -> NodeNot530[color="/dark28/5" style=dashed photon_data="EDGE,SrcNode:529,SrcNodePort:result"];
	NodeNot530 -> NodeCat565[color="/dark28/6" style=dashed photon_data="EDGE,SrcNode:530,SrcNodePort:result"];
	NodeNot530 -> NodeCat565[color="/dark28/7" style=dashed photon_data="EDGE,SrcNode:530,SrcNodePort:result"];
	NodeNot530 -> NodeCat565[color="/dark28/8" style=dashed photon_data="EDGE,SrcNode:530,SrcNodePort:result"];
	NodeNot530 -> NodeCat565[color="/dark28/1" style=dashed photon_data="EDGE,SrcNode:530,SrcNodePort:result"];
	NodeNot530 -> NodeCat565[color="/dark28/2" style=dashed photon_data="EDGE,SrcNode:530,SrcNodePort:result"];
	NodeNot530 -> NodeCat565[color="/dark28/3" style=dashed photon_data="EDGE,SrcNode:530,SrcNodePort:result"];
	NodeNot530 -> NodeCat565[color="/dark28/4" style=dashed photon_data="EDGE,SrcNode:530,SrcNodePort:result"];
	NodeNot530 -> NodeCat565[color="/dark28/5" style=dashed photon_data="EDGE,SrcNode:530,SrcNodePort:result"];
	NodeNot530 -> NodeCat565[color="/dark28/6" style=dashed photon_data="EDGE,SrcNode:530,SrcNodePort:result"];
	NodeNot530 -> NodeCat565[color="/dark28/7" style=dashed photon_data="EDGE,SrcNode:530,SrcNodePort:result"];
	NodeNot530 -> NodeCat565[color="/dark28/8" style=dashed photon_data="EDGE,SrcNode:530,SrcNodePort:result"];
	NodeNot530 -> NodeCat565[color="/dark28/1" style=dashed photon_data="EDGE,SrcNode:530,SrcNodePort:result"];
	NodeNot530 -> NodeCat565[color="/dark28/2" style=dashed photon_data="EDGE,SrcNode:530,SrcNodePort:result"];
	NodeNot530 -> NodeCat565[color="/dark28/3" style=dashed photon_data="EDGE,SrcNode:530,SrcNodePort:result"];
	NodeNot530 -> NodeCat565[color="/dark28/4" style=dashed photon_data="EDGE,SrcNode:530,SrcNodePort:result"];
	NodeNot530 -> NodeCat565[color="/dark28/5" style=dashed photon_data="EDGE,SrcNode:530,SrcNodePort:result"];
	NodeNot530 -> NodeCat565[color="/dark28/6" style=dashed photon_data="EDGE,SrcNode:530,SrcNodePort:result"];
	NodeNot530 -> NodeCat565[color="/dark28/7" style=dashed photon_data="EDGE,SrcNode:530,SrcNodePort:result"];
	NodeNot530 -> NodeCat565[color="/dark28/8" style=dashed photon_data="EDGE,SrcNode:530,SrcNodePort:result"];
	NodeNot530 -> NodeCat565[color="/dark28/1" style=dashed photon_data="EDGE,SrcNode:530,SrcNodePort:result"];
	NodeNot530 -> NodeCat565[color="/dark28/2" style=dashed photon_data="EDGE,SrcNode:530,SrcNodePort:result"];
	NodeNot530 -> NodeCat565[color="/dark28/3" style=dashed photon_data="EDGE,SrcNode:530,SrcNodePort:result"];
	NodeNot530 -> NodeCat565[color="/dark28/4" style=dashed photon_data="EDGE,SrcNode:530,SrcNodePort:result"];
	NodeNot530 -> NodeCat565[color="/dark28/5" style=dashed photon_data="EDGE,SrcNode:530,SrcNodePort:result"];
	NodeNot530 -> NodeCat565[color="/dark28/6" style=dashed photon_data="EDGE,SrcNode:530,SrcNodePort:result"];
	NodeNot530 -> NodeCat565[color="/dark28/7" style=dashed photon_data="EDGE,SrcNode:530,SrcNodePort:result"];
	NodeNot530 -> NodeCat565[color="/dark28/8" style=dashed photon_data="EDGE,SrcNode:530,SrcNodePort:result"];
	NodeNot530 -> NodeCat565[color="/dark28/1" style=dashed photon_data="EDGE,SrcNode:530,SrcNodePort:result"];
	NodeNot530 -> NodeCat565[color="/dark28/2" style=dashed photon_data="EDGE,SrcNode:530,SrcNodePort:result"];
	NodeNot530 -> NodeCat565[color="/dark28/3" style=dashed photon_data="EDGE,SrcNode:530,SrcNodePort:result"];
	NodeNot530 -> NodeCat565[color="/dark28/4" style=dashed photon_data="EDGE,SrcNode:530,SrcNodePort:result"];
	NodeNot530 -> NodeCat565[color="/dark28/5" style=dashed photon_data="EDGE,SrcNode:530,SrcNodePort:result"];
	NodeNot530 -> NodeCat565[color="/dark28/6" style=dashed photon_data="EDGE,SrcNode:530,SrcNodePort:result"];
	NodeNot530 -> NodeCat565[color="/dark28/7" style=dashed photon_data="EDGE,SrcNode:530,SrcNodePort:result"];
	NodeNot530 -> NodeCat565[color="/dark28/8" style=dashed photon_data="EDGE,SrcNode:530,SrcNodePort:result"];
	NodeNot530 -> NodeCat565[color="/dark28/1" style=dashed photon_data="EDGE,SrcNode:530,SrcNodePort:result"];
	NodeCat565 -> NodeReinterpret207[color="/dark28/2" style=dashed photon_data="EDGE,SrcNode:565,SrcNodePort:result"];
	NodeConstantRawBits169 -> NodeXor208[color="/dark28/3" photon_data="EDGE,SrcNode:169,SrcNodePort:value"];
	NodeReinterpret207 -> NodeXor208[color="/dark28/4" style=dashed photon_data="EDGE,SrcNode:207,SrcNodePort:output"];
	NodeCast167 -> NodeMux209[headport="w" color="/dark28/5" photon_data="EDGE,SrcNode:167,SrcNodePort:exception"];
	NodeCast167 -> NodeMux209[color="/dark28/6" style=dashed photon_data="EDGE,SrcNode:167,SrcNodePort:o"];
	NodeXor208 -> NodeMux209[color="/dark28/7" style=dashed photon_data="EDGE,SrcNode:208,SrcNodePort:result"];
	NodeMux209 -> NodeDoubtBitOp218[color="/dark28/8" style=dashed photon_data="EDGE,SrcNode:209,SrcNodePort:result"];
	NodeDoubtBitOp218 -> NodeCast219[color="/dark28/1" photon_data="EDGE,SrcNode:218,SrcNodePort:output"];
	NodeCast219 -> NodeCast262[color="/dark28/2" photon_data="EDGE,SrcNode:219,SrcNodePort:o"];
	NodeCast262 -> NodeAdd264[color="/dark28/3" photon_data="EDGE,SrcNode:262,SrcNodePort:o"];
	NodeConstantDouble263 -> NodeAdd264[color="/dark28/4" photon_data="EDGE,SrcNode:263,SrcNodePort:value"];
	NodeAdd264 -> NodeSlice566[color="/dark28/5" photon_data="EDGE,SrcNode:264,SrcNodePort:result"];
	NodeSlice566 -> NodeNot567[color="/dark28/6" photon_data="EDGE,SrcNode:566,SrcNodePort:result"];
	NodeNot567 -> NodeCat577[color="/dark28/7" photon_data="EDGE,SrcNode:567,SrcNodePort:result"];
	NodeNot567 -> NodeCat577[color="/dark28/8" photon_data="EDGE,SrcNode:567,SrcNodePort:result"];
	NodeNot567 -> NodeCat577[color="/dark28/1" photon_data="EDGE,SrcNode:567,SrcNodePort:result"];
	NodeNot567 -> NodeCat577[color="/dark28/2" photon_data="EDGE,SrcNode:567,SrcNodePort:result"];
	NodeNot567 -> NodeCat577[color="/dark28/3" photon_data="EDGE,SrcNode:567,SrcNodePort:result"];
	NodeNot567 -> NodeCat577[color="/dark28/4" photon_data="EDGE,SrcNode:567,SrcNodePort:result"];
	NodeNot567 -> NodeCat577[color="/dark28/5" photon_data="EDGE,SrcNode:567,SrcNodePort:result"];
	NodeNot567 -> NodeCat577[color="/dark28/6" photon_data="EDGE,SrcNode:567,SrcNodePort:result"];
	NodeNot567 -> NodeCat577[color="/dark28/7" photon_data="EDGE,SrcNode:567,SrcNodePort:result"];
	NodeNot567 -> NodeCat577[color="/dark28/8" photon_data="EDGE,SrcNode:567,SrcNodePort:result"];
	NodeNot567 -> NodeCat577[color="/dark28/1" photon_data="EDGE,SrcNode:567,SrcNodePort:result"];
	NodeCat577 -> NodeReinterpret279[color="/dark28/2" photon_data="EDGE,SrcNode:577,SrcNodePort:result"];
	NodeConstantRawBits266 -> NodeXor280[color="/dark28/3" photon_data="EDGE,SrcNode:266,SrcNodePort:value"];
	NodeReinterpret279 -> NodeXor280[color="/dark28/4" photon_data="EDGE,SrcNode:279,SrcNodePort:output"];
	NodeAdd264 -> NodeMux281[headport="w" color="/dark28/5" photon_data="EDGE,SrcNode:264,SrcNodePort:exception"];
	NodeAdd264 -> NodeMux281[color="/dark28/6" photon_data="EDGE,SrcNode:264,SrcNodePort:result"];
	NodeXor280 -> NodeMux281[color="/dark28/7" photon_data="EDGE,SrcNode:280,SrcNodePort:result"];
	NodeDoubtBitOp218 -> NodeCast221[color="/dark28/8" photon_data="EDGE,SrcNode:218,SrcNodePort:output"];
	NodeCast221 -> NodeReinterpret355[color="/dark28/1" photon_data="EDGE,SrcNode:221,SrcNodePort:o"];
	NodeReinterpret355 -> NodeROM356[color="/dark28/2" photon_data="EDGE,SrcNode:355,SrcNodePort:output"];
	NodeDoubtBitOp218 -> NodeCast220[color="/dark28/3" photon_data="EDGE,SrcNode:218,SrcNodePort:output"];
	NodeCast220 -> NodeReinterpret352[color="/dark28/4" photon_data="EDGE,SrcNode:220,SrcNodePort:o"];
	NodeReinterpret352 -> NodeROM353[color="/dark28/5" photon_data="EDGE,SrcNode:352,SrcNodePort:output"];
	NodeDoubtBitOp218 -> NodeCast222[color="/dark28/6" photon_data="EDGE,SrcNode:218,SrcNodePort:output"];
	NodeConstantRawBits225 -> NodeMul224[color="/dark28/7" photon_data="EDGE,SrcNode:225,SrcNodePort:value"];
	NodeCast222 -> NodeMul224[color="/dark28/8" photon_data="EDGE,SrcNode:222,SrcNodePort:o"];
	NodeMul224 -> NodeCast226[color="/dark28/1" photon_data="EDGE,SrcNode:224,SrcNodePort:result"];
	NodeCast226 -> NodeMux229[headport="w" color="/dark28/2" photon_data="EDGE,SrcNode:226,SrcNodePort:exception"];
	NodeCast226 -> NodeMux229[color="/dark28/3" photon_data="EDGE,SrcNode:226,SrcNodePort:o"];
	NodeConstantRawBits228 -> NodeMux229[color="/dark28/4" photon_data="EDGE,SrcNode:228,SrcNodePort:value"];
	NodeROM353 -> NodeAdd230[color="/dark28/5" photon_data="EDGE,SrcNode:353,SrcNodePort:dout"];
	NodeMux229 -> NodeAdd230[color="/dark28/6" photon_data="EDGE,SrcNode:229,SrcNodePort:result"];
	NodeMux229 -> NodeMul231[color="/dark28/7" photon_data="EDGE,SrcNode:229,SrcNodePort:result"];
	NodeROM353 -> NodeMul231[color="/dark28/8" photon_data="EDGE,SrcNode:353,SrcNodePort:dout"];
	NodeAdd230 -> NodeAdd232[color="/dark28/1" photon_data="EDGE,SrcNode:230,SrcNodePort:result"];
	NodeMul231 -> NodeAdd232[color="/dark28/2" photon_data="EDGE,SrcNode:231,SrcNodePort:result"];
	NodeAdd232 -> NodeMux235[headport="w" color="/dark28/3" photon_data="EDGE,SrcNode:232,SrcNodePort:exception"];
	NodeAdd232 -> NodeMux235[color="/dark28/4" photon_data="EDGE,SrcNode:232,SrcNodePort:result"];
	NodeConstantRawBits234 -> NodeMux235[color="/dark28/5" photon_data="EDGE,SrcNode:234,SrcNodePort:value"];
	NodeMux235 -> NodeCast236[color="/dark28/6" photon_data="EDGE,SrcNode:235,SrcNodePort:result"];
	NodeCast236 -> NodeMux239[headport="w" color="/dark28/7" photon_data="EDGE,SrcNode:236,SrcNodePort:exception"];
	NodeCast236 -> NodeMux239[color="/dark28/8" photon_data="EDGE,SrcNode:236,SrcNodePort:o"];
	NodeConstantRawBits238 -> NodeMux239[color="/dark28/1" photon_data="EDGE,SrcNode:238,SrcNodePort:value"];
	NodeROM356 -> NodeAdd240[color="/dark28/2" photon_data="EDGE,SrcNode:356,SrcNodePort:dout"];
	NodeMux239 -> NodeAdd240[color="/dark28/3" photon_data="EDGE,SrcNode:239,SrcNodePort:result"];
	NodeMux239 -> NodeMul241[color="/dark28/4" photon_data="EDGE,SrcNode:239,SrcNodePort:result"];
	NodeROM356 -> NodeMul241[color="/dark28/5" photon_data="EDGE,SrcNode:356,SrcNodePort:dout"];
	NodeAdd240 -> NodeAdd242[color="/dark28/6" photon_data="EDGE,SrcNode:240,SrcNodePort:result"];
	NodeMul241 -> NodeAdd242[color="/dark28/7" photon_data="EDGE,SrcNode:241,SrcNodePort:result"];
	NodeAdd242 -> NodeMux245[headport="w" color="/dark28/8" photon_data="EDGE,SrcNode:242,SrcNodePort:exception"];
	NodeAdd242 -> NodeMux245[color="/dark28/1" photon_data="EDGE,SrcNode:242,SrcNodePort:result"];
	NodeConstantRawBits244 -> NodeMux245[color="/dark28/2" photon_data="EDGE,SrcNode:244,SrcNodePort:value"];
	NodeMux245 -> NodeCast246[color="/dark28/3" photon_data="EDGE,SrcNode:245,SrcNodePort:result"];
	NodeCast246 -> NodeMux249[headport="w" color="/dark28/4" photon_data="EDGE,SrcNode:246,SrcNodePort:exception"];
	NodeCast246 -> NodeMux249[color="/dark28/5" photon_data="EDGE,SrcNode:246,SrcNodePort:o"];
	NodeConstantRawBits248 -> NodeMux249[color="/dark28/6" photon_data="EDGE,SrcNode:248,SrcNodePort:value"];
	NodeMux249 -> NodeCast250[color="/dark28/7" photon_data="EDGE,SrcNode:249,SrcNodePort:result"];
	NodeCast250 -> NodeMux253[headport="w" color="/dark28/8" photon_data="EDGE,SrcNode:250,SrcNodePort:exception"];
	NodeCast250 -> NodeMux253[color="/dark28/1" photon_data="EDGE,SrcNode:250,SrcNodePort:o"];
	NodeConstantRawBits252 -> NodeMux253[color="/dark28/2" photon_data="EDGE,SrcNode:252,SrcNodePort:value"];
	NodeMux253 -> NodeGteInlined578[color="/dark28/3" photon_data="EDGE,SrcNode:253,SrcNodePort:result"];
	NodeConstantDouble254 -> NodeGteInlined578[color="/dark28/4" photon_data="EDGE,SrcNode:254,SrcNodePort:value"];
	NodeGteInlined578 -> NodeMux284[headport="w" color="/dark28/5" photon_data="EDGE,SrcNode:578,SrcNodePort:result"];
	NodeConstantRawBits283 -> NodeMux284[color="/dark28/6" photon_data="EDGE,SrcNode:283,SrcNodePort:value"];
	NodeConstantRawBits282 -> NodeMux284[color="/dark28/7" photon_data="EDGE,SrcNode:282,SrcNodePort:value"];
	NodeMux281 -> NodeAdd285[color="/dark28/8" photon_data="EDGE,SrcNode:281,SrcNodePort:result"];
	NodeMux284 -> NodeAdd285[color="/dark28/1" photon_data="EDGE,SrcNode:284,SrcNodePort:result"];
	NodeAdd285 -> NodeSlice579[color="/dark28/2" photon_data="EDGE,SrcNode:285,SrcNodePort:result"];
	NodeSlice579 -> NodeNot580[color="/dark28/3" photon_data="EDGE,SrcNode:579,SrcNodePort:result"];
	NodeNot580 -> NodeCat590[color="/dark28/4" photon_data="EDGE,SrcNode:580,SrcNodePort:result"];
	NodeNot580 -> NodeCat590[color="/dark28/5" photon_data="EDGE,SrcNode:580,SrcNodePort:result"];
	NodeNot580 -> NodeCat590[color="/dark28/6" photon_data="EDGE,SrcNode:580,SrcNodePort:result"];
	NodeNot580 -> NodeCat590[color="/dark28/7" photon_data="EDGE,SrcNode:580,SrcNodePort:result"];
	NodeNot580 -> NodeCat590[color="/dark28/8" photon_data="EDGE,SrcNode:580,SrcNodePort:result"];
	NodeNot580 -> NodeCat590[color="/dark28/1" photon_data="EDGE,SrcNode:580,SrcNodePort:result"];
	NodeNot580 -> NodeCat590[color="/dark28/2" photon_data="EDGE,SrcNode:580,SrcNodePort:result"];
	NodeNot580 -> NodeCat590[color="/dark28/3" photon_data="EDGE,SrcNode:580,SrcNodePort:result"];
	NodeNot580 -> NodeCat590[color="/dark28/4" photon_data="EDGE,SrcNode:580,SrcNodePort:result"];
	NodeNot580 -> NodeCat590[color="/dark28/5" photon_data="EDGE,SrcNode:580,SrcNodePort:result"];
	NodeNot580 -> NodeCat590[color="/dark28/6" photon_data="EDGE,SrcNode:580,SrcNodePort:result"];
	NodeCat590 -> NodeReinterpret300[color="/dark28/7" photon_data="EDGE,SrcNode:590,SrcNodePort:result"];
	NodeConstantRawBits287 -> NodeXor301[color="/dark28/8" photon_data="EDGE,SrcNode:287,SrcNodePort:value"];
	NodeReinterpret300 -> NodeXor301[color="/dark28/1" photon_data="EDGE,SrcNode:300,SrcNodePort:output"];
	NodeAdd285 -> NodeMux302[headport="w" color="/dark28/2" photon_data="EDGE,SrcNode:285,SrcNodePort:exception"];
	NodeAdd285 -> NodeMux302[color="/dark28/3" photon_data="EDGE,SrcNode:285,SrcNodePort:result"];
	NodeXor301 -> NodeMux302[color="/dark28/4" photon_data="EDGE,SrcNode:301,SrcNodePort:result"];
	NodeMux302 -> NodeSlice591[color="/dark28/5" photon_data="EDGE,SrcNode:302,SrcNodePort:result"];
	NodeSlice591 -> NodeReinterpret592[color="/dark28/6" photon_data="EDGE,SrcNode:591,SrcNodePort:result"];
	NodeMul40 -> NodeGt211[color="/dark28/7" photon_data="EDGE,SrcNode:40,SrcNodePort:result"];
	NodeConstantDouble210 -> NodeGt211[color="/dark28/8" photon_data="EDGE,SrcNode:210,SrcNodePort:value"];
	NodeMux209 -> NodeDoubtBitOp212[color="/dark28/1" style=dashed photon_data="EDGE,SrcNode:209,SrcNodePort:result"];
	NodeGt211 -> NodeAnd213[color="/dark28/2" photon_data="EDGE,SrcNode:211,SrcNodePort:result"];
	NodeDoubtBitOp212 -> NodeAnd213[color="/dark28/3" photon_data="EDGE,SrcNode:212,SrcNodePort:output"];
	NodeAnd213 -> NodeNot305[color="/dark28/4" photon_data="EDGE,SrcNode:213,SrcNodePort:result"];
	NodeReinterpret592 -> NodeAnd306[color="/dark28/5" photon_data="EDGE,SrcNode:592,SrcNodePort:output"];
	NodeNot305 -> NodeAnd306[color="/dark28/6" photon_data="EDGE,SrcNode:305,SrcNodePort:result"];
	NodeMul40 -> NodeLt215[color="/dark28/7" photon_data="EDGE,SrcNode:40,SrcNodePort:result"];
	NodeConstantDouble214 -> NodeLt215[color="/dark28/8" photon_data="EDGE,SrcNode:214,SrcNodePort:value"];
	NodeMux209 -> NodeDoubtBitOp216[color="/dark28/1" style=dashed photon_data="EDGE,SrcNode:209,SrcNodePort:result"];
	NodeLt215 -> NodeAnd217[color="/dark28/2" photon_data="EDGE,SrcNode:215,SrcNodePort:result"];
	NodeDoubtBitOp216 -> NodeAnd217[color="/dark28/3" photon_data="EDGE,SrcNode:216,SrcNodePort:output"];
	NodeAnd306 -> NodeOr307[color="/dark28/4" photon_data="EDGE,SrcNode:306,SrcNodePort:result"];
	NodeAnd217 -> NodeOr307[color="/dark28/5" photon_data="EDGE,SrcNode:217,SrcNodePort:result"];
	NodeMux302 -> NodeGteInlined593[color="/dark28/6" photon_data="EDGE,SrcNode:302,SrcNodePort:result"];
	NodeConstantDouble326 -> NodeGteInlined593[color="/dark28/7" photon_data="EDGE,SrcNode:326,SrcNodePort:value"];
	NodeAnd217 -> NodeNot328[color="/dark28/8" photon_data="EDGE,SrcNode:217,SrcNodePort:result"];
	NodeGteInlined593 -> NodeAnd329[color="/dark28/1" photon_data="EDGE,SrcNode:593,SrcNodePort:result"];
	NodeNot328 -> NodeAnd329[color="/dark28/2" photon_data="EDGE,SrcNode:328,SrcNodePort:result"];
	NodeAnd329 -> NodeOr330[color="/dark28/3" photon_data="EDGE,SrcNode:329,SrcNodePort:result"];
	NodeAnd213 -> NodeOr330[color="/dark28/4" photon_data="EDGE,SrcNode:213,SrcNodePort:result"];
	NodeOr307 -> NodeCat331[color="/dark28/5" photon_data="EDGE,SrcNode:307,SrcNodePort:result"];
	NodeOr330 -> NodeCat331[color="/dark28/6" photon_data="EDGE,SrcNode:330,SrcNodePort:result"];
	NodeMux302 -> NodeCast308[color="/dark28/7" photon_data="EDGE,SrcNode:302,SrcNodePort:result"];
	NodeCast308 -> NodeSlice594[color="/dark28/8" photon_data="EDGE,SrcNode:308,SrcNodePort:o"];
	NodeSlice594 -> NodeNot595[color="/dark28/1" photon_data="EDGE,SrcNode:594,SrcNodePort:result"];
	NodeNot595 -> NodeCat602[color="/dark28/2" photon_data="EDGE,SrcNode:595,SrcNodePort:result"];
	NodeNot595 -> NodeCat602[color="/dark28/3" photon_data="EDGE,SrcNode:595,SrcNodePort:result"];
	NodeNot595 -> NodeCat602[color="/dark28/4" photon_data="EDGE,SrcNode:595,SrcNodePort:result"];
	NodeNot595 -> NodeCat602[color="/dark28/5" photon_data="EDGE,SrcNode:595,SrcNodePort:result"];
	NodeNot595 -> NodeCat602[color="/dark28/6" photon_data="EDGE,SrcNode:595,SrcNodePort:result"];
	NodeNot595 -> NodeCat602[color="/dark28/7" photon_data="EDGE,SrcNode:595,SrcNodePort:result"];
	NodeNot595 -> NodeCat602[color="/dark28/8" photon_data="EDGE,SrcNode:595,SrcNodePort:result"];
	NodeNot595 -> NodeCat602[color="/dark28/1" photon_data="EDGE,SrcNode:595,SrcNodePort:result"];
	NodeCat602 -> NodeReinterpret320[color="/dark28/2" photon_data="EDGE,SrcNode:602,SrcNodePort:result"];
	NodeConstantRawBits310 -> NodeXor321[color="/dark28/3" photon_data="EDGE,SrcNode:310,SrcNodePort:value"];
	NodeReinterpret320 -> NodeXor321[color="/dark28/4" photon_data="EDGE,SrcNode:320,SrcNodePort:output"];
	NodeCast308 -> NodeMux322[headport="w" color="/dark28/5" photon_data="EDGE,SrcNode:308,SrcNodePort:exception"];
	NodeCast308 -> NodeMux322[color="/dark28/6" photon_data="EDGE,SrcNode:308,SrcNodePort:o"];
	NodeXor321 -> NodeMux322[color="/dark28/7" photon_data="EDGE,SrcNode:321,SrcNodePort:result"];
	NodeGteInlined578 -> NodeMux257[headport="w" color="/dark28/8" photon_data="EDGE,SrcNode:578,SrcNodePort:result"];
	NodeMux253 -> NodeMux257[color="/dark28/1" photon_data="EDGE,SrcNode:253,SrcNodePort:result"];
	NodeConstantRawBits256 -> NodeMux257[color="/dark28/2" photon_data="EDGE,SrcNode:256,SrcNodePort:value"];
	NodeMux257 -> NodeCast258[color="/dark28/3" photon_data="EDGE,SrcNode:257,SrcNodePort:result"];
	NodeCast258 -> NodeMux261[headport="w" color="/dark28/4" photon_data="EDGE,SrcNode:258,SrcNodePort:exception"];
	NodeCast258 -> NodeMux261[color="/dark28/5" photon_data="EDGE,SrcNode:258,SrcNodePort:o"];
	NodeConstantRawBits260 -> NodeMux261[color="/dark28/6" photon_data="EDGE,SrcNode:260,SrcNodePort:value"];
	NodeConstantRawBits323 -> NodeCat324[color="/dark28/7" photon_data="EDGE,SrcNode:323,SrcNodePort:value"];
	NodeMux322 -> NodeCat324[color="/dark28/8" photon_data="EDGE,SrcNode:322,SrcNodePort:result"];
	NodeMux261 -> NodeCat324[color="/dark28/1" photon_data="EDGE,SrcNode:261,SrcNodePort:result"];
	NodeCat324 -> NodeReinterpret325[color="/dark28/2" photon_data="EDGE,SrcNode:324,SrcNodePort:result"];
	NodeConstantRawBits332 -> NodeCat603[color="/dark28/3" photon_data="EDGE,SrcNode:332,SrcNodePort:value"];
	NodeConstantRawBits333 -> NodeCat603[color="/dark28/4" photon_data="EDGE,SrcNode:333,SrcNodePort:value"];
	NodeConstantRawBits335 -> NodeCat603[color="/dark28/5" photon_data="EDGE,SrcNode:335,SrcNodePort:value"];
	NodeCat603 -> NodeReinterpret337[color="/dark28/6" photon_data="EDGE,SrcNode:603,SrcNodePort:result"];
	NodeCat331 -> NodeMux340[headport="w" color="/dark28/7" photon_data="EDGE,SrcNode:331,SrcNodePort:result"];
	NodeReinterpret325 -> NodeMux340[color="/dark28/8" photon_data="EDGE,SrcNode:325,SrcNodePort:output"];
	NodeReinterpret337 -> NodeMux340[color="/dark28/1" photon_data="EDGE,SrcNode:337,SrcNodePort:output"];
	NodeConstantRawBits415 -> NodeMux340[color="/dark28/2" photon_data="EDGE,SrcNode:415,SrcNodePort:value"];
	NodeReinterpret337 -> NodeMux340[color="/dark28/3" photon_data="EDGE,SrcNode:337,SrcNodePort:output"];
	NodeAnd348 -> NodeMux350[headport="w" color="/dark28/4" photon_data="EDGE,SrcNode:348,SrcNodePort:result"];
	NodeMux340 -> NodeMux350[color="/dark28/5" photon_data="EDGE,SrcNode:340,SrcNodePort:result"];
	NodeConstantDouble349 -> NodeMux350[color="/dark28/6" photon_data="EDGE,SrcNode:349,SrcNodePort:value"];
	NodeMux350 -> NodeAdd358[color="/dark28/7" photon_data="EDGE,SrcNode:350,SrcNodePort:result"];
	NodeConstantDouble357 -> NodeAdd358[color="/dark28/8" photon_data="EDGE,SrcNode:357,SrcNodePort:value"];
	NodeConstantDouble359 -> NodeDiv360[color="/dark28/1" photon_data="EDGE,SrcNode:359,SrcNodePort:value"];
	NodeAdd358 -> NodeDiv360[color="/dark28/2" photon_data="EDGE,SrcNode:358,SrcNodePort:result"];
	NodeConstantDouble361 -> NodeSub362[color="/dark28/3" photon_data="EDGE,SrcNode:361,SrcNodePort:value"];
	NodeDiv360 -> NodeSub362[color="/dark28/4" photon_data="EDGE,SrcNode:360,SrcNodePort:result"];
	NodeConstantDouble364 -> NodeSub365[color="/dark28/5" photon_data="EDGE,SrcNode:364,SrcNodePort:value"];
	NodeSub362 -> NodeSub365[color="/dark28/6" photon_data="EDGE,SrcNode:362,SrcNodePort:result"];
	NodeSub365 -> NodeMul366[color="/dark28/7" photon_data="EDGE,SrcNode:365,SrcNodePort:result"];
	NodeMux23 -> NodeMul366[color="/dark28/8" photon_data="EDGE,SrcNode:23,SrcNodePort:result"];
	NodeMul366 -> NodeMul367[color="/dark28/1" photon_data="EDGE,SrcNode:366,SrcNodePort:result"];
	NodeMux23 -> NodeMul367[color="/dark28/2" photon_data="EDGE,SrcNode:23,SrcNodePort:result"];
	NodeMul367 -> NodeMul369[color="/dark28/3" photon_data="EDGE,SrcNode:367,SrcNodePort:result"];
	NodeConstantDouble368 -> NodeMul369[color="/dark28/4" photon_data="EDGE,SrcNode:368,SrcNodePort:value"];
	NodeSub371 -> NodeMul372[color="/dark28/5" photon_data="EDGE,SrcNode:371,SrcNodePort:result"];
	NodeMul369 -> NodeMul372[color="/dark28/6" photon_data="EDGE,SrcNode:369,SrcNodePort:result"];
	NodeMul372 -> NodeSub604[color="/dark28/7" photon_data="EDGE,SrcNode:372,SrcNodePort:result"];
	NodeMux23 -> NodeSub604[color="/dark28/8" photon_data="EDGE,SrcNode:23,SrcNodePort:result"];
	NodeSub604 -> NodeMul379[color="/dark28/1" photon_data="EDGE,SrcNode:604,SrcNodePort:result"];
	NodeConstantRawBits2 -> NodeMul379[color="/dark28/2" photon_data="EDGE,SrcNode:2,SrcNodePort:value"];
	NodeCast19 -> NodeMul381[color="/dark28/3" photon_data="EDGE,SrcNode:19,SrcNodePort:o"];
	NodeMul379 -> NodeMul381[color="/dark28/4" photon_data="EDGE,SrcNode:379,SrcNodePort:result"];
	NodeMux23 -> NodeAdd382[color="/dark28/5" photon_data="EDGE,SrcNode:23,SrcNodePort:result"];
	NodeMul381 -> NodeAdd382[color="/dark28/6" photon_data="EDGE,SrcNode:381,SrcNodePort:result"];
	NodeAdd382 -> NodeStreamOffset385[color="/dark28/7" photon_data="EDGE,SrcNode:382,SrcNodePort:result"];
	NodeEvalStreamOffset13 -> NodeSub390[color="/dark28/8" photon_data="EDGE,SrcNode:13,SrcNodePort:output"];
	NodeConstantDouble389 -> NodeSub390[color="/dark28/1" photon_data="EDGE,SrcNode:389,SrcNodePort:value"];
	NodeCounter17 -> NodeEqInlined605[color="/dark28/2" photon_data="EDGE,SrcNode:17,SrcNodePort:count"];
	NodeSub390 -> NodeEqInlined605[color="/dark28/3" photon_data="EDGE,SrcNode:390,SrcNodePort:result"];
	NodeEqInlined605 -> NodeOutput395[headport="w" color="/dark28/4" ];
	NodeAdd382 -> NodeOutput395[color="/dark28/5" photon_data="EDGE,SrcNode:382,SrcNodePort:result"];
	NodeEvalStreamOffset13 -> NodeSub397[color="/dark28/6" photon_data="EDGE,SrcNode:13,SrcNodePort:output"];
	NodeConstantDouble396 -> NodeSub397[color="/dark28/7" photon_data="EDGE,SrcNode:396,SrcNodePort:value"];
	NodeCounter17 -> NodeEqInlined606[color="/dark28/8" photon_data="EDGE,SrcNode:17,SrcNodePort:count"];
	NodeSub397 -> NodeEqInlined606[color="/dark28/1" photon_data="EDGE,SrcNode:397,SrcNodePort:result"];
	NodeEqInlined606 -> NodeOutput402[headport="w" color="/dark28/2" ];
	NodeAdd384 -> NodeOutput402[color="/dark28/3" photon_data="EDGE,SrcNode:384,SrcNodePort:result"];
}
