digraph KarmaDFEKernel_validated_fifos{
	NodeConstantRawBits844 [shape=box, label="1.0\nID: 844"];
	NodeConstantRawBits14 [shape=box, label="1.0\nID: 14"];
	NodeEvalStreamOffset13 [label="EvalStreamOffset(loopLength)\nID: 13"];
	NodeCounter17 [shape=hexagon, label="cnt\nID: 17"];
	NodeInputMappedReg15 [shape=box, peripheries=2, label="num_iteration\nID: 15"];
	NodeCounter16 [shape=hexagon, label="cnt\nID: 16"];
	NodeConstantDouble20 [shape=box, label="0.0\nID: 20"];
	NodeEqInlined531 [label="==\nID: 531"];
	NodeInputMappedReg18 [shape=box, peripheries=2, label="dt\nID: 18"];
	NodeCast19 [label="{HWFloat:8, 48}\nID: 19"];
	NodeConstantRawBits6 [shape=box, label="0.8000000000000007\nID: 6"];
	NodeConstantDouble24 [shape=box, label="0.0\nID: 24"];
	NodeEqInlined532 [label="==\nID: 532"];
	NodeConstantDouble491 [shape=box, label="1.428554778\nID: 491"];
	NodeConstantRawBits5 [shape=box, label="1.0\nID: 5"];
	NodeGt489 [label=">\nID: 489"];
	NodeCast490 [label="{HWFloat:8, 48}\nID: 490"];
	NodeMul492 [label="*\nID: 492"];
	NodeSub493 [label="-\nID: 493"];
	NodeConstantRawBits3 [shape=box, label="0.0040000000000000036\nID: 3"];
	NodeMul495 [label="*\nID: 495"];
	NodeMul498 [label="*\nID: 498"];
	NodeAdd499 [label="+\nID: 499"];
	NodeStreamOffset845 [shape=diamond, label="-loopLength\nID: 845"];
	NodeConstantRawBits26 [shape=box, label="0.0\nID: 26"];
	NodeMux27 [shape=invtrapezium, height=0.5, label="MUX\nID: 27"];
	NodeMul32 [label="*\nID: 32"];
	NodeMul33 [label="*\nID: 33"];
	NodeMul34 [label="*\nID: 34"];
	NodeMul35 [label="*\nID: 35"];
	NodeSub486 [label="-\nID: 486"];
	NodeConstantDouble479 [shape=box, label="1.0\nID: 479"];
	NodeConstantDouble476 [shape=box, label="1.0\nID: 476"];
	NodeConstantDouble474 [shape=box, label="2.0\nID: 474"];
	NodeSlice455 [label="[54:47]\nID: 455"];
	NodeConstantRawBits456 [shape=box, label="0xff\nID: 456"];
	NodeEqInlined533 [label="==\nID: 533"];
	NodeSlice454 [label="[46:0]\nID: 454"];
	NodeConstantDouble458 [shape=box, label="0.0\nID: 458"];
	NodeNeqInlined534 [label="!=\nID: 534"];
	NodeAnd460 [label="&\nID: 460"];
	NodeSlice44 [label="[1:1]\nID: 44"];
	NodeReinterpret45 [label="<{HWOffsetFix:1, 0, UNSIGNED}>\nID: 45"];
	NodeConstantRawBits46 [shape=box, label="512.0\nID: 46"];
	NodeSlice535 [label="[60:60]\nID: 535"];
	NodeNot536 [label="~\nID: 536"];
	NodeCat596 [label="@\nID: 596"];
	NodeReinterpret109 [label="<{HWOffsetFix:61, -51, TWOSCOMPLEMENT}>\nID: 109"];
	NodeXor110 [label="^\nID: 110"];
	NodeMux111 [shape=invtrapezium, height=0.5, label="MUX\nID: 111"];
	NodeConstantRawBits114 [shape=box, label="1.4426950408889634\nID: 114"];
	NodeMul113 [label="*\nID: 113"];
	NodeConstantRawBits116 [shape=box, label="1024.0\nID: 116"];
	NodeSlice597 [label="[112:112]\nID: 597"];
	NodeNot598 [label="~\nID: 598"];
	NodeCat710 [label="@\nID: 710"];
	NodeReinterpret231 [label="<{HWOffsetFix:113, -102, TWOSCOMPLEMENT}>\nID: 231"];
	NodeXor232 [label="^\nID: 232"];
	NodeMux233 [shape=invtrapezium, height=0.5, label="MUX\nID: 233"];
	NodeCast234 [label="{HWOffsetFix:61, -51, TWOSCOMPLEMENT}\nID: 234"];
	NodeConstantRawBits236 [shape=box, label="512.0\nID: 236"];
	NodeSlice711 [label="[60:60]\nID: 711"];
	NodeNot712 [label="~\nID: 712"];
	NodeCat772 [label="@\nID: 772"];
	NodeReinterpret299 [label="<{HWOffsetFix:61, -51, TWOSCOMPLEMENT}>\nID: 299"];
	NodeXor300 [label="^\nID: 300"];
	NodeMux301 [shape=invtrapezium, height=0.5, label="MUX\nID: 301"];
	NodeDoubtBitOp310 [label="DoubtBitOp(REMOVE_DOUBT)\nID: 310"];
	NodeCast311 [label="{HWOffsetFix:10, 0, TWOSCOMPLEMENT}\nID: 311"];
	NodeCast374 [label="{HWOffsetFix:11, 0, TWOSCOMPLEMENT}\nID: 374"];
	NodeConstantDouble375 [shape=box, label="127.0\nID: 375"];
	NodeAdd376 [label="+\nID: 376"];
	NodeConstantRawBits378 [shape=box, label="1023.0\nID: 378"];
	NodeSlice773 [label="[10:10]\nID: 773"];
	NodeNot774 [label="~\nID: 774"];
	NodeCat784 [label="@\nID: 784"];
	NodeReinterpret391 [label="<{HWOffsetFix:11, 0, TWOSCOMPLEMENT}>\nID: 391"];
	NodeXor392 [label="^\nID: 392"];
	NodeMux393 [shape=invtrapezium, height=0.5, label="MUX\nID: 393"];
	NodeConstantRawBits394 [shape=box, label="1.0\nID: 394"];
	NodeCast314 [label="{HWOffsetFix:10, -25, UNSIGNED}\nID: 314"];
	NodeReinterpret470 [label="<{HWOffsetFix:10, 0, UNSIGNED}>\nID: 470"];
	NodeROM471 [label="ROM\nID: 471"];
	NodeCast313 [label="{HWOffsetFix:10, -15, UNSIGNED}\nID: 313"];
	NodeReinterpret467 [label="<{HWOffsetFix:10, 0, UNSIGNED}>\nID: 467"];
	NodeROM468 [label="ROM\nID: 468"];
	NodeCast312 [label="{HWOffsetFix:5, -5, UNSIGNED}\nID: 312"];
	NodeReinterpret464 [label="<{HWOffsetFix:5, 0, UNSIGNED}>\nID: 464"];
	NodeROM465 [label="ROM\nID: 465"];
	NodeConstantRawBits318 [shape=box, label="0.6931471824645996\nID: 318"];
	NodeCast315 [label="{HWOffsetFix:26, -51, UNSIGNED}\nID: 315"];
	NodeMul317 [label="*\nID: 317"];
	NodeCast319 [label="{HWOffsetFix:26, -51, UNSIGNED}\nID: 319"];
	NodeConstantRawBits321 [shape=box, label="2.9802321943606103E-8\nID: 321"];
	NodeMux322 [shape=invtrapezium, height=0.5, label="MUX\nID: 322"];
	NodeAdd323 [label="+\nID: 323"];
	NodeMul324 [label="*\nID: 324"];
	NodeConstantRawBits326 [shape=box, label="2.9802322387695312E-8\nID: 326"];
	NodeMux327 [shape=invtrapezium, height=0.5, label="MUX\nID: 327"];
	NodeAdd328 [label="+\nID: 328"];
	NodeConstantRawBits330 [shape=box, label="2.0\nID: 330"];
	NodeMux331 [shape=invtrapezium, height=0.5, label="MUX\nID: 331"];
	NodeCast332 [label="{HWOffsetFix:52, -51, UNSIGNED}\nID: 332"];
	NodeConstantRawBits334 [shape=box, label="1.9999999999999996\nID: 334"];
	NodeMux335 [shape=invtrapezium, height=0.5, label="MUX\nID: 335"];
	NodeAdd336 [label="+\nID: 336"];
	NodeMul337 [label="*\nID: 337"];
	NodeConstantRawBits339 [shape=box, label="0.0625\nID: 339"];
	NodeMux340 [shape=invtrapezium, height=0.5, label="MUX\nID: 340"];
	NodeAdd341 [label="+\nID: 341"];
	NodeConstantRawBits343 [shape=box, label="4.0\nID: 343"];
	NodeMux344 [shape=invtrapezium, height=0.5, label="MUX\nID: 344"];
	NodeCast345 [label="{HWOffsetFix:53, -51, UNSIGNED}\nID: 345"];
	NodeConstantRawBits347 [shape=box, label="3.9999999999999996\nID: 347"];
	NodeMux348 [shape=invtrapezium, height=0.5, label="MUX\nID: 348"];
	NodeAdd349 [label="+\nID: 349"];
	NodeMul350 [label="*\nID: 350"];
	NodeConstantRawBits352 [shape=box, label="1.220703125E-4\nID: 352"];
	NodeMux353 [shape=invtrapezium, height=0.5, label="MUX\nID: 353"];
	NodeAdd354 [label="+\nID: 354"];
	NodeConstantRawBits356 [shape=box, label="8.0\nID: 356"];
	NodeMux357 [shape=invtrapezium, height=0.5, label="MUX\nID: 357"];
	NodeCast358 [label="{HWOffsetFix:54, -51, UNSIGNED}\nID: 358"];
	NodeConstantRawBits360 [shape=box, label="8.0\nID: 360"];
	NodeMux361 [shape=invtrapezium, height=0.5, label="MUX\nID: 361"];
	NodeCast362 [label="{HWOffsetFix:48, -47, UNSIGNED}\nID: 362"];
	NodeConstantRawBits364 [shape=box, label="1.999999999999993\nID: 364"];
	NodeMux365 [shape=invtrapezium, height=0.5, label="MUX\nID: 365"];
	NodeConstantDouble366 [shape=box, label="1.0\nID: 366"];
	NodeGteInlined785 [label=">=\nID: 785"];
	NodeCondAdd815 [label="+/0\nID: 815"];
	NodeConstantRawBits399 [shape=box, label="1023.0\nID: 399"];
	NodeSlice786 [label="[10:10]\nID: 786"];
	NodeNot787 [label="~\nID: 787"];
	NodeCat797 [label="@\nID: 797"];
	NodeReinterpret412 [label="<{HWOffsetFix:11, 0, TWOSCOMPLEMENT}>\nID: 412"];
	NodeXor413 [label="^\nID: 413"];
	NodeMux414 [shape=invtrapezium, height=0.5, label="MUX\nID: 414"];
	NodeSlice798 [label="[10:10]\nID: 798"];
	NodeReinterpret799 [label="<{HWOffsetFix:1, 0, UNSIGNED}>\nID: 799"];
	NodeConstantDouble302 [shape=box, label="0.0\nID: 302"];
	NodeGt303 [label=">\nID: 303"];
	NodeDoubtBitOp304 [label="DoubtBitOp(GET_DOUBT)\nID: 304"];
	NodeAnd305 [label="&\nID: 305"];
	NodeNot417 [label="~\nID: 417"];
	NodeAnd418 [label="&\nID: 418"];
	NodeConstantDouble306 [shape=box, label="0.0\nID: 306"];
	NodeLt307 [label="<\nID: 307"];
	NodeDoubtBitOp308 [label="DoubtBitOp(GET_DOUBT)\nID: 308"];
	NodeAnd309 [label="&\nID: 309"];
	NodeOr419 [label="|\nID: 419"];
	NodeConstantDouble438 [shape=box, label="255.0\nID: 438"];
	NodeGteInlined800 [label=">=\nID: 800"];
	NodeNot440 [label="~\nID: 440"];
	NodeAnd441 [label="&\nID: 441"];
	NodeOr442 [label="|\nID: 442"];
	NodeCat443 [label="@\nID: 443"];
	NodeConstantRawBits435 [shape=box, label="0.0\nID: 435"];
	NodeCast420 [label="{HWOffsetFix:8, 0, TWOSCOMPLEMENT}\nID: 420"];
	NodeConstantRawBits422 [shape=box, label="127.0\nID: 422"];
	NodeSlice801 [label="[7:7]\nID: 801"];
	NodeNot802 [label="~\nID: 802"];
	NodeCat809 [label="@\nID: 809"];
	NodeReinterpret432 [label="<{HWOffsetFix:8, 0, TWOSCOMPLEMENT}>\nID: 432"];
	NodeXor433 [label="^\nID: 433"];
	NodeMux434 [shape=invtrapezium, height=0.5, label="MUX\nID: 434"];
	NodeConstantRawBits368 [shape=box, label="0.0\nID: 368"];
	NodeMux369 [shape=invtrapezium, height=0.5, label="MUX\nID: 369"];
	NodeCast370 [label="{HWOffsetFix:47, -47, UNSIGNED}\nID: 370"];
	NodeConstantRawBits372 [shape=box, label="0.9999999999999929\nID: 372"];
	NodeMux373 [shape=invtrapezium, height=0.5, label="MUX\nID: 373"];
	NodeCat436 [label="@\nID: 436"];
	NodeReinterpret437 [label="<{HWFloat:8, 48}>\nID: 437"];
	NodeConstantRawBits444 [shape=box, label="0.0\nID: 444"];
	NodeConstantRawBits445 [shape=box, label="255.0\nID: 445"];
	NodeConstantRawBits447 [shape=box, label="0.0\nID: 447"];
	NodeCat810 [label="@\nID: 810"];
	NodeReinterpret449 [label="<{HWFloat:8, 48}>\nID: 449"];
	NodeConstantRawBits530 [shape=box, label="0.0\nID: 530"];
	NodeMux452 [shape=invtrapezium, height=0.5, label="MUX\nID: 452"];
	NodeConstantDouble461 [shape=box, label="NaN\nID: 461"];
	NodeMux462 [shape=invtrapezium, height=0.5, label="MUX\nID: 462"];
	NodeConstantDouble472 [shape=box, label="1.0\nID: 472"];
	NodeAdd473 [label="+\nID: 473"];
	NodeDiv475 [label="/\nID: 475"];
	NodeSub477 [label="-\nID: 477"];
	NodeSub480 [label="-\nID: 480"];
	NodeMul481 [label="*\nID: 481"];
	NodeMul482 [label="*\nID: 482"];
	NodePO2FPMult817 [label="PO2FPMult_N-1\nID: 817"];
	NodeMul487 [label="*\nID: 487"];
	NodeSub811 [label="-\nID: 811"];
	NodeConstantRawBits2 [shape=box, label="0.40000000000000036\nID: 2"];
	NodeMul494 [label="*\nID: 494"];
	NodeMul496 [label="*\nID: 496"];
	NodeAdd497 [label="+\nID: 497"];
	NodeStreamOffset846 [shape=diamond, label="-loopLength\nID: 846"];
	NodeConstantRawBits22 [shape=box, label="1.5\nID: 22"];
	NodeMux23 [shape=invtrapezium, height=0.5, label="MUX\nID: 23"];
	NodeConstantRawBits4 [shape=box, label="3.0\nID: 4"];
	NodeSub38 [label="-\nID: 38"];
	NodePO2FPMult816 [label="PO2FPMult_N1\nID: 816"];
	NodeConstantRawBits41 [shape=box, label="0.0\nID: 41"];
	NodeDoubtBitOp42 [label="DoubtBitOp(ADD_DOUBT)\nID: 42"];
	NodeCast43 [label="{HWOffsetFix:61, -51, TWOSCOMPLEMENT}\nID: 43"];
	NodeExceptionMask821 [label="NodeExceptionMask\nID: 821"];
	NodeExceptionMask822 [label="NodeExceptionMask\nID: 822"];
	NodeExceptionMask823 [label="NodeExceptionMask\nID: 823"];
	NodeExceptionMask825 [label="NodeExceptionMask\nID: 825"];
	NodeExceptionMask826 [label="NodeExceptionMask\nID: 826"];
	NodeExceptionMask827 [label="NodeExceptionMask\nID: 827"];
	NodeExceptionMask828 [label="NodeExceptionMask\nID: 828"];
	NodeExceptionMask829 [label="NodeExceptionMask\nID: 829"];
	NodeExceptionMask830 [label="NodeExceptionMask\nID: 830"];
	NodeExceptionMask831 [label="NodeExceptionMask\nID: 831"];
	NodeExceptionMask832 [label="NodeExceptionMask\nID: 832"];
	NodeExceptionMask833 [label="NodeExceptionMask\nID: 833"];
	NodeExceptionMask834 [label="NodeExceptionMask\nID: 834"];
	NodeExceptionMask835 [label="NodeExceptionMask\nID: 835"];
	NodeExceptionMask838 [label="NodeExceptionMask\nID: 838"];
	NodeExceptionMask824 [label="NodeExceptionMask\nID: 824"];
	NodeExceptionMask837 [label="NodeExceptionMask\nID: 837"];
	NodeExceptionMask839 [label="NodeExceptionMask\nID: 839"];
	NodeExceptionMask840 [label="NodeExceptionMask\nID: 840"];
	NodeExceptionMask841 [label="NodeExceptionMask\nID: 841"];
	NodeExceptionMask836 [label="NodeExceptionMask\nID: 836"];
	NodeExceptionMask820 [label="NodeExceptionMask\nID: 820"];
	NodeNumericExceptionsSim842 [label="NodeNumericExceptionsSim\nID: 842"];
	NodeOutputMappedReg843 [label="Scalar output (all_numeric_exceptions)\nID: 843"];
	NodeConstantDouble504 [shape=box, label="1.0\nID: 504"];
	NodeSub505 [label="-\nID: 505"];
	NodeEqInlined812 [label="==\nID: 812"];
	NodeCast502 [label="{HWFloat:11, 53}\nID: 502"];
	NodeOutput510 [shape=house, label="u_out\nID: 510"];
	NodeConstantDouble511 [shape=box, label="1.0\nID: 511"];
	NodeSub512 [label="-\nID: 512"];
	NodeEqInlined813 [label="==\nID: 813"];
	NodeCast503 [label="{HWFloat:11, 53}\nID: 503"];
	NodeOutput517 [shape=house, label="v_out\nID: 517"];
	NodeConstantRawBits14 -> NodeCounter17[label="enable" color="/dark28/1" photon_data="EDGE,SrcNode:14,SrcNodePort:value"];
	NodeEvalStreamOffset13 -> NodeCounter17[label="max" color="/dark28/2" photon_data="EDGE,SrcNode:13,SrcNodePort:output"];
	NodeCounter17 -> NodeCounter16[label="enable" color="/dark28/3" photon_data="EDGE,SrcNode:17,SrcNodePort:wrap"];
	NodeInputMappedReg15 -> NodeCounter16[label="max" color="/dark28/4" photon_data="EDGE,SrcNode:15,SrcNodePort:num_iteration"];
	NodeCounter16 -> NodeEqInlined531[color="/dark28/5" photon_data="EDGE,SrcNode:16,SrcNodePort:count"];
	NodeConstantDouble20 -> NodeEqInlined531[color="/dark28/6" photon_data="EDGE,SrcNode:20,SrcNodePort:value"];
	NodeInputMappedReg18 -> NodeCast19[color="/dark28/7" photon_data="EDGE,SrcNode:18,SrcNodePort:dt"];
	NodeCounter16 -> NodeEqInlined532[color="/dark28/8" photon_data="EDGE,SrcNode:16,SrcNodePort:count"];
	NodeConstantDouble24 -> NodeEqInlined532[color="/dark28/1" photon_data="EDGE,SrcNode:24,SrcNodePort:value"];
	NodeMux23 -> NodeGt489[headport="n" tailport="s" color=red photon_data="EDGE,SrcNode:23,SrcNodePort:result"];
	NodeConstantRawBits5 -> NodeGt489[color="/dark28/2" photon_data="EDGE,SrcNode:5,SrcNodePort:value"];
	NodeGt489 -> NodeCast490[color="/dark28/3" photon_data="EDGE,SrcNode:489,SrcNodePort:result"];
	NodeConstantDouble491 -> NodeMul492[color="/dark28/4" photon_data="EDGE,SrcNode:491,SrcNodePort:value"];
	NodeCast490 -> NodeMul492[color="/dark28/5" photon_data="EDGE,SrcNode:490,SrcNodePort:o"];
	NodeMul492 -> NodeSub493[color="/dark28/6" photon_data="EDGE,SrcNode:492,SrcNodePort:result"];
	NodeMux27 -> NodeSub493[headport="n" tailport="s" color=red photon_data="EDGE,SrcNode:27,SrcNodePort:result"];
	NodeSub493 -> NodeMul495[color="/dark28/7" photon_data="EDGE,SrcNode:493,SrcNodePort:result"];
	NodeConstantRawBits3 -> NodeMul495[color="/dark28/8" photon_data="EDGE,SrcNode:3,SrcNodePort:value"];
	NodeCast19 -> NodeMul498[color="/dark28/1" photon_data="EDGE,SrcNode:19,SrcNodePort:o"];
	NodeMul495 -> NodeMul498[color="/dark28/2" photon_data="EDGE,SrcNode:495,SrcNodePort:result"];
	NodeMux27 -> NodeAdd499[headport="n" tailport="s" color=red photon_data="EDGE,SrcNode:27,SrcNodePort:result"];
	NodeMul498 -> NodeAdd499[color="/dark28/3" photon_data="EDGE,SrcNode:498,SrcNodePort:result"];
	NodeAdd499 -> NodeStreamOffset845[color="/dark28/4" photon_data="EDGE,SrcNode:499,SrcNodePort:result"];
	NodeEqInlined532 -> NodeMux27[headport="w" color="/dark28/5" photon_data="EDGE,SrcNode:532,SrcNodePort:result"];
	NodeStreamOffset845 -> NodeMux27[color="/dark28/6" photon_data="EDGE,SrcNode:845,SrcNodePort:output"];
	NodeConstantRawBits26 -> NodeMux27[color="/dark28/7" photon_data="EDGE,SrcNode:26,SrcNodePort:value"];
	NodeMux27 -> NodeMul32[color="/dark28/8" photon_data="EDGE,SrcNode:27,SrcNodePort:result"];
	NodeMux27 -> NodeMul32[color="/dark28/1" photon_data="EDGE,SrcNode:27,SrcNodePort:result"];
	NodeMux27 -> NodeMul33[color="/dark28/2" photon_data="EDGE,SrcNode:27,SrcNodePort:result"];
	NodeMul32 -> NodeMul33[color="/dark28/3" photon_data="EDGE,SrcNode:32,SrcNodePort:result"];
	NodeMul33 -> NodeMul34[color="/dark28/4" photon_data="EDGE,SrcNode:33,SrcNodePort:result"];
	NodeMul32 -> NodeMul34[color="/dark28/5" photon_data="EDGE,SrcNode:32,SrcNodePort:result"];
	NodeMul34 -> NodeMul35[color="/dark28/6" photon_data="EDGE,SrcNode:34,SrcNodePort:result"];
	NodeMul34 -> NodeMul35[color="/dark28/7" photon_data="EDGE,SrcNode:34,SrcNodePort:result"];
	NodeConstantRawBits6 -> NodeSub486[color="/dark28/8" photon_data="EDGE,SrcNode:6,SrcNodePort:value"];
	NodeMul35 -> NodeSub486[color="/dark28/1" photon_data="EDGE,SrcNode:35,SrcNodePort:result"];
	NodePO2FPMult816 -> NodeSlice455[headport="n" tailport="s" color=red photon_data="EDGE,SrcNode:816,SrcNodePort:floatOut"];
	NodeSlice455 -> NodeEqInlined533[color="/dark28/2" photon_data="EDGE,SrcNode:455,SrcNodePort:result"];
	NodeConstantRawBits456 -> NodeEqInlined533[color="/dark28/3" photon_data="EDGE,SrcNode:456,SrcNodePort:value"];
	NodePO2FPMult816 -> NodeSlice454[headport="n" tailport="s" color=red photon_data="EDGE,SrcNode:816,SrcNodePort:floatOut"];
	NodeSlice454 -> NodeNeqInlined534[color="/dark28/4" photon_data="EDGE,SrcNode:454,SrcNodePort:result"];
	NodeConstantDouble458 -> NodeNeqInlined534[color="/dark28/5" photon_data="EDGE,SrcNode:458,SrcNodePort:value"];
	NodeEqInlined533 -> NodeAnd460[color="/dark28/6" photon_data="EDGE,SrcNode:533,SrcNodePort:result"];
	NodeNeqInlined534 -> NodeAnd460[color="/dark28/7" photon_data="EDGE,SrcNode:534,SrcNodePort:result"];
	NodeCast43 -> NodeSlice44[headport="n" tailport="s" color=red photon_data="EDGE,SrcNode:43,SrcNodePort:exception"];
	NodeSlice44 -> NodeReinterpret45[color="/dark28/8" photon_data="EDGE,SrcNode:44,SrcNodePort:result"];
	NodeCast43 -> NodeSlice535[headport="n" tailport="s" color=red style=dashed photon_data="EDGE,SrcNode:43,SrcNodePort:o"];
	NodeSlice535 -> NodeNot536[color="/dark28/1" style=dashed photon_data="EDGE,SrcNode:535,SrcNodePort:result"];
	NodeNot536 -> NodeCat596[color="/dark28/2" style=dashed photon_data="EDGE,SrcNode:536,SrcNodePort:result"];
	NodeNot536 -> NodeCat596[color="/dark28/3" style=dashed photon_data="EDGE,SrcNode:536,SrcNodePort:result"];
	NodeNot536 -> NodeCat596[color="/dark28/4" style=dashed photon_data="EDGE,SrcNode:536,SrcNodePort:result"];
	NodeNot536 -> NodeCat596[color="/dark28/5" style=dashed photon_data="EDGE,SrcNode:536,SrcNodePort:result"];
	NodeNot536 -> NodeCat596[color="/dark28/6" style=dashed photon_data="EDGE,SrcNode:536,SrcNodePort:result"];
	NodeNot536 -> NodeCat596[color="/dark28/7" style=dashed photon_data="EDGE,SrcNode:536,SrcNodePort:result"];
	NodeNot536 -> NodeCat596[color="/dark28/8" style=dashed photon_data="EDGE,SrcNode:536,SrcNodePort:result"];
	NodeNot536 -> NodeCat596[color="/dark28/1" style=dashed photon_data="EDGE,SrcNode:536,SrcNodePort:result"];
	NodeNot536 -> NodeCat596[color="/dark28/2" style=dashed photon_data="EDGE,SrcNode:536,SrcNodePort:result"];
	NodeNot536 -> NodeCat596[color="/dark28/3" style=dashed photon_data="EDGE,SrcNode:536,SrcNodePort:result"];
	NodeNot536 -> NodeCat596[color="/dark28/4" style=dashed photon_data="EDGE,SrcNode:536,SrcNodePort:result"];
	NodeNot536 -> NodeCat596[color="/dark28/5" style=dashed photon_data="EDGE,SrcNode:536,SrcNodePort:result"];
	NodeNot536 -> NodeCat596[color="/dark28/6" style=dashed photon_data="EDGE,SrcNode:536,SrcNodePort:result"];
	NodeNot536 -> NodeCat596[color="/dark28/7" style=dashed photon_data="EDGE,SrcNode:536,SrcNodePort:result"];
	NodeNot536 -> NodeCat596[color="/dark28/8" style=dashed photon_data="EDGE,SrcNode:536,SrcNodePort:result"];
	NodeNot536 -> NodeCat596[color="/dark28/1" style=dashed photon_data="EDGE,SrcNode:536,SrcNodePort:result"];
	NodeNot536 -> NodeCat596[color="/dark28/2" style=dashed photon_data="EDGE,SrcNode:536,SrcNodePort:result"];
	NodeNot536 -> NodeCat596[color="/dark28/3" style=dashed photon_data="EDGE,SrcNode:536,SrcNodePort:result"];
	NodeNot536 -> NodeCat596[color="/dark28/4" style=dashed photon_data="EDGE,SrcNode:536,SrcNodePort:result"];
	NodeNot536 -> NodeCat596[color="/dark28/5" style=dashed photon_data="EDGE,SrcNode:536,SrcNodePort:result"];
	NodeNot536 -> NodeCat596[color="/dark28/6" style=dashed photon_data="EDGE,SrcNode:536,SrcNodePort:result"];
	NodeNot536 -> NodeCat596[color="/dark28/7" style=dashed photon_data="EDGE,SrcNode:536,SrcNodePort:result"];
	NodeNot536 -> NodeCat596[color="/dark28/8" style=dashed photon_data="EDGE,SrcNode:536,SrcNodePort:result"];
	NodeNot536 -> NodeCat596[color="/dark28/1" style=dashed photon_data="EDGE,SrcNode:536,SrcNodePort:result"];
	NodeNot536 -> NodeCat596[color="/dark28/2" style=dashed photon_data="EDGE,SrcNode:536,SrcNodePort:result"];
	NodeNot536 -> NodeCat596[color="/dark28/3" style=dashed photon_data="EDGE,SrcNode:536,SrcNodePort:result"];
	NodeNot536 -> NodeCat596[color="/dark28/4" style=dashed photon_data="EDGE,SrcNode:536,SrcNodePort:result"];
	NodeNot536 -> NodeCat596[color="/dark28/5" style=dashed photon_data="EDGE,SrcNode:536,SrcNodePort:result"];
	NodeNot536 -> NodeCat596[color="/dark28/6" style=dashed photon_data="EDGE,SrcNode:536,SrcNodePort:result"];
	NodeNot536 -> NodeCat596[color="/dark28/7" style=dashed photon_data="EDGE,SrcNode:536,SrcNodePort:result"];
	NodeNot536 -> NodeCat596[color="/dark28/8" style=dashed photon_data="EDGE,SrcNode:536,SrcNodePort:result"];
	NodeNot536 -> NodeCat596[color="/dark28/1" style=dashed photon_data="EDGE,SrcNode:536,SrcNodePort:result"];
	NodeNot536 -> NodeCat596[color="/dark28/2" style=dashed photon_data="EDGE,SrcNode:536,SrcNodePort:result"];
	NodeNot536 -> NodeCat596[color="/dark28/3" style=dashed photon_data="EDGE,SrcNode:536,SrcNodePort:result"];
	NodeNot536 -> NodeCat596[color="/dark28/4" style=dashed photon_data="EDGE,SrcNode:536,SrcNodePort:result"];
	NodeNot536 -> NodeCat596[color="/dark28/5" style=dashed photon_data="EDGE,SrcNode:536,SrcNodePort:result"];
	NodeNot536 -> NodeCat596[color="/dark28/6" style=dashed photon_data="EDGE,SrcNode:536,SrcNodePort:result"];
	NodeNot536 -> NodeCat596[color="/dark28/7" style=dashed photon_data="EDGE,SrcNode:536,SrcNodePort:result"];
	NodeNot536 -> NodeCat596[color="/dark28/8" style=dashed photon_data="EDGE,SrcNode:536,SrcNodePort:result"];
	NodeNot536 -> NodeCat596[color="/dark28/1" style=dashed photon_data="EDGE,SrcNode:536,SrcNodePort:result"];
	NodeNot536 -> NodeCat596[color="/dark28/2" style=dashed photon_data="EDGE,SrcNode:536,SrcNodePort:result"];
	NodeNot536 -> NodeCat596[color="/dark28/3" style=dashed photon_data="EDGE,SrcNode:536,SrcNodePort:result"];
	NodeNot536 -> NodeCat596[color="/dark28/4" style=dashed photon_data="EDGE,SrcNode:536,SrcNodePort:result"];
	NodeNot536 -> NodeCat596[color="/dark28/5" style=dashed photon_data="EDGE,SrcNode:536,SrcNodePort:result"];
	NodeNot536 -> NodeCat596[color="/dark28/6" style=dashed photon_data="EDGE,SrcNode:536,SrcNodePort:result"];
	NodeNot536 -> NodeCat596[color="/dark28/7" style=dashed photon_data="EDGE,SrcNode:536,SrcNodePort:result"];
	NodeNot536 -> NodeCat596[color="/dark28/8" style=dashed photon_data="EDGE,SrcNode:536,SrcNodePort:result"];
	NodeNot536 -> NodeCat596[color="/dark28/1" style=dashed photon_data="EDGE,SrcNode:536,SrcNodePort:result"];
	NodeNot536 -> NodeCat596[color="/dark28/2" style=dashed photon_data="EDGE,SrcNode:536,SrcNodePort:result"];
	NodeNot536 -> NodeCat596[color="/dark28/3" style=dashed photon_data="EDGE,SrcNode:536,SrcNodePort:result"];
	NodeNot536 -> NodeCat596[color="/dark28/4" style=dashed photon_data="EDGE,SrcNode:536,SrcNodePort:result"];
	NodeNot536 -> NodeCat596[color="/dark28/5" style=dashed photon_data="EDGE,SrcNode:536,SrcNodePort:result"];
	NodeNot536 -> NodeCat596[color="/dark28/6" style=dashed photon_data="EDGE,SrcNode:536,SrcNodePort:result"];
	NodeNot536 -> NodeCat596[color="/dark28/7" style=dashed photon_data="EDGE,SrcNode:536,SrcNodePort:result"];
	NodeNot536 -> NodeCat596[color="/dark28/8" style=dashed photon_data="EDGE,SrcNode:536,SrcNodePort:result"];
	NodeNot536 -> NodeCat596[color="/dark28/1" style=dashed photon_data="EDGE,SrcNode:536,SrcNodePort:result"];
	NodeNot536 -> NodeCat596[color="/dark28/2" style=dashed photon_data="EDGE,SrcNode:536,SrcNodePort:result"];
	NodeNot536 -> NodeCat596[color="/dark28/3" style=dashed photon_data="EDGE,SrcNode:536,SrcNodePort:result"];
	NodeNot536 -> NodeCat596[color="/dark28/4" style=dashed photon_data="EDGE,SrcNode:536,SrcNodePort:result"];
	NodeNot536 -> NodeCat596[color="/dark28/5" style=dashed photon_data="EDGE,SrcNode:536,SrcNodePort:result"];
	NodeNot536 -> NodeCat596[color="/dark28/6" style=dashed photon_data="EDGE,SrcNode:536,SrcNodePort:result"];
	NodeCat596 -> NodeReinterpret109[color="/dark28/7" style=dashed photon_data="EDGE,SrcNode:596,SrcNodePort:result"];
	NodeConstantRawBits46 -> NodeXor110[color="/dark28/8" photon_data="EDGE,SrcNode:46,SrcNodePort:value"];
	NodeReinterpret109 -> NodeXor110[color="/dark28/1" style=dashed photon_data="EDGE,SrcNode:109,SrcNodePort:output"];
	NodeReinterpret45 -> NodeMux111[headport="w" color="/dark28/2" photon_data="EDGE,SrcNode:45,SrcNodePort:output"];
	NodeCast43 -> NodeMux111[headport="n" tailport="s" color=red style=dashed photon_data="EDGE,SrcNode:43,SrcNodePort:o"];
	NodeXor110 -> NodeMux111[color="/dark28/3" style=dashed photon_data="EDGE,SrcNode:110,SrcNodePort:result"];
	NodeMux111 -> NodeMul113[color="/dark28/4" style=dashed photon_data="EDGE,SrcNode:111,SrcNodePort:result"];
	NodeConstantRawBits114 -> NodeMul113[color="/dark28/5" photon_data="EDGE,SrcNode:114,SrcNodePort:value"];
	NodeMul113 -> NodeSlice597[color="/dark28/6" style=dashed photon_data="EDGE,SrcNode:113,SrcNodePort:result"];
	NodeSlice597 -> NodeNot598[color="/dark28/7" style=dashed photon_data="EDGE,SrcNode:597,SrcNodePort:result"];
	NodeNot598 -> NodeCat710[color="/dark28/8" style=dashed photon_data="EDGE,SrcNode:598,SrcNodePort:result"];
	NodeNot598 -> NodeCat710[color="/dark28/1" style=dashed photon_data="EDGE,SrcNode:598,SrcNodePort:result"];
	NodeNot598 -> NodeCat710[color="/dark28/2" style=dashed photon_data="EDGE,SrcNode:598,SrcNodePort:result"];
	NodeNot598 -> NodeCat710[color="/dark28/3" style=dashed photon_data="EDGE,SrcNode:598,SrcNodePort:result"];
	NodeNot598 -> NodeCat710[color="/dark28/4" style=dashed photon_data="EDGE,SrcNode:598,SrcNodePort:result"];
	NodeNot598 -> NodeCat710[color="/dark28/5" style=dashed photon_data="EDGE,SrcNode:598,SrcNodePort:result"];
	NodeNot598 -> NodeCat710[color="/dark28/6" style=dashed photon_data="EDGE,SrcNode:598,SrcNodePort:result"];
	NodeNot598 -> NodeCat710[color="/dark28/7" style=dashed photon_data="EDGE,SrcNode:598,SrcNodePort:result"];
	NodeNot598 -> NodeCat710[color="/dark28/8" style=dashed photon_data="EDGE,SrcNode:598,SrcNodePort:result"];
	NodeNot598 -> NodeCat710[color="/dark28/1" style=dashed photon_data="EDGE,SrcNode:598,SrcNodePort:result"];
	NodeNot598 -> NodeCat710[color="/dark28/2" style=dashed photon_data="EDGE,SrcNode:598,SrcNodePort:result"];
	NodeNot598 -> NodeCat710[color="/dark28/3" style=dashed photon_data="EDGE,SrcNode:598,SrcNodePort:result"];
	NodeNot598 -> NodeCat710[color="/dark28/4" style=dashed photon_data="EDGE,SrcNode:598,SrcNodePort:result"];
	NodeNot598 -> NodeCat710[color="/dark28/5" style=dashed photon_data="EDGE,SrcNode:598,SrcNodePort:result"];
	NodeNot598 -> NodeCat710[color="/dark28/6" style=dashed photon_data="EDGE,SrcNode:598,SrcNodePort:result"];
	NodeNot598 -> NodeCat710[color="/dark28/7" style=dashed photon_data="EDGE,SrcNode:598,SrcNodePort:result"];
	NodeNot598 -> NodeCat710[color="/dark28/8" style=dashed photon_data="EDGE,SrcNode:598,SrcNodePort:result"];
	NodeNot598 -> NodeCat710[color="/dark28/1" style=dashed photon_data="EDGE,SrcNode:598,SrcNodePort:result"];
	NodeNot598 -> NodeCat710[color="/dark28/2" style=dashed photon_data="EDGE,SrcNode:598,SrcNodePort:result"];
	NodeNot598 -> NodeCat710[color="/dark28/3" style=dashed photon_data="EDGE,SrcNode:598,SrcNodePort:result"];
	NodeNot598 -> NodeCat710[color="/dark28/4" style=dashed photon_data="EDGE,SrcNode:598,SrcNodePort:result"];
	NodeNot598 -> NodeCat710[color="/dark28/5" style=dashed photon_data="EDGE,SrcNode:598,SrcNodePort:result"];
	NodeNot598 -> NodeCat710[color="/dark28/6" style=dashed photon_data="EDGE,SrcNode:598,SrcNodePort:result"];
	NodeNot598 -> NodeCat710[color="/dark28/7" style=dashed photon_data="EDGE,SrcNode:598,SrcNodePort:result"];
	NodeNot598 -> NodeCat710[color="/dark28/8" style=dashed photon_data="EDGE,SrcNode:598,SrcNodePort:result"];
	NodeNot598 -> NodeCat710[color="/dark28/1" style=dashed photon_data="EDGE,SrcNode:598,SrcNodePort:result"];
	NodeNot598 -> NodeCat710[color="/dark28/2" style=dashed photon_data="EDGE,SrcNode:598,SrcNodePort:result"];
	NodeNot598 -> NodeCat710[color="/dark28/3" style=dashed photon_data="EDGE,SrcNode:598,SrcNodePort:result"];
	NodeNot598 -> NodeCat710[color="/dark28/4" style=dashed photon_data="EDGE,SrcNode:598,SrcNodePort:result"];
	NodeNot598 -> NodeCat710[color="/dark28/5" style=dashed photon_data="EDGE,SrcNode:598,SrcNodePort:result"];
	NodeNot598 -> NodeCat710[color="/dark28/6" style=dashed photon_data="EDGE,SrcNode:598,SrcNodePort:result"];
	NodeNot598 -> NodeCat710[color="/dark28/7" style=dashed photon_data="EDGE,SrcNode:598,SrcNodePort:result"];
	NodeNot598 -> NodeCat710[color="/dark28/8" style=dashed photon_data="EDGE,SrcNode:598,SrcNodePort:result"];
	NodeNot598 -> NodeCat710[color="/dark28/1" style=dashed photon_data="EDGE,SrcNode:598,SrcNodePort:result"];
	NodeNot598 -> NodeCat710[color="/dark28/2" style=dashed photon_data="EDGE,SrcNode:598,SrcNodePort:result"];
	NodeNot598 -> NodeCat710[color="/dark28/3" style=dashed photon_data="EDGE,SrcNode:598,SrcNodePort:result"];
	NodeNot598 -> NodeCat710[color="/dark28/4" style=dashed photon_data="EDGE,SrcNode:598,SrcNodePort:result"];
	NodeNot598 -> NodeCat710[color="/dark28/5" style=dashed photon_data="EDGE,SrcNode:598,SrcNodePort:result"];
	NodeNot598 -> NodeCat710[color="/dark28/6" style=dashed photon_data="EDGE,SrcNode:598,SrcNodePort:result"];
	NodeNot598 -> NodeCat710[color="/dark28/7" style=dashed photon_data="EDGE,SrcNode:598,SrcNodePort:result"];
	NodeNot598 -> NodeCat710[color="/dark28/8" style=dashed photon_data="EDGE,SrcNode:598,SrcNodePort:result"];
	NodeNot598 -> NodeCat710[color="/dark28/1" style=dashed photon_data="EDGE,SrcNode:598,SrcNodePort:result"];
	NodeNot598 -> NodeCat710[color="/dark28/2" style=dashed photon_data="EDGE,SrcNode:598,SrcNodePort:result"];
	NodeNot598 -> NodeCat710[color="/dark28/3" style=dashed photon_data="EDGE,SrcNode:598,SrcNodePort:result"];
	NodeNot598 -> NodeCat710[color="/dark28/4" style=dashed photon_data="EDGE,SrcNode:598,SrcNodePort:result"];
	NodeNot598 -> NodeCat710[color="/dark28/5" style=dashed photon_data="EDGE,SrcNode:598,SrcNodePort:result"];
	NodeNot598 -> NodeCat710[color="/dark28/6" style=dashed photon_data="EDGE,SrcNode:598,SrcNodePort:result"];
	NodeNot598 -> NodeCat710[color="/dark28/7" style=dashed photon_data="EDGE,SrcNode:598,SrcNodePort:result"];
	NodeNot598 -> NodeCat710[color="/dark28/8" style=dashed photon_data="EDGE,SrcNode:598,SrcNodePort:result"];
	NodeNot598 -> NodeCat710[color="/dark28/1" style=dashed photon_data="EDGE,SrcNode:598,SrcNodePort:result"];
	NodeNot598 -> NodeCat710[color="/dark28/2" style=dashed photon_data="EDGE,SrcNode:598,SrcNodePort:result"];
	NodeNot598 -> NodeCat710[color="/dark28/3" style=dashed photon_data="EDGE,SrcNode:598,SrcNodePort:result"];
	NodeNot598 -> NodeCat710[color="/dark28/4" style=dashed photon_data="EDGE,SrcNode:598,SrcNodePort:result"];
	NodeNot598 -> NodeCat710[color="/dark28/5" style=dashed photon_data="EDGE,SrcNode:598,SrcNodePort:result"];
	NodeNot598 -> NodeCat710[color="/dark28/6" style=dashed photon_data="EDGE,SrcNode:598,SrcNodePort:result"];
	NodeNot598 -> NodeCat710[color="/dark28/7" style=dashed photon_data="EDGE,SrcNode:598,SrcNodePort:result"];
	NodeNot598 -> NodeCat710[color="/dark28/8" style=dashed photon_data="EDGE,SrcNode:598,SrcNodePort:result"];
	NodeNot598 -> NodeCat710[color="/dark28/1" style=dashed photon_data="EDGE,SrcNode:598,SrcNodePort:result"];
	NodeNot598 -> NodeCat710[color="/dark28/2" style=dashed photon_data="EDGE,SrcNode:598,SrcNodePort:result"];
	NodeNot598 -> NodeCat710[color="/dark28/3" style=dashed photon_data="EDGE,SrcNode:598,SrcNodePort:result"];
	NodeNot598 -> NodeCat710[color="/dark28/4" style=dashed photon_data="EDGE,SrcNode:598,SrcNodePort:result"];
	NodeNot598 -> NodeCat710[color="/dark28/5" style=dashed photon_data="EDGE,SrcNode:598,SrcNodePort:result"];
	NodeNot598 -> NodeCat710[color="/dark28/6" style=dashed photon_data="EDGE,SrcNode:598,SrcNodePort:result"];
	NodeNot598 -> NodeCat710[color="/dark28/7" style=dashed photon_data="EDGE,SrcNode:598,SrcNodePort:result"];
	NodeNot598 -> NodeCat710[color="/dark28/8" style=dashed photon_data="EDGE,SrcNode:598,SrcNodePort:result"];
	NodeNot598 -> NodeCat710[color="/dark28/1" style=dashed photon_data="EDGE,SrcNode:598,SrcNodePort:result"];
	NodeNot598 -> NodeCat710[color="/dark28/2" style=dashed photon_data="EDGE,SrcNode:598,SrcNodePort:result"];
	NodeNot598 -> NodeCat710[color="/dark28/3" style=dashed photon_data="EDGE,SrcNode:598,SrcNodePort:result"];
	NodeNot598 -> NodeCat710[color="/dark28/4" style=dashed photon_data="EDGE,SrcNode:598,SrcNodePort:result"];
	NodeNot598 -> NodeCat710[color="/dark28/5" style=dashed photon_data="EDGE,SrcNode:598,SrcNodePort:result"];
	NodeNot598 -> NodeCat710[color="/dark28/6" style=dashed photon_data="EDGE,SrcNode:598,SrcNodePort:result"];
	NodeNot598 -> NodeCat710[color="/dark28/7" style=dashed photon_data="EDGE,SrcNode:598,SrcNodePort:result"];
	NodeNot598 -> NodeCat710[color="/dark28/8" style=dashed photon_data="EDGE,SrcNode:598,SrcNodePort:result"];
	NodeNot598 -> NodeCat710[color="/dark28/1" style=dashed photon_data="EDGE,SrcNode:598,SrcNodePort:result"];
	NodeNot598 -> NodeCat710[color="/dark28/2" style=dashed photon_data="EDGE,SrcNode:598,SrcNodePort:result"];
	NodeNot598 -> NodeCat710[color="/dark28/3" style=dashed photon_data="EDGE,SrcNode:598,SrcNodePort:result"];
	NodeNot598 -> NodeCat710[color="/dark28/4" style=dashed photon_data="EDGE,SrcNode:598,SrcNodePort:result"];
	NodeNot598 -> NodeCat710[color="/dark28/5" style=dashed photon_data="EDGE,SrcNode:598,SrcNodePort:result"];
	NodeNot598 -> NodeCat710[color="/dark28/6" style=dashed photon_data="EDGE,SrcNode:598,SrcNodePort:result"];
	NodeNot598 -> NodeCat710[color="/dark28/7" style=dashed photon_data="EDGE,SrcNode:598,SrcNodePort:result"];
	NodeNot598 -> NodeCat710[color="/dark28/8" style=dashed photon_data="EDGE,SrcNode:598,SrcNodePort:result"];
	NodeNot598 -> NodeCat710[color="/dark28/1" style=dashed photon_data="EDGE,SrcNode:598,SrcNodePort:result"];
	NodeNot598 -> NodeCat710[color="/dark28/2" style=dashed photon_data="EDGE,SrcNode:598,SrcNodePort:result"];
	NodeNot598 -> NodeCat710[color="/dark28/3" style=dashed photon_data="EDGE,SrcNode:598,SrcNodePort:result"];
	NodeNot598 -> NodeCat710[color="/dark28/4" style=dashed photon_data="EDGE,SrcNode:598,SrcNodePort:result"];
	NodeNot598 -> NodeCat710[color="/dark28/5" style=dashed photon_data="EDGE,SrcNode:598,SrcNodePort:result"];
	NodeNot598 -> NodeCat710[color="/dark28/6" style=dashed photon_data="EDGE,SrcNode:598,SrcNodePort:result"];
	NodeNot598 -> NodeCat710[color="/dark28/7" style=dashed photon_data="EDGE,SrcNode:598,SrcNodePort:result"];
	NodeNot598 -> NodeCat710[color="/dark28/8" style=dashed photon_data="EDGE,SrcNode:598,SrcNodePort:result"];
	NodeNot598 -> NodeCat710[color="/dark28/1" style=dashed photon_data="EDGE,SrcNode:598,SrcNodePort:result"];
	NodeNot598 -> NodeCat710[color="/dark28/2" style=dashed photon_data="EDGE,SrcNode:598,SrcNodePort:result"];
	NodeNot598 -> NodeCat710[color="/dark28/3" style=dashed photon_data="EDGE,SrcNode:598,SrcNodePort:result"];
	NodeNot598 -> NodeCat710[color="/dark28/4" style=dashed photon_data="EDGE,SrcNode:598,SrcNodePort:result"];
	NodeNot598 -> NodeCat710[color="/dark28/5" style=dashed photon_data="EDGE,SrcNode:598,SrcNodePort:result"];
	NodeNot598 -> NodeCat710[color="/dark28/6" style=dashed photon_data="EDGE,SrcNode:598,SrcNodePort:result"];
	NodeNot598 -> NodeCat710[color="/dark28/7" style=dashed photon_data="EDGE,SrcNode:598,SrcNodePort:result"];
	NodeNot598 -> NodeCat710[color="/dark28/8" style=dashed photon_data="EDGE,SrcNode:598,SrcNodePort:result"];
	NodeNot598 -> NodeCat710[color="/dark28/1" style=dashed photon_data="EDGE,SrcNode:598,SrcNodePort:result"];
	NodeNot598 -> NodeCat710[color="/dark28/2" style=dashed photon_data="EDGE,SrcNode:598,SrcNodePort:result"];
	NodeNot598 -> NodeCat710[color="/dark28/3" style=dashed photon_data="EDGE,SrcNode:598,SrcNodePort:result"];
	NodeNot598 -> NodeCat710[color="/dark28/4" style=dashed photon_data="EDGE,SrcNode:598,SrcNodePort:result"];
	NodeNot598 -> NodeCat710[color="/dark28/5" style=dashed photon_data="EDGE,SrcNode:598,SrcNodePort:result"];
	NodeNot598 -> NodeCat710[color="/dark28/6" style=dashed photon_data="EDGE,SrcNode:598,SrcNodePort:result"];
	NodeNot598 -> NodeCat710[color="/dark28/7" style=dashed photon_data="EDGE,SrcNode:598,SrcNodePort:result"];
	NodeNot598 -> NodeCat710[color="/dark28/8" style=dashed photon_data="EDGE,SrcNode:598,SrcNodePort:result"];
	NodeNot598 -> NodeCat710[color="/dark28/1" style=dashed photon_data="EDGE,SrcNode:598,SrcNodePort:result"];
	NodeNot598 -> NodeCat710[color="/dark28/2" style=dashed photon_data="EDGE,SrcNode:598,SrcNodePort:result"];
	NodeNot598 -> NodeCat710[color="/dark28/3" style=dashed photon_data="EDGE,SrcNode:598,SrcNodePort:result"];
	NodeNot598 -> NodeCat710[color="/dark28/4" style=dashed photon_data="EDGE,SrcNode:598,SrcNodePort:result"];
	NodeNot598 -> NodeCat710[color="/dark28/5" style=dashed photon_data="EDGE,SrcNode:598,SrcNodePort:result"];
	NodeNot598 -> NodeCat710[color="/dark28/6" style=dashed photon_data="EDGE,SrcNode:598,SrcNodePort:result"];
	NodeNot598 -> NodeCat710[color="/dark28/7" style=dashed photon_data="EDGE,SrcNode:598,SrcNodePort:result"];
	NodeNot598 -> NodeCat710[color="/dark28/8" style=dashed photon_data="EDGE,SrcNode:598,SrcNodePort:result"];
	NodeCat710 -> NodeReinterpret231[color="/dark28/1" style=dashed photon_data="EDGE,SrcNode:710,SrcNodePort:result"];
	NodeConstantRawBits116 -> NodeXor232[color="/dark28/2" photon_data="EDGE,SrcNode:116,SrcNodePort:value"];
	NodeReinterpret231 -> NodeXor232[color="/dark28/3" style=dashed photon_data="EDGE,SrcNode:231,SrcNodePort:output"];
	NodeMul113 -> NodeMux233[headport="w" color="/dark28/4" photon_data="EDGE,SrcNode:113,SrcNodePort:exception"];
	NodeMul113 -> NodeMux233[color="/dark28/5" style=dashed photon_data="EDGE,SrcNode:113,SrcNodePort:result"];
	NodeXor232 -> NodeMux233[color="/dark28/6" style=dashed photon_data="EDGE,SrcNode:232,SrcNodePort:result"];
	NodeMux233 -> NodeCast234[color="/dark28/7" style=dashed photon_data="EDGE,SrcNode:233,SrcNodePort:result"];
	NodeCast234 -> NodeSlice711[color="/dark28/8" style=dashed photon_data="EDGE,SrcNode:234,SrcNodePort:o"];
	NodeSlice711 -> NodeNot712[color="/dark28/1" style=dashed photon_data="EDGE,SrcNode:711,SrcNodePort:result"];
	NodeNot712 -> NodeCat772[color="/dark28/2" style=dashed photon_data="EDGE,SrcNode:712,SrcNodePort:result"];
	NodeNot712 -> NodeCat772[color="/dark28/3" style=dashed photon_data="EDGE,SrcNode:712,SrcNodePort:result"];
	NodeNot712 -> NodeCat772[color="/dark28/4" style=dashed photon_data="EDGE,SrcNode:712,SrcNodePort:result"];
	NodeNot712 -> NodeCat772[color="/dark28/5" style=dashed photon_data="EDGE,SrcNode:712,SrcNodePort:result"];
	NodeNot712 -> NodeCat772[color="/dark28/6" style=dashed photon_data="EDGE,SrcNode:712,SrcNodePort:result"];
	NodeNot712 -> NodeCat772[color="/dark28/7" style=dashed photon_data="EDGE,SrcNode:712,SrcNodePort:result"];
	NodeNot712 -> NodeCat772[color="/dark28/8" style=dashed photon_data="EDGE,SrcNode:712,SrcNodePort:result"];
	NodeNot712 -> NodeCat772[color="/dark28/1" style=dashed photon_data="EDGE,SrcNode:712,SrcNodePort:result"];
	NodeNot712 -> NodeCat772[color="/dark28/2" style=dashed photon_data="EDGE,SrcNode:712,SrcNodePort:result"];
	NodeNot712 -> NodeCat772[color="/dark28/3" style=dashed photon_data="EDGE,SrcNode:712,SrcNodePort:result"];
	NodeNot712 -> NodeCat772[color="/dark28/4" style=dashed photon_data="EDGE,SrcNode:712,SrcNodePort:result"];
	NodeNot712 -> NodeCat772[color="/dark28/5" style=dashed photon_data="EDGE,SrcNode:712,SrcNodePort:result"];
	NodeNot712 -> NodeCat772[color="/dark28/6" style=dashed photon_data="EDGE,SrcNode:712,SrcNodePort:result"];
	NodeNot712 -> NodeCat772[color="/dark28/7" style=dashed photon_data="EDGE,SrcNode:712,SrcNodePort:result"];
	NodeNot712 -> NodeCat772[color="/dark28/8" style=dashed photon_data="EDGE,SrcNode:712,SrcNodePort:result"];
	NodeNot712 -> NodeCat772[color="/dark28/1" style=dashed photon_data="EDGE,SrcNode:712,SrcNodePort:result"];
	NodeNot712 -> NodeCat772[color="/dark28/2" style=dashed photon_data="EDGE,SrcNode:712,SrcNodePort:result"];
	NodeNot712 -> NodeCat772[color="/dark28/3" style=dashed photon_data="EDGE,SrcNode:712,SrcNodePort:result"];
	NodeNot712 -> NodeCat772[color="/dark28/4" style=dashed photon_data="EDGE,SrcNode:712,SrcNodePort:result"];
	NodeNot712 -> NodeCat772[color="/dark28/5" style=dashed photon_data="EDGE,SrcNode:712,SrcNodePort:result"];
	NodeNot712 -> NodeCat772[color="/dark28/6" style=dashed photon_data="EDGE,SrcNode:712,SrcNodePort:result"];
	NodeNot712 -> NodeCat772[color="/dark28/7" style=dashed photon_data="EDGE,SrcNode:712,SrcNodePort:result"];
	NodeNot712 -> NodeCat772[color="/dark28/8" style=dashed photon_data="EDGE,SrcNode:712,SrcNodePort:result"];
	NodeNot712 -> NodeCat772[color="/dark28/1" style=dashed photon_data="EDGE,SrcNode:712,SrcNodePort:result"];
	NodeNot712 -> NodeCat772[color="/dark28/2" style=dashed photon_data="EDGE,SrcNode:712,SrcNodePort:result"];
	NodeNot712 -> NodeCat772[color="/dark28/3" style=dashed photon_data="EDGE,SrcNode:712,SrcNodePort:result"];
	NodeNot712 -> NodeCat772[color="/dark28/4" style=dashed photon_data="EDGE,SrcNode:712,SrcNodePort:result"];
	NodeNot712 -> NodeCat772[color="/dark28/5" style=dashed photon_data="EDGE,SrcNode:712,SrcNodePort:result"];
	NodeNot712 -> NodeCat772[color="/dark28/6" style=dashed photon_data="EDGE,SrcNode:712,SrcNodePort:result"];
	NodeNot712 -> NodeCat772[color="/dark28/7" style=dashed photon_data="EDGE,SrcNode:712,SrcNodePort:result"];
	NodeNot712 -> NodeCat772[color="/dark28/8" style=dashed photon_data="EDGE,SrcNode:712,SrcNodePort:result"];
	NodeNot712 -> NodeCat772[color="/dark28/1" style=dashed photon_data="EDGE,SrcNode:712,SrcNodePort:result"];
	NodeNot712 -> NodeCat772[color="/dark28/2" style=dashed photon_data="EDGE,SrcNode:712,SrcNodePort:result"];
	NodeNot712 -> NodeCat772[color="/dark28/3" style=dashed photon_data="EDGE,SrcNode:712,SrcNodePort:result"];
	NodeNot712 -> NodeCat772[color="/dark28/4" style=dashed photon_data="EDGE,SrcNode:712,SrcNodePort:result"];
	NodeNot712 -> NodeCat772[color="/dark28/5" style=dashed photon_data="EDGE,SrcNode:712,SrcNodePort:result"];
	NodeNot712 -> NodeCat772[color="/dark28/6" style=dashed photon_data="EDGE,SrcNode:712,SrcNodePort:result"];
	NodeNot712 -> NodeCat772[color="/dark28/7" style=dashed photon_data="EDGE,SrcNode:712,SrcNodePort:result"];
	NodeNot712 -> NodeCat772[color="/dark28/8" style=dashed photon_data="EDGE,SrcNode:712,SrcNodePort:result"];
	NodeNot712 -> NodeCat772[color="/dark28/1" style=dashed photon_data="EDGE,SrcNode:712,SrcNodePort:result"];
	NodeNot712 -> NodeCat772[color="/dark28/2" style=dashed photon_data="EDGE,SrcNode:712,SrcNodePort:result"];
	NodeNot712 -> NodeCat772[color="/dark28/3" style=dashed photon_data="EDGE,SrcNode:712,SrcNodePort:result"];
	NodeNot712 -> NodeCat772[color="/dark28/4" style=dashed photon_data="EDGE,SrcNode:712,SrcNodePort:result"];
	NodeNot712 -> NodeCat772[color="/dark28/5" style=dashed photon_data="EDGE,SrcNode:712,SrcNodePort:result"];
	NodeNot712 -> NodeCat772[color="/dark28/6" style=dashed photon_data="EDGE,SrcNode:712,SrcNodePort:result"];
	NodeNot712 -> NodeCat772[color="/dark28/7" style=dashed photon_data="EDGE,SrcNode:712,SrcNodePort:result"];
	NodeNot712 -> NodeCat772[color="/dark28/8" style=dashed photon_data="EDGE,SrcNode:712,SrcNodePort:result"];
	NodeNot712 -> NodeCat772[color="/dark28/1" style=dashed photon_data="EDGE,SrcNode:712,SrcNodePort:result"];
	NodeNot712 -> NodeCat772[color="/dark28/2" style=dashed photon_data="EDGE,SrcNode:712,SrcNodePort:result"];
	NodeNot712 -> NodeCat772[color="/dark28/3" style=dashed photon_data="EDGE,SrcNode:712,SrcNodePort:result"];
	NodeNot712 -> NodeCat772[color="/dark28/4" style=dashed photon_data="EDGE,SrcNode:712,SrcNodePort:result"];
	NodeNot712 -> NodeCat772[color="/dark28/5" style=dashed photon_data="EDGE,SrcNode:712,SrcNodePort:result"];
	NodeNot712 -> NodeCat772[color="/dark28/6" style=dashed photon_data="EDGE,SrcNode:712,SrcNodePort:result"];
	NodeNot712 -> NodeCat772[color="/dark28/7" style=dashed photon_data="EDGE,SrcNode:712,SrcNodePort:result"];
	NodeNot712 -> NodeCat772[color="/dark28/8" style=dashed photon_data="EDGE,SrcNode:712,SrcNodePort:result"];
	NodeNot712 -> NodeCat772[color="/dark28/1" style=dashed photon_data="EDGE,SrcNode:712,SrcNodePort:result"];
	NodeNot712 -> NodeCat772[color="/dark28/2" style=dashed photon_data="EDGE,SrcNode:712,SrcNodePort:result"];
	NodeNot712 -> NodeCat772[color="/dark28/3" style=dashed photon_data="EDGE,SrcNode:712,SrcNodePort:result"];
	NodeNot712 -> NodeCat772[color="/dark28/4" style=dashed photon_data="EDGE,SrcNode:712,SrcNodePort:result"];
	NodeNot712 -> NodeCat772[color="/dark28/5" style=dashed photon_data="EDGE,SrcNode:712,SrcNodePort:result"];
	NodeNot712 -> NodeCat772[color="/dark28/6" style=dashed photon_data="EDGE,SrcNode:712,SrcNodePort:result"];
	NodeCat772 -> NodeReinterpret299[color="/dark28/7" style=dashed photon_data="EDGE,SrcNode:772,SrcNodePort:result"];
	NodeConstantRawBits236 -> NodeXor300[color="/dark28/8" photon_data="EDGE,SrcNode:236,SrcNodePort:value"];
	NodeReinterpret299 -> NodeXor300[color="/dark28/1" style=dashed photon_data="EDGE,SrcNode:299,SrcNodePort:output"];
	NodeCast234 -> NodeMux301[headport="w" color="/dark28/2" photon_data="EDGE,SrcNode:234,SrcNodePort:exception"];
	NodeCast234 -> NodeMux301[color="/dark28/3" style=dashed photon_data="EDGE,SrcNode:234,SrcNodePort:o"];
	NodeXor300 -> NodeMux301[color="/dark28/4" style=dashed photon_data="EDGE,SrcNode:300,SrcNodePort:result"];
	NodeMux301 -> NodeDoubtBitOp310[color="/dark28/5" style=dashed photon_data="EDGE,SrcNode:301,SrcNodePort:result"];
	NodeDoubtBitOp310 -> NodeCast311[color="/dark28/6" photon_data="EDGE,SrcNode:310,SrcNodePort:output"];
	NodeCast311 -> NodeCast374[color="/dark28/7" photon_data="EDGE,SrcNode:311,SrcNodePort:o"];
	NodeCast374 -> NodeAdd376[color="/dark28/8" photon_data="EDGE,SrcNode:374,SrcNodePort:o"];
	NodeConstantDouble375 -> NodeAdd376[color="/dark28/1" photon_data="EDGE,SrcNode:375,SrcNodePort:value"];
	NodeAdd376 -> NodeSlice773[color="/dark28/2" photon_data="EDGE,SrcNode:376,SrcNodePort:result"];
	NodeSlice773 -> NodeNot774[color="/dark28/3" photon_data="EDGE,SrcNode:773,SrcNodePort:result"];
	NodeNot774 -> NodeCat784[color="/dark28/4" photon_data="EDGE,SrcNode:774,SrcNodePort:result"];
	NodeNot774 -> NodeCat784[color="/dark28/5" photon_data="EDGE,SrcNode:774,SrcNodePort:result"];
	NodeNot774 -> NodeCat784[color="/dark28/6" photon_data="EDGE,SrcNode:774,SrcNodePort:result"];
	NodeNot774 -> NodeCat784[color="/dark28/7" photon_data="EDGE,SrcNode:774,SrcNodePort:result"];
	NodeNot774 -> NodeCat784[color="/dark28/8" photon_data="EDGE,SrcNode:774,SrcNodePort:result"];
	NodeNot774 -> NodeCat784[color="/dark28/1" photon_data="EDGE,SrcNode:774,SrcNodePort:result"];
	NodeNot774 -> NodeCat784[color="/dark28/2" photon_data="EDGE,SrcNode:774,SrcNodePort:result"];
	NodeNot774 -> NodeCat784[color="/dark28/3" photon_data="EDGE,SrcNode:774,SrcNodePort:result"];
	NodeNot774 -> NodeCat784[color="/dark28/4" photon_data="EDGE,SrcNode:774,SrcNodePort:result"];
	NodeNot774 -> NodeCat784[color="/dark28/5" photon_data="EDGE,SrcNode:774,SrcNodePort:result"];
	NodeNot774 -> NodeCat784[color="/dark28/6" photon_data="EDGE,SrcNode:774,SrcNodePort:result"];
	NodeCat784 -> NodeReinterpret391[color="/dark28/7" photon_data="EDGE,SrcNode:784,SrcNodePort:result"];
	NodeConstantRawBits378 -> NodeXor392[color="/dark28/8" photon_data="EDGE,SrcNode:378,SrcNodePort:value"];
	NodeReinterpret391 -> NodeXor392[color="/dark28/1" photon_data="EDGE,SrcNode:391,SrcNodePort:output"];
	NodeAdd376 -> NodeMux393[headport="w" color="/dark28/2" photon_data="EDGE,SrcNode:376,SrcNodePort:exception"];
	NodeAdd376 -> NodeMux393[color="/dark28/3" photon_data="EDGE,SrcNode:376,SrcNodePort:result"];
	NodeXor392 -> NodeMux393[color="/dark28/4" photon_data="EDGE,SrcNode:392,SrcNodePort:result"];
	NodeDoubtBitOp310 -> NodeCast314[color="/dark28/5" photon_data="EDGE,SrcNode:310,SrcNodePort:output"];
	NodeCast314 -> NodeReinterpret470[color="/dark28/6" photon_data="EDGE,SrcNode:314,SrcNodePort:o"];
	NodeReinterpret470 -> NodeROM471[color="/dark28/7" photon_data="EDGE,SrcNode:470,SrcNodePort:output"];
	NodeDoubtBitOp310 -> NodeCast313[color="/dark28/8" photon_data="EDGE,SrcNode:310,SrcNodePort:output"];
	NodeCast313 -> NodeReinterpret467[color="/dark28/1" photon_data="EDGE,SrcNode:313,SrcNodePort:o"];
	NodeReinterpret467 -> NodeROM468[color="/dark28/2" photon_data="EDGE,SrcNode:467,SrcNodePort:output"];
	NodeDoubtBitOp310 -> NodeCast312[color="/dark28/3" photon_data="EDGE,SrcNode:310,SrcNodePort:output"];
	NodeCast312 -> NodeReinterpret464[color="/dark28/4" photon_data="EDGE,SrcNode:312,SrcNodePort:o"];
	NodeReinterpret464 -> NodeROM465[color="/dark28/5" photon_data="EDGE,SrcNode:464,SrcNodePort:output"];
	NodeDoubtBitOp310 -> NodeCast315[color="/dark28/6" photon_data="EDGE,SrcNode:310,SrcNodePort:output"];
	NodeConstantRawBits318 -> NodeMul317[color="/dark28/7" photon_data="EDGE,SrcNode:318,SrcNodePort:value"];
	NodeCast315 -> NodeMul317[color="/dark28/8" photon_data="EDGE,SrcNode:315,SrcNodePort:o"];
	NodeMul317 -> NodeCast319[color="/dark28/1" photon_data="EDGE,SrcNode:317,SrcNodePort:result"];
	NodeCast319 -> NodeMux322[headport="w" color="/dark28/2" photon_data="EDGE,SrcNode:319,SrcNodePort:exception"];
	NodeCast319 -> NodeMux322[color="/dark28/3" photon_data="EDGE,SrcNode:319,SrcNodePort:o"];
	NodeConstantRawBits321 -> NodeMux322[color="/dark28/4" photon_data="EDGE,SrcNode:321,SrcNodePort:value"];
	NodeROM465 -> NodeAdd323[color="/dark28/5" photon_data="EDGE,SrcNode:465,SrcNodePort:dout"];
	NodeMux322 -> NodeAdd323[color="/dark28/6" photon_data="EDGE,SrcNode:322,SrcNodePort:result"];
	NodeMux322 -> NodeMul324[color="/dark28/7" photon_data="EDGE,SrcNode:322,SrcNodePort:result"];
	NodeROM465 -> NodeMul324[color="/dark28/8" photon_data="EDGE,SrcNode:465,SrcNodePort:dout"];
	NodeMul324 -> NodeMux327[headport="w" color="/dark28/1" photon_data="EDGE,SrcNode:324,SrcNodePort:exception"];
	NodeMul324 -> NodeMux327[color="/dark28/2" photon_data="EDGE,SrcNode:324,SrcNodePort:result"];
	NodeConstantRawBits326 -> NodeMux327[color="/dark28/3" photon_data="EDGE,SrcNode:326,SrcNodePort:value"];
	NodeAdd323 -> NodeAdd328[color="/dark28/4" photon_data="EDGE,SrcNode:323,SrcNodePort:result"];
	NodeMux327 -> NodeAdd328[color="/dark28/5" photon_data="EDGE,SrcNode:327,SrcNodePort:result"];
	NodeAdd328 -> NodeMux331[headport="w" color="/dark28/6" photon_data="EDGE,SrcNode:328,SrcNodePort:exception"];
	NodeAdd328 -> NodeMux331[color="/dark28/7" photon_data="EDGE,SrcNode:328,SrcNodePort:result"];
	NodeConstantRawBits330 -> NodeMux331[color="/dark28/8" photon_data="EDGE,SrcNode:330,SrcNodePort:value"];
	NodeMux331 -> NodeCast332[color="/dark28/1" photon_data="EDGE,SrcNode:331,SrcNodePort:result"];
	NodeCast332 -> NodeMux335[headport="w" color="/dark28/2" photon_data="EDGE,SrcNode:332,SrcNodePort:exception"];
	NodeCast332 -> NodeMux335[color="/dark28/3" photon_data="EDGE,SrcNode:332,SrcNodePort:o"];
	NodeConstantRawBits334 -> NodeMux335[color="/dark28/4" photon_data="EDGE,SrcNode:334,SrcNodePort:value"];
	NodeROM468 -> NodeAdd336[color="/dark28/5" photon_data="EDGE,SrcNode:468,SrcNodePort:dout"];
	NodeMux335 -> NodeAdd336[color="/dark28/6" photon_data="EDGE,SrcNode:335,SrcNodePort:result"];
	NodeMux335 -> NodeMul337[color="/dark28/7" photon_data="EDGE,SrcNode:335,SrcNodePort:result"];
	NodeROM468 -> NodeMul337[color="/dark28/8" photon_data="EDGE,SrcNode:468,SrcNodePort:dout"];
	NodeMul337 -> NodeMux340[headport="w" color="/dark28/1" photon_data="EDGE,SrcNode:337,SrcNodePort:exception"];
	NodeMul337 -> NodeMux340[color="/dark28/2" photon_data="EDGE,SrcNode:337,SrcNodePort:result"];
	NodeConstantRawBits339 -> NodeMux340[color="/dark28/3" photon_data="EDGE,SrcNode:339,SrcNodePort:value"];
	NodeAdd336 -> NodeAdd341[color="/dark28/4" photon_data="EDGE,SrcNode:336,SrcNodePort:result"];
	NodeMux340 -> NodeAdd341[color="/dark28/5" photon_data="EDGE,SrcNode:340,SrcNodePort:result"];
	NodeAdd341 -> NodeMux344[headport="w" color="/dark28/6" photon_data="EDGE,SrcNode:341,SrcNodePort:exception"];
	NodeAdd341 -> NodeMux344[color="/dark28/7" photon_data="EDGE,SrcNode:341,SrcNodePort:result"];
	NodeConstantRawBits343 -> NodeMux344[color="/dark28/8" photon_data="EDGE,SrcNode:343,SrcNodePort:value"];
	NodeMux344 -> NodeCast345[color="/dark28/1" photon_data="EDGE,SrcNode:344,SrcNodePort:result"];
	NodeCast345 -> NodeMux348[headport="w" color="/dark28/2" photon_data="EDGE,SrcNode:345,SrcNodePort:exception"];
	NodeCast345 -> NodeMux348[color="/dark28/3" photon_data="EDGE,SrcNode:345,SrcNodePort:o"];
	NodeConstantRawBits347 -> NodeMux348[color="/dark28/4" photon_data="EDGE,SrcNode:347,SrcNodePort:value"];
	NodeROM471 -> NodeAdd349[color="/dark28/5" photon_data="EDGE,SrcNode:471,SrcNodePort:dout"];
	NodeMux348 -> NodeAdd349[color="/dark28/6" photon_data="EDGE,SrcNode:348,SrcNodePort:result"];
	NodeMux348 -> NodeMul350[color="/dark28/7" photon_data="EDGE,SrcNode:348,SrcNodePort:result"];
	NodeROM471 -> NodeMul350[color="/dark28/8" photon_data="EDGE,SrcNode:471,SrcNodePort:dout"];
	NodeMul350 -> NodeMux353[headport="w" color="/dark28/1" photon_data="EDGE,SrcNode:350,SrcNodePort:exception"];
	NodeMul350 -> NodeMux353[color="/dark28/2" photon_data="EDGE,SrcNode:350,SrcNodePort:result"];
	NodeConstantRawBits352 -> NodeMux353[color="/dark28/3" photon_data="EDGE,SrcNode:352,SrcNodePort:value"];
	NodeAdd349 -> NodeAdd354[color="/dark28/4" photon_data="EDGE,SrcNode:349,SrcNodePort:result"];
	NodeMux353 -> NodeAdd354[color="/dark28/5" photon_data="EDGE,SrcNode:353,SrcNodePort:result"];
	NodeAdd354 -> NodeMux357[headport="w" color="/dark28/6" photon_data="EDGE,SrcNode:354,SrcNodePort:exception"];
	NodeAdd354 -> NodeMux357[color="/dark28/7" photon_data="EDGE,SrcNode:354,SrcNodePort:result"];
	NodeConstantRawBits356 -> NodeMux357[color="/dark28/8" photon_data="EDGE,SrcNode:356,SrcNodePort:value"];
	NodeMux357 -> NodeCast358[color="/dark28/1" photon_data="EDGE,SrcNode:357,SrcNodePort:result"];
	NodeCast358 -> NodeMux361[headport="w" color="/dark28/2" photon_data="EDGE,SrcNode:358,SrcNodePort:exception"];
	NodeCast358 -> NodeMux361[color="/dark28/3" photon_data="EDGE,SrcNode:358,SrcNodePort:o"];
	NodeConstantRawBits360 -> NodeMux361[color="/dark28/4" photon_data="EDGE,SrcNode:360,SrcNodePort:value"];
	NodeMux361 -> NodeCast362[color="/dark28/5" photon_data="EDGE,SrcNode:361,SrcNodePort:result"];
	NodeCast362 -> NodeMux365[headport="w" color="/dark28/6" photon_data="EDGE,SrcNode:362,SrcNodePort:exception"];
	NodeCast362 -> NodeMux365[color="/dark28/7" photon_data="EDGE,SrcNode:362,SrcNodePort:o"];
	NodeConstantRawBits364 -> NodeMux365[color="/dark28/8" photon_data="EDGE,SrcNode:364,SrcNodePort:value"];
	NodeMux365 -> NodeGteInlined785[color="/dark28/1" photon_data="EDGE,SrcNode:365,SrcNodePort:result"];
	NodeConstantDouble366 -> NodeGteInlined785[color="/dark28/2" photon_data="EDGE,SrcNode:366,SrcNodePort:value"];
	NodeMux393 -> NodeCondAdd815[color="/dark28/3" photon_data="EDGE,SrcNode:393,SrcNodePort:result"];
	NodeConstantRawBits394 -> NodeCondAdd815[color="/dark28/4" photon_data="EDGE,SrcNode:394,SrcNodePort:value"];
	NodeGteInlined785 -> NodeCondAdd815[color="/dark28/5" photon_data="EDGE,SrcNode:785,SrcNodePort:result"];
	NodeCondAdd815 -> NodeSlice786[color="/dark28/6" photon_data="EDGE,SrcNode:815,SrcNodePort:result"];
	NodeSlice786 -> NodeNot787[color="/dark28/7" photon_data="EDGE,SrcNode:786,SrcNodePort:result"];
	NodeNot787 -> NodeCat797[color="/dark28/8" photon_data="EDGE,SrcNode:787,SrcNodePort:result"];
	NodeNot787 -> NodeCat797[color="/dark28/1" photon_data="EDGE,SrcNode:787,SrcNodePort:result"];
	NodeNot787 -> NodeCat797[color="/dark28/2" photon_data="EDGE,SrcNode:787,SrcNodePort:result"];
	NodeNot787 -> NodeCat797[color="/dark28/3" photon_data="EDGE,SrcNode:787,SrcNodePort:result"];
	NodeNot787 -> NodeCat797[color="/dark28/4" photon_data="EDGE,SrcNode:787,SrcNodePort:result"];
	NodeNot787 -> NodeCat797[color="/dark28/5" photon_data="EDGE,SrcNode:787,SrcNodePort:result"];
	NodeNot787 -> NodeCat797[color="/dark28/6" photon_data="EDGE,SrcNode:787,SrcNodePort:result"];
	NodeNot787 -> NodeCat797[color="/dark28/7" photon_data="EDGE,SrcNode:787,SrcNodePort:result"];
	NodeNot787 -> NodeCat797[color="/dark28/8" photon_data="EDGE,SrcNode:787,SrcNodePort:result"];
	NodeNot787 -> NodeCat797[color="/dark28/1" photon_data="EDGE,SrcNode:787,SrcNodePort:result"];
	NodeNot787 -> NodeCat797[color="/dark28/2" photon_data="EDGE,SrcNode:787,SrcNodePort:result"];
	NodeCat797 -> NodeReinterpret412[color="/dark28/3" photon_data="EDGE,SrcNode:797,SrcNodePort:result"];
	NodeConstantRawBits399 -> NodeXor413[color="/dark28/4" photon_data="EDGE,SrcNode:399,SrcNodePort:value"];
	NodeReinterpret412 -> NodeXor413[color="/dark28/5" photon_data="EDGE,SrcNode:412,SrcNodePort:output"];
	NodeCondAdd815 -> NodeMux414[headport="w" color="/dark28/6" photon_data="EDGE,SrcNode:815,SrcNodePort:exception"];
	NodeCondAdd815 -> NodeMux414[color="/dark28/7" photon_data="EDGE,SrcNode:815,SrcNodePort:result"];
	NodeXor413 -> NodeMux414[color="/dark28/8" photon_data="EDGE,SrcNode:413,SrcNodePort:result"];
	NodeMux414 -> NodeSlice798[color="/dark28/1" photon_data="EDGE,SrcNode:414,SrcNodePort:result"];
	NodeSlice798 -> NodeReinterpret799[color="/dark28/2" photon_data="EDGE,SrcNode:798,SrcNodePort:result"];
	NodePO2FPMult816 -> NodeGt303[headport="n" tailport="s" color=red photon_data="EDGE,SrcNode:816,SrcNodePort:floatOut"];
	NodeConstantDouble302 -> NodeGt303[color="/dark28/3" photon_data="EDGE,SrcNode:302,SrcNodePort:value"];
	NodeMux301 -> NodeDoubtBitOp304[color="/dark28/4" style=dashed photon_data="EDGE,SrcNode:301,SrcNodePort:result"];
	NodeGt303 -> NodeAnd305[color="/dark28/5" photon_data="EDGE,SrcNode:303,SrcNodePort:result"];
	NodeDoubtBitOp304 -> NodeAnd305[color="/dark28/6" photon_data="EDGE,SrcNode:304,SrcNodePort:output"];
	NodeAnd305 -> NodeNot417[color="/dark28/7" photon_data="EDGE,SrcNode:305,SrcNodePort:result"];
	NodeReinterpret799 -> NodeAnd418[color="/dark28/8" photon_data="EDGE,SrcNode:799,SrcNodePort:output"];
	NodeNot417 -> NodeAnd418[color="/dark28/1" photon_data="EDGE,SrcNode:417,SrcNodePort:result"];
	NodePO2FPMult816 -> NodeLt307[headport="n" tailport="s" color=red photon_data="EDGE,SrcNode:816,SrcNodePort:floatOut"];
	NodeConstantDouble306 -> NodeLt307[color="/dark28/2" photon_data="EDGE,SrcNode:306,SrcNodePort:value"];
	NodeMux301 -> NodeDoubtBitOp308[color="/dark28/3" style=dashed photon_data="EDGE,SrcNode:301,SrcNodePort:result"];
	NodeLt307 -> NodeAnd309[color="/dark28/4" photon_data="EDGE,SrcNode:307,SrcNodePort:result"];
	NodeDoubtBitOp308 -> NodeAnd309[color="/dark28/5" photon_data="EDGE,SrcNode:308,SrcNodePort:output"];
	NodeAnd418 -> NodeOr419[color="/dark28/6" photon_data="EDGE,SrcNode:418,SrcNodePort:result"];
	NodeAnd309 -> NodeOr419[color="/dark28/7" photon_data="EDGE,SrcNode:309,SrcNodePort:result"];
	NodeMux414 -> NodeGteInlined800[color="/dark28/8" photon_data="EDGE,SrcNode:414,SrcNodePort:result"];
	NodeConstantDouble438 -> NodeGteInlined800[color="/dark28/1" photon_data="EDGE,SrcNode:438,SrcNodePort:value"];
	NodeAnd309 -> NodeNot440[color="/dark28/2" photon_data="EDGE,SrcNode:309,SrcNodePort:result"];
	NodeGteInlined800 -> NodeAnd441[color="/dark28/3" photon_data="EDGE,SrcNode:800,SrcNodePort:result"];
	NodeNot440 -> NodeAnd441[color="/dark28/4" photon_data="EDGE,SrcNode:440,SrcNodePort:result"];
	NodeAnd441 -> NodeOr442[color="/dark28/5" photon_data="EDGE,SrcNode:441,SrcNodePort:result"];
	NodeAnd305 -> NodeOr442[color="/dark28/6" photon_data="EDGE,SrcNode:305,SrcNodePort:result"];
	NodeOr419 -> NodeCat443[color="/dark28/7" photon_data="EDGE,SrcNode:419,SrcNodePort:result"];
	NodeOr442 -> NodeCat443[color="/dark28/8" photon_data="EDGE,SrcNode:442,SrcNodePort:result"];
	NodeMux414 -> NodeCast420[color="/dark28/1" photon_data="EDGE,SrcNode:414,SrcNodePort:result"];
	NodeCast420 -> NodeSlice801[color="/dark28/2" photon_data="EDGE,SrcNode:420,SrcNodePort:o"];
	NodeSlice801 -> NodeNot802[color="/dark28/3" photon_data="EDGE,SrcNode:801,SrcNodePort:result"];
	NodeNot802 -> NodeCat809[color="/dark28/4" photon_data="EDGE,SrcNode:802,SrcNodePort:result"];
	NodeNot802 -> NodeCat809[color="/dark28/5" photon_data="EDGE,SrcNode:802,SrcNodePort:result"];
	NodeNot802 -> NodeCat809[color="/dark28/6" photon_data="EDGE,SrcNode:802,SrcNodePort:result"];
	NodeNot802 -> NodeCat809[color="/dark28/7" photon_data="EDGE,SrcNode:802,SrcNodePort:result"];
	NodeNot802 -> NodeCat809[color="/dark28/8" photon_data="EDGE,SrcNode:802,SrcNodePort:result"];
	NodeNot802 -> NodeCat809[color="/dark28/1" photon_data="EDGE,SrcNode:802,SrcNodePort:result"];
	NodeNot802 -> NodeCat809[color="/dark28/2" photon_data="EDGE,SrcNode:802,SrcNodePort:result"];
	NodeNot802 -> NodeCat809[color="/dark28/3" photon_data="EDGE,SrcNode:802,SrcNodePort:result"];
	NodeCat809 -> NodeReinterpret432[color="/dark28/4" photon_data="EDGE,SrcNode:809,SrcNodePort:result"];
	NodeConstantRawBits422 -> NodeXor433[color="/dark28/5" photon_data="EDGE,SrcNode:422,SrcNodePort:value"];
	NodeReinterpret432 -> NodeXor433[color="/dark28/6" photon_data="EDGE,SrcNode:432,SrcNodePort:output"];
	NodeCast420 -> NodeMux434[headport="w" color="/dark28/7" photon_data="EDGE,SrcNode:420,SrcNodePort:exception"];
	NodeCast420 -> NodeMux434[color="/dark28/8" photon_data="EDGE,SrcNode:420,SrcNodePort:o"];
	NodeXor433 -> NodeMux434[color="/dark28/1" photon_data="EDGE,SrcNode:433,SrcNodePort:result"];
	NodeGteInlined785 -> NodeMux369[headport="w" color="/dark28/2" photon_data="EDGE,SrcNode:785,SrcNodePort:result"];
	NodeMux365 -> NodeMux369[color="/dark28/3" photon_data="EDGE,SrcNode:365,SrcNodePort:result"];
	NodeConstantRawBits368 -> NodeMux369[color="/dark28/4" photon_data="EDGE,SrcNode:368,SrcNodePort:value"];
	NodeMux369 -> NodeCast370[color="/dark28/5" photon_data="EDGE,SrcNode:369,SrcNodePort:result"];
	NodeCast370 -> NodeMux373[headport="w" color="/dark28/6" photon_data="EDGE,SrcNode:370,SrcNodePort:exception"];
	NodeCast370 -> NodeMux373[color="/dark28/7" photon_data="EDGE,SrcNode:370,SrcNodePort:o"];
	NodeConstantRawBits372 -> NodeMux373[color="/dark28/8" photon_data="EDGE,SrcNode:372,SrcNodePort:value"];
	NodeConstantRawBits435 -> NodeCat436[color="/dark28/1" photon_data="EDGE,SrcNode:435,SrcNodePort:value"];
	NodeMux434 -> NodeCat436[color="/dark28/2" photon_data="EDGE,SrcNode:434,SrcNodePort:result"];
	NodeMux373 -> NodeCat436[color="/dark28/3" photon_data="EDGE,SrcNode:373,SrcNodePort:result"];
	NodeCat436 -> NodeReinterpret437[color="/dark28/4" photon_data="EDGE,SrcNode:436,SrcNodePort:result"];
	NodeConstantRawBits444 -> NodeCat810[color="/dark28/5" photon_data="EDGE,SrcNode:444,SrcNodePort:value"];
	NodeConstantRawBits445 -> NodeCat810[color="/dark28/6" photon_data="EDGE,SrcNode:445,SrcNodePort:value"];
	NodeConstantRawBits447 -> NodeCat810[color="/dark28/7" photon_data="EDGE,SrcNode:447,SrcNodePort:value"];
	NodeCat810 -> NodeReinterpret449[color="/dark28/8" photon_data="EDGE,SrcNode:810,SrcNodePort:result"];
	NodeCat443 -> NodeMux452[headport="w" color="/dark28/1" photon_data="EDGE,SrcNode:443,SrcNodePort:result"];
	NodeReinterpret437 -> NodeMux452[color="/dark28/2" photon_data="EDGE,SrcNode:437,SrcNodePort:output"];
	NodeReinterpret449 -> NodeMux452[color="/dark28/3" photon_data="EDGE,SrcNode:449,SrcNodePort:output"];
	NodeConstantRawBits530 -> NodeMux452[color="/dark28/4" photon_data="EDGE,SrcNode:530,SrcNodePort:value"];
	NodeReinterpret449 -> NodeMux452[color="/dark28/5" photon_data="EDGE,SrcNode:449,SrcNodePort:output"];
	NodeAnd460 -> NodeMux462[headport="w" color="/dark28/6" photon_data="EDGE,SrcNode:460,SrcNodePort:result"];
	NodeMux452 -> NodeMux462[color="/dark28/7" photon_data="EDGE,SrcNode:452,SrcNodePort:result"];
	NodeConstantDouble461 -> NodeMux462[color="/dark28/8" photon_data="EDGE,SrcNode:461,SrcNodePort:value"];
	NodeMux462 -> NodeAdd473[color="/dark28/1" photon_data="EDGE,SrcNode:462,SrcNodePort:result"];
	NodeConstantDouble472 -> NodeAdd473[color="/dark28/2" photon_data="EDGE,SrcNode:472,SrcNodePort:value"];
	NodeConstantDouble474 -> NodeDiv475[color="/dark28/3" photon_data="EDGE,SrcNode:474,SrcNodePort:value"];
	NodeAdd473 -> NodeDiv475[color="/dark28/4" photon_data="EDGE,SrcNode:473,SrcNodePort:result"];
	NodeConstantDouble476 -> NodeSub477[color="/dark28/5" photon_data="EDGE,SrcNode:476,SrcNodePort:value"];
	NodeDiv475 -> NodeSub477[color="/dark28/6" photon_data="EDGE,SrcNode:475,SrcNodePort:result"];
	NodeConstantDouble479 -> NodeSub480[color="/dark28/7" photon_data="EDGE,SrcNode:479,SrcNodePort:value"];
	NodeSub477 -> NodeSub480[color="/dark28/8" photon_data="EDGE,SrcNode:477,SrcNodePort:result"];
	NodeSub480 -> NodeMul481[color="/dark28/1" photon_data="EDGE,SrcNode:480,SrcNodePort:result"];
	NodeMux23 -> NodeMul481[headport="n" tailport="s" color=red photon_data="EDGE,SrcNode:23,SrcNodePort:result"];
	NodeMul481 -> NodeMul482[color="/dark28/2" photon_data="EDGE,SrcNode:481,SrcNodePort:result"];
	NodeMux23 -> NodeMul482[headport="n" tailport="s" color=red photon_data="EDGE,SrcNode:23,SrcNodePort:result"];
	NodeMul482 -> NodePO2FPMult817[color="/dark28/3" photon_data="EDGE,SrcNode:482,SrcNodePort:result"];
	NodeSub486 -> NodeMul487[color="/dark28/4" photon_data="EDGE,SrcNode:486,SrcNodePort:result"];
	NodePO2FPMult817 -> NodeMul487[color="/dark28/5" photon_data="EDGE,SrcNode:817,SrcNodePort:floatOut"];
	NodeMul487 -> NodeSub811[color="/dark28/6" photon_data="EDGE,SrcNode:487,SrcNodePort:result"];
	NodeMux23 -> NodeSub811[headport="n" tailport="s" color=red photon_data="EDGE,SrcNode:23,SrcNodePort:result"];
	NodeSub811 -> NodeMul494[color="/dark28/7" photon_data="EDGE,SrcNode:811,SrcNodePort:result"];
	NodeConstantRawBits2 -> NodeMul494[color="/dark28/8" photon_data="EDGE,SrcNode:2,SrcNodePort:value"];
	NodeCast19 -> NodeMul496[color="/dark28/1" photon_data="EDGE,SrcNode:19,SrcNodePort:o"];
	NodeMul494 -> NodeMul496[color="/dark28/2" photon_data="EDGE,SrcNode:494,SrcNodePort:result"];
	NodeMux23 -> NodeAdd497[headport="n" tailport="s" color=red photon_data="EDGE,SrcNode:23,SrcNodePort:result"];
	NodeMul496 -> NodeAdd497[color="/dark28/3" photon_data="EDGE,SrcNode:496,SrcNodePort:result"];
	NodeAdd497 -> NodeStreamOffset846[color="/dark28/4" photon_data="EDGE,SrcNode:497,SrcNodePort:result"];
	NodeEqInlined531 -> NodeMux23[headport="w" color="/dark28/5" photon_data="EDGE,SrcNode:531,SrcNodePort:result"];
	NodeStreamOffset846 -> NodeMux23[color="/dark28/6" photon_data="EDGE,SrcNode:846,SrcNodePort:output"];
	NodeConstantRawBits22 -> NodeMux23[color="/dark28/7" photon_data="EDGE,SrcNode:22,SrcNodePort:value"];
	NodeMux23 -> NodeSub38[color="/dark28/8" photon_data="EDGE,SrcNode:23,SrcNodePort:result"];
	NodeConstantRawBits4 -> NodeSub38[color="/dark28/1" photon_data="EDGE,SrcNode:4,SrcNodePort:value"];
	NodeSub38 -> NodePO2FPMult816[color="/dark28/2" photon_data="EDGE,SrcNode:38,SrcNodePort:result"];
	NodePO2FPMult816 -> NodeDoubtBitOp42[color="/dark28/3" photon_data="EDGE,SrcNode:816,SrcNodePort:floatOut"];
	NodeConstantRawBits41 -> NodeDoubtBitOp42[color="/dark28/4" photon_data="EDGE,SrcNode:41,SrcNodePort:value"];
	NodeDoubtBitOp42 -> NodeCast43[color="/dark28/5" style=dashed photon_data="EDGE,SrcNode:42,SrcNodePort:output"];
	NodeCast43 -> NodeExceptionMask821[color="/dark28/6" photon_data="EDGE,SrcNode:43,SrcNodePort:exception"];
	NodeMul113 -> NodeExceptionMask822[color="/dark28/7" photon_data="EDGE,SrcNode:113,SrcNodePort:exception"];
	NodeCast234 -> NodeExceptionMask823[color="/dark28/8" photon_data="EDGE,SrcNode:234,SrcNodePort:exception"];
	NodeCast319 -> NodeExceptionMask825[color="/dark28/1" photon_data="EDGE,SrcNode:319,SrcNodePort:exception"];
	NodeMul324 -> NodeExceptionMask826[color="/dark28/2" photon_data="EDGE,SrcNode:324,SrcNodePort:exception"];
	NodeAdd328 -> NodeExceptionMask827[color="/dark28/3" photon_data="EDGE,SrcNode:328,SrcNodePort:exception"];
	NodeCast332 -> NodeExceptionMask828[color="/dark28/4" photon_data="EDGE,SrcNode:332,SrcNodePort:exception"];
	NodeMul337 -> NodeExceptionMask829[color="/dark28/5" photon_data="EDGE,SrcNode:337,SrcNodePort:exception"];
	NodeAdd341 -> NodeExceptionMask830[color="/dark28/6" photon_data="EDGE,SrcNode:341,SrcNodePort:exception"];
	NodeCast345 -> NodeExceptionMask831[color="/dark28/7" photon_data="EDGE,SrcNode:345,SrcNodePort:exception"];
	NodeMul350 -> NodeExceptionMask832[color="/dark28/8" photon_data="EDGE,SrcNode:350,SrcNodePort:exception"];
	NodeAdd354 -> NodeExceptionMask833[color="/dark28/1" photon_data="EDGE,SrcNode:354,SrcNodePort:exception"];
	NodeCast358 -> NodeExceptionMask834[color="/dark28/2" photon_data="EDGE,SrcNode:358,SrcNodePort:exception"];
	NodeCast362 -> NodeExceptionMask835[color="/dark28/3" photon_data="EDGE,SrcNode:362,SrcNodePort:exception"];
	NodeCast370 -> NodeExceptionMask838[color="/dark28/4" photon_data="EDGE,SrcNode:370,SrcNodePort:exception"];
	NodeAdd376 -> NodeExceptionMask824[color="/dark28/5" photon_data="EDGE,SrcNode:376,SrcNodePort:exception"];
	NodeCast420 -> NodeExceptionMask837[color="/dark28/6" photon_data="EDGE,SrcNode:420,SrcNodePort:exception"];
	NodeAdd473 -> NodeExceptionMask839[color="/dark28/7" photon_data="EDGE,SrcNode:473,SrcNodePort:exception"];
	NodeDiv475 -> NodeExceptionMask840[color="/dark28/8" photon_data="EDGE,SrcNode:475,SrcNodePort:exception"];
	NodeSub477 -> NodeExceptionMask841[color="/dark28/1" photon_data="EDGE,SrcNode:477,SrcNodePort:exception"];
	NodeCondAdd815 -> NodeExceptionMask836[color="/dark28/2" photon_data="EDGE,SrcNode:815,SrcNodePort:exception"];
	NodePO2FPMult816 -> NodeExceptionMask820[color="/dark28/3" photon_data="EDGE,SrcNode:816,SrcNodePort:exception"];
	NodeExceptionMask821 -> NodeNumericExceptionsSim842[color="/dark28/4" photon_data="EDGE,SrcNode:821,SrcNodePort:exceptionOccurred"];
	NodeExceptionMask822 -> NodeNumericExceptionsSim842[color="/dark28/5" photon_data="EDGE,SrcNode:822,SrcNodePort:exceptionOccurred"];
	NodeExceptionMask823 -> NodeNumericExceptionsSim842[color="/dark28/6" photon_data="EDGE,SrcNode:823,SrcNodePort:exceptionOccurred"];
	NodeExceptionMask825 -> NodeNumericExceptionsSim842[color="/dark28/7" photon_data="EDGE,SrcNode:825,SrcNodePort:exceptionOccurred"];
	NodeExceptionMask826 -> NodeNumericExceptionsSim842[color="/dark28/8" photon_data="EDGE,SrcNode:826,SrcNodePort:exceptionOccurred"];
	NodeExceptionMask827 -> NodeNumericExceptionsSim842[color="/dark28/1" photon_data="EDGE,SrcNode:827,SrcNodePort:exceptionOccurred"];
	NodeExceptionMask828 -> NodeNumericExceptionsSim842[color="/dark28/2" photon_data="EDGE,SrcNode:828,SrcNodePort:exceptionOccurred"];
	NodeExceptionMask829 -> NodeNumericExceptionsSim842[color="/dark28/3" photon_data="EDGE,SrcNode:829,SrcNodePort:exceptionOccurred"];
	NodeExceptionMask830 -> NodeNumericExceptionsSim842[color="/dark28/4" photon_data="EDGE,SrcNode:830,SrcNodePort:exceptionOccurred"];
	NodeExceptionMask831 -> NodeNumericExceptionsSim842[color="/dark28/5" photon_data="EDGE,SrcNode:831,SrcNodePort:exceptionOccurred"];
	NodeExceptionMask832 -> NodeNumericExceptionsSim842[color="/dark28/6" photon_data="EDGE,SrcNode:832,SrcNodePort:exceptionOccurred"];
	NodeExceptionMask833 -> NodeNumericExceptionsSim842[color="/dark28/7" photon_data="EDGE,SrcNode:833,SrcNodePort:exceptionOccurred"];
	NodeExceptionMask834 -> NodeNumericExceptionsSim842[color="/dark28/8" photon_data="EDGE,SrcNode:834,SrcNodePort:exceptionOccurred"];
	NodeExceptionMask835 -> NodeNumericExceptionsSim842[color="/dark28/1" photon_data="EDGE,SrcNode:835,SrcNodePort:exceptionOccurred"];
	NodeExceptionMask838 -> NodeNumericExceptionsSim842[color="/dark28/2" photon_data="EDGE,SrcNode:838,SrcNodePort:exceptionOccurred"];
	NodeExceptionMask824 -> NodeNumericExceptionsSim842[color="/dark28/3" photon_data="EDGE,SrcNode:824,SrcNodePort:exceptionOccurred"];
	NodeExceptionMask837 -> NodeNumericExceptionsSim842[color="/dark28/4" photon_data="EDGE,SrcNode:837,SrcNodePort:exceptionOccurred"];
	NodeExceptionMask839 -> NodeNumericExceptionsSim842[color="/dark28/5" photon_data="EDGE,SrcNode:839,SrcNodePort:exceptionOccurred"];
	NodeExceptionMask840 -> NodeNumericExceptionsSim842[color="/dark28/6" photon_data="EDGE,SrcNode:840,SrcNodePort:exceptionOccurred"];
	NodeExceptionMask841 -> NodeNumericExceptionsSim842[color="/dark28/7" photon_data="EDGE,SrcNode:841,SrcNodePort:exceptionOccurred"];
	NodeExceptionMask836 -> NodeNumericExceptionsSim842[color="/dark28/8" photon_data="EDGE,SrcNode:836,SrcNodePort:exceptionOccurred"];
	NodeExceptionMask820 -> NodeNumericExceptionsSim842[color="/dark28/1" photon_data="EDGE,SrcNode:820,SrcNodePort:exceptionOccurred"];
	NodeConstantRawBits844 -> NodeOutputMappedReg843[color="/dark28/2" photon_data="EDGE,SrcNode:844,SrcNodePort:value"];
	NodeNumericExceptionsSim842 -> NodeOutputMappedReg843[color="/dark28/3" photon_data="EDGE,SrcNode:842,SrcNodePort:all_exceptions"];
	NodeEvalStreamOffset13 -> NodeSub505[color="/dark28/4" photon_data="EDGE,SrcNode:13,SrcNodePort:output"];
	NodeConstantDouble504 -> NodeSub505[color="/dark28/5" photon_data="EDGE,SrcNode:504,SrcNodePort:value"];
	NodeCounter17 -> NodeEqInlined812[color="/dark28/6" photon_data="EDGE,SrcNode:17,SrcNodePort:count"];
	NodeSub505 -> NodeEqInlined812[color="/dark28/7" photon_data="EDGE,SrcNode:505,SrcNodePort:result"];
	NodeEqInlined812 -> NodeOutput510[headport="w" color="/dark28/8" ];
	NodeAdd497 -> NodeCast502[color="/dark28/1" photon_data="EDGE,SrcNode:497,SrcNodePort:result"];
	NodeCast502 -> NodeOutput510[color="/dark28/2" photon_data="EDGE,SrcNode:502,SrcNodePort:o"];
	NodeEvalStreamOffset13 -> NodeSub512[color="/dark28/3" photon_data="EDGE,SrcNode:13,SrcNodePort:output"];
	NodeConstantDouble511 -> NodeSub512[color="/dark28/4" photon_data="EDGE,SrcNode:511,SrcNodePort:value"];
	NodeCounter17 -> NodeEqInlined813[color="/dark28/5" photon_data="EDGE,SrcNode:17,SrcNodePort:count"];
	NodeSub512 -> NodeEqInlined813[color="/dark28/6" photon_data="EDGE,SrcNode:512,SrcNodePort:result"];
	NodeEqInlined813 -> NodeOutput517[headport="w" color="/dark28/7" ];
	NodeAdd499 -> NodeCast503[color="/dark28/8" photon_data="EDGE,SrcNode:499,SrcNodePort:result"];
	NodeCast503 -> NodeOutput517[color="/dark28/1" photon_data="EDGE,SrcNode:503,SrcNodePort:o"];
}
