KernelConfiguration.additionalInputPipelining = 64                                          [Init: 64]
KernelConfiguration.allowDSPCascading = true                                                [Init: true]
KernelConfiguration.allowInputsOutputsBeforeFlushNode = false                               [Init: false]
KernelConfiguration.allowZeroLatencyNodeHold = false                                        [Init: false]
KernelConfiguration.bramBitsThreshold = 2080                                                [Init: 2080]
KernelConfiguration.buildTarget = MAXCOMPILERSIM_HOST_DRIVEN                                [Init: NONE, change: MAXCOMPILERSIM_HOST_DRIVEN]
KernelConfiguration.cePipelining = 2                                                        [Init: 2]
KernelConfiguration.clockPhaseBalanceThreshold = 0.1                                        [Init: 0.1]
KernelConfiguration.clockPhasingRetries = 50                                                [Init: 50]
KernelConfiguration.constantMultiplicationWithShiftAddThreshold = 3                         [Init: 3]
KernelConfiguration.dumpNeighboursString =                                                  [Init: ]
KernelConfiguration.enableCeReplication = true                                              [Init: true]
KernelConfiguration.enableClockPhasePartitioning = false                                    [Init: false]
KernelConfiguration.enableDebugIOControlRegs = true                                         [Init: true]
KernelConfiguration.enableDummyBuild = false                                                [Init: false]
KernelConfiguration.enableKernelProfiler = false                                            [Init: false]
KernelConfiguration.enablePipelinedComputeController = false                                [Init: false]
KernelConfiguration.enableShadowRegister = false                                            [Init: false]
KernelConfiguration.enableSmartKernelControl = false                                        [Init: false]
KernelConfiguration.fifoSrlRegisterStages = 1                                               [Init: 1]
KernelConfiguration.flushOnInputDataCongtiguous = false                                     [Init: false]
KernelConfiguration.hardwareDebugDepth = 512                                                [Init: 512]
KernelConfiguration.hwHierarchyMode = UNSET                                                 [Init: UNSET]
KernelConfiguration.latencyAnnotation = false                                               [Init: false]
KernelConfiguration.latencyAnnotationAll = true                                             [Init: true]
KernelConfiguration.latencyAnnotationIOs =                                                  [Init: null]
KernelConfiguration.maxCoalescedFifoWidth = 2147483647                                      [Init: 2147483647]
KernelConfiguration.maxPreAdderFanOut = 1                                                   [Init: 1]
KernelConfiguration.netlistMode = false                                                     [Init: false]
KernelConfiguration.numPhotonStateMachines = 1                                              [Init: 1]
KernelConfiguration.optimizations.ceCounterRegisterDuplication = 1                          [Init: 1]
KernelConfiguration.optimizations.conditionalArithmetic = true                              [Init: true]
KernelConfiguration.optimizations.counterChainWrapPipelining = 0                            [Init: 0]
KernelConfiguration.optimizations.dspAddChain = OPTIMISE                                    [Init: null, change: OPTIMISE]
KernelConfiguration.optimizations.enableActiveFanoutReduction = false                       [Init: false]
KernelConfiguration.optimizations.enableBUFGCE = false                                      [Init: false]
KernelConfiguration.optimizations.enableBetterInputRegistering = false                      [Init: false]
KernelConfiguration.optimizations.enableBetterRegistering = false                           [Init: false]
KernelConfiguration.optimizations.enableFIFOCoalescingAcrossPlacementConstraints = false    [Init: false]
KernelConfiguration.optimizations.enableFifoCoalescing = true                               [Init: true]
KernelConfiguration.optimizations.enableIntegratedRounding = false                          [Init: false]
KernelConfiguration.optimizations.enableMappedMemoryHostReadBack = true                     [Init: true]
KernelConfiguration.optimizations.enableMultiCycleReset = false                             [Init: false]
KernelConfiguration.optimizations.enablePowerTwoFloatMult = true                            [Init: true]
KernelConfiguration.optimizations.enableRedundantNodeDeletion = true                        [Init: true]
KernelConfiguration.optimizations.enableStateMachineRegisterMerging = true                  [Init: true]
KernelConfiguration.optimizations.inlining = false                                          [Init: false]
KernelConfiguration.optimizations.inputFlushDistanceFactor = 0                              [Init: 0]
KernelConfiguration.optimizations.minimumStaticFIFOSplitDepth = 1                           [Init: 1]
KernelConfiguration.optimizations.optimizationTechnique = DEFAULT                           [Init: DEFAULT]
KernelConfiguration.optimizations.preserveNodeRegisters = true                              [Init: true]
KernelConfiguration.optimizations.triAdd = true                                             [Init: true]
KernelConfiguration.partialReconfBlockName =                                                [Init: ]
KernelConfiguration.partialReconfMode = false                                               [Init: false]
KernelConfiguration.partialReconfTemplate = false                                           [Init: false]
KernelConfiguration.replicateNodeCeLog2NumPartitions = 0                                    [Init: 0]
KernelConfiguration.romBRAMBitsThreshold = 2080                                             [Init: 2080]
KernelConfiguration.simulation.ramAddressCollisionBehaviour = EXCEPTION                     [Init: EXCEPTION]
KernelConfiguration.simulation.ramOutOfBoundsAccessBehaviour = EXCEPTION                    [Init: EXCEPTION]
KernelConfiguration.simulation.simProgressMessageFrequency = 0                              [Init: 0]
KernelConfiguration.useAsapScheduler = false                                                [Init: false]
