digraph manager_compiler_graph {
KarmaKernel[shape=plaintext, label=<<TABLE  BORDER="1" CELLPADDING="1" CELLSPACING="1"><TR><TD BGCOLOR="white" BORDER="0" PORT="node_info" ROWSPAN="1" COLSPAN="1">Kernel : KarmaKernel</TD></TR><TR><TD BGCOLOR="white" BORDER="0" PORT="outputs" ROWSPAN="1" COLSPAN="1"><TABLE  BORDER="1" CELLPADDING="1" CELLSPACING="4"><TR><TD BGCOLOR="white" BORDER="1" PORT="u_out" ROWSPAN="1" COLSPAN="1">u_out<BR/>clk=STREAM (100.0MHz)<BR/>width=32<BR/>PUSH 5</TD><TD BGCOLOR="white" BORDER="1" PORT="v_out" ROWSPAN="1" COLSPAN="1">v_out<BR/>clk=STREAM (100.0MHz)<BR/>width=32<BR/>PUSH 5</TD></TR></TABLE></TD></TR></TABLE>>];
KarmaKernel_assign -> u_out_assign[color=green headport="assignment_2" tailport="assignment_14"];
KarmaKernel_assign -> v_out_assign[color=green headport="assignment_5" tailport="assignment_14"];
KarmaKernel_assign -> watch_KarmaKernel_assign[color=green headport="assignment_8" tailport="assignment_14"];
KarmaKernel_assign[shape=plaintext, label=<<TABLE  BORDER="0" CELLPADDING="0" CELLSPACING="0"><TR><TD BGCOLOR="green" BORDER="1" PORT="assignment_14" ROWSPAN="1" COLSPAN="1">6464 : width_out_u_out=32 width_out_v_out=32 width_watch_internal_watch_carriedu_output=48 clk=STREAM </TD></TR></TABLE>>];
KarmaKernel_assign -> KarmaKernel[color=gray];
u_out[shape=plaintext, label=<<TABLE  BORDER="1" CELLPADDING="1" CELLSPACING="1"><TR><TD BGCOLOR="white" BORDER="0" PORT="inputs" ROWSPAN="1" COLSPAN="1"><TABLE  BORDER="1" CELLPADDING="1" CELLSPACING="4"><TR><TD BGCOLOR="white" BORDER="1" PORT="u_out" ROWSPAN="1" COLSPAN="1">u_out<BR/>clk=PCIE (125.0MHz)<BR/>width=128<BR/>PUSH 1</TD></TR></TABLE></TD></TR><TR><TD BGCOLOR="white" BORDER="0" PORT="node_info" ROWSPAN="1" COLSPAN="1">PCIe_To_Host : u_out</TD></TR></TABLE>>];
u_out_assign[shape=plaintext, label=<<TABLE  BORDER="0" CELLPADDING="0" CELLSPACING="0"><TR><TD BGCOLOR="green" BORDER="1" PORT="assignment_2" ROWSPAN="1" COLSPAN="1">0 : width=128 clk=PCIE </TD></TR></TABLE>>];
u_out_assign -> u_out[color=gray];
v_out[shape=plaintext, label=<<TABLE  BORDER="1" CELLPADDING="1" CELLSPACING="1"><TR><TD BGCOLOR="white" BORDER="0" PORT="inputs" ROWSPAN="1" COLSPAN="1"><TABLE  BORDER="1" CELLPADDING="1" CELLSPACING="4"><TR><TD BGCOLOR="white" BORDER="1" PORT="v_out" ROWSPAN="1" COLSPAN="1">v_out<BR/>clk=PCIE (125.0MHz)<BR/>width=128<BR/>PUSH 1</TD></TR></TABLE></TD></TR><TR><TD BGCOLOR="white" BORDER="0" PORT="node_info" ROWSPAN="1" COLSPAN="1">PCIe_To_Host : v_out</TD></TR></TABLE>>];
v_out_assign[shape=plaintext, label=<<TABLE  BORDER="0" CELLPADDING="0" CELLSPACING="0"><TR><TD BGCOLOR="green" BORDER="1" PORT="assignment_5" ROWSPAN="1" COLSPAN="1">0 : width=128 clk=PCIE </TD></TR></TABLE>>];
v_out_assign -> v_out[color=gray];
KarmaKernel -> u_out [headport="u_out" tailport="u_out" label="{D{data:1}}"]
KarmaKernel -> v_out [headport="v_out" tailport="v_out" label="{D{data:1}}"]
}
