digraph manager_compiler_graph {
KarmaKernel[shape=plaintext, label=<<TABLE  BORDER="1" CELLPADDING="1" CELLSPACING="1"><TR><TD BGCOLOR="white" BORDER="0" PORT="node_info" ROWSPAN="1" COLSPAN="1">Kernel : KarmaKernel</TD></TR><TR><TD BGCOLOR="white" BORDER="0" PORT="outputs" ROWSPAN="1" COLSPAN="1"><TABLE  BORDER="1" CELLPADDING="1" CELLSPACING="4"><TR><TD BGCOLOR="white" BORDER="1" PORT="u_out" ROWSPAN="1" COLSPAN="1">u_out<BR/>clk=STREAM (100.0MHz)<BR/>width=32<BR/>PUSH 5</TD><TD BGCOLOR="white" BORDER="1" PORT="v_out" ROWSPAN="1" COLSPAN="1">v_out<BR/>clk=STREAM (100.0MHz)<BR/>width=32<BR/>PUSH 5</TD></TR></TABLE></TD></TR></TABLE>>];
u_out[shape=plaintext, label=<<TABLE  BORDER="1" CELLPADDING="1" CELLSPACING="1"><TR><TD BGCOLOR="white" BORDER="0" PORT="inputs" ROWSPAN="1" COLSPAN="1"><TABLE  BORDER="1" CELLPADDING="1" CELLSPACING="4"><TR><TD BGCOLOR="white" BORDER="1" PORT="u_out" ROWSPAN="1" COLSPAN="1">u_out<BR/>clk=PCIE (125.0MHz)<BR/>width=128<BR/>PUSH 1</TD></TR></TABLE></TD></TR><TR><TD BGCOLOR="white" BORDER="0" PORT="node_info" ROWSPAN="1" COLSPAN="1">PCIe_To_Host : u_out</TD></TR></TABLE>>];
v_out[shape=plaintext, label=<<TABLE  BORDER="1" CELLPADDING="1" CELLSPACING="1"><TR><TD BGCOLOR="white" BORDER="0" PORT="inputs" ROWSPAN="1" COLSPAN="1"><TABLE  BORDER="1" CELLPADDING="1" CELLSPACING="4"><TR><TD BGCOLOR="white" BORDER="1" PORT="v_out" ROWSPAN="1" COLSPAN="1">v_out<BR/>clk=PCIE (125.0MHz)<BR/>width=128<BR/>PUSH 1</TD></TR></TABLE></TD></TR><TR><TD BGCOLOR="white" BORDER="0" PORT="node_info" ROWSPAN="1" COLSPAN="1">PCIe_To_Host : v_out</TD></TR></TABLE>>];
Stream_2[shape=plaintext, label=<<TABLE  BORDER="1" CELLPADDING="1" CELLSPACING="1"><TR><TD BGCOLOR="white" BORDER="0" PORT="inputs" ROWSPAN="1" COLSPAN="1"><TABLE  BORDER="1" CELLPADDING="1" CELLSPACING="4"><TR><TD BGCOLOR="white" BORDER="1" PORT="input" ROWSPAN="1" COLSPAN="1">input<BR/>clk=PCIE (125.0MHz)<BR/>width=32<BR/>PULL el=1</TD></TR></TABLE></TD></TR><TR><TD BGCOLOR="white" BORDER="0" PORT="node_info" ROWSPAN="1" COLSPAN="1">DualAspectReg : Stream_2</TD></TR><TR><TD BGCOLOR="white" BORDER="0" PORT="outputs" ROWSPAN="1" COLSPAN="1"><TABLE  BORDER="1" CELLPADDING="1" CELLSPACING="4"><TR><TD BGCOLOR="white" BORDER="1" PORT="output" ROWSPAN="1" COLSPAN="1">output<BR/>clk=PCIE (125.0MHz)<BR/>width=128<BR/>PULL el=1</TD></TR></TABLE></TD></TR></TABLE>>];
Stream_5[shape=plaintext, label=<<TABLE  BORDER="1" CELLPADDING="1" CELLSPACING="1"><TR><TD BGCOLOR="white" BORDER="0" PORT="inputs" ROWSPAN="1" COLSPAN="1"><TABLE  BORDER="1" CELLPADDING="1" CELLSPACING="4"><TR><TD BGCOLOR="white" BORDER="1" PORT="input" ROWSPAN="1" COLSPAN="1">input<BR/>clk=PCIE (125.0MHz)<BR/>width=32<BR/>PULL el=1</TD></TR></TABLE></TD></TR><TR><TD BGCOLOR="white" BORDER="0" PORT="node_info" ROWSPAN="1" COLSPAN="1">DualAspectReg : Stream_5</TD></TR><TR><TD BGCOLOR="white" BORDER="0" PORT="outputs" ROWSPAN="1" COLSPAN="1"><TABLE  BORDER="1" CELLPADDING="1" CELLSPACING="4"><TR><TD BGCOLOR="white" BORDER="1" PORT="output" ROWSPAN="1" COLSPAN="1">output<BR/>clk=PCIE (125.0MHz)<BR/>width=128<BR/>PULL el=1</TD></TR></TABLE></TD></TR></TABLE>>];
KarmaKernel -> Stream_2 [headport="input" tailport="u_out" label="{D{data:1}}"]
KarmaKernel -> Stream_5 [headport="input" tailport="v_out" label="{D{data:1}}"]
Stream_2 -> u_out [headport="u_out" tailport="output" label="{D{data:1}}"]
Stream_5 -> v_out [headport="v_out" tailport="output" label="{D{data:1}}"]
}
