              NodeID Stall origin Node ID
                  40                 none
                 618                 none
                  43                 none
                 541                 none
                 660                 none
                 444                 none
                 489                 none
                 446                 none
                 447                 none
                 448                 none
                 598                 none
                  41                 none
                  42                 none
                 659                 none
                 490                 none
                 537                 none
                  38                 none
                  48                 none
                 564                 none
                 605                 none
                 606                 none
                 607                 none
                 608                 none
                 609                 none
                 610                 none
                 611                 none
                 612                 none
                  15                 none
                 414                 none
                  37                 none
                 658                 none
                 491                 none
                 538                 none
                 600                 none
                 613                 none
                  51                 none
                 544                 none
                 287                 none
                  17                 none
                 278                 none
                 279                 none
                 290                 none
                  16                 none
                  58                 none
                   1                 none
                   2                 none
                  59                 none
                 291                 none
                 288                 none
                   0                 none
                 289                 none
                 292                 none
                  44                 none
                  45                 none
                 408                 none
                 409                 none
                 415                 none
                 416                 none
                 417                 none
                  29                 none
                 418                 none
                 419                 none
                   8                 none
                 420                 none
                 421                 none
                  20                 none
                 422                 none
                  22                 none
                 276                 none
                   9                 none
                  10                 none
                 277                 none
                 426                 none
                 657                 none
                  11                 none
                  36                 none
                 656                 none
                 655                 none
                 654                 none
                  25                 none
                  30                 none
                 167                 none
                 168                 none
                 528                 none
                 247                 none
                 248                 none
                 492                 none
                 246                 none
                 653                 none
                 493                 none
                 252                 none
                 560                 none
                 171                 none
                 172                 none
                 173                 none
                 176                 none
                 175                 none
                 177                 none
                 186                 none
                 187                 none
                 551                 none
                 214                 none
                 217                 none
                 519                 none
                 190                 none
                 262                 none
                 263                 none
                 189                 none
                 259                 none
                 260                 none
                 188                 none
                 256                 none
                 257                 none
                 194                 none
                 191                 none
                 193                 none
                 195                 none
                 552                 none
                 196                 none
                 197                 none
                 198                 none
                 199                 none
                 200                 none
                 201                 none
                 202                 none
                 203                 none
                 204                 none
                 205                 none
                 206                 none
                 207                 none
                 208                 none
                 652                 none
                 494                 none
                 527                 none
                 495                 none
                 496                 none
                 651                 none
                 179                 none
                 554                 none
                 180                 none
                 181                 none
                 555                 none
                 223                 none
                 224                 none
                 650                 none
                 183                 none
                 556                 none
                 184                 none
                 185                 none
                 557                 none
                 225                 none
                 649                 none
                 497                 none
                 232                 none
                 233                 none
                 234                 none
                 235                 none
                 227                 none
                 226                 none
                 211                 none
                 212                 none
                 213                 none
                 228                 none
                 229                 none
                 236                 none
                 237                 none
                 239                 none
                 498                 none
                 241                 none
                 486                 none
                 244                 none
                 648                 none
                 254                 none
                 647                 none
                 265                 none
                 267                 none
                 269                 none
                 271                 none
                 272                 none
                 273                 none
                 424                 none
                 427                 none
                 434                 none
                  21                 none
                 428                 none
                 432                 none
                 646                 none
                 499                 none
                 539                 none
                 602                 none
                 614                 none
                  54                 none
                 567                 none
                 615                 none
                  18                 none
                 293                 none
                  19                 none
                 280                 none
                 645                 none
                  14                 none
                 281                 none
                 283                 none
                  32                 none
                 284                 none
                 285                 none
                 286                 none
                 296                 none
                   4                 none
                  35                 none
                 644                 none
                 643                 none
                 642                 none
                  23                 none
                  26                 none
                  60                 none
                  61                 none
                 529                 none
                 140                 none
                 141                 none
                 500                 none
                 139                 none
                 641                 none
                 501                 none
                 145                 none
                 577                 none
                  64                 none
                  65                 none
                  66                 none
                  69                 none
                  68                 none
                  70                 none
                  79                 none
                  80                 none
                 568                 none
                 107                 none
                 110                 none
                 521                 none
                  83                 none
                 155                 none
                 156                 none
                  82                 none
                 152                 none
                 153                 none
                  81                 none
                 149                 none
                 150                 none
                  87                 none
                  84                 none
                  86                 none
                  88                 none
                 569                 none
                  89                 none
                  90                 none
                  91                 none
                  92                 none
                  93                 none
                  94                 none
                  95                 none
                  96                 none
                  97                 none
                  98                 none
                  99                 none
                 100                 none
                 101                 none
                 640                 none
                 502                 none
                 526                 none
                 503                 none
                 504                 none
                 639                 none
                  72                 none
                 571                 none
                  73                 none
                  74                 none
                 572                 none
                 116                 none
                 117                 none
                 638                 none
                  76                 none
                 573                 none
                  77                 none
                  78                 none
                 574                 none
                 118                 none
                 637                 none
                 505                 none
                 125                 none
                 126                 none
                 127                 none
                 128                 none
                 120                 none
                 119                 none
                 104                 none
                 105                 none
                 106                 none
                 121                 none
                 122                 none
                 129                 none
                 130                 none
                 132                 none
                 506                 none
                 134                 none
                 487                 none
                 137                 none
                 636                 none
                 147                 none
                 635                 none
                 158                 none
                 160                 none
                 162                 none
                 164                 none
                 165                 none
                 166                 none
                 297                 none
                 294                 none
                   3                 none
                 295                 none
                 298                 none
                 410                 none
                 411                 none
                 562                 none
                 429                 none
                 634                 none
                 507                 none
                 540                 none
                 604                 none
                 616                 none
                  57                 none
                 593                 none
                 617                 none
                 633                 none
                 632                 none
                 631                 none
                  24                 none
                  27                 none
                 299                 none
                 300                 none
                 530                 none
                 379                 none
                 380                 none
                 508                 none
                 378                 none
                 630                 none
                 509                 none
                 384                 none
                 592                 none
                 303                 none
                 304                 none
                 305                 none
                 308                 none
                 307                 none
                 309                 none
                 318                 none
                 319                 none
                 583                 none
                 346                 none
                 349                 none
                 523                 none
                 322                 none
                 394                 none
                 395                 none
                 321                 none
                 391                 none
                 392                 none
                 320                 none
                 388                 none
                 389                 none
                 326                 none
                 323                 none
                 325                 none
                 327                 none
                 584                 none
                 328                 none
                 329                 none
                 330                 none
                 331                 none
                 332                 none
                 333                 none
                 334                 none
                 335                 none
                 336                 none
                 337                 none
                 338                 none
                 339                 none
                 340                 none
                 629                 none
                 510                 none
                 525                 none
                 511                 none
                 512                 none
                 628                 none
                 311                 none
                 586                 none
                 312                 none
                 313                 none
                 587                 none
                 355                 none
                 356                 none
                 627                 none
                 315                 none
                 588                 none
                 316                 none
                 317                 none
                 589                 none
                 357                 none
                 626                 none
                 513                 none
                 364                 none
                 365                 none
                 366                 none
                 367                 none
                 359                 none
                 358                 none
                 343                 none
                 344                 none
                 345                 none
                 360                 none
                 361                 none
                 368                 none
                 369                 none
                 371                 none
                 514                 none
                 373                 none
                 488                 none
                 376                 none
                 625                 none
                 386                 none
                 624                 none
                 397                 none
                 399                 none
                 401                 none
                 403                 none
                 531                 none
                 406                 none
                 274                 none
                   6                 none
                   7                 none
                 275                 none
                 407                 none
                 412                 none
                 413                 none
                 581                 none
                 430                 none
                  13                 none
                 431                 none
                 433                 none
                 435                 none
                 436                 none
                 437                 none
                 442                 none
                 449                 none
                 623                 none
                 452                 none
                 515                 none
                 454                 none
                 455                 none
                 456                 none
                 450                 none
                 457                 none
                 622                 none
                 460                 none
                 516                 none
                 462                 none
                 463                 none
                 464                 none
                 458                 none
                 465                 none
                 621                 none
                 468                 none
                 517                 none
                 470                 none
                 471                 none
                 472                 none
                 466                 none
                 473                 none
                 478                 none
                 620                 none
                 475                 none
                 476                 none
                 477                 none
                 479                 none
                 619                 none
                 481                 none
                 482                 none
                 484                 none
                 518                 none
                 483                 none
