digraph manager_compiler_graph {
MinimalModelDFEKernel[shape=plaintext, label=<<TABLE  BORDER="1" CELLPADDING="1" CELLSPACING="1"><TR><TD BGCOLOR="white" BORDER="0" PORT="node_info" ROWSPAN="1" COLSPAN="1">Kernel : MinimalModelDFEKernel</TD></TR><TR><TD BGCOLOR="white" BORDER="0" PORT="outputs" ROWSPAN="1" COLSPAN="1"><TABLE  BORDER="1" CELLPADDING="1" CELLSPACING="4"><TR><TD BGCOLOR="white" BORDER="1" PORT="u_out" ROWSPAN="1" COLSPAN="1">u_out<BR/>clk=STREAM (100.0MHz)<BR/>width=32<BR/>PUSH 5</TD><TD BGCOLOR="white" BORDER="1" PORT="v_out" ROWSPAN="1" COLSPAN="1">v_out<BR/>clk=STREAM (100.0MHz)<BR/>width=32<BR/>PUSH 5</TD><TD BGCOLOR="white" BORDER="1" PORT="w_out" ROWSPAN="1" COLSPAN="1">w_out<BR/>clk=STREAM (100.0MHz)<BR/>width=32<BR/>PUSH 5</TD><TD BGCOLOR="white" BORDER="1" PORT="s_out" ROWSPAN="1" COLSPAN="1">s_out<BR/>clk=STREAM (100.0MHz)<BR/>width=32<BR/>PUSH 5</TD></TR></TABLE></TD></TR></TABLE>>];
u_out[shape=plaintext, label=<<TABLE  BORDER="1" CELLPADDING="1" CELLSPACING="1"><TR><TD BGCOLOR="white" BORDER="0" PORT="inputs" ROWSPAN="1" COLSPAN="1"><TABLE  BORDER="1" CELLPADDING="1" CELLSPACING="4"><TR><TD BGCOLOR="white" BORDER="1" PORT="u_out" ROWSPAN="1" COLSPAN="1">u_out<BR/>clk=PCIE (125.0MHz)<BR/>width=128<BR/>PUSH 1</TD></TR></TABLE></TD></TR><TR><TD BGCOLOR="white" BORDER="0" PORT="node_info" ROWSPAN="1" COLSPAN="1">PCIe_To_Host : u_out</TD></TR></TABLE>>];
v_out[shape=plaintext, label=<<TABLE  BORDER="1" CELLPADDING="1" CELLSPACING="1"><TR><TD BGCOLOR="white" BORDER="0" PORT="inputs" ROWSPAN="1" COLSPAN="1"><TABLE  BORDER="1" CELLPADDING="1" CELLSPACING="4"><TR><TD BGCOLOR="white" BORDER="1" PORT="v_out" ROWSPAN="1" COLSPAN="1">v_out<BR/>clk=PCIE (125.0MHz)<BR/>width=128<BR/>PUSH 1</TD></TR></TABLE></TD></TR><TR><TD BGCOLOR="white" BORDER="0" PORT="node_info" ROWSPAN="1" COLSPAN="1">PCIe_To_Host : v_out</TD></TR></TABLE>>];
w_out[shape=plaintext, label=<<TABLE  BORDER="1" CELLPADDING="1" CELLSPACING="1"><TR><TD BGCOLOR="white" BORDER="0" PORT="inputs" ROWSPAN="1" COLSPAN="1"><TABLE  BORDER="1" CELLPADDING="1" CELLSPACING="4"><TR><TD BGCOLOR="white" BORDER="1" PORT="w_out" ROWSPAN="1" COLSPAN="1">w_out<BR/>clk=PCIE (125.0MHz)<BR/>width=128<BR/>PUSH 1</TD></TR></TABLE></TD></TR><TR><TD BGCOLOR="white" BORDER="0" PORT="node_info" ROWSPAN="1" COLSPAN="1">PCIe_To_Host : w_out</TD></TR></TABLE>>];
s_out[shape=plaintext, label=<<TABLE  BORDER="1" CELLPADDING="1" CELLSPACING="1"><TR><TD BGCOLOR="white" BORDER="0" PORT="inputs" ROWSPAN="1" COLSPAN="1"><TABLE  BORDER="1" CELLPADDING="1" CELLSPACING="4"><TR><TD BGCOLOR="white" BORDER="1" PORT="s_out" ROWSPAN="1" COLSPAN="1">s_out<BR/>clk=PCIE (125.0MHz)<BR/>width=128<BR/>PUSH 1</TD></TR></TABLE></TD></TR><TR><TD BGCOLOR="white" BORDER="0" PORT="node_info" ROWSPAN="1" COLSPAN="1">PCIe_To_Host : s_out</TD></TR></TABLE>>];
MinimalModelDFEKernel -> u_out [headport="u_out" tailport="u_out" label="{D{data:1}}"]
MinimalModelDFEKernel -> v_out [headport="v_out" tailport="v_out" label="{D{data:1}}"]
MinimalModelDFEKernel -> w_out [headport="w_out" tailport="w_out" label="{D{data:1}}"]
MinimalModelDFEKernel -> s_out [headport="s_out" tailport="s_out" label="{D{data:1}}"]
}
