digraph MinimalModelDFEKernel_tapnfold_1{
	NodeConstantRawBits40 [shape=box, label="1.0\nID: 40"];
	NodeEvalStreamOffset39 [label="EvalStreamOffset(loopLength)\nID: 39"];
	NodeCounter43 [shape=hexagon, label="cnt\nID: 43"];
	NodeConstantDouble395 [shape=box, label="1.0\nID: 395"];
	NodeSub396 [label="-\nID: 396"];
	NodeEqInlined441 [label="==\nID: 441"];
	NodeInputMappedReg41 [shape=box, peripheries=2, label="num_iteration\nID: 41"];
	NodeCounter42 [shape=hexagon, label="cnt\nID: 42"];
	NodeConstantDouble46 [shape=box, label="0.0\nID: 46"];
	NodeEqInlined442 [label="==\nID: 442"];
	NodeStreamOffset484 [shape=diamond, label="-loopLength\nID: 484"];
	NodeConstantRawBits38 [shape=box, label="1.0\nID: 38"];
	NodeMux48 [shape=invtrapezium, height=0.5, label="MUX\nID: 48"];
	NodeConstantRawBits15 [shape=box, label="0.300048828125\nID: 15"];
	NodeGt366 [label=">\nID: 366"];
	NodeConstantRawBits37 [shape=box, label="0.0\nID: 37"];
	NodeConstantDouble49 [shape=box, label="0.0\nID: 49"];
	NodeEqInlined443 [label="==\nID: 443"];
	NodeStreamOffset485 [shape=diamond, label="-loopLength\nID: 485"];
	NodeMux51 [shape=invtrapezium, height=0.5, label="MUX\nID: 51"];
	NodeGt255 [label=">\nID: 255"];
	NodeConstantRawBits17 [shape=box, label="0.006000518798828125\nID: 17"];
	NodeGt246 [label=">\nID: 246"];
	NodeMux247 [shape=invtrapezium, height=0.5, label="MUX\nID: 247"];
	NodeSub258 [label="-\nID: 258"];
	NodeConstantRawBits16 [shape=box, label="0.006000518798828125\nID: 16"];
	NodeGt58 [label=">\nID: 58"];
	NodeConstantRawBits1 [shape=box, label="60.0\nID: 1"];
	NodeConstantRawBits2 [shape=box, label="1150.0\nID: 2"];
	NodeMux59 [shape=invtrapezium, height=0.5, label="MUX\nID: 59"];
	NodeDiv259 [label="/\nID: 259"];
	NodeNeg256 [label="(-)\nID: 256"];
	NodeConstantRawBits0 [shape=box, label="1.45068359375\nID: 0"];
	NodeDiv257 [label="/\nID: 257"];
	NodeMux260 [shape=invtrapezium, height=0.5, label="MUX\nID: 260"];
	NodeInputMappedReg44 [shape=box, peripheries=2, label="dt\nID: 44"];
	NodeCast45 [label="{HWFloat:8, 12}\nID: 45"];
	NodeMul360 [label="*\nID: 360"];
	NodeAdd361 [label="+\nID: 361"];
	NodeNeg367 [label="(-)\nID: 367"];
	NodeSub368 [label="-\nID: 368"];
	NodeMul369 [label="*\nID: 369"];
	NodeConstantRawBits29 [shape=box, label="1.5498046875\nID: 29"];
	NodeSub370 [label="-\nID: 370"];
	NodeMul371 [label="*\nID: 371"];
	NodeConstantRawBits8 [shape=box, label="0.1099853515625\nID: 8"];
	NodeDiv372 [label="/\nID: 372"];
	NodeMux373 [shape=invtrapezium, height=0.5, label="MUX\nID: 373"];
	NodeConstantRawBits20 [shape=box, label="0.1300048828125\nID: 20"];
	NodeGt374 [label=">\nID: 374"];
	NodeConstantRawBits22 [shape=box, label="0.006000518798828125\nID: 22"];
	NodeGt244 [label=">\nID: 244"];
	NodeConstantRawBits9 [shape=box, label="400.0\nID: 9"];
	NodeConstantRawBits10 [shape=box, label="6.0\nID: 10"];
	NodeMux245 [shape=invtrapezium, height=0.5, label="MUX\nID: 245"];
	NodeDiv378 [label="/\nID: 378"];
	NodeConstantDouble375 [shape=box, label="1.0\nID: 375"];
	NodeConstantRawBits11 [shape=box, label="30.015625\nID: 11"];
	NodeConstantRawBits36 [shape=box, label="-14.51171875\nID: 36"];
	NodeConstantDouble238 [shape=box, label="1.0\nID: 238"];
	NodeConstantDouble236 [shape=box, label="1.0\nID: 236"];
	NodeConstantDouble234 [shape=box, label="2.0\nID: 234"];
	NodeConstantRawBits25 [shape=box, label="2.0458984375\nID: 25"];
	NodeConstantRawBits30 [shape=box, label="0.64990234375\nID: 30"];
	NodeSub151 [label="-\nID: 151"];
	NodeMul152 [label="*\nID: 152"];
	NodePO2FPMult480 [label="PO2FPMult_N1\nID: 480"];
	NodeSlice221 [label="[18:11]\nID: 221"];
	NodeConstantRawBits222 [shape=box, label="0xff\nID: 222"];
	NodeEqInlined444 [label="==\nID: 444"];
	NodeSlice220 [label="[10:0]\nID: 220"];
	NodeConstantDouble224 [shape=box, label="0.0\nID: 224"];
	NodeNeqInlined445 [label="!=\nID: 445"];
	NodeAnd226 [label="&\nID: 226"];
	NodeConstantRawBits155 [shape=box, label="0.0\nID: 155"];
	NodeDoubtBitOp156 [label="DoubtBitOp(ADD_DOUBT)\nID: 156"];
	NodeCast157 [label="{HWOffsetFix:24, -14, TWOSCOMPLEMENT}\nID: 157"];
	NodeConstantRawBits160 [shape=box, label="1.4426950216293335\nID: 160"];
	NodeMul159 [label="*\nID: 159"];
	NodeCast161 [label="{HWOffsetFix:24, -14, TWOSCOMPLEMENT}\nID: 161"];
	NodeDoubtBitOp170 [label="DoubtBitOp(REMOVE_DOUBT)\nID: 170"];
	NodeCast171 [label="{HWOffsetFix:10, 0, TWOSCOMPLEMENT}\nID: 171"];
	NodeCast188 [label="{HWOffsetFix:11, 0, TWOSCOMPLEMENT}\nID: 188"];
	NodeConstantRawBits191 [shape=box, label="1.0\nID: 191"];
	NodeConstantRawBits471 [shape=box, label="127.0\nID: 471"];
	NodeCast172 [label="{HWOffsetFix:6, -6, UNSIGNED}\nID: 172"];
	NodeReinterpret230 [label="<{HWOffsetFix:6, 0, UNSIGNED}>\nID: 230"];
	NodeROM231 [label="ROM\nID: 231"];
	NodeConstantRawBits176 [shape=box, label="0.69140625\nID: 176"];
	NodeCast173 [label="{HWOffsetFix:8, -14, UNSIGNED}\nID: 173"];
	NodeMul175 [label="*\nID: 175"];
	NodeCast177 [label="{HWOffsetFix:8, -14, UNSIGNED}\nID: 177"];
	NodeAdd178 [label="+\nID: 178"];
	NodeMul179 [label="*\nID: 179"];
	NodeAdd180 [label="+\nID: 180"];
	NodeCast181 [label="{HWOffsetFix:15, -14, UNSIGNED}\nID: 181"];
	NodeCast182 [label="{HWOffsetFix:12, -11, UNSIGNED}\nID: 182"];
	NodeConstantDouble183 [shape=box, label="1.0\nID: 183"];
	NodeGteInlined446 [label=">=\nID: 446"];
	NodeCondTriAdd479 [label="3 +/0\nID: 479"];
	NodeSlice447 [label="[10:10]\nID: 447"];
	NodeReinterpret448 [label="<{HWOffsetFix:1, 0, UNSIGNED}>\nID: 448"];
	NodeConstantDouble162 [shape=box, label="0.0\nID: 162"];
	NodeGt163 [label=">\nID: 163"];
	NodeDoubtBitOp164 [label="DoubtBitOp(GET_DOUBT)\nID: 164"];
	NodeAnd165 [label="&\nID: 165"];
	NodeNot197 [label="~\nID: 197"];
	NodeAnd198 [label="&\nID: 198"];
	NodeConstantDouble166 [shape=box, label="0.0\nID: 166"];
	NodeLt167 [label="<\nID: 167"];
	NodeDoubtBitOp168 [label="DoubtBitOp(GET_DOUBT)\nID: 168"];
	NodeAnd169 [label="&\nID: 169"];
	NodeOr199 [label="|\nID: 199"];
	NodeConstantDouble204 [shape=box, label="255.0\nID: 204"];
	NodeGteInlined449 [label=">=\nID: 449"];
	NodeNot206 [label="~\nID: 206"];
	NodeAnd207 [label="&\nID: 207"];
	NodeOr208 [label="|\nID: 208"];
	NodeCat209 [label="@\nID: 209"];
	NodeConstantRawBits201 [shape=box, label="0.0\nID: 201"];
	NodeCast200 [label="{HWOffsetFix:8, 0, TWOSCOMPLEMENT}\nID: 200"];
	NodeConstantRawBits185 [shape=box, label="0.0\nID: 185"];
	NodeMux186 [shape=invtrapezium, height=0.5, label="MUX\nID: 186"];
	NodeCast187 [label="{HWOffsetFix:11, -11, UNSIGNED}\nID: 187"];
	NodeCat202 [label="@\nID: 202"];
	NodeReinterpret203 [label="<{HWFloat:8, 12}>\nID: 203"];
	NodeConstantRawBits210 [shape=box, label="0.0\nID: 210"];
	NodeConstantRawBits211 [shape=box, label="255.0\nID: 211"];
	NodeConstantRawBits213 [shape=box, label="0.0\nID: 213"];
	NodeCat450 [label="@\nID: 450"];
	NodeReinterpret215 [label="<{HWFloat:8, 12}>\nID: 215"];
	NodeConstantRawBits438 [shape=box, label="0.0\nID: 438"];
	NodeMux218 [shape=invtrapezium, height=0.5, label="MUX\nID: 218"];
	NodeConstantDouble227 [shape=box, label="NaN\nID: 227"];
	NodeMux228 [shape=invtrapezium, height=0.5, label="MUX\nID: 228"];
	NodeConstantDouble232 [shape=box, label="1.0\nID: 232"];
	NodeAdd233 [label="+\nID: 233"];
	NodeDiv235 [label="/\nID: 235"];
	NodeSub237 [label="-\nID: 237"];
	NodeAdd239 [label="+\nID: 239"];
	NodeMul240 [label="*\nID: 240"];
	NodeAdd241 [label="+\nID: 241"];
	NodeDiv376 [label="/\nID: 376"];
	NodeMux379 [shape=invtrapezium, height=0.5, label="MUX\nID: 379"];
	NodeAdd386 [label="+\nID: 386"];
	NodeConstantRawBits21 [shape=box, label="0.1300048828125\nID: 21"];
	NodeGt380 [label=">\nID: 380"];
	NodeConstantRawBits384 [shape=box, label="0.0\nID: 384"];
	NodeConstantDouble52 [shape=box, label="0.0\nID: 52"];
	NodeEqInlined451 [label="==\nID: 451"];
	NodeStreamOffset486 [shape=diamond, label="-loopLength\nID: 486"];
	NodeMux54 [shape=invtrapezium, height=0.5, label="MUX\nID: 54"];
	NodeConstantRawBits18 [shape=box, label="0.1300048828125\nID: 18"];
	NodeGt261 [label=">\nID: 261"];
	NodeConstantRawBits19 [shape=box, label="0.006000518798828125\nID: 19"];
	NodeGt248 [label=">\nID: 248"];
	NodeConstantDouble250 [shape=box, label="1.0\nID: 250"];
	NodeConstantRawBits14 [shape=box, label="0.07000732421875\nID: 14"];
	NodeDiv249 [label="/\nID: 249"];
	NodeSub251 [label="-\nID: 251"];
	NodeConstantRawBits32 [shape=box, label="0.93994140625\nID: 32"];
	NodeMux252 [shape=invtrapezium, height=0.5, label="MUX\nID: 252"];
	NodeGt253 [label=">\nID: 253"];
	NodeMux254 [shape=invtrapezium, height=0.5, label="MUX\nID: 254"];
	NodeSub264 [label="-\nID: 264"];
	NodeConstantRawBits4 [shape=box, label="60.0\nID: 4"];
	NodeConstantRawBits35 [shape=box, label="-22.5\nID: 35"];
	NodeConstantDouble147 [shape=box, label="1.0\nID: 147"];
	NodeConstantDouble145 [shape=box, label="1.0\nID: 145"];
	NodeConstantDouble143 [shape=box, label="2.0\nID: 143"];
	NodeConstantRawBits23 [shape=box, label="65.0\nID: 23"];
	NodeConstantRawBits26 [shape=box, label="0.029998779296875\nID: 26"];
	NodeSub60 [label="-\nID: 60"];
	NodeMul61 [label="*\nID: 61"];
	NodePO2FPMult481 [label="PO2FPMult_N1\nID: 481"];
	NodeSlice130 [label="[18:11]\nID: 130"];
	NodeConstantRawBits131 [shape=box, label="0xff\nID: 131"];
	NodeEqInlined452 [label="==\nID: 452"];
	NodeSlice129 [label="[10:0]\nID: 129"];
	NodeConstantDouble133 [shape=box, label="0.0\nID: 133"];
	NodeNeqInlined453 [label="!=\nID: 453"];
	NodeAnd135 [label="&\nID: 135"];
	NodeConstantRawBits64 [shape=box, label="0.0\nID: 64"];
	NodeDoubtBitOp65 [label="DoubtBitOp(ADD_DOUBT)\nID: 65"];
	NodeCast66 [label="{HWOffsetFix:24, -14, TWOSCOMPLEMENT}\nID: 66"];
	NodeConstantRawBits69 [shape=box, label="1.4426950216293335\nID: 69"];
	NodeMul68 [label="*\nID: 68"];
	NodeCast70 [label="{HWOffsetFix:24, -14, TWOSCOMPLEMENT}\nID: 70"];
	NodeDoubtBitOp79 [label="DoubtBitOp(REMOVE_DOUBT)\nID: 79"];
	NodeCast80 [label="{HWOffsetFix:10, 0, TWOSCOMPLEMENT}\nID: 80"];
	NodeCast97 [label="{HWOffsetFix:11, 0, TWOSCOMPLEMENT}\nID: 97"];
	NodeConstantRawBits100 [shape=box, label="1.0\nID: 100"];
	NodeConstantRawBits473 [shape=box, label="127.0\nID: 473"];
	NodeCast81 [label="{HWOffsetFix:6, -6, UNSIGNED}\nID: 81"];
	NodeReinterpret139 [label="<{HWOffsetFix:6, 0, UNSIGNED}>\nID: 139"];
	NodeROM140 [label="ROM\nID: 140"];
	NodeConstantRawBits85 [shape=box, label="0.69140625\nID: 85"];
	NodeCast82 [label="{HWOffsetFix:8, -14, UNSIGNED}\nID: 82"];
	NodeMul84 [label="*\nID: 84"];
	NodeCast86 [label="{HWOffsetFix:8, -14, UNSIGNED}\nID: 86"];
	NodeAdd87 [label="+\nID: 87"];
	NodeMul88 [label="*\nID: 88"];
	NodeAdd89 [label="+\nID: 89"];
	NodeCast90 [label="{HWOffsetFix:15, -14, UNSIGNED}\nID: 90"];
	NodeCast91 [label="{HWOffsetFix:12, -11, UNSIGNED}\nID: 91"];
	NodeConstantDouble92 [shape=box, label="1.0\nID: 92"];
	NodeGteInlined454 [label=">=\nID: 454"];
	NodeCondTriAdd478 [label="3 +/0\nID: 478"];
	NodeSlice455 [label="[10:10]\nID: 455"];
	NodeReinterpret456 [label="<{HWOffsetFix:1, 0, UNSIGNED}>\nID: 456"];
	NodeConstantDouble71 [shape=box, label="0.0\nID: 71"];
	NodeGt72 [label=">\nID: 72"];
	NodeDoubtBitOp73 [label="DoubtBitOp(GET_DOUBT)\nID: 73"];
	NodeAnd74 [label="&\nID: 74"];
	NodeNot106 [label="~\nID: 106"];
	NodeAnd107 [label="&\nID: 107"];
	NodeConstantDouble75 [shape=box, label="0.0\nID: 75"];
	NodeLt76 [label="<\nID: 76"];
	NodeDoubtBitOp77 [label="DoubtBitOp(GET_DOUBT)\nID: 77"];
	NodeAnd78 [label="&\nID: 78"];
	NodeOr108 [label="|\nID: 108"];
	NodeConstantDouble113 [shape=box, label="255.0\nID: 113"];
	NodeGteInlined457 [label=">=\nID: 457"];
	NodeNot115 [label="~\nID: 115"];
	NodeAnd116 [label="&\nID: 116"];
	NodeOr117 [label="|\nID: 117"];
	NodeCat118 [label="@\nID: 118"];
	NodeConstantRawBits110 [shape=box, label="0.0\nID: 110"];
	NodeCast109 [label="{HWOffsetFix:8, 0, TWOSCOMPLEMENT}\nID: 109"];
	NodeConstantRawBits94 [shape=box, label="0.0\nID: 94"];
	NodeMux95 [shape=invtrapezium, height=0.5, label="MUX\nID: 95"];
	NodeCast96 [label="{HWOffsetFix:11, -11, UNSIGNED}\nID: 96"];
	NodeCat111 [label="@\nID: 111"];
	NodeReinterpret112 [label="<{HWFloat:8, 12}>\nID: 112"];
	NodeConstantRawBits119 [shape=box, label="0.0\nID: 119"];
	NodeConstantRawBits120 [shape=box, label="255.0\nID: 120"];
	NodeConstantRawBits122 [shape=box, label="0.0\nID: 122"];
	NodeCat458 [label="@\nID: 458"];
	NodeReinterpret124 [label="<{HWFloat:8, 12}>\nID: 124"];
	NodeConstantRawBits439 [shape=box, label="0.0\nID: 439"];
	NodeMux127 [shape=invtrapezium, height=0.5, label="MUX\nID: 127"];
	NodeConstantDouble136 [shape=box, label="NaN\nID: 136"];
	NodeMux137 [shape=invtrapezium, height=0.5, label="MUX\nID: 137"];
	NodeConstantDouble141 [shape=box, label="1.0\nID: 141"];
	NodeAdd142 [label="+\nID: 142"];
	NodeDiv144 [label="/\nID: 144"];
	NodeSub146 [label="-\nID: 146"];
	NodeAdd148 [label="+\nID: 148"];
	NodeMul149 [label="*\nID: 149"];
	NodeAdd150 [label="+\nID: 150"];
	NodeDiv265 [label="/\nID: 265"];
	NodeNeg262 [label="(-)\nID: 262"];
	NodeConstantRawBits3 [shape=box, label="200.0\nID: 3"];
	NodeDiv263 [label="/\nID: 263"];
	NodeMux266 [shape=invtrapezium, height=0.5, label="MUX\nID: 266"];
	NodeMul362 [label="*\nID: 362"];
	NodeAdd363 [label="+\nID: 363"];
	NodeNeg381 [label="(-)\nID: 381"];
	NodeConstantDouble55 [shape=box, label="0.0\nID: 55"];
	NodeEqInlined459 [label="==\nID: 459"];
	NodeStreamOffset487 [shape=diamond, label="-loopLength\nID: 487"];
	NodeMux57 [shape=invtrapezium, height=0.5, label="MUX\nID: 57"];
	NodeConstantDouble354 [shape=box, label="1.0\nID: 354"];
	NodeConstantDouble352 [shape=box, label="1.0\nID: 352"];
	NodeConstantDouble350 [shape=box, label="2.0\nID: 350"];
	NodeConstantRawBits24 [shape=box, label="2.099609375\nID: 24"];
	NodeConstantRawBits27 [shape=box, label="0.90869140625\nID: 27"];
	NodeSub267 [label="-\nID: 267"];
	NodeMul268 [label="*\nID: 268"];
	NodePO2FPMult482 [label="PO2FPMult_N1\nID: 482"];
	NodeSlice337 [label="[18:11]\nID: 337"];
	NodeConstantRawBits338 [shape=box, label="0xff\nID: 338"];
	NodeEqInlined460 [label="==\nID: 460"];
	NodeSlice336 [label="[10:0]\nID: 336"];
	NodeConstantDouble340 [shape=box, label="0.0\nID: 340"];
	NodeNeqInlined461 [label="!=\nID: 461"];
	NodeAnd342 [label="&\nID: 342"];
	NodeConstantRawBits271 [shape=box, label="0.0\nID: 271"];
	NodeDoubtBitOp272 [label="DoubtBitOp(ADD_DOUBT)\nID: 272"];
	NodeCast273 [label="{HWOffsetFix:24, -14, TWOSCOMPLEMENT}\nID: 273"];
	NodeConstantRawBits276 [shape=box, label="1.4426950216293335\nID: 276"];
	NodeMul275 [label="*\nID: 275"];
	NodeCast277 [label="{HWOffsetFix:24, -14, TWOSCOMPLEMENT}\nID: 277"];
	NodeDoubtBitOp286 [label="DoubtBitOp(REMOVE_DOUBT)\nID: 286"];
	NodeCast287 [label="{HWOffsetFix:10, 0, TWOSCOMPLEMENT}\nID: 287"];
	NodeCast304 [label="{HWOffsetFix:11, 0, TWOSCOMPLEMENT}\nID: 304"];
	NodeConstantRawBits307 [shape=box, label="1.0\nID: 307"];
	NodeConstantRawBits475 [shape=box, label="127.0\nID: 475"];
	NodeCast288 [label="{HWOffsetFix:6, -6, UNSIGNED}\nID: 288"];
	NodeReinterpret346 [label="<{HWOffsetFix:6, 0, UNSIGNED}>\nID: 346"];
	NodeROM347 [label="ROM\nID: 347"];
	NodeConstantRawBits292 [shape=box, label="0.69140625\nID: 292"];
	NodeCast289 [label="{HWOffsetFix:8, -14, UNSIGNED}\nID: 289"];
	NodeMul291 [label="*\nID: 291"];
	NodeCast293 [label="{HWOffsetFix:8, -14, UNSIGNED}\nID: 293"];
	NodeAdd294 [label="+\nID: 294"];
	NodeMul295 [label="*\nID: 295"];
	NodeAdd296 [label="+\nID: 296"];
	NodeCast297 [label="{HWOffsetFix:15, -14, UNSIGNED}\nID: 297"];
	NodeCast298 [label="{HWOffsetFix:12, -11, UNSIGNED}\nID: 298"];
	NodeConstantDouble299 [shape=box, label="1.0\nID: 299"];
	NodeGteInlined462 [label=">=\nID: 462"];
	NodeCondTriAdd477 [label="3 +/0\nID: 477"];
	NodeSlice463 [label="[10:10]\nID: 463"];
	NodeReinterpret464 [label="<{HWOffsetFix:1, 0, UNSIGNED}>\nID: 464"];
	NodeConstantDouble278 [shape=box, label="0.0\nID: 278"];
	NodeGt279 [label=">\nID: 279"];
	NodeDoubtBitOp280 [label="DoubtBitOp(GET_DOUBT)\nID: 280"];
	NodeAnd281 [label="&\nID: 281"];
	NodeNot313 [label="~\nID: 313"];
	NodeAnd314 [label="&\nID: 314"];
	NodeConstantDouble282 [shape=box, label="0.0\nID: 282"];
	NodeLt283 [label="<\nID: 283"];
	NodeDoubtBitOp284 [label="DoubtBitOp(GET_DOUBT)\nID: 284"];
	NodeAnd285 [label="&\nID: 285"];
	NodeOr315 [label="|\nID: 315"];
	NodeConstantDouble320 [shape=box, label="255.0\nID: 320"];
	NodeGteInlined465 [label=">=\nID: 465"];
	NodeNot322 [label="~\nID: 322"];
	NodeAnd323 [label="&\nID: 323"];
	NodeOr324 [label="|\nID: 324"];
	NodeCat325 [label="@\nID: 325"];
	NodeConstantRawBits317 [shape=box, label="0.0\nID: 317"];
	NodeCast316 [label="{HWOffsetFix:8, 0, TWOSCOMPLEMENT}\nID: 316"];
	NodeConstantRawBits301 [shape=box, label="0.0\nID: 301"];
	NodeMux302 [shape=invtrapezium, height=0.5, label="MUX\nID: 302"];
	NodeCast303 [label="{HWOffsetFix:11, -11, UNSIGNED}\nID: 303"];
	NodeCat318 [label="@\nID: 318"];
	NodeReinterpret319 [label="<{HWFloat:8, 12}>\nID: 319"];
	NodeConstantRawBits326 [shape=box, label="0.0\nID: 326"];
	NodeConstantRawBits327 [shape=box, label="255.0\nID: 327"];
	NodeConstantRawBits329 [shape=box, label="0.0\nID: 329"];
	NodeCat466 [label="@\nID: 466"];
	NodeReinterpret331 [label="<{HWFloat:8, 12}>\nID: 331"];
	NodeConstantRawBits440 [shape=box, label="0.0\nID: 440"];
	NodeMux334 [shape=invtrapezium, height=0.5, label="MUX\nID: 334"];
	NodeConstantDouble343 [shape=box, label="NaN\nID: 343"];
	NodeMux344 [shape=invtrapezium, height=0.5, label="MUX\nID: 344"];
	NodeConstantDouble348 [shape=box, label="1.0\nID: 348"];
	NodeAdd349 [label="+\nID: 349"];
	NodeDiv351 [label="/\nID: 351"];
	NodeSub353 [label="-\nID: 353"];
	NodeAdd355 [label="+\nID: 355"];
	NodePO2FPMult483 [label="PO2FPMult_N-1\nID: 483"];
	NodeSub358 [label="-\nID: 358"];
	NodeGt242 [label=">\nID: 242"];
	NodeConstantRawBits6 [shape=box, label="2.734375\nID: 6"];
	NodeConstantRawBits7 [shape=box, label="16.0\nID: 7"];
	NodeMux243 [shape=invtrapezium, height=0.5, label="MUX\nID: 243"];
	NodeDiv359 [label="/\nID: 359"];
	NodeMul364 [label="*\nID: 364"];
	NodeAdd365 [label="+\nID: 365"];
	NodeMul382 [label="*\nID: 382"];
	NodeConstantRawBits13 [shape=box, label="1.8876953125\nID: 13"];
	NodeDiv383 [label="/\nID: 383"];
	NodeMux385 [shape=invtrapezium, height=0.5, label="MUX\nID: 385"];
	NodeAdd387 [label="+\nID: 387"];
	NodeMul388 [label="*\nID: 388"];
	NodeSub389 [label="-\nID: 389"];
	NodeCast394 [label="{HWFloat:8, 24}\nID: 394"];
	NodeOutput401 [shape=house, label="u_out\nID: 401"];
	NodeConstantDouble403 [shape=box, label="1.0\nID: 403"];
	NodeSub404 [label="-\nID: 404"];
	NodeEqInlined467 [label="==\nID: 467"];
	NodeCast402 [label="{HWFloat:8, 24}\nID: 402"];
	NodeOutput409 [shape=house, label="v_out\nID: 409"];
	NodeConstantDouble411 [shape=box, label="1.0\nID: 411"];
	NodeSub412 [label="-\nID: 412"];
	NodeEqInlined468 [label="==\nID: 468"];
	NodeCast410 [label="{HWFloat:8, 24}\nID: 410"];
	NodeOutput417 [shape=house, label="w_out\nID: 417"];
	NodeConstantDouble419 [shape=box, label="1.0\nID: 419"];
	NodeSub420 [label="-\nID: 420"];
	NodeEqInlined469 [label="==\nID: 469"];
	NodeCast418 [label="{HWFloat:8, 24}\nID: 418"];
	NodeOutput425 [shape=house, label="s_out\nID: 425"];
	NodeConstantRawBits40 -> NodeCounter43[label="enable" color="/dark28/1" photon_data="EDGE,SrcNode:40,SrcNodePort:value"];
	NodeEvalStreamOffset39 -> NodeCounter43[label="max" color="/dark28/2" photon_data="EDGE,SrcNode:39,SrcNodePort:output"];
	NodeEvalStreamOffset39 -> NodeSub396[color="/dark28/3" photon_data="EDGE,SrcNode:39,SrcNodePort:output"];
	NodeConstantDouble395 -> NodeSub396[color="/dark28/4" photon_data="EDGE,SrcNode:395,SrcNodePort:value"];
	NodeCounter43 -> NodeEqInlined441[color="/dark28/5" photon_data="EDGE,SrcNode:43,SrcNodePort:count"];
	NodeSub396 -> NodeEqInlined441[color="/dark28/6" photon_data="EDGE,SrcNode:396,SrcNodePort:result"];
	NodeEqInlined441 -> NodeOutput401[headport="w" color="/dark28/7" ];
	NodeCounter43 -> NodeCounter42[label="enable" color="/dark28/8" photon_data="EDGE,SrcNode:43,SrcNodePort:wrap"];
	NodeInputMappedReg41 -> NodeCounter42[label="max" color="/dark28/1" photon_data="EDGE,SrcNode:41,SrcNodePort:num_iteration"];
	NodeCounter42 -> NodeEqInlined442[color="/dark28/2" photon_data="EDGE,SrcNode:42,SrcNodePort:count"];
	NodeConstantDouble46 -> NodeEqInlined442[color="/dark28/3" photon_data="EDGE,SrcNode:46,SrcNodePort:value"];
	NodeSub389 -> NodeStreamOffset484[headport="n" tailport="s" color=red photon_data="EDGE,SrcNode:389,SrcNodePort:result"];
	NodeEqInlined442 -> NodeMux48[headport="w" color="/dark28/4" photon_data="EDGE,SrcNode:442,SrcNodePort:result"];
	NodeStreamOffset484 -> NodeMux48[color="/dark28/5" photon_data="EDGE,SrcNode:484,SrcNodePort:output"];
	NodeConstantRawBits38 -> NodeMux48[color="/dark28/6" photon_data="EDGE,SrcNode:38,SrcNodePort:value"];
	NodeMux48 -> NodeGt366[color="/dark28/7" photon_data="EDGE,SrcNode:48,SrcNodePort:result"];
	NodeConstantRawBits15 -> NodeGt366[color="/dark28/8" photon_data="EDGE,SrcNode:15,SrcNodePort:value"];
	NodeCounter42 -> NodeEqInlined443[color="/dark28/1" photon_data="EDGE,SrcNode:42,SrcNodePort:count"];
	NodeConstantDouble49 -> NodeEqInlined443[color="/dark28/2" photon_data="EDGE,SrcNode:49,SrcNodePort:value"];
	NodeAdd361 -> NodeStreamOffset485[headport="n" tailport="s" color=red photon_data="EDGE,SrcNode:361,SrcNodePort:result"];
	NodeEqInlined443 -> NodeMux51[headport="w" color="/dark28/3" photon_data="EDGE,SrcNode:443,SrcNodePort:result"];
	NodeStreamOffset485 -> NodeMux51[color="/dark28/4" photon_data="EDGE,SrcNode:485,SrcNodePort:output"];
	NodeConstantRawBits38 -> NodeMux51[color="/dark28/5" photon_data="EDGE,SrcNode:38,SrcNodePort:value"];
	NodeMux48 -> NodeGt255[color="/dark28/6" photon_data="EDGE,SrcNode:48,SrcNodePort:result"];
	NodeConstantRawBits15 -> NodeGt255[color="/dark28/7" photon_data="EDGE,SrcNode:15,SrcNodePort:value"];
	NodeMux48 -> NodeGt246[color="/dark28/8" photon_data="EDGE,SrcNode:48,SrcNodePort:result"];
	NodeConstantRawBits17 -> NodeGt246[color="/dark28/1" photon_data="EDGE,SrcNode:17,SrcNodePort:value"];
	NodeGt246 -> NodeMux247[headport="w" color="/dark28/2" photon_data="EDGE,SrcNode:246,SrcNodePort:result"];
	NodeConstantRawBits38 -> NodeMux247[color="/dark28/3" photon_data="EDGE,SrcNode:38,SrcNodePort:value"];
	NodeConstantRawBits37 -> NodeMux247[color="/dark28/4" photon_data="EDGE,SrcNode:37,SrcNodePort:value"];
	NodeMux247 -> NodeSub258[color="/dark28/5" photon_data="EDGE,SrcNode:247,SrcNodePort:result"];
	NodeMux51 -> NodeSub258[color="/dark28/6" photon_data="EDGE,SrcNode:51,SrcNodePort:result"];
	NodeMux48 -> NodeGt58[color="/dark28/7" photon_data="EDGE,SrcNode:48,SrcNodePort:result"];
	NodeConstantRawBits16 -> NodeGt58[color="/dark28/8" photon_data="EDGE,SrcNode:16,SrcNodePort:value"];
	NodeGt58 -> NodeMux59[headport="w" color="/dark28/1" photon_data="EDGE,SrcNode:58,SrcNodePort:result"];
	NodeConstantRawBits1 -> NodeMux59[color="/dark28/2" photon_data="EDGE,SrcNode:1,SrcNodePort:value"];
	NodeConstantRawBits2 -> NodeMux59[color="/dark28/3" photon_data="EDGE,SrcNode:2,SrcNodePort:value"];
	NodeSub258 -> NodeDiv259[color="/dark28/4" photon_data="EDGE,SrcNode:258,SrcNodePort:result"];
	NodeMux59 -> NodeDiv259[color="/dark28/5" photon_data="EDGE,SrcNode:59,SrcNodePort:result"];
	NodeMux51 -> NodeNeg256[color="/dark28/6" photon_data="EDGE,SrcNode:51,SrcNodePort:result"];
	NodeNeg256 -> NodeDiv257[color="/dark28/7" photon_data="EDGE,SrcNode:256,SrcNodePort:result"];
	NodeConstantRawBits0 -> NodeDiv257[color="/dark28/8" photon_data="EDGE,SrcNode:0,SrcNodePort:value"];
	NodeGt255 -> NodeMux260[headport="w" color="/dark28/1" photon_data="EDGE,SrcNode:255,SrcNodePort:result"];
	NodeDiv259 -> NodeMux260[color="/dark28/2" photon_data="EDGE,SrcNode:259,SrcNodePort:result"];
	NodeDiv257 -> NodeMux260[color="/dark28/3" photon_data="EDGE,SrcNode:257,SrcNodePort:result"];
	NodeInputMappedReg44 -> NodeCast45[color="/dark28/4" photon_data="EDGE,SrcNode:44,SrcNodePort:dt"];
	NodeMux260 -> NodeMul360[color="/dark28/5" photon_data="EDGE,SrcNode:260,SrcNodePort:result"];
	NodeCast45 -> NodeMul360[color="/dark28/6" photon_data="EDGE,SrcNode:45,SrcNodePort:o"];
	NodeMux51 -> NodeAdd361[color="/dark28/7" photon_data="EDGE,SrcNode:51,SrcNodePort:result"];
	NodeMul360 -> NodeAdd361[color="/dark28/8" photon_data="EDGE,SrcNode:360,SrcNodePort:result"];
	NodeAdd361 -> NodeNeg367[color="/dark28/1" photon_data="EDGE,SrcNode:361,SrcNodePort:result"];
	NodeMux48 -> NodeSub368[color="/dark28/2" photon_data="EDGE,SrcNode:48,SrcNodePort:result"];
	NodeConstantRawBits15 -> NodeSub368[color="/dark28/3" photon_data="EDGE,SrcNode:15,SrcNodePort:value"];
	NodeNeg367 -> NodeMul369[color="/dark28/4" photon_data="EDGE,SrcNode:367,SrcNodePort:result"];
	NodeSub368 -> NodeMul369[color="/dark28/5" photon_data="EDGE,SrcNode:368,SrcNodePort:result"];
	NodeConstantRawBits29 -> NodeSub370[color="/dark28/6" photon_data="EDGE,SrcNode:29,SrcNodePort:value"];
	NodeMux48 -> NodeSub370[color="/dark28/7" photon_data="EDGE,SrcNode:48,SrcNodePort:result"];
	NodeMul369 -> NodeMul371[color="/dark28/8" photon_data="EDGE,SrcNode:369,SrcNodePort:result"];
	NodeSub370 -> NodeMul371[color="/dark28/1" photon_data="EDGE,SrcNode:370,SrcNodePort:result"];
	NodeMul371 -> NodeDiv372[color="/dark28/2" photon_data="EDGE,SrcNode:371,SrcNodePort:result"];
	NodeConstantRawBits8 -> NodeDiv372[color="/dark28/3" photon_data="EDGE,SrcNode:8,SrcNodePort:value"];
	NodeGt366 -> NodeMux373[headport="w" color="/dark28/4" photon_data="EDGE,SrcNode:366,SrcNodePort:result"];
	NodeConstantRawBits37 -> NodeMux373[color="/dark28/5" photon_data="EDGE,SrcNode:37,SrcNodePort:value"];
	NodeDiv372 -> NodeMux373[color="/dark28/6" photon_data="EDGE,SrcNode:372,SrcNodePort:result"];
	NodeMux48 -> NodeGt374[color="/dark28/7" photon_data="EDGE,SrcNode:48,SrcNodePort:result"];
	NodeConstantRawBits20 -> NodeGt374[color="/dark28/8" photon_data="EDGE,SrcNode:20,SrcNodePort:value"];
	NodeMux48 -> NodeGt244[color="/dark28/1" photon_data="EDGE,SrcNode:48,SrcNodePort:result"];
	NodeConstantRawBits22 -> NodeGt244[color="/dark28/2" photon_data="EDGE,SrcNode:22,SrcNodePort:value"];
	NodeGt244 -> NodeMux245[headport="w" color="/dark28/3" photon_data="EDGE,SrcNode:244,SrcNodePort:result"];
	NodeConstantRawBits9 -> NodeMux245[color="/dark28/4" photon_data="EDGE,SrcNode:9,SrcNodePort:value"];
	NodeConstantRawBits10 -> NodeMux245[color="/dark28/5" photon_data="EDGE,SrcNode:10,SrcNodePort:value"];
	NodeMux48 -> NodeDiv378[color="/dark28/6" photon_data="EDGE,SrcNode:48,SrcNodePort:result"];
	NodeMux245 -> NodeDiv378[color="/dark28/7" photon_data="EDGE,SrcNode:245,SrcNodePort:result"];
	NodeMux48 -> NodeSub151[color="/dark28/8" photon_data="EDGE,SrcNode:48,SrcNodePort:result"];
	NodeConstantRawBits30 -> NodeSub151[color="/dark28/1" photon_data="EDGE,SrcNode:30,SrcNodePort:value"];
	NodeConstantRawBits25 -> NodeMul152[color="/dark28/2" photon_data="EDGE,SrcNode:25,SrcNodePort:value"];
	NodeSub151 -> NodeMul152[color="/dark28/3" photon_data="EDGE,SrcNode:151,SrcNodePort:result"];
	NodeMul152 -> NodePO2FPMult480[color="/dark28/4" photon_data="EDGE,SrcNode:152,SrcNodePort:result"];
	NodePO2FPMult480 -> NodeSlice221[color="/dark28/5" photon_data="EDGE,SrcNode:480,SrcNodePort:floatOut"];
	NodeSlice221 -> NodeEqInlined444[color="/dark28/6" photon_data="EDGE,SrcNode:221,SrcNodePort:result"];
	NodeConstantRawBits222 -> NodeEqInlined444[color="/dark28/7" photon_data="EDGE,SrcNode:222,SrcNodePort:value"];
	NodePO2FPMult480 -> NodeSlice220[color="/dark28/8" photon_data="EDGE,SrcNode:480,SrcNodePort:floatOut"];
	NodeSlice220 -> NodeNeqInlined445[color="/dark28/1" photon_data="EDGE,SrcNode:220,SrcNodePort:result"];
	NodeConstantDouble224 -> NodeNeqInlined445[color="/dark28/2" photon_data="EDGE,SrcNode:224,SrcNodePort:value"];
	NodeEqInlined444 -> NodeAnd226[color="/dark28/3" photon_data="EDGE,SrcNode:444,SrcNodePort:result"];
	NodeNeqInlined445 -> NodeAnd226[color="/dark28/4" photon_data="EDGE,SrcNode:445,SrcNodePort:result"];
	NodePO2FPMult480 -> NodeDoubtBitOp156[color="/dark28/5" photon_data="EDGE,SrcNode:480,SrcNodePort:floatOut"];
	NodeConstantRawBits155 -> NodeDoubtBitOp156[color="/dark28/6" photon_data="EDGE,SrcNode:155,SrcNodePort:value"];
	NodeDoubtBitOp156 -> NodeCast157[color="/dark28/7" style=dashed photon_data="EDGE,SrcNode:156,SrcNodePort:output"];
	NodeCast157 -> NodeMul159[color="/dark28/8" style=dashed photon_data="EDGE,SrcNode:157,SrcNodePort:o"];
	NodeConstantRawBits160 -> NodeMul159[color="/dark28/1" photon_data="EDGE,SrcNode:160,SrcNodePort:value"];
	NodeMul159 -> NodeCast161[color="/dark28/2" style=dashed photon_data="EDGE,SrcNode:159,SrcNodePort:result"];
	NodeCast161 -> NodeDoubtBitOp170[color="/dark28/3" style=dashed photon_data="EDGE,SrcNode:161,SrcNodePort:o"];
	NodeDoubtBitOp170 -> NodeCast171[color="/dark28/4" photon_data="EDGE,SrcNode:170,SrcNodePort:output"];
	NodeCast171 -> NodeCast188[color="/dark28/5" photon_data="EDGE,SrcNode:171,SrcNodePort:o"];
	NodeDoubtBitOp170 -> NodeCast172[color="/dark28/6" photon_data="EDGE,SrcNode:170,SrcNodePort:output"];
	NodeCast172 -> NodeReinterpret230[color="/dark28/7" photon_data="EDGE,SrcNode:172,SrcNodePort:o"];
	NodeReinterpret230 -> NodeROM231[color="/dark28/8" photon_data="EDGE,SrcNode:230,SrcNodePort:output"];
	NodeDoubtBitOp170 -> NodeCast173[color="/dark28/1" photon_data="EDGE,SrcNode:170,SrcNodePort:output"];
	NodeConstantRawBits176 -> NodeMul175[color="/dark28/2" photon_data="EDGE,SrcNode:176,SrcNodePort:value"];
	NodeCast173 -> NodeMul175[color="/dark28/3" photon_data="EDGE,SrcNode:173,SrcNodePort:o"];
	NodeMul175 -> NodeCast177[color="/dark28/4" photon_data="EDGE,SrcNode:175,SrcNodePort:result"];
	NodeROM231 -> NodeAdd178[color="/dark28/5" photon_data="EDGE,SrcNode:231,SrcNodePort:dout"];
	NodeCast177 -> NodeAdd178[color="/dark28/6" photon_data="EDGE,SrcNode:177,SrcNodePort:o"];
	NodeCast177 -> NodeMul179[color="/dark28/7" photon_data="EDGE,SrcNode:177,SrcNodePort:o"];
	NodeROM231 -> NodeMul179[color="/dark28/8" photon_data="EDGE,SrcNode:231,SrcNodePort:dout"];
	NodeAdd178 -> NodeAdd180[color="/dark28/1" photon_data="EDGE,SrcNode:178,SrcNodePort:result"];
	NodeMul179 -> NodeAdd180[color="/dark28/2" photon_data="EDGE,SrcNode:179,SrcNodePort:result"];
	NodeAdd180 -> NodeCast181[color="/dark28/3" photon_data="EDGE,SrcNode:180,SrcNodePort:result"];
	NodeCast181 -> NodeCast182[color="/dark28/4" photon_data="EDGE,SrcNode:181,SrcNodePort:o"];
	NodeCast182 -> NodeGteInlined446[color="/dark28/5" photon_data="EDGE,SrcNode:182,SrcNodePort:o"];
	NodeConstantDouble183 -> NodeGteInlined446[color="/dark28/6" photon_data="EDGE,SrcNode:183,SrcNodePort:value"];
	NodeCast188 -> NodeCondTriAdd479[color="/dark28/7" photon_data="EDGE,SrcNode:188,SrcNodePort:o"];
	NodeConstantRawBits191 -> NodeCondTriAdd479[color="/dark28/8" photon_data="EDGE,SrcNode:191,SrcNodePort:value"];
	NodeConstantRawBits471 -> NodeCondTriAdd479[color="/dark28/1" photon_data="EDGE,SrcNode:471,SrcNodePort:value"];
	NodeGteInlined446 -> NodeCondTriAdd479[color="/dark28/2" photon_data="EDGE,SrcNode:446,SrcNodePort:result"];
	NodeCondTriAdd479 -> NodeSlice447[color="/dark28/3" photon_data="EDGE,SrcNode:479,SrcNodePort:result"];
	NodeSlice447 -> NodeReinterpret448[color="/dark28/4" photon_data="EDGE,SrcNode:447,SrcNodePort:result"];
	NodePO2FPMult480 -> NodeGt163[color="/dark28/5" photon_data="EDGE,SrcNode:480,SrcNodePort:floatOut"];
	NodeConstantDouble162 -> NodeGt163[color="/dark28/6" photon_data="EDGE,SrcNode:162,SrcNodePort:value"];
	NodeCast161 -> NodeDoubtBitOp164[color="/dark28/7" style=dashed photon_data="EDGE,SrcNode:161,SrcNodePort:o"];
	NodeGt163 -> NodeAnd165[color="/dark28/8" photon_data="EDGE,SrcNode:163,SrcNodePort:result"];
	NodeDoubtBitOp164 -> NodeAnd165[color="/dark28/1" photon_data="EDGE,SrcNode:164,SrcNodePort:output"];
	NodeAnd165 -> NodeNot197[color="/dark28/2" photon_data="EDGE,SrcNode:165,SrcNodePort:result"];
	NodeReinterpret448 -> NodeAnd198[color="/dark28/3" photon_data="EDGE,SrcNode:448,SrcNodePort:output"];
	NodeNot197 -> NodeAnd198[color="/dark28/4" photon_data="EDGE,SrcNode:197,SrcNodePort:result"];
	NodePO2FPMult480 -> NodeLt167[color="/dark28/5" photon_data="EDGE,SrcNode:480,SrcNodePort:floatOut"];
	NodeConstantDouble166 -> NodeLt167[color="/dark28/6" photon_data="EDGE,SrcNode:166,SrcNodePort:value"];
	NodeCast161 -> NodeDoubtBitOp168[color="/dark28/7" style=dashed photon_data="EDGE,SrcNode:161,SrcNodePort:o"];
	NodeLt167 -> NodeAnd169[color="/dark28/8" photon_data="EDGE,SrcNode:167,SrcNodePort:result"];
	NodeDoubtBitOp168 -> NodeAnd169[color="/dark28/1" photon_data="EDGE,SrcNode:168,SrcNodePort:output"];
	NodeAnd198 -> NodeOr199[color="/dark28/2" photon_data="EDGE,SrcNode:198,SrcNodePort:result"];
	NodeAnd169 -> NodeOr199[color="/dark28/3" photon_data="EDGE,SrcNode:169,SrcNodePort:result"];
	NodeCondTriAdd479 -> NodeGteInlined449[color="/dark28/4" photon_data="EDGE,SrcNode:479,SrcNodePort:result"];
	NodeConstantDouble204 -> NodeGteInlined449[color="/dark28/5" photon_data="EDGE,SrcNode:204,SrcNodePort:value"];
	NodeAnd169 -> NodeNot206[color="/dark28/6" photon_data="EDGE,SrcNode:169,SrcNodePort:result"];
	NodeGteInlined449 -> NodeAnd207[color="/dark28/7" photon_data="EDGE,SrcNode:449,SrcNodePort:result"];
	NodeNot206 -> NodeAnd207[color="/dark28/8" photon_data="EDGE,SrcNode:206,SrcNodePort:result"];
	NodeAnd207 -> NodeOr208[color="/dark28/1" photon_data="EDGE,SrcNode:207,SrcNodePort:result"];
	NodeAnd165 -> NodeOr208[color="/dark28/2" photon_data="EDGE,SrcNode:165,SrcNodePort:result"];
	NodeOr199 -> NodeCat209[color="/dark28/3" photon_data="EDGE,SrcNode:199,SrcNodePort:result"];
	NodeOr208 -> NodeCat209[color="/dark28/4" photon_data="EDGE,SrcNode:208,SrcNodePort:result"];
	NodeCondTriAdd479 -> NodeCast200[color="/dark28/5" photon_data="EDGE,SrcNode:479,SrcNodePort:result"];
	NodeGteInlined446 -> NodeMux186[headport="w" color="/dark28/6" photon_data="EDGE,SrcNode:446,SrcNodePort:result"];
	NodeCast182 -> NodeMux186[color="/dark28/7" photon_data="EDGE,SrcNode:182,SrcNodePort:o"];
	NodeConstantRawBits185 -> NodeMux186[color="/dark28/8" photon_data="EDGE,SrcNode:185,SrcNodePort:value"];
	NodeMux186 -> NodeCast187[color="/dark28/1" photon_data="EDGE,SrcNode:186,SrcNodePort:result"];
	NodeConstantRawBits201 -> NodeCat202[color="/dark28/2" photon_data="EDGE,SrcNode:201,SrcNodePort:value"];
	NodeCast200 -> NodeCat202[color="/dark28/3" photon_data="EDGE,SrcNode:200,SrcNodePort:o"];
	NodeCast187 -> NodeCat202[color="/dark28/4" photon_data="EDGE,SrcNode:187,SrcNodePort:o"];
	NodeCat202 -> NodeReinterpret203[color="/dark28/5" photon_data="EDGE,SrcNode:202,SrcNodePort:result"];
	NodeConstantRawBits210 -> NodeCat450[color="/dark28/6" photon_data="EDGE,SrcNode:210,SrcNodePort:value"];
	NodeConstantRawBits211 -> NodeCat450[color="/dark28/7" photon_data="EDGE,SrcNode:211,SrcNodePort:value"];
	NodeConstantRawBits213 -> NodeCat450[color="/dark28/8" photon_data="EDGE,SrcNode:213,SrcNodePort:value"];
	NodeCat450 -> NodeReinterpret215[color="/dark28/1" photon_data="EDGE,SrcNode:450,SrcNodePort:result"];
	NodeCat209 -> NodeMux218[headport="w" color="/dark28/2" photon_data="EDGE,SrcNode:209,SrcNodePort:result"];
	NodeReinterpret203 -> NodeMux218[color="/dark28/3" photon_data="EDGE,SrcNode:203,SrcNodePort:output"];
	NodeReinterpret215 -> NodeMux218[color="/dark28/4" photon_data="EDGE,SrcNode:215,SrcNodePort:output"];
	NodeConstantRawBits438 -> NodeMux218[color="/dark28/5" photon_data="EDGE,SrcNode:438,SrcNodePort:value"];
	NodeReinterpret215 -> NodeMux218[color="/dark28/6" photon_data="EDGE,SrcNode:215,SrcNodePort:output"];
	NodeAnd226 -> NodeMux228[headport="w" color="/dark28/7" photon_data="EDGE,SrcNode:226,SrcNodePort:result"];
	NodeMux218 -> NodeMux228[color="/dark28/8" photon_data="EDGE,SrcNode:218,SrcNodePort:result"];
	NodeConstantDouble227 -> NodeMux228[color="/dark28/1" photon_data="EDGE,SrcNode:227,SrcNodePort:value"];
	NodeMux228 -> NodeAdd233[color="/dark28/2" photon_data="EDGE,SrcNode:228,SrcNodePort:result"];
	NodeConstantDouble232 -> NodeAdd233[color="/dark28/3" photon_data="EDGE,SrcNode:232,SrcNodePort:value"];
	NodeConstantDouble234 -> NodeDiv235[color="/dark28/4" photon_data="EDGE,SrcNode:234,SrcNodePort:value"];
	NodeAdd233 -> NodeDiv235[color="/dark28/5" photon_data="EDGE,SrcNode:233,SrcNodePort:result"];
	NodeConstantDouble236 -> NodeSub237[color="/dark28/6" photon_data="EDGE,SrcNode:236,SrcNodePort:value"];
	NodeDiv235 -> NodeSub237[color="/dark28/7" photon_data="EDGE,SrcNode:235,SrcNodePort:result"];
	NodeConstantDouble238 -> NodeAdd239[color="/dark28/8" photon_data="EDGE,SrcNode:238,SrcNodePort:value"];
	NodeSub237 -> NodeAdd239[color="/dark28/1" photon_data="EDGE,SrcNode:237,SrcNodePort:result"];
	NodeConstantRawBits36 -> NodeMul240[color="/dark28/2" photon_data="EDGE,SrcNode:36,SrcNodePort:value"];
	NodeAdd239 -> NodeMul240[color="/dark28/3" photon_data="EDGE,SrcNode:239,SrcNodePort:result"];
	NodeConstantRawBits11 -> NodeAdd241[color="/dark28/4" photon_data="EDGE,SrcNode:11,SrcNodePort:value"];
	NodeMul240 -> NodeAdd241[color="/dark28/5" photon_data="EDGE,SrcNode:240,SrcNodePort:result"];
	NodeConstantDouble375 -> NodeDiv376[color="/dark28/6" photon_data="EDGE,SrcNode:375,SrcNodePort:value"];
	NodeAdd241 -> NodeDiv376[color="/dark28/7" photon_data="EDGE,SrcNode:241,SrcNodePort:result"];
	NodeGt374 -> NodeMux379[headport="w" color="/dark28/8" photon_data="EDGE,SrcNode:374,SrcNodePort:result"];
	NodeDiv378 -> NodeMux379[color="/dark28/1" photon_data="EDGE,SrcNode:378,SrcNodePort:result"];
	NodeDiv376 -> NodeMux379[color="/dark28/2" photon_data="EDGE,SrcNode:376,SrcNodePort:result"];
	NodeMux373 -> NodeAdd386[color="/dark28/3" photon_data="EDGE,SrcNode:373,SrcNodePort:result"];
	NodeMux379 -> NodeAdd386[color="/dark28/4" photon_data="EDGE,SrcNode:379,SrcNodePort:result"];
	NodeMux48 -> NodeGt380[color="/dark28/5" photon_data="EDGE,SrcNode:48,SrcNodePort:result"];
	NodeConstantRawBits21 -> NodeGt380[color="/dark28/6" photon_data="EDGE,SrcNode:21,SrcNodePort:value"];
	NodeCounter42 -> NodeEqInlined451[color="/dark28/7" photon_data="EDGE,SrcNode:42,SrcNodePort:count"];
	NodeConstantDouble52 -> NodeEqInlined451[color="/dark28/8" photon_data="EDGE,SrcNode:52,SrcNodePort:value"];
	NodeAdd363 -> NodeStreamOffset486[headport="n" tailport="s" color=red photon_data="EDGE,SrcNode:363,SrcNodePort:result"];
	NodeEqInlined451 -> NodeMux54[headport="w" color="/dark28/1" photon_data="EDGE,SrcNode:451,SrcNodePort:result"];
	NodeStreamOffset486 -> NodeMux54[color="/dark28/2" photon_data="EDGE,SrcNode:486,SrcNodePort:output"];
	NodeConstantRawBits38 -> NodeMux54[color="/dark28/3" photon_data="EDGE,SrcNode:38,SrcNodePort:value"];
	NodeMux48 -> NodeGt261[color="/dark28/4" photon_data="EDGE,SrcNode:48,SrcNodePort:result"];
	NodeConstantRawBits18 -> NodeGt261[color="/dark28/5" photon_data="EDGE,SrcNode:18,SrcNodePort:value"];
	NodeMux48 -> NodeGt248[color="/dark28/6" photon_data="EDGE,SrcNode:48,SrcNodePort:result"];
	NodeConstantRawBits19 -> NodeGt248[color="/dark28/7" photon_data="EDGE,SrcNode:19,SrcNodePort:value"];
	NodeMux48 -> NodeDiv249[color="/dark28/8" photon_data="EDGE,SrcNode:48,SrcNodePort:result"];
	NodeConstantRawBits14 -> NodeDiv249[color="/dark28/1" photon_data="EDGE,SrcNode:14,SrcNodePort:value"];
	NodeConstantDouble250 -> NodeSub251[color="/dark28/2" photon_data="EDGE,SrcNode:250,SrcNodePort:value"];
	NodeDiv249 -> NodeSub251[color="/dark28/3" photon_data="EDGE,SrcNode:249,SrcNodePort:result"];
	NodeGt248 -> NodeMux252[headport="w" color="/dark28/4" photon_data="EDGE,SrcNode:248,SrcNodePort:result"];
	NodeSub251 -> NodeMux252[color="/dark28/5" photon_data="EDGE,SrcNode:251,SrcNodePort:result"];
	NodeConstantRawBits32 -> NodeMux252[color="/dark28/6" photon_data="EDGE,SrcNode:32,SrcNodePort:value"];
	NodeMux252 -> NodeGt253[color="/dark28/7" photon_data="EDGE,SrcNode:252,SrcNodePort:result"];
	NodeConstantRawBits38 -> NodeGt253[color="/dark28/8" photon_data="EDGE,SrcNode:38,SrcNodePort:value"];
	NodeGt253 -> NodeMux254[headport="w" color="/dark28/1" photon_data="EDGE,SrcNode:253,SrcNodePort:result"];
	NodeMux252 -> NodeMux254[color="/dark28/2" photon_data="EDGE,SrcNode:252,SrcNodePort:result"];
	NodeConstantRawBits38 -> NodeMux254[color="/dark28/3" photon_data="EDGE,SrcNode:38,SrcNodePort:value"];
	NodeMux254 -> NodeSub264[color="/dark28/4" photon_data="EDGE,SrcNode:254,SrcNodePort:result"];
	NodeMux54 -> NodeSub264[color="/dark28/5" photon_data="EDGE,SrcNode:54,SrcNodePort:result"];
	NodeMux48 -> NodeSub60[color="/dark28/6" photon_data="EDGE,SrcNode:48,SrcNodePort:result"];
	NodeConstantRawBits26 -> NodeSub60[color="/dark28/7" photon_data="EDGE,SrcNode:26,SrcNodePort:value"];
	NodeConstantRawBits23 -> NodeMul61[color="/dark28/8" photon_data="EDGE,SrcNode:23,SrcNodePort:value"];
	NodeSub60 -> NodeMul61[color="/dark28/1" photon_data="EDGE,SrcNode:60,SrcNodePort:result"];
	NodeMul61 -> NodePO2FPMult481[color="/dark28/2" photon_data="EDGE,SrcNode:61,SrcNodePort:result"];
	NodePO2FPMult481 -> NodeSlice130[color="/dark28/3" photon_data="EDGE,SrcNode:481,SrcNodePort:floatOut"];
	NodeSlice130 -> NodeEqInlined452[color="/dark28/4" photon_data="EDGE,SrcNode:130,SrcNodePort:result"];
	NodeConstantRawBits131 -> NodeEqInlined452[color="/dark28/5" photon_data="EDGE,SrcNode:131,SrcNodePort:value"];
	NodePO2FPMult481 -> NodeSlice129[color="/dark28/6" photon_data="EDGE,SrcNode:481,SrcNodePort:floatOut"];
	NodeSlice129 -> NodeNeqInlined453[color="/dark28/7" photon_data="EDGE,SrcNode:129,SrcNodePort:result"];
	NodeConstantDouble133 -> NodeNeqInlined453[color="/dark28/8" photon_data="EDGE,SrcNode:133,SrcNodePort:value"];
	NodeEqInlined452 -> NodeAnd135[color="/dark28/1" photon_data="EDGE,SrcNode:452,SrcNodePort:result"];
	NodeNeqInlined453 -> NodeAnd135[color="/dark28/2" photon_data="EDGE,SrcNode:453,SrcNodePort:result"];
	NodePO2FPMult481 -> NodeDoubtBitOp65[color="/dark28/3" photon_data="EDGE,SrcNode:481,SrcNodePort:floatOut"];
	NodeConstantRawBits64 -> NodeDoubtBitOp65[color="/dark28/4" photon_data="EDGE,SrcNode:64,SrcNodePort:value"];
	NodeDoubtBitOp65 -> NodeCast66[color="/dark28/5" style=dashed photon_data="EDGE,SrcNode:65,SrcNodePort:output"];
	NodeCast66 -> NodeMul68[color="/dark28/6" style=dashed photon_data="EDGE,SrcNode:66,SrcNodePort:o"];
	NodeConstantRawBits69 -> NodeMul68[color="/dark28/7" photon_data="EDGE,SrcNode:69,SrcNodePort:value"];
	NodeMul68 -> NodeCast70[color="/dark28/8" style=dashed photon_data="EDGE,SrcNode:68,SrcNodePort:result"];
	NodeCast70 -> NodeDoubtBitOp79[color="/dark28/1" style=dashed photon_data="EDGE,SrcNode:70,SrcNodePort:o"];
	NodeDoubtBitOp79 -> NodeCast80[color="/dark28/2" photon_data="EDGE,SrcNode:79,SrcNodePort:output"];
	NodeCast80 -> NodeCast97[color="/dark28/3" photon_data="EDGE,SrcNode:80,SrcNodePort:o"];
	NodeDoubtBitOp79 -> NodeCast81[color="/dark28/4" photon_data="EDGE,SrcNode:79,SrcNodePort:output"];
	NodeCast81 -> NodeReinterpret139[color="/dark28/5" photon_data="EDGE,SrcNode:81,SrcNodePort:o"];
	NodeReinterpret139 -> NodeROM140[color="/dark28/6" photon_data="EDGE,SrcNode:139,SrcNodePort:output"];
	NodeDoubtBitOp79 -> NodeCast82[color="/dark28/7" photon_data="EDGE,SrcNode:79,SrcNodePort:output"];
	NodeConstantRawBits85 -> NodeMul84[color="/dark28/8" photon_data="EDGE,SrcNode:85,SrcNodePort:value"];
	NodeCast82 -> NodeMul84[color="/dark28/1" photon_data="EDGE,SrcNode:82,SrcNodePort:o"];
	NodeMul84 -> NodeCast86[color="/dark28/2" photon_data="EDGE,SrcNode:84,SrcNodePort:result"];
	NodeROM140 -> NodeAdd87[color="/dark28/3" photon_data="EDGE,SrcNode:140,SrcNodePort:dout"];
	NodeCast86 -> NodeAdd87[color="/dark28/4" photon_data="EDGE,SrcNode:86,SrcNodePort:o"];
	NodeCast86 -> NodeMul88[color="/dark28/5" photon_data="EDGE,SrcNode:86,SrcNodePort:o"];
	NodeROM140 -> NodeMul88[color="/dark28/6" photon_data="EDGE,SrcNode:140,SrcNodePort:dout"];
	NodeAdd87 -> NodeAdd89[color="/dark28/7" photon_data="EDGE,SrcNode:87,SrcNodePort:result"];
	NodeMul88 -> NodeAdd89[color="/dark28/8" photon_data="EDGE,SrcNode:88,SrcNodePort:result"];
	NodeAdd89 -> NodeCast90[color="/dark28/1" photon_data="EDGE,SrcNode:89,SrcNodePort:result"];
	NodeCast90 -> NodeCast91[color="/dark28/2" photon_data="EDGE,SrcNode:90,SrcNodePort:o"];
	NodeCast91 -> NodeGteInlined454[color="/dark28/3" photon_data="EDGE,SrcNode:91,SrcNodePort:o"];
	NodeConstantDouble92 -> NodeGteInlined454[color="/dark28/4" photon_data="EDGE,SrcNode:92,SrcNodePort:value"];
	NodeCast97 -> NodeCondTriAdd478[color="/dark28/5" photon_data="EDGE,SrcNode:97,SrcNodePort:o"];
	NodeConstantRawBits100 -> NodeCondTriAdd478[color="/dark28/6" photon_data="EDGE,SrcNode:100,SrcNodePort:value"];
	NodeConstantRawBits473 -> NodeCondTriAdd478[color="/dark28/7" photon_data="EDGE,SrcNode:473,SrcNodePort:value"];
	NodeGteInlined454 -> NodeCondTriAdd478[color="/dark28/8" photon_data="EDGE,SrcNode:454,SrcNodePort:result"];
	NodeCondTriAdd478 -> NodeSlice455[color="/dark28/1" photon_data="EDGE,SrcNode:478,SrcNodePort:result"];
	NodeSlice455 -> NodeReinterpret456[color="/dark28/2" photon_data="EDGE,SrcNode:455,SrcNodePort:result"];
	NodePO2FPMult481 -> NodeGt72[color="/dark28/3" photon_data="EDGE,SrcNode:481,SrcNodePort:floatOut"];
	NodeConstantDouble71 -> NodeGt72[color="/dark28/4" photon_data="EDGE,SrcNode:71,SrcNodePort:value"];
	NodeCast70 -> NodeDoubtBitOp73[color="/dark28/5" style=dashed photon_data="EDGE,SrcNode:70,SrcNodePort:o"];
	NodeGt72 -> NodeAnd74[color="/dark28/6" photon_data="EDGE,SrcNode:72,SrcNodePort:result"];
	NodeDoubtBitOp73 -> NodeAnd74[color="/dark28/7" photon_data="EDGE,SrcNode:73,SrcNodePort:output"];
	NodeAnd74 -> NodeNot106[color="/dark28/8" photon_data="EDGE,SrcNode:74,SrcNodePort:result"];
	NodeReinterpret456 -> NodeAnd107[color="/dark28/1" photon_data="EDGE,SrcNode:456,SrcNodePort:output"];
	NodeNot106 -> NodeAnd107[color="/dark28/2" photon_data="EDGE,SrcNode:106,SrcNodePort:result"];
	NodePO2FPMult481 -> NodeLt76[color="/dark28/3" photon_data="EDGE,SrcNode:481,SrcNodePort:floatOut"];
	NodeConstantDouble75 -> NodeLt76[color="/dark28/4" photon_data="EDGE,SrcNode:75,SrcNodePort:value"];
	NodeCast70 -> NodeDoubtBitOp77[color="/dark28/5" style=dashed photon_data="EDGE,SrcNode:70,SrcNodePort:o"];
	NodeLt76 -> NodeAnd78[color="/dark28/6" photon_data="EDGE,SrcNode:76,SrcNodePort:result"];
	NodeDoubtBitOp77 -> NodeAnd78[color="/dark28/7" photon_data="EDGE,SrcNode:77,SrcNodePort:output"];
	NodeAnd107 -> NodeOr108[color="/dark28/8" photon_data="EDGE,SrcNode:107,SrcNodePort:result"];
	NodeAnd78 -> NodeOr108[color="/dark28/1" photon_data="EDGE,SrcNode:78,SrcNodePort:result"];
	NodeCondTriAdd478 -> NodeGteInlined457[color="/dark28/2" photon_data="EDGE,SrcNode:478,SrcNodePort:result"];
	NodeConstantDouble113 -> NodeGteInlined457[color="/dark28/3" photon_data="EDGE,SrcNode:113,SrcNodePort:value"];
	NodeAnd78 -> NodeNot115[color="/dark28/4" photon_data="EDGE,SrcNode:78,SrcNodePort:result"];
	NodeGteInlined457 -> NodeAnd116[color="/dark28/5" photon_data="EDGE,SrcNode:457,SrcNodePort:result"];
	NodeNot115 -> NodeAnd116[color="/dark28/6" photon_data="EDGE,SrcNode:115,SrcNodePort:result"];
	NodeAnd116 -> NodeOr117[color="/dark28/7" photon_data="EDGE,SrcNode:116,SrcNodePort:result"];
	NodeAnd74 -> NodeOr117[color="/dark28/8" photon_data="EDGE,SrcNode:74,SrcNodePort:result"];
	NodeOr108 -> NodeCat118[color="/dark28/1" photon_data="EDGE,SrcNode:108,SrcNodePort:result"];
	NodeOr117 -> NodeCat118[color="/dark28/2" photon_data="EDGE,SrcNode:117,SrcNodePort:result"];
	NodeCondTriAdd478 -> NodeCast109[color="/dark28/3" photon_data="EDGE,SrcNode:478,SrcNodePort:result"];
	NodeGteInlined454 -> NodeMux95[headport="w" color="/dark28/4" photon_data="EDGE,SrcNode:454,SrcNodePort:result"];
	NodeCast91 -> NodeMux95[color="/dark28/5" photon_data="EDGE,SrcNode:91,SrcNodePort:o"];
	NodeConstantRawBits94 -> NodeMux95[color="/dark28/6" photon_data="EDGE,SrcNode:94,SrcNodePort:value"];
	NodeMux95 -> NodeCast96[color="/dark28/7" photon_data="EDGE,SrcNode:95,SrcNodePort:result"];
	NodeConstantRawBits110 -> NodeCat111[color="/dark28/8" photon_data="EDGE,SrcNode:110,SrcNodePort:value"];
	NodeCast109 -> NodeCat111[color="/dark28/1" photon_data="EDGE,SrcNode:109,SrcNodePort:o"];
	NodeCast96 -> NodeCat111[color="/dark28/2" photon_data="EDGE,SrcNode:96,SrcNodePort:o"];
	NodeCat111 -> NodeReinterpret112[color="/dark28/3" photon_data="EDGE,SrcNode:111,SrcNodePort:result"];
	NodeConstantRawBits119 -> NodeCat458[color="/dark28/4" photon_data="EDGE,SrcNode:119,SrcNodePort:value"];
	NodeConstantRawBits120 -> NodeCat458[color="/dark28/5" photon_data="EDGE,SrcNode:120,SrcNodePort:value"];
	NodeConstantRawBits122 -> NodeCat458[color="/dark28/6" photon_data="EDGE,SrcNode:122,SrcNodePort:value"];
	NodeCat458 -> NodeReinterpret124[color="/dark28/7" photon_data="EDGE,SrcNode:458,SrcNodePort:result"];
	NodeCat118 -> NodeMux127[headport="w" color="/dark28/8" photon_data="EDGE,SrcNode:118,SrcNodePort:result"];
	NodeReinterpret112 -> NodeMux127[color="/dark28/1" photon_data="EDGE,SrcNode:112,SrcNodePort:output"];
	NodeReinterpret124 -> NodeMux127[color="/dark28/2" photon_data="EDGE,SrcNode:124,SrcNodePort:output"];
	NodeConstantRawBits439 -> NodeMux127[color="/dark28/3" photon_data="EDGE,SrcNode:439,SrcNodePort:value"];
	NodeReinterpret124 -> NodeMux127[color="/dark28/4" photon_data="EDGE,SrcNode:124,SrcNodePort:output"];
	NodeAnd135 -> NodeMux137[headport="w" color="/dark28/5" photon_data="EDGE,SrcNode:135,SrcNodePort:result"];
	NodeMux127 -> NodeMux137[color="/dark28/6" photon_data="EDGE,SrcNode:127,SrcNodePort:result"];
	NodeConstantDouble136 -> NodeMux137[color="/dark28/7" photon_data="EDGE,SrcNode:136,SrcNodePort:value"];
	NodeMux137 -> NodeAdd142[color="/dark28/8" photon_data="EDGE,SrcNode:137,SrcNodePort:result"];
	NodeConstantDouble141 -> NodeAdd142[color="/dark28/1" photon_data="EDGE,SrcNode:141,SrcNodePort:value"];
	NodeConstantDouble143 -> NodeDiv144[color="/dark28/2" photon_data="EDGE,SrcNode:143,SrcNodePort:value"];
	NodeAdd142 -> NodeDiv144[color="/dark28/3" photon_data="EDGE,SrcNode:142,SrcNodePort:result"];
	NodeConstantDouble145 -> NodeSub146[color="/dark28/4" photon_data="EDGE,SrcNode:145,SrcNodePort:value"];
	NodeDiv144 -> NodeSub146[color="/dark28/5" photon_data="EDGE,SrcNode:144,SrcNodePort:result"];
	NodeConstantDouble147 -> NodeAdd148[color="/dark28/6" photon_data="EDGE,SrcNode:147,SrcNodePort:value"];
	NodeSub146 -> NodeAdd148[color="/dark28/7" photon_data="EDGE,SrcNode:146,SrcNodePort:result"];
	NodeConstantRawBits35 -> NodeMul149[color="/dark28/8" photon_data="EDGE,SrcNode:35,SrcNodePort:value"];
	NodeAdd148 -> NodeMul149[color="/dark28/1" photon_data="EDGE,SrcNode:148,SrcNodePort:result"];
	NodeConstantRawBits4 -> NodeAdd150[color="/dark28/2" photon_data="EDGE,SrcNode:4,SrcNodePort:value"];
	NodeMul149 -> NodeAdd150[color="/dark28/3" photon_data="EDGE,SrcNode:149,SrcNodePort:result"];
	NodeSub264 -> NodeDiv265[color="/dark28/4" photon_data="EDGE,SrcNode:264,SrcNodePort:result"];
	NodeAdd150 -> NodeDiv265[color="/dark28/5" photon_data="EDGE,SrcNode:150,SrcNodePort:result"];
	NodeMux54 -> NodeNeg262[color="/dark28/6" photon_data="EDGE,SrcNode:54,SrcNodePort:result"];
	NodeNeg262 -> NodeDiv263[color="/dark28/7" photon_data="EDGE,SrcNode:262,SrcNodePort:result"];
	NodeConstantRawBits3 -> NodeDiv263[color="/dark28/8" photon_data="EDGE,SrcNode:3,SrcNodePort:value"];
	NodeGt261 -> NodeMux266[headport="w" color="/dark28/1" photon_data="EDGE,SrcNode:261,SrcNodePort:result"];
	NodeDiv265 -> NodeMux266[color="/dark28/2" photon_data="EDGE,SrcNode:265,SrcNodePort:result"];
	NodeDiv263 -> NodeMux266[color="/dark28/3" photon_data="EDGE,SrcNode:263,SrcNodePort:result"];
	NodeMux266 -> NodeMul362[color="/dark28/4" photon_data="EDGE,SrcNode:266,SrcNodePort:result"];
	NodeCast45 -> NodeMul362[color="/dark28/5" photon_data="EDGE,SrcNode:45,SrcNodePort:o"];
	NodeMux54 -> NodeAdd363[color="/dark28/6" photon_data="EDGE,SrcNode:54,SrcNodePort:result"];
	NodeMul362 -> NodeAdd363[color="/dark28/7" photon_data="EDGE,SrcNode:362,SrcNodePort:result"];
	NodeAdd363 -> NodeNeg381[color="/dark28/8" photon_data="EDGE,SrcNode:363,SrcNodePort:result"];
	NodeCounter42 -> NodeEqInlined459[color="/dark28/1" photon_data="EDGE,SrcNode:42,SrcNodePort:count"];
	NodeConstantDouble55 -> NodeEqInlined459[color="/dark28/2" photon_data="EDGE,SrcNode:55,SrcNodePort:value"];
	NodeAdd365 -> NodeStreamOffset487[headport="n" tailport="s" color=red photon_data="EDGE,SrcNode:365,SrcNodePort:result"];
	NodeEqInlined459 -> NodeMux57[headport="w" color="/dark28/3" photon_data="EDGE,SrcNode:459,SrcNodePort:result"];
	NodeStreamOffset487 -> NodeMux57[color="/dark28/4" photon_data="EDGE,SrcNode:487,SrcNodePort:output"];
	NodeConstantRawBits37 -> NodeMux57[color="/dark28/5" photon_data="EDGE,SrcNode:37,SrcNodePort:value"];
	NodeMux48 -> NodeSub267[color="/dark28/6" photon_data="EDGE,SrcNode:48,SrcNodePort:result"];
	NodeConstantRawBits27 -> NodeSub267[color="/dark28/7" photon_data="EDGE,SrcNode:27,SrcNodePort:value"];
	NodeConstantRawBits24 -> NodeMul268[color="/dark28/8" photon_data="EDGE,SrcNode:24,SrcNodePort:value"];
	NodeSub267 -> NodeMul268[color="/dark28/1" photon_data="EDGE,SrcNode:267,SrcNodePort:result"];
	NodeMul268 -> NodePO2FPMult482[color="/dark28/2" photon_data="EDGE,SrcNode:268,SrcNodePort:result"];
	NodePO2FPMult482 -> NodeSlice337[color="/dark28/3" photon_data="EDGE,SrcNode:482,SrcNodePort:floatOut"];
	NodeSlice337 -> NodeEqInlined460[color="/dark28/4" photon_data="EDGE,SrcNode:337,SrcNodePort:result"];
	NodeConstantRawBits338 -> NodeEqInlined460[color="/dark28/5" photon_data="EDGE,SrcNode:338,SrcNodePort:value"];
	NodePO2FPMult482 -> NodeSlice336[color="/dark28/6" photon_data="EDGE,SrcNode:482,SrcNodePort:floatOut"];
	NodeSlice336 -> NodeNeqInlined461[color="/dark28/7" photon_data="EDGE,SrcNode:336,SrcNodePort:result"];
	NodeConstantDouble340 -> NodeNeqInlined461[color="/dark28/8" photon_data="EDGE,SrcNode:340,SrcNodePort:value"];
	NodeEqInlined460 -> NodeAnd342[color="/dark28/1" photon_data="EDGE,SrcNode:460,SrcNodePort:result"];
	NodeNeqInlined461 -> NodeAnd342[color="/dark28/2" photon_data="EDGE,SrcNode:461,SrcNodePort:result"];
	NodePO2FPMult482 -> NodeDoubtBitOp272[color="/dark28/3" photon_data="EDGE,SrcNode:482,SrcNodePort:floatOut"];
	NodeConstantRawBits271 -> NodeDoubtBitOp272[color="/dark28/4" photon_data="EDGE,SrcNode:271,SrcNodePort:value"];
	NodeDoubtBitOp272 -> NodeCast273[color="/dark28/5" style=dashed photon_data="EDGE,SrcNode:272,SrcNodePort:output"];
	NodeCast273 -> NodeMul275[color="/dark28/6" style=dashed photon_data="EDGE,SrcNode:273,SrcNodePort:o"];
	NodeConstantRawBits276 -> NodeMul275[color="/dark28/7" photon_data="EDGE,SrcNode:276,SrcNodePort:value"];
	NodeMul275 -> NodeCast277[color="/dark28/8" style=dashed photon_data="EDGE,SrcNode:275,SrcNodePort:result"];
	NodeCast277 -> NodeDoubtBitOp286[color="/dark28/1" style=dashed photon_data="EDGE,SrcNode:277,SrcNodePort:o"];
	NodeDoubtBitOp286 -> NodeCast287[color="/dark28/2" photon_data="EDGE,SrcNode:286,SrcNodePort:output"];
	NodeCast287 -> NodeCast304[color="/dark28/3" photon_data="EDGE,SrcNode:287,SrcNodePort:o"];
	NodeDoubtBitOp286 -> NodeCast288[color="/dark28/4" photon_data="EDGE,SrcNode:286,SrcNodePort:output"];
	NodeCast288 -> NodeReinterpret346[color="/dark28/5" photon_data="EDGE,SrcNode:288,SrcNodePort:o"];
	NodeReinterpret346 -> NodeROM347[color="/dark28/6" photon_data="EDGE,SrcNode:346,SrcNodePort:output"];
	NodeDoubtBitOp286 -> NodeCast289[color="/dark28/7" photon_data="EDGE,SrcNode:286,SrcNodePort:output"];
	NodeConstantRawBits292 -> NodeMul291[color="/dark28/8" photon_data="EDGE,SrcNode:292,SrcNodePort:value"];
	NodeCast289 -> NodeMul291[color="/dark28/1" photon_data="EDGE,SrcNode:289,SrcNodePort:o"];
	NodeMul291 -> NodeCast293[color="/dark28/2" photon_data="EDGE,SrcNode:291,SrcNodePort:result"];
	NodeROM347 -> NodeAdd294[color="/dark28/3" photon_data="EDGE,SrcNode:347,SrcNodePort:dout"];
	NodeCast293 -> NodeAdd294[color="/dark28/4" photon_data="EDGE,SrcNode:293,SrcNodePort:o"];
	NodeCast293 -> NodeMul295[color="/dark28/5" photon_data="EDGE,SrcNode:293,SrcNodePort:o"];
	NodeROM347 -> NodeMul295[color="/dark28/6" photon_data="EDGE,SrcNode:347,SrcNodePort:dout"];
	NodeAdd294 -> NodeAdd296[color="/dark28/7" photon_data="EDGE,SrcNode:294,SrcNodePort:result"];
	NodeMul295 -> NodeAdd296[color="/dark28/8" photon_data="EDGE,SrcNode:295,SrcNodePort:result"];
	NodeAdd296 -> NodeCast297[color="/dark28/1" photon_data="EDGE,SrcNode:296,SrcNodePort:result"];
	NodeCast297 -> NodeCast298[color="/dark28/2" photon_data="EDGE,SrcNode:297,SrcNodePort:o"];
	NodeCast298 -> NodeGteInlined462[color="/dark28/3" photon_data="EDGE,SrcNode:298,SrcNodePort:o"];
	NodeConstantDouble299 -> NodeGteInlined462[color="/dark28/4" photon_data="EDGE,SrcNode:299,SrcNodePort:value"];
	NodeCast304 -> NodeCondTriAdd477[color="/dark28/5" photon_data="EDGE,SrcNode:304,SrcNodePort:o"];
	NodeConstantRawBits307 -> NodeCondTriAdd477[color="/dark28/6" photon_data="EDGE,SrcNode:307,SrcNodePort:value"];
	NodeConstantRawBits475 -> NodeCondTriAdd477[color="/dark28/7" photon_data="EDGE,SrcNode:475,SrcNodePort:value"];
	NodeGteInlined462 -> NodeCondTriAdd477[color="/dark28/8" photon_data="EDGE,SrcNode:462,SrcNodePort:result"];
	NodeCondTriAdd477 -> NodeSlice463[color="/dark28/1" photon_data="EDGE,SrcNode:477,SrcNodePort:result"];
	NodeSlice463 -> NodeReinterpret464[color="/dark28/2" photon_data="EDGE,SrcNode:463,SrcNodePort:result"];
	NodePO2FPMult482 -> NodeGt279[color="/dark28/3" photon_data="EDGE,SrcNode:482,SrcNodePort:floatOut"];
	NodeConstantDouble278 -> NodeGt279[color="/dark28/4" photon_data="EDGE,SrcNode:278,SrcNodePort:value"];
	NodeCast277 -> NodeDoubtBitOp280[color="/dark28/5" style=dashed photon_data="EDGE,SrcNode:277,SrcNodePort:o"];
	NodeGt279 -> NodeAnd281[color="/dark28/6" photon_data="EDGE,SrcNode:279,SrcNodePort:result"];
	NodeDoubtBitOp280 -> NodeAnd281[color="/dark28/7" photon_data="EDGE,SrcNode:280,SrcNodePort:output"];
	NodeAnd281 -> NodeNot313[color="/dark28/8" photon_data="EDGE,SrcNode:281,SrcNodePort:result"];
	NodeReinterpret464 -> NodeAnd314[color="/dark28/1" photon_data="EDGE,SrcNode:464,SrcNodePort:output"];
	NodeNot313 -> NodeAnd314[color="/dark28/2" photon_data="EDGE,SrcNode:313,SrcNodePort:result"];
	NodePO2FPMult482 -> NodeLt283[color="/dark28/3" photon_data="EDGE,SrcNode:482,SrcNodePort:floatOut"];
	NodeConstantDouble282 -> NodeLt283[color="/dark28/4" photon_data="EDGE,SrcNode:282,SrcNodePort:value"];
	NodeCast277 -> NodeDoubtBitOp284[color="/dark28/5" style=dashed photon_data="EDGE,SrcNode:277,SrcNodePort:o"];
	NodeLt283 -> NodeAnd285[color="/dark28/6" photon_data="EDGE,SrcNode:283,SrcNodePort:result"];
	NodeDoubtBitOp284 -> NodeAnd285[color="/dark28/7" photon_data="EDGE,SrcNode:284,SrcNodePort:output"];
	NodeAnd314 -> NodeOr315[color="/dark28/8" photon_data="EDGE,SrcNode:314,SrcNodePort:result"];
	NodeAnd285 -> NodeOr315[color="/dark28/1" photon_data="EDGE,SrcNode:285,SrcNodePort:result"];
	NodeCondTriAdd477 -> NodeGteInlined465[color="/dark28/2" photon_data="EDGE,SrcNode:477,SrcNodePort:result"];
	NodeConstantDouble320 -> NodeGteInlined465[color="/dark28/3" photon_data="EDGE,SrcNode:320,SrcNodePort:value"];
	NodeAnd285 -> NodeNot322[color="/dark28/4" photon_data="EDGE,SrcNode:285,SrcNodePort:result"];
	NodeGteInlined465 -> NodeAnd323[color="/dark28/5" photon_data="EDGE,SrcNode:465,SrcNodePort:result"];
	NodeNot322 -> NodeAnd323[color="/dark28/6" photon_data="EDGE,SrcNode:322,SrcNodePort:result"];
	NodeAnd323 -> NodeOr324[color="/dark28/7" photon_data="EDGE,SrcNode:323,SrcNodePort:result"];
	NodeAnd281 -> NodeOr324[color="/dark28/8" photon_data="EDGE,SrcNode:281,SrcNodePort:result"];
	NodeOr315 -> NodeCat325[color="/dark28/1" photon_data="EDGE,SrcNode:315,SrcNodePort:result"];
	NodeOr324 -> NodeCat325[color="/dark28/2" photon_data="EDGE,SrcNode:324,SrcNodePort:result"];
	NodeCondTriAdd477 -> NodeCast316[color="/dark28/3" photon_data="EDGE,SrcNode:477,SrcNodePort:result"];
	NodeGteInlined462 -> NodeMux302[headport="w" color="/dark28/4" photon_data="EDGE,SrcNode:462,SrcNodePort:result"];
	NodeCast298 -> NodeMux302[color="/dark28/5" photon_data="EDGE,SrcNode:298,SrcNodePort:o"];
	NodeConstantRawBits301 -> NodeMux302[color="/dark28/6" photon_data="EDGE,SrcNode:301,SrcNodePort:value"];
	NodeMux302 -> NodeCast303[color="/dark28/7" photon_data="EDGE,SrcNode:302,SrcNodePort:result"];
	NodeConstantRawBits317 -> NodeCat318[color="/dark28/8" photon_data="EDGE,SrcNode:317,SrcNodePort:value"];
	NodeCast316 -> NodeCat318[color="/dark28/1" photon_data="EDGE,SrcNode:316,SrcNodePort:o"];
	NodeCast303 -> NodeCat318[color="/dark28/2" photon_data="EDGE,SrcNode:303,SrcNodePort:o"];
	NodeCat318 -> NodeReinterpret319[color="/dark28/3" photon_data="EDGE,SrcNode:318,SrcNodePort:result"];
	NodeConstantRawBits326 -> NodeCat466[color="/dark28/4" photon_data="EDGE,SrcNode:326,SrcNodePort:value"];
	NodeConstantRawBits327 -> NodeCat466[color="/dark28/5" photon_data="EDGE,SrcNode:327,SrcNodePort:value"];
	NodeConstantRawBits329 -> NodeCat466[color="/dark28/6" photon_data="EDGE,SrcNode:329,SrcNodePort:value"];
	NodeCat466 -> NodeReinterpret331[color="/dark28/7" photon_data="EDGE,SrcNode:466,SrcNodePort:result"];
	NodeCat325 -> NodeMux334[headport="w" color="/dark28/8" photon_data="EDGE,SrcNode:325,SrcNodePort:result"];
	NodeReinterpret319 -> NodeMux334[color="/dark28/1" photon_data="EDGE,SrcNode:319,SrcNodePort:output"];
	NodeReinterpret331 -> NodeMux334[color="/dark28/2" photon_data="EDGE,SrcNode:331,SrcNodePort:output"];
	NodeConstantRawBits440 -> NodeMux334[color="/dark28/3" photon_data="EDGE,SrcNode:440,SrcNodePort:value"];
	NodeReinterpret331 -> NodeMux334[color="/dark28/4" photon_data="EDGE,SrcNode:331,SrcNodePort:output"];
	NodeAnd342 -> NodeMux344[headport="w" color="/dark28/5" photon_data="EDGE,SrcNode:342,SrcNodePort:result"];
	NodeMux334 -> NodeMux344[color="/dark28/6" photon_data="EDGE,SrcNode:334,SrcNodePort:result"];
	NodeConstantDouble343 -> NodeMux344[color="/dark28/7" photon_data="EDGE,SrcNode:343,SrcNodePort:value"];
	NodeMux344 -> NodeAdd349[color="/dark28/8" photon_data="EDGE,SrcNode:344,SrcNodePort:result"];
	NodeConstantDouble348 -> NodeAdd349[color="/dark28/1" photon_data="EDGE,SrcNode:348,SrcNodePort:value"];
	NodeConstantDouble350 -> NodeDiv351[color="/dark28/2" photon_data="EDGE,SrcNode:350,SrcNodePort:value"];
	NodeAdd349 -> NodeDiv351[color="/dark28/3" photon_data="EDGE,SrcNode:349,SrcNodePort:result"];
	NodeConstantDouble352 -> NodeSub353[color="/dark28/4" photon_data="EDGE,SrcNode:352,SrcNodePort:value"];
	NodeDiv351 -> NodeSub353[color="/dark28/5" photon_data="EDGE,SrcNode:351,SrcNodePort:result"];
	NodeConstantDouble354 -> NodeAdd355[color="/dark28/6" photon_data="EDGE,SrcNode:354,SrcNodePort:value"];
	NodeSub353 -> NodeAdd355[color="/dark28/7" photon_data="EDGE,SrcNode:353,SrcNodePort:result"];
	NodeAdd355 -> NodePO2FPMult483[color="/dark28/8" photon_data="EDGE,SrcNode:355,SrcNodePort:result"];
	NodePO2FPMult483 -> NodeSub358[color="/dark28/1" photon_data="EDGE,SrcNode:483,SrcNodePort:floatOut"];
	NodeMux57 -> NodeSub358[color="/dark28/2" photon_data="EDGE,SrcNode:57,SrcNodePort:result"];
	NodeMux48 -> NodeGt242[color="/dark28/3" photon_data="EDGE,SrcNode:48,SrcNodePort:result"];
	NodeConstantRawBits18 -> NodeGt242[color="/dark28/4" photon_data="EDGE,SrcNode:18,SrcNodePort:value"];
	NodeGt242 -> NodeMux243[headport="w" color="/dark28/5" photon_data="EDGE,SrcNode:242,SrcNodePort:result"];
	NodeConstantRawBits6 -> NodeMux243[color="/dark28/6" photon_data="EDGE,SrcNode:6,SrcNodePort:value"];
	NodeConstantRawBits7 -> NodeMux243[color="/dark28/7" photon_data="EDGE,SrcNode:7,SrcNodePort:value"];
	NodeSub358 -> NodeDiv359[color="/dark28/8" photon_data="EDGE,SrcNode:358,SrcNodePort:result"];
	NodeMux243 -> NodeDiv359[color="/dark28/1" photon_data="EDGE,SrcNode:243,SrcNodePort:result"];
	NodeDiv359 -> NodeMul364[color="/dark28/2" photon_data="EDGE,SrcNode:359,SrcNodePort:result"];
	NodeCast45 -> NodeMul364[color="/dark28/3" photon_data="EDGE,SrcNode:45,SrcNodePort:o"];
	NodeMux57 -> NodeAdd365[color="/dark28/4" photon_data="EDGE,SrcNode:57,SrcNodePort:result"];
	NodeMul364 -> NodeAdd365[color="/dark28/5" photon_data="EDGE,SrcNode:364,SrcNodePort:result"];
	NodeNeg381 -> NodeMul382[color="/dark28/6" photon_data="EDGE,SrcNode:381,SrcNodePort:result"];
	NodeAdd365 -> NodeMul382[color="/dark28/7" photon_data="EDGE,SrcNode:365,SrcNodePort:result"];
	NodeMul382 -> NodeDiv383[color="/dark28/8" photon_data="EDGE,SrcNode:382,SrcNodePort:result"];
	NodeConstantRawBits13 -> NodeDiv383[color="/dark28/1" photon_data="EDGE,SrcNode:13,SrcNodePort:value"];
	NodeGt380 -> NodeMux385[headport="w" color="/dark28/2" photon_data="EDGE,SrcNode:380,SrcNodePort:result"];
	NodeConstantRawBits384 -> NodeMux385[color="/dark28/3" photon_data="EDGE,SrcNode:384,SrcNodePort:value"];
	NodeDiv383 -> NodeMux385[color="/dark28/4" photon_data="EDGE,SrcNode:383,SrcNodePort:result"];
	NodeAdd386 -> NodeAdd387[color="/dark28/5" photon_data="EDGE,SrcNode:386,SrcNodePort:result"];
	NodeMux385 -> NodeAdd387[color="/dark28/6" photon_data="EDGE,SrcNode:385,SrcNodePort:result"];
	NodeAdd387 -> NodeMul388[color="/dark28/7" photon_data="EDGE,SrcNode:387,SrcNodePort:result"];
	NodeCast45 -> NodeMul388[color="/dark28/8" photon_data="EDGE,SrcNode:45,SrcNodePort:o"];
	NodeMux48 -> NodeSub389[color="/dark28/1" photon_data="EDGE,SrcNode:48,SrcNodePort:result"];
	NodeMul388 -> NodeSub389[color="/dark28/2" photon_data="EDGE,SrcNode:388,SrcNodePort:result"];
	NodeSub389 -> NodeCast394[color="/dark28/3" photon_data="EDGE,SrcNode:389,SrcNodePort:result"];
	NodeCast394 -> NodeOutput401[color="/dark28/4" photon_data="EDGE,SrcNode:394,SrcNodePort:o"];
	NodeEvalStreamOffset39 -> NodeSub404[color="/dark28/5" photon_data="EDGE,SrcNode:39,SrcNodePort:output"];
	NodeConstantDouble403 -> NodeSub404[color="/dark28/6" photon_data="EDGE,SrcNode:403,SrcNodePort:value"];
	NodeCounter43 -> NodeEqInlined467[color="/dark28/7" photon_data="EDGE,SrcNode:43,SrcNodePort:count"];
	NodeSub404 -> NodeEqInlined467[color="/dark28/8" photon_data="EDGE,SrcNode:404,SrcNodePort:result"];
	NodeEqInlined467 -> NodeOutput409[headport="w" color="/dark28/1" ];
	NodeStreamOffset485 -> NodeCast402[color="/dark28/2" photon_data="EDGE,SrcNode:485,SrcNodePort:output"];
	NodeCast402 -> NodeOutput409[color="/dark28/3" photon_data="EDGE,SrcNode:402,SrcNodePort:o"];
	NodeEvalStreamOffset39 -> NodeSub412[color="/dark28/4" photon_data="EDGE,SrcNode:39,SrcNodePort:output"];
	NodeConstantDouble411 -> NodeSub412[color="/dark28/5" photon_data="EDGE,SrcNode:411,SrcNodePort:value"];
	NodeCounter43 -> NodeEqInlined468[color="/dark28/6" photon_data="EDGE,SrcNode:43,SrcNodePort:count"];
	NodeSub412 -> NodeEqInlined468[color="/dark28/7" photon_data="EDGE,SrcNode:412,SrcNodePort:result"];
	NodeEqInlined468 -> NodeOutput417[headport="w" color="/dark28/8" ];
	NodeStreamOffset486 -> NodeCast410[color="/dark28/1" photon_data="EDGE,SrcNode:486,SrcNodePort:output"];
	NodeCast410 -> NodeOutput417[color="/dark28/2" photon_data="EDGE,SrcNode:410,SrcNodePort:o"];
	NodeEvalStreamOffset39 -> NodeSub420[color="/dark28/3" photon_data="EDGE,SrcNode:39,SrcNodePort:output"];
	NodeConstantDouble419 -> NodeSub420[color="/dark28/4" photon_data="EDGE,SrcNode:419,SrcNodePort:value"];
	NodeCounter43 -> NodeEqInlined469[color="/dark28/5" photon_data="EDGE,SrcNode:43,SrcNodePort:count"];
	NodeSub420 -> NodeEqInlined469[color="/dark28/6" photon_data="EDGE,SrcNode:420,SrcNodePort:result"];
	NodeEqInlined469 -> NodeOutput425[headport="w" color="/dark28/7" ];
	NodeStreamOffset487 -> NodeCast418[color="/dark28/8" photon_data="EDGE,SrcNode:487,SrcNodePort:output"];
	NodeCast418 -> NodeOutput425[color="/dark28/1" photon_data="EDGE,SrcNode:418,SrcNodePort:o"];
}
