
Bits: 64
Simulation Time (MS): 1000
Number of Cells:256
DT: 0.0125
Elapsed Time: 2021
-------------------------------
Bits: 64
Simulation Time (MS): 1000
Number of Cells:512
DT: 0.0125
Elapsed Time: 3636
-------------------------------
Bits: 64
Simulation Time (MS): 1000
Number of Cells:1024
DT: 0.0125
Elapsed Time: 7272
-------------------------------
Bits: 64
Simulation Time (MS): 1000
Number of Cells:2048
DT: 0.0125
Elapsed Time: 14547
-------------------------------
Bits: 64
Simulation Time (MS): 1000
Number of Cells:4096
DT: 0.0125
Elapsed Time: 29151
-------------------------------
Bits: 64
Simulation Time (MS): 1000
Number of Cells:8192
DT: 0.0125
Elapsed Time: 58299
-------------------------------
Bits: 32
Simulation Time (MS): 1000
Number of Cells:256
DT: 0.0125
Elapsed Time: 2571
-------------------------------
Bits: 32
Simulation Time (MS): 1000
Number of Cells:512
DT: 0.0125
Elapsed Time: 4826
-------------------------------
Bits: 32
Simulation Time (MS): 1000
Number of Cells:1024
DT: 0.0125
Elapsed Time: 9666
-------------------------------
Bits: 32
Simulation Time (MS): 1000
Number of Cells:2048
DT: 0.0125
Elapsed Time: 19331
-------------------------------
Bits: 32
Simulation Time (MS): 1000
Number of Cells:4096
DT: 0.0125
Elapsed Time: 38660
-------------------------------
Bits: 32
Simulation Time (MS): 1000
Number of Cells:8192
DT: 0.0125
Elapsed Time: 77303
-------------------------------
Bits: 64
Simulation Time (MS): 2
Number of Cells:256
DT: 0.0125
Elapsed Time: 10
-------------------------------
Bits: 64
Simulation Time (MS): 2
Number of Cells:512
DT: 0.0125
Elapsed Time: 19
-------------------------------
Bits: 64
Simulation Time (MS): 2
Number of Cells:1024
DT: 0.0125
Elapsed Time: 32
-------------------------------
Bits: 64
Simulation Time (MS): 2
Number of Cells:2048
DT: 0.0125
Elapsed Time: 53
-------------------------------
Bits: 64
Simulation Time (MS): 2
Number of Cells:4096
DT: 0.0125
Elapsed Time: 81
-------------------------------
Bits: 64
Simulation Time (MS): 2
Number of Cells:8192
DT: 0.0125
Elapsed Time: 114
-------------------------------
