digraph MinimalModelDFEKernel_final{
	NodeConstantRawBits40 [shape=box, label="1.0\nID: 40"];
	NodeConstantRawBits618 [shape=box, label="142.0\nID: 618"];
	NodeCounter43 [shape=hexagon, label="cnt\nID: 43"];
	NodeFIFO541 [shape=plaintext, label=<<TABLE BORDER="0" CELLSPACING="0" CELLBORDER="1"> <TR><TD></TD></TR><TR><TD>1</TD></TR><TR><TD>ID: 541</TD></TR> <TR><TD></TD></TR> </TABLE>>];
	NodeConstantRawBits660 [shape=box, label="1.0\nID: 660"];
	NodeSub444 [label="-\nID: 444"];
	NodeEqInlined489 [label="==\nID: 489"];
	NodeFIFO598 [shape=plaintext, label=<<TABLE BORDER="0" CELLSPACING="0" CELLBORDER="1"> <TR><TD></TD></TR><TR><TD>144</TD></TR><TR><TD>ID: 598</TD></TR> <TR><TD></TD></TR> </TABLE>>];
	NodeInputMappedReg41 [shape=box, peripheries=2, label="num_iteration\nID: 41"];
	NodeCounter42 [shape=hexagon, label="cnt\nID: 42"];
	NodeConstantRawBits659 [shape=box, label="0.0\nID: 659"];
	NodeEqInlined490 [label="==\nID: 490"];
	NodeStreamOffset537 [shape=diamond, label="-142\nID: 537"];
	NodeConstantRawBits38 [shape=box, label="1.0\nID: 38"];
	NodeMux48 [shape=invtrapezium, height=0.5, label="MUX\nID: 48"];
	NodeFIFO564 [shape=plaintext, label=<<TABLE BORDER="0" CELLSPACING="0" CELLBORDER="1"> <TR><TD></TD></TR><TR><TD>9</TD></TR><TR><TD>ID: 564</TD></TR> <TR><TD></TD></TR> </TABLE>>];
	NodeFIFO605 [shape=plaintext, label=<<TABLE BORDER="0" CELLSPACING="0" CELLBORDER="1"> <TR><TD></TD></TR><TR><TD>1</TD></TR><TR><TD>ID: 605</TD></TR> <TR><TD></TD></TR> </TABLE>>];
	NodeFIFO606 [shape=plaintext, label=<<TABLE BORDER="0" CELLSPACING="0" CELLBORDER="1"> <TR><TD></TD></TR><TR><TD>2</TD></TR><TR><TD>ID: 606</TD></TR> <TR><TD></TD></TR> </TABLE>>];
	NodeFIFO607 [shape=plaintext, label=<<TABLE BORDER="0" CELLSPACING="0" CELLBORDER="1"> <TR><TD></TD></TR><TR><TD>12</TD></TR><TR><TD>ID: 607</TD></TR> <TR><TD></TD></TR> </TABLE>>];
	NodeFIFO608 [shape=plaintext, label=<<TABLE BORDER="0" CELLSPACING="0" CELLBORDER="1"> <TR><TD></TD></TR><TR><TD>15</TD></TR><TR><TD>ID: 608</TD></TR> <TR><TD></TD></TR> </TABLE>>];
	NodeFIFO609 [shape=plaintext, label=<<TABLE BORDER="0" CELLSPACING="0" CELLBORDER="1"> <TR><TD></TD></TR><TR><TD>9</TD></TR><TR><TD>ID: 609</TD></TR> <TR><TD></TD></TR> </TABLE>>];
	NodeFIFO610 [shape=plaintext, label=<<TABLE BORDER="0" CELLSPACING="0" CELLBORDER="1"> <TR><TD></TD></TR><TR><TD>42</TD></TR><TR><TD>ID: 610</TD></TR> <TR><TD></TD></TR> </TABLE>>];
	NodeFIFO611 [shape=plaintext, label=<<TABLE BORDER="0" CELLSPACING="0" CELLBORDER="1"> <TR><TD></TD></TR><TR><TD>12</TD></TR><TR><TD>ID: 611</TD></TR> <TR><TD></TD></TR> </TABLE>>];
	NodeFIFO612 [shape=plaintext, label=<<TABLE BORDER="0" CELLSPACING="0" CELLBORDER="1"> <TR><TD></TD></TR><TR><TD>27</TD></TR><TR><TD>ID: 612</TD></TR> <TR><TD></TD></TR> </TABLE>>];
	NodeConstantRawBits15 [shape=box, label="0.3000000000001819\nID: 15"];
	NodeGt414 [label=">\nID: 414"];
	NodeConstantRawBits37 [shape=box, label="0.0\nID: 37"];
	NodeConstantRawBits658 [shape=box, label="0.0\nID: 658"];
	NodeEqInlined491 [label="==\nID: 491"];
	NodeStreamOffset538 [shape=diamond, label="-142\nID: 538"];
	NodeFIFO600 [shape=plaintext, label=<<TABLE BORDER="0" CELLSPACING="0" CELLBORDER="1"> <TR><TD></TD></TR><TR><TD>115</TD></TR><TR><TD>ID: 600</TD></TR> <TR><TD></TD></TR> </TABLE>>];
	NodeFIFO613 [shape=plaintext, label=<<TABLE BORDER="0" CELLSPACING="0" CELLBORDER="1"> <TR><TD></TD></TR><TR><TD>2</TD></TR><TR><TD>ID: 613</TD></TR> <TR><TD></TD></TR> </TABLE>>];
	NodeMux51 [shape=invtrapezium, height=0.5, label="MUX\nID: 51"];
	NodeFIFO544 [shape=plaintext, label=<<TABLE BORDER="0" CELLSPACING="0" CELLBORDER="1"> <TR><TD></TD></TR><TR><TD>12</TD></TR><TR><TD>ID: 544</TD></TR> <TR><TD></TD></TR> </TABLE>>];
	NodeGt287 [label=">\nID: 287"];
	NodeConstantRawBits17 [shape=box, label="0.006000000000000227\nID: 17"];
	NodeGt278 [label=">\nID: 278"];
	NodeMux279 [shape=invtrapezium, height=0.5, label="MUX\nID: 279"];
	NodeSub290 [label="-\nID: 290"];
	NodeConstantRawBits16 [shape=box, label="0.006000000000000227\nID: 16"];
	NodeGt58 [label=">\nID: 58"];
	NodeConstantRawBits1 [shape=box, label="60.0\nID: 1"];
	NodeConstantRawBits2 [shape=box, label="1150.0\nID: 2"];
	NodeMux59 [shape=invtrapezium, height=0.5, label="MUX\nID: 59"];
	NodeDiv291 [label="/\nID: 291"];
	NodeNeg288 [label="(-)\nID: 288"];
	NodeConstantRawBits0 [shape=box, label="1.4506000000001222\nID: 0"];
	NodeDiv289 [label="/\nID: 289"];
	NodeMux292 [shape=invtrapezium, height=0.5, label="MUX\nID: 292"];
	NodeInputMappedReg44 [shape=box, peripheries=2, label="dt\nID: 44"];
	NodeCast45 [label="{HWFloat:8, 40}\nID: 45"];
	NodeMul408 [label="*\nID: 408"];
	NodeAdd409 [label="+\nID: 409"];
	NodeNeg415 [label="(-)\nID: 415"];
	NodeSub416 [label="-\nID: 416"];
	NodeMul417 [label="*\nID: 417"];
	NodeConstantRawBits29 [shape=box, label="1.5499999999992724\nID: 29"];
	NodeSub418 [label="-\nID: 418"];
	NodeMul419 [label="*\nID: 419"];
	NodeConstantRawBits8 [shape=box, label="0.11000000000001364\nID: 8"];
	NodeDiv420 [label="/\nID: 420"];
	NodeMux421 [shape=invtrapezium, height=0.5, label="MUX\nID: 421"];
	NodeConstantRawBits20 [shape=box, label="0.13000000000010914\nID: 20"];
	NodeGt422 [label=">\nID: 422"];
	NodeConstantRawBits22 [shape=box, label="0.006000000000000227\nID: 22"];
	NodeGt276 [label=">\nID: 276"];
	NodeConstantRawBits9 [shape=box, label="400.0\nID: 9"];
	NodeConstantRawBits10 [shape=box, label="6.0\nID: 10"];
	NodeMux277 [shape=invtrapezium, height=0.5, label="MUX\nID: 277"];
	NodeDiv426 [label="/\nID: 426"];
	NodeConstantRawBits657 [shape=box, label="1.0\nID: 657"];
	NodeConstantRawBits11 [shape=box, label="30.01809999998659\nID: 11"];
	NodeConstantRawBits36 [shape=box, label="-14.51119999999355\nID: 36"];
	NodeConstantRawBits656 [shape=box, label="1.0\nID: 656"];
	NodeConstantRawBits655 [shape=box, label="1.0\nID: 655"];
	NodeConstantRawBits654 [shape=box, label="2.0\nID: 654"];
	NodeConstantRawBits25 [shape=box, label="2.045799999999872\nID: 25"];
	NodeConstantRawBits30 [shape=box, label="0.6499999999996362\nID: 30"];
	NodeSub167 [label="-\nID: 167"];
	NodeMul168 [label="*\nID: 168"];
	NodePO2FPMult528 [label="PO2FPMult_N1\nID: 528"];
	NodeSlice247 [label="[46:39]\nID: 247"];
	NodeConstantRawBits248 [shape=box, label="0xff\nID: 248"];
	NodeEqInlined492 [label="==\nID: 492"];
	NodeSlice246 [label="[38:0]\nID: 246"];
	NodeConstantRawBits653 [shape=box, label="0x0000000000\nID: 653"];
	NodeNeqInlined493 [label="!=\nID: 493"];
	NodeAnd252 [label="&\nID: 252"];
	NodeFIFO560 [shape=plaintext, label=<<TABLE BORDER="0" CELLSPACING="0" CELLBORDER="1"> <TR><TD></TD></TR><TR><TD>8</TD></TR><TR><TD>ID: 560</TD></TR> <TR><TD></TD></TR> </TABLE>>];
	NodeConstantRawBits171 [shape=box, label="0.0\nID: 171"];
	NodeDoubtBitOp172 [label="DoubtBitOp(ADD_DOUBT)\nID: 172"];
	NodeCast173 [label="{HWOffsetFix:53, -43, TWOSCOMPLEMENT}\nID: 173"];
	NodeConstantRawBits176 [shape=box, label="1.4426950408889634\nID: 176"];
	NodeMul175 [label="*\nID: 175"];
	NodeCast177 [label="{HWOffsetFix:53, -43, TWOSCOMPLEMENT}\nID: 177"];
	NodeDoubtBitOp186 [label="DoubtBitOp(REMOVE_DOUBT)\nID: 186"];
	NodeCast187 [label="{HWOffsetFix:10, 0, TWOSCOMPLEMENT}\nID: 187"];
	NodeFIFO551 [shape=plaintext, label=<<TABLE BORDER="0" CELLSPACING="0" CELLBORDER="1"> <TR><TD></TD></TR><TR><TD>2</TD></TR><TR><TD>ID: 551</TD></TR> <TR><TD></TD></TR> </TABLE>>];
	NodeCast214 [label="{HWOffsetFix:11, 0, TWOSCOMPLEMENT}\nID: 214"];
	NodeConstantRawBits217 [shape=box, label="1.0\nID: 217"];
	NodeConstantRawBits519 [shape=box, label="127.0\nID: 519"];
	NodeCast190 [label="{HWOffsetFix:10, -21, UNSIGNED}\nID: 190"];
	NodeReinterpret262 [label="<{HWOffsetFix:10, 0, UNSIGNED}>\nID: 262"];
	NodeROM263 [label="ROM\nID: 263"];
	NodeCast189 [label="{HWOffsetFix:10, -11, UNSIGNED}\nID: 189"];
	NodeReinterpret259 [label="<{HWOffsetFix:10, 0, UNSIGNED}>\nID: 259"];
	NodeROM260 [label="ROM\nID: 260"];
	NodeCast188 [label="{HWOffsetFix:1, -1, UNSIGNED}\nID: 188"];
	NodeReinterpret256 [label="<{HWOffsetFix:1, 0, UNSIGNED}>\nID: 256"];
	NodeROM257 [label="ROM\nID: 257"];
	NodeConstantRawBits194 [shape=box, label="0.6931471824645996\nID: 194"];
	NodeCast191 [label="{HWOffsetFix:22, -43, UNSIGNED}\nID: 191"];
	NodeMul193 [label="*\nID: 193"];
	NodeCast195 [label="{HWOffsetFix:22, -43, UNSIGNED}\nID: 195"];
	NodeFIFO552 [shape=plaintext, label=<<TABLE BORDER="0" CELLSPACING="0" CELLBORDER="1"> <TR><TD></TD></TR><TR><TD>2</TD></TR><TR><TD>ID: 552</TD></TR> <TR><TD></TD></TR> </TABLE>>];
	NodeAdd196 [label="+\nID: 196"];
	NodeMul197 [label="*\nID: 197"];
	NodeAdd198 [label="+\nID: 198"];
	NodeCast199 [label="{HWOffsetFix:44, -43, UNSIGNED}\nID: 199"];
	NodeAdd200 [label="+\nID: 200"];
	NodeMul201 [label="*\nID: 201"];
	NodeAdd202 [label="+\nID: 202"];
	NodeCast203 [label="{HWOffsetFix:45, -43, UNSIGNED}\nID: 203"];
	NodeAdd204 [label="+\nID: 204"];
	NodeMul205 [label="*\nID: 205"];
	NodeAdd206 [label="+\nID: 206"];
	NodeCast207 [label="{HWOffsetFix:46, -43, UNSIGNED}\nID: 207"];
	NodeCast208 [label="{HWOffsetFix:40, -39, UNSIGNED}\nID: 208"];
	NodeConstantRawBits652 [shape=box, label="1.0\nID: 652"];
	NodeGteInlined494 [label=">=\nID: 494"];
	NodeCondTriAdd527 [label="3 +/0\nID: 527"];
	NodeSlice495 [label="[10:10]\nID: 495"];
	NodeReinterpret496 [label="<{HWOffsetFix:1, 0, UNSIGNED}>\nID: 496"];
	NodeConstantRawBits651 [shape=box, label="0.0\nID: 651"];
	NodeGt179 [label=">\nID: 179"];
	NodeFIFO554 [shape=plaintext, label=<<TABLE BORDER="0" CELLSPACING="0" CELLBORDER="1"> <TR><TD></TD></TR><TR><TD>6</TD></TR><TR><TD>ID: 554</TD></TR> <TR><TD></TD></TR> </TABLE>>];
	NodeDoubtBitOp180 [label="DoubtBitOp(GET_DOUBT)\nID: 180"];
	NodeAnd181 [label="&\nID: 181"];
	NodeFIFO555 [shape=plaintext, label=<<TABLE BORDER="0" CELLSPACING="0" CELLBORDER="1"> <TR><TD></TD></TR><TR><TD>2</TD></TR><TR><TD>ID: 555</TD></TR> <TR><TD></TD></TR> </TABLE>>];
	NodeNot223 [label="~\nID: 223"];
	NodeAnd224 [label="&\nID: 224"];
	NodeConstantRawBits650 [shape=box, label="0.0\nID: 650"];
	NodeLt183 [label="<\nID: 183"];
	NodeFIFO556 [shape=plaintext, label=<<TABLE BORDER="0" CELLSPACING="0" CELLBORDER="1"> <TR><TD></TD></TR><TR><TD>6</TD></TR><TR><TD>ID: 556</TD></TR> <TR><TD></TD></TR> </TABLE>>];
	NodeDoubtBitOp184 [label="DoubtBitOp(GET_DOUBT)\nID: 184"];
	NodeAnd185 [label="&\nID: 185"];
	NodeFIFO557 [shape=plaintext, label=<<TABLE BORDER="0" CELLSPACING="0" CELLBORDER="1"> <TR><TD></TD></TR><TR><TD>2</TD></TR><TR><TD>ID: 557</TD></TR> <TR><TD></TD></TR> </TABLE>>];
	NodeOr225 [label="|\nID: 225"];
	NodeConstantRawBits649 [shape=box, label="255.0\nID: 649"];
	NodeGteInlined497 [label=">=\nID: 497"];
	NodeNot232 [label="~\nID: 232"];
	NodeAnd233 [label="&\nID: 233"];
	NodeOr234 [label="|\nID: 234"];
	NodeCat235 [label="@\nID: 235"];
	NodeConstantRawBits227 [shape=box, label="0.0\nID: 227"];
	NodeCast226 [label="{HWOffsetFix:8, 0, TWOSCOMPLEMENT}\nID: 226"];
	NodeConstantRawBits211 [shape=box, label="0.0\nID: 211"];
	NodeMux212 [shape=invtrapezium, height=0.5, label="MUX\nID: 212"];
	NodeCast213 [label="{HWOffsetFix:39, -39, UNSIGNED}\nID: 213"];
	NodeCat228 [label="@\nID: 228"];
	NodeReinterpret229 [label="<{HWFloat:8, 40}>\nID: 229"];
	NodeConstantRawBits236 [shape=box, label="0.0\nID: 236"];
	NodeConstantRawBits237 [shape=box, label="255.0\nID: 237"];
	NodeConstantRawBits239 [shape=box, label="0.0\nID: 239"];
	NodeCat498 [label="@\nID: 498"];
	NodeReinterpret241 [label="<{HWFloat:8, 40}>\nID: 241"];
	NodeConstantRawBits486 [shape=box, label="0.0\nID: 486"];
	NodeMux244 [shape=invtrapezium, height=0.5, label="MUX\nID: 244"];
	NodeConstantRawBits648 [shape=box, label="NaN\nID: 648"];
	NodeMux254 [shape=invtrapezium, height=0.5, label="MUX\nID: 254"];
	NodeConstantRawBits647 [shape=box, label="1.0\nID: 647"];
	NodeAdd265 [label="+\nID: 265"];
	NodeDiv267 [label="/\nID: 267"];
	NodeSub269 [label="-\nID: 269"];
	NodeAdd271 [label="+\nID: 271"];
	NodeMul272 [label="*\nID: 272"];
	NodeAdd273 [label="+\nID: 273"];
	NodeDiv424 [label="/\nID: 424"];
	NodeMux427 [shape=invtrapezium, height=0.5, label="MUX\nID: 427"];
	NodeAdd434 [label="+\nID: 434"];
	NodeConstantRawBits21 [shape=box, label="0.13000000000010914\nID: 21"];
	NodeGt428 [label=">\nID: 428"];
	NodeConstantRawBits432 [shape=box, label="0.0\nID: 432"];
	NodeConstantRawBits646 [shape=box, label="0.0\nID: 646"];
	NodeEqInlined499 [label="==\nID: 499"];
	NodeStreamOffset539 [shape=diamond, label="-142\nID: 539"];
	NodeFIFO602 [shape=plaintext, label=<<TABLE BORDER="0" CELLSPACING="0" CELLBORDER="1"> <TR><TD></TD></TR><TR><TD>91</TD></TR><TR><TD>ID: 602</TD></TR> <TR><TD></TD></TR> </TABLE>>];
	NodeFIFO614 [shape=plaintext, label=<<TABLE BORDER="0" CELLSPACING="0" CELLBORDER="1"> <TR><TD></TD></TR><TR><TD>2</TD></TR><TR><TD>ID: 614</TD></TR> <TR><TD></TD></TR> </TABLE>>];
	NodeMux54 [shape=invtrapezium, height=0.5, label="MUX\nID: 54"];
	NodeFIFO567 [shape=plaintext, label=<<TABLE BORDER="0" CELLSPACING="0" CELLBORDER="1"> <TR><TD></TD></TR><TR><TD>9</TD></TR><TR><TD>ID: 567</TD></TR> <TR><TD></TD></TR> </TABLE>>];
	NodeFIFO615 [shape=plaintext, label=<<TABLE BORDER="0" CELLSPACING="0" CELLBORDER="1"> <TR><TD></TD></TR><TR><TD>12</TD></TR><TR><TD>ID: 615</TD></TR> <TR><TD></TD></TR> </TABLE>>];
	NodeConstantRawBits18 [shape=box, label="0.13000000000010914\nID: 18"];
	NodeGt293 [label=">\nID: 293"];
	NodeConstantRawBits19 [shape=box, label="0.006000000000000227\nID: 19"];
	NodeGt280 [label=">\nID: 280"];
	NodeConstantRawBits645 [shape=box, label="1.0\nID: 645"];
	NodeConstantRawBits14 [shape=box, label="0.07000000000005002\nID: 14"];
	NodeDiv281 [label="/\nID: 281"];
	NodeSub283 [label="-\nID: 283"];
	NodeConstantRawBits32 [shape=box, label="0.9399999999995998\nID: 32"];
	NodeMux284 [shape=invtrapezium, height=0.5, label="MUX\nID: 284"];
	NodeGt285 [label=">\nID: 285"];
	NodeMux286 [shape=invtrapezium, height=0.5, label="MUX\nID: 286"];
	NodeSub296 [label="-\nID: 296"];
	NodeConstantRawBits4 [shape=box, label="60.0\nID: 4"];
	NodeConstantRawBits35 [shape=box, label="-22.5\nID: 35"];
	NodeConstantRawBits644 [shape=box, label="1.0\nID: 644"];
	NodeConstantRawBits643 [shape=box, label="1.0\nID: 643"];
	NodeConstantRawBits642 [shape=box, label="2.0\nID: 642"];
	NodeConstantRawBits23 [shape=box, label="65.0\nID: 23"];
	NodeConstantRawBits26 [shape=box, label="0.030000000000001137\nID: 26"];
	NodeSub60 [label="-\nID: 60"];
	NodeMul61 [label="*\nID: 61"];
	NodePO2FPMult529 [label="PO2FPMult_N1\nID: 529"];
	NodeSlice140 [label="[46:39]\nID: 140"];
	NodeConstantRawBits141 [shape=box, label="0xff\nID: 141"];
	NodeEqInlined500 [label="==\nID: 500"];
	NodeSlice139 [label="[38:0]\nID: 139"];
	NodeConstantRawBits641 [shape=box, label="0x0000000000\nID: 641"];
	NodeNeqInlined501 [label="!=\nID: 501"];
	NodeAnd145 [label="&\nID: 145"];
	NodeFIFO577 [shape=plaintext, label=<<TABLE BORDER="0" CELLSPACING="0" CELLBORDER="1"> <TR><TD></TD></TR><TR><TD>8</TD></TR><TR><TD>ID: 577</TD></TR> <TR><TD></TD></TR> </TABLE>>];
	NodeConstantRawBits64 [shape=box, label="0.0\nID: 64"];
	NodeDoubtBitOp65 [label="DoubtBitOp(ADD_DOUBT)\nID: 65"];
	NodeCast66 [label="{HWOffsetFix:53, -43, TWOSCOMPLEMENT}\nID: 66"];
	NodeConstantRawBits69 [shape=box, label="1.4426950408889634\nID: 69"];
	NodeMul68 [label="*\nID: 68"];
	NodeCast70 [label="{HWOffsetFix:53, -43, TWOSCOMPLEMENT}\nID: 70"];
	NodeDoubtBitOp79 [label="DoubtBitOp(REMOVE_DOUBT)\nID: 79"];
	NodeCast80 [label="{HWOffsetFix:10, 0, TWOSCOMPLEMENT}\nID: 80"];
	NodeFIFO568 [shape=plaintext, label=<<TABLE BORDER="0" CELLSPACING="0" CELLBORDER="1"> <TR><TD></TD></TR><TR><TD>2</TD></TR><TR><TD>ID: 568</TD></TR> <TR><TD></TD></TR> </TABLE>>];
	NodeCast107 [label="{HWOffsetFix:11, 0, TWOSCOMPLEMENT}\nID: 107"];
	NodeConstantRawBits110 [shape=box, label="1.0\nID: 110"];
	NodeConstantRawBits521 [shape=box, label="127.0\nID: 521"];
	NodeCast83 [label="{HWOffsetFix:10, -21, UNSIGNED}\nID: 83"];
	NodeReinterpret155 [label="<{HWOffsetFix:10, 0, UNSIGNED}>\nID: 155"];
	NodeROM156 [label="ROM\nID: 156"];
	NodeCast82 [label="{HWOffsetFix:10, -11, UNSIGNED}\nID: 82"];
	NodeReinterpret152 [label="<{HWOffsetFix:10, 0, UNSIGNED}>\nID: 152"];
	NodeROM153 [label="ROM\nID: 153"];
	NodeCast81 [label="{HWOffsetFix:1, -1, UNSIGNED}\nID: 81"];
	NodeReinterpret149 [label="<{HWOffsetFix:1, 0, UNSIGNED}>\nID: 149"];
	NodeROM150 [label="ROM\nID: 150"];
	NodeConstantRawBits87 [shape=box, label="0.6931471824645996\nID: 87"];
	NodeCast84 [label="{HWOffsetFix:22, -43, UNSIGNED}\nID: 84"];
	NodeMul86 [label="*\nID: 86"];
	NodeCast88 [label="{HWOffsetFix:22, -43, UNSIGNED}\nID: 88"];
	NodeFIFO569 [shape=plaintext, label=<<TABLE BORDER="0" CELLSPACING="0" CELLBORDER="1"> <TR><TD></TD></TR><TR><TD>2</TD></TR><TR><TD>ID: 569</TD></TR> <TR><TD></TD></TR> </TABLE>>];
	NodeAdd89 [label="+\nID: 89"];
	NodeMul90 [label="*\nID: 90"];
	NodeAdd91 [label="+\nID: 91"];
	NodeCast92 [label="{HWOffsetFix:44, -43, UNSIGNED}\nID: 92"];
	NodeAdd93 [label="+\nID: 93"];
	NodeMul94 [label="*\nID: 94"];
	NodeAdd95 [label="+\nID: 95"];
	NodeCast96 [label="{HWOffsetFix:45, -43, UNSIGNED}\nID: 96"];
	NodeAdd97 [label="+\nID: 97"];
	NodeMul98 [label="*\nID: 98"];
	NodeAdd99 [label="+\nID: 99"];
	NodeCast100 [label="{HWOffsetFix:46, -43, UNSIGNED}\nID: 100"];
	NodeCast101 [label="{HWOffsetFix:40, -39, UNSIGNED}\nID: 101"];
	NodeConstantRawBits640 [shape=box, label="1.0\nID: 640"];
	NodeGteInlined502 [label=">=\nID: 502"];
	NodeCondTriAdd526 [label="3 +/0\nID: 526"];
	NodeSlice503 [label="[10:10]\nID: 503"];
	NodeReinterpret504 [label="<{HWOffsetFix:1, 0, UNSIGNED}>\nID: 504"];
	NodeConstantRawBits639 [shape=box, label="0.0\nID: 639"];
	NodeGt72 [label=">\nID: 72"];
	NodeFIFO571 [shape=plaintext, label=<<TABLE BORDER="0" CELLSPACING="0" CELLBORDER="1"> <TR><TD></TD></TR><TR><TD>6</TD></TR><TR><TD>ID: 571</TD></TR> <TR><TD></TD></TR> </TABLE>>];
	NodeDoubtBitOp73 [label="DoubtBitOp(GET_DOUBT)\nID: 73"];
	NodeAnd74 [label="&\nID: 74"];
	NodeFIFO572 [shape=plaintext, label=<<TABLE BORDER="0" CELLSPACING="0" CELLBORDER="1"> <TR><TD></TD></TR><TR><TD>2</TD></TR><TR><TD>ID: 572</TD></TR> <TR><TD></TD></TR> </TABLE>>];
	NodeNot116 [label="~\nID: 116"];
	NodeAnd117 [label="&\nID: 117"];
	NodeConstantRawBits638 [shape=box, label="0.0\nID: 638"];
	NodeLt76 [label="<\nID: 76"];
	NodeFIFO573 [shape=plaintext, label=<<TABLE BORDER="0" CELLSPACING="0" CELLBORDER="1"> <TR><TD></TD></TR><TR><TD>6</TD></TR><TR><TD>ID: 573</TD></TR> <TR><TD></TD></TR> </TABLE>>];
	NodeDoubtBitOp77 [label="DoubtBitOp(GET_DOUBT)\nID: 77"];
	NodeAnd78 [label="&\nID: 78"];
	NodeFIFO574 [shape=plaintext, label=<<TABLE BORDER="0" CELLSPACING="0" CELLBORDER="1"> <TR><TD></TD></TR><TR><TD>2</TD></TR><TR><TD>ID: 574</TD></TR> <TR><TD></TD></TR> </TABLE>>];
	NodeOr118 [label="|\nID: 118"];
	NodeConstantRawBits637 [shape=box, label="255.0\nID: 637"];
	NodeGteInlined505 [label=">=\nID: 505"];
	NodeNot125 [label="~\nID: 125"];
	NodeAnd126 [label="&\nID: 126"];
	NodeOr127 [label="|\nID: 127"];
	NodeCat128 [label="@\nID: 128"];
	NodeConstantRawBits120 [shape=box, label="0.0\nID: 120"];
	NodeCast119 [label="{HWOffsetFix:8, 0, TWOSCOMPLEMENT}\nID: 119"];
	NodeConstantRawBits104 [shape=box, label="0.0\nID: 104"];
	NodeMux105 [shape=invtrapezium, height=0.5, label="MUX\nID: 105"];
	NodeCast106 [label="{HWOffsetFix:39, -39, UNSIGNED}\nID: 106"];
	NodeCat121 [label="@\nID: 121"];
	NodeReinterpret122 [label="<{HWFloat:8, 40}>\nID: 122"];
	NodeConstantRawBits129 [shape=box, label="0.0\nID: 129"];
	NodeConstantRawBits130 [shape=box, label="255.0\nID: 130"];
	NodeConstantRawBits132 [shape=box, label="0.0\nID: 132"];
	NodeCat506 [label="@\nID: 506"];
	NodeReinterpret134 [label="<{HWFloat:8, 40}>\nID: 134"];
	NodeConstantRawBits487 [shape=box, label="0.0\nID: 487"];
	NodeMux137 [shape=invtrapezium, height=0.5, label="MUX\nID: 137"];
	NodeConstantRawBits636 [shape=box, label="NaN\nID: 636"];
	NodeMux147 [shape=invtrapezium, height=0.5, label="MUX\nID: 147"];
	NodeConstantRawBits635 [shape=box, label="1.0\nID: 635"];
	NodeAdd158 [label="+\nID: 158"];
	NodeDiv160 [label="/\nID: 160"];
	NodeSub162 [label="-\nID: 162"];
	NodeAdd164 [label="+\nID: 164"];
	NodeMul165 [label="*\nID: 165"];
	NodeAdd166 [label="+\nID: 166"];
	NodeDiv297 [label="/\nID: 297"];
	NodeNeg294 [label="(-)\nID: 294"];
	NodeConstantRawBits3 [shape=box, label="200.0\nID: 3"];
	NodeDiv295 [label="/\nID: 295"];
	NodeMux298 [shape=invtrapezium, height=0.5, label="MUX\nID: 298"];
	NodeMul410 [label="*\nID: 410"];
	NodeAdd411 [label="+\nID: 411"];
	NodeFIFO562 [shape=plaintext, label=<<TABLE BORDER="0" CELLSPACING="0" CELLBORDER="1"> <TR><TD></TD></TR><TR><TD>15</TD></TR><TR><TD>ID: 562</TD></TR> <TR><TD></TD></TR> </TABLE>>];
	NodeNeg429 [label="(-)\nID: 429"];
	NodeConstantRawBits634 [shape=box, label="0.0\nID: 634"];
	NodeEqInlined507 [label="==\nID: 507"];
	NodeStreamOffset540 [shape=diamond, label="-142\nID: 540"];
	NodeFIFO604 [shape=plaintext, label=<<TABLE BORDER="0" CELLSPACING="0" CELLBORDER="1"> <TR><TD></TD></TR><TR><TD>91</TD></TR><TR><TD>ID: 604</TD></TR> <TR><TD></TD></TR> </TABLE>>];
	NodeFIFO616 [shape=plaintext, label=<<TABLE BORDER="0" CELLSPACING="0" CELLBORDER="1"> <TR><TD></TD></TR><TR><TD>2</TD></TR><TR><TD>ID: 616</TD></TR> <TR><TD></TD></TR> </TABLE>>];
	NodeMux57 [shape=invtrapezium, height=0.5, label="MUX\nID: 57"];
	NodeFIFO593 [shape=plaintext, label=<<TABLE BORDER="0" CELLSPACING="0" CELLBORDER="1"> <TR><TD></TD></TR><TR><TD>10</TD></TR><TR><TD>ID: 593</TD></TR> <TR><TD></TD></TR> </TABLE>>];
	NodeFIFO617 [shape=plaintext, label=<<TABLE BORDER="0" CELLSPACING="0" CELLBORDER="1"> <TR><TD></TD></TR><TR><TD>12</TD></TR><TR><TD>ID: 617</TD></TR> <TR><TD></TD></TR> </TABLE>>];
	NodeConstantRawBits633 [shape=box, label="1.0\nID: 633"];
	NodeConstantRawBits632 [shape=box, label="1.0\nID: 632"];
	NodeConstantRawBits631 [shape=box, label="2.0\nID: 631"];
	NodeConstantRawBits24 [shape=box, label="2.09939999999915\nID: 24"];
	NodeConstantRawBits27 [shape=box, label="0.9086999999999534\nID: 27"];
	NodeSub299 [label="-\nID: 299"];
	NodeMul300 [label="*\nID: 300"];
	NodePO2FPMult530 [label="PO2FPMult_N1\nID: 530"];
	NodeSlice379 [label="[46:39]\nID: 379"];
	NodeConstantRawBits380 [shape=box, label="0xff\nID: 380"];
	NodeEqInlined508 [label="==\nID: 508"];
	NodeSlice378 [label="[38:0]\nID: 378"];
	NodeConstantRawBits630 [shape=box, label="0x0000000000\nID: 630"];
	NodeNeqInlined509 [label="!=\nID: 509"];
	NodeAnd384 [label="&\nID: 384"];
	NodeFIFO592 [shape=plaintext, label=<<TABLE BORDER="0" CELLSPACING="0" CELLBORDER="1"> <TR><TD></TD></TR><TR><TD>8</TD></TR><TR><TD>ID: 592</TD></TR> <TR><TD></TD></TR> </TABLE>>];
	NodeConstantRawBits303 [shape=box, label="0.0\nID: 303"];
	NodeDoubtBitOp304 [label="DoubtBitOp(ADD_DOUBT)\nID: 304"];
	NodeCast305 [label="{HWOffsetFix:53, -43, TWOSCOMPLEMENT}\nID: 305"];
	NodeConstantRawBits308 [shape=box, label="1.4426950408889634\nID: 308"];
	NodeMul307 [label="*\nID: 307"];
	NodeCast309 [label="{HWOffsetFix:53, -43, TWOSCOMPLEMENT}\nID: 309"];
	NodeDoubtBitOp318 [label="DoubtBitOp(REMOVE_DOUBT)\nID: 318"];
	NodeCast319 [label="{HWOffsetFix:10, 0, TWOSCOMPLEMENT}\nID: 319"];
	NodeFIFO583 [shape=plaintext, label=<<TABLE BORDER="0" CELLSPACING="0" CELLBORDER="1"> <TR><TD></TD></TR><TR><TD>2</TD></TR><TR><TD>ID: 583</TD></TR> <TR><TD></TD></TR> </TABLE>>];
	NodeCast346 [label="{HWOffsetFix:11, 0, TWOSCOMPLEMENT}\nID: 346"];
	NodeConstantRawBits349 [shape=box, label="1.0\nID: 349"];
	NodeConstantRawBits523 [shape=box, label="127.0\nID: 523"];
	NodeCast322 [label="{HWOffsetFix:10, -21, UNSIGNED}\nID: 322"];
	NodeReinterpret394 [label="<{HWOffsetFix:10, 0, UNSIGNED}>\nID: 394"];
	NodeROM395 [label="ROM\nID: 395"];
	NodeCast321 [label="{HWOffsetFix:10, -11, UNSIGNED}\nID: 321"];
	NodeReinterpret391 [label="<{HWOffsetFix:10, 0, UNSIGNED}>\nID: 391"];
	NodeROM392 [label="ROM\nID: 392"];
	NodeCast320 [label="{HWOffsetFix:1, -1, UNSIGNED}\nID: 320"];
	NodeReinterpret388 [label="<{HWOffsetFix:1, 0, UNSIGNED}>\nID: 388"];
	NodeROM389 [label="ROM\nID: 389"];
	NodeConstantRawBits326 [shape=box, label="0.6931471824645996\nID: 326"];
	NodeCast323 [label="{HWOffsetFix:22, -43, UNSIGNED}\nID: 323"];
	NodeMul325 [label="*\nID: 325"];
	NodeCast327 [label="{HWOffsetFix:22, -43, UNSIGNED}\nID: 327"];
	NodeFIFO584 [shape=plaintext, label=<<TABLE BORDER="0" CELLSPACING="0" CELLBORDER="1"> <TR><TD></TD></TR><TR><TD>2</TD></TR><TR><TD>ID: 584</TD></TR> <TR><TD></TD></TR> </TABLE>>];
	NodeAdd328 [label="+\nID: 328"];
	NodeMul329 [label="*\nID: 329"];
	NodeAdd330 [label="+\nID: 330"];
	NodeCast331 [label="{HWOffsetFix:44, -43, UNSIGNED}\nID: 331"];
	NodeAdd332 [label="+\nID: 332"];
	NodeMul333 [label="*\nID: 333"];
	NodeAdd334 [label="+\nID: 334"];
	NodeCast335 [label="{HWOffsetFix:45, -43, UNSIGNED}\nID: 335"];
	NodeAdd336 [label="+\nID: 336"];
	NodeMul337 [label="*\nID: 337"];
	NodeAdd338 [label="+\nID: 338"];
	NodeCast339 [label="{HWOffsetFix:46, -43, UNSIGNED}\nID: 339"];
	NodeCast340 [label="{HWOffsetFix:40, -39, UNSIGNED}\nID: 340"];
	NodeConstantRawBits629 [shape=box, label="1.0\nID: 629"];
	NodeGteInlined510 [label=">=\nID: 510"];
	NodeCondTriAdd525 [label="3 +/0\nID: 525"];
	NodeSlice511 [label="[10:10]\nID: 511"];
	NodeReinterpret512 [label="<{HWOffsetFix:1, 0, UNSIGNED}>\nID: 512"];
	NodeConstantRawBits628 [shape=box, label="0.0\nID: 628"];
	NodeGt311 [label=">\nID: 311"];
	NodeFIFO586 [shape=plaintext, label=<<TABLE BORDER="0" CELLSPACING="0" CELLBORDER="1"> <TR><TD></TD></TR><TR><TD>6</TD></TR><TR><TD>ID: 586</TD></TR> <TR><TD></TD></TR> </TABLE>>];
	NodeDoubtBitOp312 [label="DoubtBitOp(GET_DOUBT)\nID: 312"];
	NodeAnd313 [label="&\nID: 313"];
	NodeFIFO587 [shape=plaintext, label=<<TABLE BORDER="0" CELLSPACING="0" CELLBORDER="1"> <TR><TD></TD></TR><TR><TD>2</TD></TR><TR><TD>ID: 587</TD></TR> <TR><TD></TD></TR> </TABLE>>];
	NodeNot355 [label="~\nID: 355"];
	NodeAnd356 [label="&\nID: 356"];
	NodeConstantRawBits627 [shape=box, label="0.0\nID: 627"];
	NodeLt315 [label="<\nID: 315"];
	NodeFIFO588 [shape=plaintext, label=<<TABLE BORDER="0" CELLSPACING="0" CELLBORDER="1"> <TR><TD></TD></TR><TR><TD>6</TD></TR><TR><TD>ID: 588</TD></TR> <TR><TD></TD></TR> </TABLE>>];
	NodeDoubtBitOp316 [label="DoubtBitOp(GET_DOUBT)\nID: 316"];
	NodeAnd317 [label="&\nID: 317"];
	NodeFIFO589 [shape=plaintext, label=<<TABLE BORDER="0" CELLSPACING="0" CELLBORDER="1"> <TR><TD></TD></TR><TR><TD>2</TD></TR><TR><TD>ID: 589</TD></TR> <TR><TD></TD></TR> </TABLE>>];
	NodeOr357 [label="|\nID: 357"];
	NodeConstantRawBits626 [shape=box, label="255.0\nID: 626"];
	NodeGteInlined513 [label=">=\nID: 513"];
	NodeNot364 [label="~\nID: 364"];
	NodeAnd365 [label="&\nID: 365"];
	NodeOr366 [label="|\nID: 366"];
	NodeCat367 [label="@\nID: 367"];
	NodeConstantRawBits359 [shape=box, label="0.0\nID: 359"];
	NodeCast358 [label="{HWOffsetFix:8, 0, TWOSCOMPLEMENT}\nID: 358"];
	NodeConstantRawBits343 [shape=box, label="0.0\nID: 343"];
	NodeMux344 [shape=invtrapezium, height=0.5, label="MUX\nID: 344"];
	NodeCast345 [label="{HWOffsetFix:39, -39, UNSIGNED}\nID: 345"];
	NodeCat360 [label="@\nID: 360"];
	NodeReinterpret361 [label="<{HWFloat:8, 40}>\nID: 361"];
	NodeConstantRawBits368 [shape=box, label="0.0\nID: 368"];
	NodeConstantRawBits369 [shape=box, label="255.0\nID: 369"];
	NodeConstantRawBits371 [shape=box, label="0.0\nID: 371"];
	NodeCat514 [label="@\nID: 514"];
	NodeReinterpret373 [label="<{HWFloat:8, 40}>\nID: 373"];
	NodeConstantRawBits488 [shape=box, label="0.0\nID: 488"];
	NodeMux376 [shape=invtrapezium, height=0.5, label="MUX\nID: 376"];
	NodeConstantRawBits625 [shape=box, label="NaN\nID: 625"];
	NodeMux386 [shape=invtrapezium, height=0.5, label="MUX\nID: 386"];
	NodeConstantRawBits624 [shape=box, label="1.0\nID: 624"];
	NodeAdd397 [label="+\nID: 397"];
	NodeDiv399 [label="/\nID: 399"];
	NodeSub401 [label="-\nID: 401"];
	NodeAdd403 [label="+\nID: 403"];
	NodePO2FPMult531 [label="PO2FPMult_N-1\nID: 531"];
	NodeSub406 [label="-\nID: 406"];
	NodeGt274 [label=">\nID: 274"];
	NodeConstantRawBits6 [shape=box, label="2.734199999998964\nID: 6"];
	NodeConstantRawBits7 [shape=box, label="16.0\nID: 7"];
	NodeMux275 [shape=invtrapezium, height=0.5, label="MUX\nID: 275"];
	NodeDiv407 [label="/\nID: 407"];
	NodeMul412 [label="*\nID: 412"];
	NodeAdd413 [label="+\nID: 413"];
	NodeFIFO581 [shape=plaintext, label=<<TABLE BORDER="0" CELLSPACING="0" CELLBORDER="1"> <TR><TD></TD></TR><TR><TD>14</TD></TR><TR><TD>ID: 581</TD></TR> <TR><TD></TD></TR> </TABLE>>];
	NodeMul430 [label="*\nID: 430"];
	NodeConstantRawBits13 [shape=box, label="1.8875000000007276\nID: 13"];
	NodeDiv431 [label="/\nID: 431"];
	NodeMux433 [shape=invtrapezium, height=0.5, label="MUX\nID: 433"];
	NodeAdd435 [label="+\nID: 435"];
	NodeMul436 [label="*\nID: 436"];
	NodeSub437 [label="-\nID: 437"];
	NodeCast442 [label="{HWFloat:8, 24}\nID: 442"];
	NodeOutput449 [shape=house, label="u_out\nID: 449"];
	NodeConstantRawBits623 [shape=box, label="1.0\nID: 623"];
	NodeSub452 [label="-\nID: 452"];
	NodeEqInlined515 [label="==\nID: 515"];
	NodeCast450 [label="{HWFloat:8, 24}\nID: 450"];
	NodeOutput457 [shape=house, label="v_out\nID: 457"];
	NodeConstantRawBits622 [shape=box, label="1.0\nID: 622"];
	NodeSub460 [label="-\nID: 460"];
	NodeEqInlined516 [label="==\nID: 516"];
	NodeCast458 [label="{HWFloat:8, 24}\nID: 458"];
	NodeOutput465 [shape=house, label="w_out\nID: 465"];
	NodeConstantRawBits621 [shape=box, label="1.0\nID: 621"];
	NodeSub468 [label="-\nID: 468"];
	NodeEqInlined517 [label="==\nID: 517"];
	NodeCast466 [label="{HWFloat:8, 24}\nID: 466"];
	NodeOutput473 [shape=house, label="s_out\nID: 473"];
	NodeConstantRawBits40 -> NodeCounter43[label="enable" color="/dark28/1" photon_data="EDGE,SrcNode:40,SrcNodePort:value"];
	NodeConstantRawBits618 -> NodeCounter43[label="max" color="/dark28/2" photon_data="EDGE,SrcNode:618,SrcNodePort:value"];
	NodeCounter43 -> NodeFIFO541[headport="n" color="/dark28/3" photon_data="EDGE,SrcNode:43,SrcNodePort:count"];
	NodeConstantRawBits618 -> NodeSub444[color="/dark28/4" photon_data="EDGE,SrcNode:618,SrcNodePort:value"];
	NodeConstantRawBits660 -> NodeSub444[color="/dark28/5" photon_data="EDGE,SrcNode:660,SrcNodePort:value"];
	NodeFIFO541 -> NodeEqInlined489[tailport="s" color="/dark28/6" photon_data="EDGE,SrcNode:541,SrcNodePort:output"];
	NodeSub444 -> NodeEqInlined489[color="/dark28/7" photon_data="EDGE,SrcNode:444,SrcNodePort:result"];
	NodeEqInlined489 -> NodeFIFO598[color="/dark28/8" ];
	NodeCounter43 -> NodeCounter42[label="enable" color="/dark28/1" photon_data="EDGE,SrcNode:43,SrcNodePort:wrap"];
	NodeInputMappedReg41 -> NodeCounter42[label="max" color="/dark28/2" photon_data="EDGE,SrcNode:41,SrcNodePort:num_iteration"];
	NodeCounter42 -> NodeEqInlined490[color="/dark28/3" photon_data="EDGE,SrcNode:42,SrcNodePort:count"];
	NodeConstantRawBits659 -> NodeEqInlined490[color="/dark28/4" photon_data="EDGE,SrcNode:659,SrcNodePort:value"];
	NodeSub437 -> NodeStreamOffset537[headport="n" tailport="s" color=red photon_data="EDGE,SrcNode:437,SrcNodePort:result"];
	NodeEqInlined490 -> NodeMux48[headport="w" color="/dark28/5" photon_data="EDGE,SrcNode:490,SrcNodePort:result"];
	NodeStreamOffset537 -> NodeMux48[color="/dark28/6" photon_data="EDGE,SrcNode:537,SrcNodePort:output"];
	NodeConstantRawBits38 -> NodeMux48[color="/dark28/7" photon_data="EDGE,SrcNode:38,SrcNodePort:value"];
	NodeMux48 -> NodeFIFO564[headport="n" color="/dark28/8" photon_data="EDGE,SrcNode:48,SrcNodePort:result"];
	NodeFIFO564 -> NodeFIFO605[tailport="s" headport="n" color="/dark28/1" photon_data="EDGE,SrcNode:564,SrcNodePort:output"];
	NodeFIFO605 -> NodeFIFO606[tailport="s" headport="n" color="/dark28/2" photon_data="EDGE,SrcNode:605,SrcNodePort:output"];
	NodeFIFO606 -> NodeFIFO607[tailport="s" headport="n" color="/dark28/3" photon_data="EDGE,SrcNode:606,SrcNodePort:output"];
	NodeFIFO607 -> NodeFIFO608[tailport="s" headport="n" color="/dark28/4" photon_data="EDGE,SrcNode:607,SrcNodePort:output"];
	NodeFIFO608 -> NodeFIFO609[tailport="s" headport="n" color="/dark28/5" photon_data="EDGE,SrcNode:608,SrcNodePort:output"];
	NodeFIFO609 -> NodeFIFO610[tailport="s" headport="n" color="/dark28/6" photon_data="EDGE,SrcNode:609,SrcNodePort:output"];
	NodeFIFO610 -> NodeFIFO611[tailport="s" headport="n" color="/dark28/7" photon_data="EDGE,SrcNode:610,SrcNodePort:output"];
	NodeFIFO611 -> NodeFIFO612[tailport="s" headport="n" color="/dark28/8" photon_data="EDGE,SrcNode:611,SrcNodePort:output"];
	NodeFIFO610 -> NodeGt414[tailport="s" color="/dark28/1" photon_data="EDGE,SrcNode:610,SrcNodePort:output"];
	NodeConstantRawBits15 -> NodeGt414[color="/dark28/2" photon_data="EDGE,SrcNode:15,SrcNodePort:value"];
	NodeCounter42 -> NodeEqInlined491[color="/dark28/3" photon_data="EDGE,SrcNode:42,SrcNodePort:count"];
	NodeConstantRawBits658 -> NodeEqInlined491[color="/dark28/4" photon_data="EDGE,SrcNode:658,SrcNodePort:value"];
	NodeAdd409 -> NodeStreamOffset538[headport="n" tailport="s" color=red photon_data="EDGE,SrcNode:409,SrcNodePort:result"];
	NodeStreamOffset538 -> NodeFIFO600[headport="n" color="/dark28/5" photon_data="EDGE,SrcNode:538,SrcNodePort:output"];
	NodeFIFO600 -> NodeFIFO613[tailport="s" headport="n" color="/dark28/6" photon_data="EDGE,SrcNode:600,SrcNodePort:output"];
	NodeEqInlined491 -> NodeMux51[headport="w" color="/dark28/7" photon_data="EDGE,SrcNode:491,SrcNodePort:result"];
	NodeFIFO613 -> NodeMux51[tailport="s" color="/dark28/8" photon_data="EDGE,SrcNode:613,SrcNodePort:output"];
	NodeConstantRawBits38 -> NodeMux51[color="/dark28/1" photon_data="EDGE,SrcNode:38,SrcNodePort:value"];
	NodeMux51 -> NodeFIFO544[headport="n" color="/dark28/2" photon_data="EDGE,SrcNode:51,SrcNodePort:result"];
	NodeMux48 -> NodeGt287[color="/dark28/3" photon_data="EDGE,SrcNode:48,SrcNodePort:result"];
	NodeConstantRawBits15 -> NodeGt287[color="/dark28/4" photon_data="EDGE,SrcNode:15,SrcNodePort:value"];
	NodeMux48 -> NodeGt278[color="/dark28/5" photon_data="EDGE,SrcNode:48,SrcNodePort:result"];
	NodeConstantRawBits17 -> NodeGt278[color="/dark28/6" photon_data="EDGE,SrcNode:17,SrcNodePort:value"];
	NodeGt278 -> NodeMux279[headport="w" color="/dark28/7" photon_data="EDGE,SrcNode:278,SrcNodePort:result"];
	NodeConstantRawBits38 -> NodeMux279[color="/dark28/8" photon_data="EDGE,SrcNode:38,SrcNodePort:value"];
	NodeConstantRawBits37 -> NodeMux279[color="/dark28/1" photon_data="EDGE,SrcNode:37,SrcNodePort:value"];
	NodeMux279 -> NodeSub290[color="/dark28/2" photon_data="EDGE,SrcNode:279,SrcNodePort:result"];
	NodeMux51 -> NodeSub290[color="/dark28/3" photon_data="EDGE,SrcNode:51,SrcNodePort:result"];
	NodeMux48 -> NodeGt58[color="/dark28/4" photon_data="EDGE,SrcNode:48,SrcNodePort:result"];
	NodeConstantRawBits16 -> NodeGt58[color="/dark28/5" photon_data="EDGE,SrcNode:16,SrcNodePort:value"];
	NodeGt58 -> NodeMux59[headport="w" color="/dark28/6" photon_data="EDGE,SrcNode:58,SrcNodePort:result"];
	NodeConstantRawBits1 -> NodeMux59[color="/dark28/7" photon_data="EDGE,SrcNode:1,SrcNodePort:value"];
	NodeConstantRawBits2 -> NodeMux59[color="/dark28/8" photon_data="EDGE,SrcNode:2,SrcNodePort:value"];
	NodeSub290 -> NodeDiv291[color="/dark28/1" photon_data="EDGE,SrcNode:290,SrcNodePort:result"];
	NodeMux59 -> NodeDiv291[color="/dark28/2" photon_data="EDGE,SrcNode:59,SrcNodePort:result"];
	NodeMux51 -> NodeNeg288[color="/dark28/3" photon_data="EDGE,SrcNode:51,SrcNodePort:result"];
	NodeNeg288 -> NodeDiv289[color="/dark28/4" photon_data="EDGE,SrcNode:288,SrcNodePort:result"];
	NodeConstantRawBits0 -> NodeDiv289[color="/dark28/5" photon_data="EDGE,SrcNode:0,SrcNodePort:value"];
	NodeGt287 -> NodeMux292[headport="w" color="/dark28/6" photon_data="EDGE,SrcNode:287,SrcNodePort:result"];
	NodeDiv291 -> NodeMux292[color="/dark28/7" photon_data="EDGE,SrcNode:291,SrcNodePort:result"];
	NodeDiv289 -> NodeMux292[color="/dark28/8" photon_data="EDGE,SrcNode:289,SrcNodePort:result"];
	NodeInputMappedReg44 -> NodeCast45[color="/dark28/1" photon_data="EDGE,SrcNode:44,SrcNodePort:dt"];
	NodeMux292 -> NodeMul408[color="/dark28/2" photon_data="EDGE,SrcNode:292,SrcNodePort:result"];
	NodeCast45 -> NodeMul408[color="/dark28/3" photon_data="EDGE,SrcNode:45,SrcNodePort:o"];
	NodeFIFO544 -> NodeAdd409[tailport="s" color="/dark28/4" photon_data="EDGE,SrcNode:544,SrcNodePort:output"];
	NodeMul408 -> NodeAdd409[color="/dark28/5" photon_data="EDGE,SrcNode:408,SrcNodePort:result"];
	NodeAdd409 -> NodeNeg415[color="/dark28/6" photon_data="EDGE,SrcNode:409,SrcNodePort:result"];
	NodeFIFO606 -> NodeSub416[tailport="s" color="/dark28/7" photon_data="EDGE,SrcNode:606,SrcNodePort:output"];
	NodeConstantRawBits15 -> NodeSub416[color="/dark28/8" photon_data="EDGE,SrcNode:15,SrcNodePort:value"];
	NodeNeg415 -> NodeMul417[color="/dark28/1" photon_data="EDGE,SrcNode:415,SrcNodePort:result"];
	NodeSub416 -> NodeMul417[color="/dark28/2" photon_data="EDGE,SrcNode:416,SrcNodePort:result"];
	NodeConstantRawBits29 -> NodeSub418[color="/dark28/3" photon_data="EDGE,SrcNode:29,SrcNodePort:value"];
	NodeFIFO607 -> NodeSub418[tailport="s" color="/dark28/4" photon_data="EDGE,SrcNode:607,SrcNodePort:output"];
	NodeMul417 -> NodeMul419[color="/dark28/5" photon_data="EDGE,SrcNode:417,SrcNodePort:result"];
	NodeSub418 -> NodeMul419[color="/dark28/6" photon_data="EDGE,SrcNode:418,SrcNodePort:result"];
	NodeMul419 -> NodeDiv420[color="/dark28/7" photon_data="EDGE,SrcNode:419,SrcNodePort:result"];
	NodeConstantRawBits8 -> NodeDiv420[color="/dark28/8" photon_data="EDGE,SrcNode:8,SrcNodePort:value"];
	NodeGt414 -> NodeMux421[headport="w" color="/dark28/1" photon_data="EDGE,SrcNode:414,SrcNodePort:result"];
	NodeConstantRawBits37 -> NodeMux421[color="/dark28/2" photon_data="EDGE,SrcNode:37,SrcNodePort:value"];
	NodeDiv420 -> NodeMux421[color="/dark28/3" photon_data="EDGE,SrcNode:420,SrcNodePort:result"];
	NodeFIFO610 -> NodeGt422[tailport="s" color="/dark28/4" photon_data="EDGE,SrcNode:610,SrcNodePort:output"];
	NodeConstantRawBits20 -> NodeGt422[color="/dark28/5" photon_data="EDGE,SrcNode:20,SrcNodePort:value"];
	NodeFIFO609 -> NodeGt276[tailport="s" color="/dark28/6" photon_data="EDGE,SrcNode:609,SrcNodePort:output"];
	NodeConstantRawBits22 -> NodeGt276[color="/dark28/7" photon_data="EDGE,SrcNode:22,SrcNodePort:value"];
	NodeGt276 -> NodeMux277[headport="w" color="/dark28/8" photon_data="EDGE,SrcNode:276,SrcNodePort:result"];
	NodeConstantRawBits9 -> NodeMux277[color="/dark28/1" photon_data="EDGE,SrcNode:9,SrcNodePort:value"];
	NodeConstantRawBits10 -> NodeMux277[color="/dark28/2" photon_data="EDGE,SrcNode:10,SrcNodePort:value"];
	NodeFIFO609 -> NodeDiv426[tailport="s" color="/dark28/3" photon_data="EDGE,SrcNode:609,SrcNodePort:output"];
	NodeMux277 -> NodeDiv426[color="/dark28/4" photon_data="EDGE,SrcNode:277,SrcNodePort:result"];
	NodeFIFO608 -> NodeSub167[tailport="s" color="/dark28/5" photon_data="EDGE,SrcNode:608,SrcNodePort:output"];
	NodeConstantRawBits30 -> NodeSub167[color="/dark28/6" photon_data="EDGE,SrcNode:30,SrcNodePort:value"];
	NodeConstantRawBits25 -> NodeMul168[color="/dark28/7" photon_data="EDGE,SrcNode:25,SrcNodePort:value"];
	NodeSub167 -> NodeMul168[color="/dark28/8" photon_data="EDGE,SrcNode:167,SrcNodePort:result"];
	NodeMul168 -> NodePO2FPMult528[color="/dark28/1" photon_data="EDGE,SrcNode:168,SrcNodePort:result"];
	NodePO2FPMult528 -> NodeSlice247[color="/dark28/2" photon_data="EDGE,SrcNode:528,SrcNodePort:floatOut"];
	NodeSlice247 -> NodeEqInlined492[color="/dark28/3" photon_data="EDGE,SrcNode:247,SrcNodePort:result"];
	NodeConstantRawBits248 -> NodeEqInlined492[color="/dark28/4" photon_data="EDGE,SrcNode:248,SrcNodePort:value"];
	NodePO2FPMult528 -> NodeSlice246[color="/dark28/5" photon_data="EDGE,SrcNode:528,SrcNodePort:floatOut"];
	NodeSlice246 -> NodeNeqInlined493[color="/dark28/6" photon_data="EDGE,SrcNode:246,SrcNodePort:result"];
	NodeConstantRawBits653 -> NodeNeqInlined493[color="/dark28/7" photon_data="EDGE,SrcNode:653,SrcNodePort:value"];
	NodeEqInlined492 -> NodeAnd252[color="/dark28/8" photon_data="EDGE,SrcNode:492,SrcNodePort:result"];
	NodeNeqInlined493 -> NodeAnd252[color="/dark28/1" photon_data="EDGE,SrcNode:493,SrcNodePort:result"];
	NodeAnd252 -> NodeFIFO560[headport="n" color="/dark28/2" photon_data="EDGE,SrcNode:252,SrcNodePort:result"];
	NodePO2FPMult528 -> NodeDoubtBitOp172[color="/dark28/3" photon_data="EDGE,SrcNode:528,SrcNodePort:floatOut"];
	NodeConstantRawBits171 -> NodeDoubtBitOp172[color="/dark28/4" photon_data="EDGE,SrcNode:171,SrcNodePort:value"];
	NodeDoubtBitOp172 -> NodeCast173[color="/dark28/5" style=dashed photon_data="EDGE,SrcNode:172,SrcNodePort:output"];
	NodeCast173 -> NodeMul175[color="/dark28/6" style=dashed photon_data="EDGE,SrcNode:173,SrcNodePort:o"];
	NodeConstantRawBits176 -> NodeMul175[color="/dark28/7" photon_data="EDGE,SrcNode:176,SrcNodePort:value"];
	NodeMul175 -> NodeCast177[color="/dark28/8" style=dashed photon_data="EDGE,SrcNode:175,SrcNodePort:result"];
	NodeCast177 -> NodeDoubtBitOp186[color="/dark28/1" style=dashed photon_data="EDGE,SrcNode:177,SrcNodePort:o"];
	NodeDoubtBitOp186 -> NodeCast187[color="/dark28/2" photon_data="EDGE,SrcNode:186,SrcNodePort:output"];
	NodeCast187 -> NodeFIFO551[headport="n" color="/dark28/3" photon_data="EDGE,SrcNode:187,SrcNodePort:o"];
	NodeFIFO551 -> NodeCast214[tailport="s" color="/dark28/4" photon_data="EDGE,SrcNode:551,SrcNodePort:output"];
	NodeDoubtBitOp186 -> NodeCast190[color="/dark28/5" photon_data="EDGE,SrcNode:186,SrcNodePort:output"];
	NodeCast190 -> NodeReinterpret262[color="/dark28/6" photon_data="EDGE,SrcNode:190,SrcNodePort:o"];
	NodeReinterpret262 -> NodeROM263[color="/dark28/7" photon_data="EDGE,SrcNode:262,SrcNodePort:output"];
	NodeDoubtBitOp186 -> NodeCast189[color="/dark28/8" photon_data="EDGE,SrcNode:186,SrcNodePort:output"];
	NodeCast189 -> NodeReinterpret259[color="/dark28/1" photon_data="EDGE,SrcNode:189,SrcNodePort:o"];
	NodeReinterpret259 -> NodeROM260[color="/dark28/2" photon_data="EDGE,SrcNode:259,SrcNodePort:output"];
	NodeDoubtBitOp186 -> NodeCast188[color="/dark28/3" photon_data="EDGE,SrcNode:186,SrcNodePort:output"];
	NodeCast188 -> NodeReinterpret256[color="/dark28/4" photon_data="EDGE,SrcNode:188,SrcNodePort:o"];
	NodeReinterpret256 -> NodeROM257[color="/dark28/5" photon_data="EDGE,SrcNode:256,SrcNodePort:output"];
	NodeDoubtBitOp186 -> NodeCast191[color="/dark28/6" photon_data="EDGE,SrcNode:186,SrcNodePort:output"];
	NodeConstantRawBits194 -> NodeMul193[color="/dark28/7" photon_data="EDGE,SrcNode:194,SrcNodePort:value"];
	NodeCast191 -> NodeMul193[color="/dark28/8" photon_data="EDGE,SrcNode:191,SrcNodePort:o"];
	NodeMul193 -> NodeCast195[color="/dark28/1" photon_data="EDGE,SrcNode:193,SrcNodePort:result"];
	NodeCast195 -> NodeFIFO552[headport="n" color="/dark28/2" photon_data="EDGE,SrcNode:195,SrcNodePort:o"];
	NodeROM257 -> NodeAdd196[color="/dark28/3" photon_data="EDGE,SrcNode:257,SrcNodePort:dout"];
	NodeFIFO552 -> NodeAdd196[tailport="s" color="/dark28/4" photon_data="EDGE,SrcNode:552,SrcNodePort:output"];
	NodeFIFO552 -> NodeMul197[tailport="s" color="/dark28/5" photon_data="EDGE,SrcNode:552,SrcNodePort:output"];
	NodeROM257 -> NodeMul197[color="/dark28/6" photon_data="EDGE,SrcNode:257,SrcNodePort:dout"];
	NodeAdd196 -> NodeAdd198[color="/dark28/7" photon_data="EDGE,SrcNode:196,SrcNodePort:result"];
	NodeMul197 -> NodeAdd198[color="/dark28/8" photon_data="EDGE,SrcNode:197,SrcNodePort:result"];
	NodeAdd198 -> NodeCast199[color="/dark28/1" photon_data="EDGE,SrcNode:198,SrcNodePort:result"];
	NodeROM260 -> NodeAdd200[color="/dark28/2" photon_data="EDGE,SrcNode:260,SrcNodePort:dout"];
	NodeCast199 -> NodeAdd200[color="/dark28/3" photon_data="EDGE,SrcNode:199,SrcNodePort:o"];
	NodeCast199 -> NodeMul201[color="/dark28/4" photon_data="EDGE,SrcNode:199,SrcNodePort:o"];
	NodeROM260 -> NodeMul201[color="/dark28/5" photon_data="EDGE,SrcNode:260,SrcNodePort:dout"];
	NodeAdd200 -> NodeAdd202[color="/dark28/6" photon_data="EDGE,SrcNode:200,SrcNodePort:result"];
	NodeMul201 -> NodeAdd202[color="/dark28/7" photon_data="EDGE,SrcNode:201,SrcNodePort:result"];
	NodeAdd202 -> NodeCast203[color="/dark28/8" photon_data="EDGE,SrcNode:202,SrcNodePort:result"];
	NodeROM263 -> NodeAdd204[color="/dark28/1" photon_data="EDGE,SrcNode:263,SrcNodePort:dout"];
	NodeCast203 -> NodeAdd204[color="/dark28/2" photon_data="EDGE,SrcNode:203,SrcNodePort:o"];
	NodeCast203 -> NodeMul205[color="/dark28/3" photon_data="EDGE,SrcNode:203,SrcNodePort:o"];
	NodeROM263 -> NodeMul205[color="/dark28/4" photon_data="EDGE,SrcNode:263,SrcNodePort:dout"];
	NodeAdd204 -> NodeAdd206[color="/dark28/5" photon_data="EDGE,SrcNode:204,SrcNodePort:result"];
	NodeMul205 -> NodeAdd206[color="/dark28/6" photon_data="EDGE,SrcNode:205,SrcNodePort:result"];
	NodeAdd206 -> NodeCast207[color="/dark28/7" photon_data="EDGE,SrcNode:206,SrcNodePort:result"];
	NodeCast207 -> NodeCast208[color="/dark28/8" photon_data="EDGE,SrcNode:207,SrcNodePort:o"];
	NodeCast208 -> NodeGteInlined494[color="/dark28/1" photon_data="EDGE,SrcNode:208,SrcNodePort:o"];
	NodeConstantRawBits652 -> NodeGteInlined494[color="/dark28/2" photon_data="EDGE,SrcNode:652,SrcNodePort:value"];
	NodeCast214 -> NodeCondTriAdd527[color="/dark28/3" photon_data="EDGE,SrcNode:214,SrcNodePort:o"];
	NodeConstantRawBits217 -> NodeCondTriAdd527[color="/dark28/4" photon_data="EDGE,SrcNode:217,SrcNodePort:value"];
	NodeConstantRawBits519 -> NodeCondTriAdd527[color="/dark28/5" photon_data="EDGE,SrcNode:519,SrcNodePort:value"];
	NodeGteInlined494 -> NodeCondTriAdd527[color="/dark28/6" photon_data="EDGE,SrcNode:494,SrcNodePort:result"];
	NodeCondTriAdd527 -> NodeSlice495[color="/dark28/7" photon_data="EDGE,SrcNode:527,SrcNodePort:result"];
	NodeSlice495 -> NodeReinterpret496[color="/dark28/8" photon_data="EDGE,SrcNode:495,SrcNodePort:result"];
	NodePO2FPMult528 -> NodeGt179[color="/dark28/1" photon_data="EDGE,SrcNode:528,SrcNodePort:floatOut"];
	NodeConstantRawBits651 -> NodeGt179[color="/dark28/2" photon_data="EDGE,SrcNode:651,SrcNodePort:value"];
	NodeGt179 -> NodeFIFO554[headport="n" color="/dark28/3" photon_data="EDGE,SrcNode:179,SrcNodePort:result"];
	NodeCast177 -> NodeDoubtBitOp180[color="/dark28/4" style=dashed photon_data="EDGE,SrcNode:177,SrcNodePort:o"];
	NodeFIFO554 -> NodeAnd181[tailport="s" color="/dark28/5" photon_data="EDGE,SrcNode:554,SrcNodePort:output"];
	NodeDoubtBitOp180 -> NodeAnd181[color="/dark28/6" photon_data="EDGE,SrcNode:180,SrcNodePort:output"];
	NodeAnd181 -> NodeFIFO555[headport="n" color="/dark28/7" photon_data="EDGE,SrcNode:181,SrcNodePort:result"];
	NodeFIFO555 -> NodeNot223[tailport="s" color="/dark28/8" photon_data="EDGE,SrcNode:555,SrcNodePort:output"];
	NodeReinterpret496 -> NodeAnd224[color="/dark28/1" photon_data="EDGE,SrcNode:496,SrcNodePort:output"];
	NodeNot223 -> NodeAnd224[color="/dark28/2" photon_data="EDGE,SrcNode:223,SrcNodePort:result"];
	NodePO2FPMult528 -> NodeLt183[color="/dark28/3" photon_data="EDGE,SrcNode:528,SrcNodePort:floatOut"];
	NodeConstantRawBits650 -> NodeLt183[color="/dark28/4" photon_data="EDGE,SrcNode:650,SrcNodePort:value"];
	NodeLt183 -> NodeFIFO556[headport="n" color="/dark28/5" photon_data="EDGE,SrcNode:183,SrcNodePort:result"];
	NodeCast177 -> NodeDoubtBitOp184[color="/dark28/6" style=dashed photon_data="EDGE,SrcNode:177,SrcNodePort:o"];
	NodeFIFO556 -> NodeAnd185[tailport="s" color="/dark28/7" photon_data="EDGE,SrcNode:556,SrcNodePort:output"];
	NodeDoubtBitOp184 -> NodeAnd185[color="/dark28/8" photon_data="EDGE,SrcNode:184,SrcNodePort:output"];
	NodeAnd185 -> NodeFIFO557[headport="n" color="/dark28/1" photon_data="EDGE,SrcNode:185,SrcNodePort:result"];
	NodeAnd224 -> NodeOr225[color="/dark28/2" photon_data="EDGE,SrcNode:224,SrcNodePort:result"];
	NodeFIFO557 -> NodeOr225[tailport="s" color="/dark28/3" photon_data="EDGE,SrcNode:557,SrcNodePort:output"];
	NodeCondTriAdd527 -> NodeGteInlined497[color="/dark28/4" photon_data="EDGE,SrcNode:527,SrcNodePort:result"];
	NodeConstantRawBits649 -> NodeGteInlined497[color="/dark28/5" photon_data="EDGE,SrcNode:649,SrcNodePort:value"];
	NodeFIFO557 -> NodeNot232[tailport="s" color="/dark28/6" photon_data="EDGE,SrcNode:557,SrcNodePort:output"];
	NodeGteInlined497 -> NodeAnd233[color="/dark28/7" photon_data="EDGE,SrcNode:497,SrcNodePort:result"];
	NodeNot232 -> NodeAnd233[color="/dark28/8" photon_data="EDGE,SrcNode:232,SrcNodePort:result"];
	NodeAnd233 -> NodeOr234[color="/dark28/1" photon_data="EDGE,SrcNode:233,SrcNodePort:result"];
	NodeFIFO555 -> NodeOr234[tailport="s" color="/dark28/2" photon_data="EDGE,SrcNode:555,SrcNodePort:output"];
	NodeOr225 -> NodeCat235[color="/dark28/3" photon_data="EDGE,SrcNode:225,SrcNodePort:result"];
	NodeOr234 -> NodeCat235[color="/dark28/4" photon_data="EDGE,SrcNode:234,SrcNodePort:result"];
	NodeCondTriAdd527 -> NodeCast226[color="/dark28/5" photon_data="EDGE,SrcNode:527,SrcNodePort:result"];
	NodeGteInlined494 -> NodeMux212[headport="w" color="/dark28/6" photon_data="EDGE,SrcNode:494,SrcNodePort:result"];
	NodeCast208 -> NodeMux212[color="/dark28/7" photon_data="EDGE,SrcNode:208,SrcNodePort:o"];
	NodeConstantRawBits211 -> NodeMux212[color="/dark28/8" photon_data="EDGE,SrcNode:211,SrcNodePort:value"];
	NodeMux212 -> NodeCast213[color="/dark28/1" photon_data="EDGE,SrcNode:212,SrcNodePort:result"];
	NodeConstantRawBits227 -> NodeCat228[color="/dark28/2" photon_data="EDGE,SrcNode:227,SrcNodePort:value"];
	NodeCast226 -> NodeCat228[color="/dark28/3" photon_data="EDGE,SrcNode:226,SrcNodePort:o"];
	NodeCast213 -> NodeCat228[color="/dark28/4" photon_data="EDGE,SrcNode:213,SrcNodePort:o"];
	NodeCat228 -> NodeReinterpret229[color="/dark28/5" photon_data="EDGE,SrcNode:228,SrcNodePort:result"];
	NodeConstantRawBits236 -> NodeCat498[color="/dark28/6" photon_data="EDGE,SrcNode:236,SrcNodePort:value"];
	NodeConstantRawBits237 -> NodeCat498[color="/dark28/7" photon_data="EDGE,SrcNode:237,SrcNodePort:value"];
	NodeConstantRawBits239 -> NodeCat498[color="/dark28/8" photon_data="EDGE,SrcNode:239,SrcNodePort:value"];
	NodeCat498 -> NodeReinterpret241[color="/dark28/1" photon_data="EDGE,SrcNode:498,SrcNodePort:result"];
	NodeCat235 -> NodeMux244[headport="w" color="/dark28/2" photon_data="EDGE,SrcNode:235,SrcNodePort:result"];
	NodeReinterpret229 -> NodeMux244[color="/dark28/3" photon_data="EDGE,SrcNode:229,SrcNodePort:output"];
	NodeReinterpret241 -> NodeMux244[color="/dark28/4" photon_data="EDGE,SrcNode:241,SrcNodePort:output"];
	NodeConstantRawBits486 -> NodeMux244[color="/dark28/5" photon_data="EDGE,SrcNode:486,SrcNodePort:value"];
	NodeReinterpret241 -> NodeMux244[color="/dark28/6" photon_data="EDGE,SrcNode:241,SrcNodePort:output"];
	NodeFIFO560 -> NodeMux254[tailport="s" headport="w" color="/dark28/7" photon_data="EDGE,SrcNode:560,SrcNodePort:output"];
	NodeMux244 -> NodeMux254[color="/dark28/8" photon_data="EDGE,SrcNode:244,SrcNodePort:result"];
	NodeConstantRawBits648 -> NodeMux254[color="/dark28/1" photon_data="EDGE,SrcNode:648,SrcNodePort:value"];
	NodeMux254 -> NodeAdd265[color="/dark28/2" photon_data="EDGE,SrcNode:254,SrcNodePort:result"];
	NodeConstantRawBits647 -> NodeAdd265[color="/dark28/3" photon_data="EDGE,SrcNode:647,SrcNodePort:value"];
	NodeConstantRawBits654 -> NodeDiv267[color="/dark28/4" photon_data="EDGE,SrcNode:654,SrcNodePort:value"];
	NodeAdd265 -> NodeDiv267[color="/dark28/5" photon_data="EDGE,SrcNode:265,SrcNodePort:result"];
	NodeConstantRawBits655 -> NodeSub269[color="/dark28/6" photon_data="EDGE,SrcNode:655,SrcNodePort:value"];
	NodeDiv267 -> NodeSub269[color="/dark28/7" photon_data="EDGE,SrcNode:267,SrcNodePort:result"];
	NodeConstantRawBits656 -> NodeAdd271[color="/dark28/8" photon_data="EDGE,SrcNode:656,SrcNodePort:value"];
	NodeSub269 -> NodeAdd271[color="/dark28/1" photon_data="EDGE,SrcNode:269,SrcNodePort:result"];
	NodeConstantRawBits36 -> NodeMul272[color="/dark28/2" photon_data="EDGE,SrcNode:36,SrcNodePort:value"];
	NodeAdd271 -> NodeMul272[color="/dark28/3" photon_data="EDGE,SrcNode:271,SrcNodePort:result"];
	NodeConstantRawBits11 -> NodeAdd273[color="/dark28/4" photon_data="EDGE,SrcNode:11,SrcNodePort:value"];
	NodeMul272 -> NodeAdd273[color="/dark28/5" photon_data="EDGE,SrcNode:272,SrcNodePort:result"];
	NodeConstantRawBits657 -> NodeDiv424[color="/dark28/6" photon_data="EDGE,SrcNode:657,SrcNodePort:value"];
	NodeAdd273 -> NodeDiv424[color="/dark28/7" photon_data="EDGE,SrcNode:273,SrcNodePort:result"];
	NodeGt422 -> NodeMux427[headport="w" color="/dark28/8" photon_data="EDGE,SrcNode:422,SrcNodePort:result"];
	NodeDiv426 -> NodeMux427[color="/dark28/1" photon_data="EDGE,SrcNode:426,SrcNodePort:result"];
	NodeDiv424 -> NodeMux427[color="/dark28/2" photon_data="EDGE,SrcNode:424,SrcNodePort:result"];
	NodeMux421 -> NodeAdd434[color="/dark28/3" photon_data="EDGE,SrcNode:421,SrcNodePort:result"];
	NodeMux427 -> NodeAdd434[color="/dark28/4" photon_data="EDGE,SrcNode:427,SrcNodePort:result"];
	NodeFIFO611 -> NodeGt428[tailport="s" color="/dark28/5" photon_data="EDGE,SrcNode:611,SrcNodePort:output"];
	NodeConstantRawBits21 -> NodeGt428[color="/dark28/6" photon_data="EDGE,SrcNode:21,SrcNodePort:value"];
	NodeCounter42 -> NodeEqInlined499[color="/dark28/7" photon_data="EDGE,SrcNode:42,SrcNodePort:count"];
	NodeConstantRawBits646 -> NodeEqInlined499[color="/dark28/8" photon_data="EDGE,SrcNode:646,SrcNodePort:value"];
	NodeFIFO562 -> NodeStreamOffset539[tailport="s" headport="n" tailport="s" color=red photon_data="EDGE,SrcNode:562,SrcNodePort:output"];
	NodeStreamOffset539 -> NodeFIFO602[headport="n" color="/dark28/1" photon_data="EDGE,SrcNode:539,SrcNodePort:output"];
	NodeFIFO602 -> NodeFIFO614[tailport="s" headport="n" color="/dark28/2" photon_data="EDGE,SrcNode:602,SrcNodePort:output"];
	NodeEqInlined499 -> NodeMux54[headport="w" color="/dark28/3" photon_data="EDGE,SrcNode:499,SrcNodePort:result"];
	NodeFIFO614 -> NodeMux54[tailport="s" color="/dark28/4" photon_data="EDGE,SrcNode:614,SrcNodePort:output"];
	NodeConstantRawBits38 -> NodeMux54[color="/dark28/5" photon_data="EDGE,SrcNode:38,SrcNodePort:value"];
	NodeMux54 -> NodeFIFO567[headport="n" color="/dark28/6" photon_data="EDGE,SrcNode:54,SrcNodePort:result"];
	NodeFIFO567 -> NodeFIFO615[tailport="s" headport="n" color="/dark28/7" photon_data="EDGE,SrcNode:567,SrcNodePort:output"];
	NodeFIFO564 -> NodeGt293[tailport="s" color="/dark28/8" photon_data="EDGE,SrcNode:564,SrcNodePort:output"];
	NodeConstantRawBits18 -> NodeGt293[color="/dark28/1" photon_data="EDGE,SrcNode:18,SrcNodePort:value"];
	NodeFIFO564 -> NodeGt280[tailport="s" color="/dark28/2" photon_data="EDGE,SrcNode:564,SrcNodePort:output"];
	NodeConstantRawBits19 -> NodeGt280[color="/dark28/3" photon_data="EDGE,SrcNode:19,SrcNodePort:value"];
	NodeFIFO564 -> NodeDiv281[tailport="s" color="/dark28/4" photon_data="EDGE,SrcNode:564,SrcNodePort:output"];
	NodeConstantRawBits14 -> NodeDiv281[color="/dark28/5" photon_data="EDGE,SrcNode:14,SrcNodePort:value"];
	NodeConstantRawBits645 -> NodeSub283[color="/dark28/6" photon_data="EDGE,SrcNode:645,SrcNodePort:value"];
	NodeDiv281 -> NodeSub283[color="/dark28/7" photon_data="EDGE,SrcNode:281,SrcNodePort:result"];
	NodeGt280 -> NodeMux284[headport="w" color="/dark28/8" photon_data="EDGE,SrcNode:280,SrcNodePort:result"];
	NodeSub283 -> NodeMux284[color="/dark28/1" photon_data="EDGE,SrcNode:283,SrcNodePort:result"];
	NodeConstantRawBits32 -> NodeMux284[color="/dark28/2" photon_data="EDGE,SrcNode:32,SrcNodePort:value"];
	NodeMux284 -> NodeGt285[color="/dark28/3" photon_data="EDGE,SrcNode:284,SrcNodePort:result"];
	NodeConstantRawBits38 -> NodeGt285[color="/dark28/4" photon_data="EDGE,SrcNode:38,SrcNodePort:value"];
	NodeGt285 -> NodeMux286[headport="w" color="/dark28/5" photon_data="EDGE,SrcNode:285,SrcNodePort:result"];
	NodeMux284 -> NodeMux286[color="/dark28/6" photon_data="EDGE,SrcNode:284,SrcNodePort:result"];
	NodeConstantRawBits38 -> NodeMux286[color="/dark28/7" photon_data="EDGE,SrcNode:38,SrcNodePort:value"];
	NodeMux286 -> NodeSub296[color="/dark28/8" photon_data="EDGE,SrcNode:286,SrcNodePort:result"];
	NodeFIFO567 -> NodeSub296[tailport="s" color="/dark28/1" photon_data="EDGE,SrcNode:567,SrcNodePort:output"];
	NodeMux48 -> NodeSub60[color="/dark28/2" photon_data="EDGE,SrcNode:48,SrcNodePort:result"];
	NodeConstantRawBits26 -> NodeSub60[color="/dark28/3" photon_data="EDGE,SrcNode:26,SrcNodePort:value"];
	NodeConstantRawBits23 -> NodeMul61[color="/dark28/4" photon_data="EDGE,SrcNode:23,SrcNodePort:value"];
	NodeSub60 -> NodeMul61[color="/dark28/5" photon_data="EDGE,SrcNode:60,SrcNodePort:result"];
	NodeMul61 -> NodePO2FPMult529[color="/dark28/6" photon_data="EDGE,SrcNode:61,SrcNodePort:result"];
	NodePO2FPMult529 -> NodeSlice140[color="/dark28/7" photon_data="EDGE,SrcNode:529,SrcNodePort:floatOut"];
	NodeSlice140 -> NodeEqInlined500[color="/dark28/8" photon_data="EDGE,SrcNode:140,SrcNodePort:result"];
	NodeConstantRawBits141 -> NodeEqInlined500[color="/dark28/1" photon_data="EDGE,SrcNode:141,SrcNodePort:value"];
	NodePO2FPMult529 -> NodeSlice139[color="/dark28/2" photon_data="EDGE,SrcNode:529,SrcNodePort:floatOut"];
	NodeSlice139 -> NodeNeqInlined501[color="/dark28/3" photon_data="EDGE,SrcNode:139,SrcNodePort:result"];
	NodeConstantRawBits641 -> NodeNeqInlined501[color="/dark28/4" photon_data="EDGE,SrcNode:641,SrcNodePort:value"];
	NodeEqInlined500 -> NodeAnd145[color="/dark28/5" photon_data="EDGE,SrcNode:500,SrcNodePort:result"];
	NodeNeqInlined501 -> NodeAnd145[color="/dark28/6" photon_data="EDGE,SrcNode:501,SrcNodePort:result"];
	NodeAnd145 -> NodeFIFO577[headport="n" color="/dark28/7" photon_data="EDGE,SrcNode:145,SrcNodePort:result"];
	NodePO2FPMult529 -> NodeDoubtBitOp65[color="/dark28/8" photon_data="EDGE,SrcNode:529,SrcNodePort:floatOut"];
	NodeConstantRawBits64 -> NodeDoubtBitOp65[color="/dark28/1" photon_data="EDGE,SrcNode:64,SrcNodePort:value"];
	NodeDoubtBitOp65 -> NodeCast66[color="/dark28/2" style=dashed photon_data="EDGE,SrcNode:65,SrcNodePort:output"];
	NodeCast66 -> NodeMul68[color="/dark28/3" style=dashed photon_data="EDGE,SrcNode:66,SrcNodePort:o"];
	NodeConstantRawBits69 -> NodeMul68[color="/dark28/4" photon_data="EDGE,SrcNode:69,SrcNodePort:value"];
	NodeMul68 -> NodeCast70[color="/dark28/5" style=dashed photon_data="EDGE,SrcNode:68,SrcNodePort:result"];
	NodeCast70 -> NodeDoubtBitOp79[color="/dark28/6" style=dashed photon_data="EDGE,SrcNode:70,SrcNodePort:o"];
	NodeDoubtBitOp79 -> NodeCast80[color="/dark28/7" photon_data="EDGE,SrcNode:79,SrcNodePort:output"];
	NodeCast80 -> NodeFIFO568[headport="n" color="/dark28/8" photon_data="EDGE,SrcNode:80,SrcNodePort:o"];
	NodeFIFO568 -> NodeCast107[tailport="s" color="/dark28/1" photon_data="EDGE,SrcNode:568,SrcNodePort:output"];
	NodeDoubtBitOp79 -> NodeCast83[color="/dark28/2" photon_data="EDGE,SrcNode:79,SrcNodePort:output"];
	NodeCast83 -> NodeReinterpret155[color="/dark28/3" photon_data="EDGE,SrcNode:83,SrcNodePort:o"];
	NodeReinterpret155 -> NodeROM156[color="/dark28/4" photon_data="EDGE,SrcNode:155,SrcNodePort:output"];
	NodeDoubtBitOp79 -> NodeCast82[color="/dark28/5" photon_data="EDGE,SrcNode:79,SrcNodePort:output"];
	NodeCast82 -> NodeReinterpret152[color="/dark28/6" photon_data="EDGE,SrcNode:82,SrcNodePort:o"];
	NodeReinterpret152 -> NodeROM153[color="/dark28/7" photon_data="EDGE,SrcNode:152,SrcNodePort:output"];
	NodeDoubtBitOp79 -> NodeCast81[color="/dark28/8" photon_data="EDGE,SrcNode:79,SrcNodePort:output"];
	NodeCast81 -> NodeReinterpret149[color="/dark28/1" photon_data="EDGE,SrcNode:81,SrcNodePort:o"];
	NodeReinterpret149 -> NodeROM150[color="/dark28/2" photon_data="EDGE,SrcNode:149,SrcNodePort:output"];
	NodeDoubtBitOp79 -> NodeCast84[color="/dark28/3" photon_data="EDGE,SrcNode:79,SrcNodePort:output"];
	NodeConstantRawBits87 -> NodeMul86[color="/dark28/4" photon_data="EDGE,SrcNode:87,SrcNodePort:value"];
	NodeCast84 -> NodeMul86[color="/dark28/5" photon_data="EDGE,SrcNode:84,SrcNodePort:o"];
	NodeMul86 -> NodeCast88[color="/dark28/6" photon_data="EDGE,SrcNode:86,SrcNodePort:result"];
	NodeCast88 -> NodeFIFO569[headport="n" color="/dark28/7" photon_data="EDGE,SrcNode:88,SrcNodePort:o"];
	NodeROM150 -> NodeAdd89[color="/dark28/8" photon_data="EDGE,SrcNode:150,SrcNodePort:dout"];
	NodeFIFO569 -> NodeAdd89[tailport="s" color="/dark28/1" photon_data="EDGE,SrcNode:569,SrcNodePort:output"];
	NodeFIFO569 -> NodeMul90[tailport="s" color="/dark28/2" photon_data="EDGE,SrcNode:569,SrcNodePort:output"];
	NodeROM150 -> NodeMul90[color="/dark28/3" photon_data="EDGE,SrcNode:150,SrcNodePort:dout"];
	NodeAdd89 -> NodeAdd91[color="/dark28/4" photon_data="EDGE,SrcNode:89,SrcNodePort:result"];
	NodeMul90 -> NodeAdd91[color="/dark28/5" photon_data="EDGE,SrcNode:90,SrcNodePort:result"];
	NodeAdd91 -> NodeCast92[color="/dark28/6" photon_data="EDGE,SrcNode:91,SrcNodePort:result"];
	NodeROM153 -> NodeAdd93[color="/dark28/7" photon_data="EDGE,SrcNode:153,SrcNodePort:dout"];
	NodeCast92 -> NodeAdd93[color="/dark28/8" photon_data="EDGE,SrcNode:92,SrcNodePort:o"];
	NodeCast92 -> NodeMul94[color="/dark28/1" photon_data="EDGE,SrcNode:92,SrcNodePort:o"];
	NodeROM153 -> NodeMul94[color="/dark28/2" photon_data="EDGE,SrcNode:153,SrcNodePort:dout"];
	NodeAdd93 -> NodeAdd95[color="/dark28/3" photon_data="EDGE,SrcNode:93,SrcNodePort:result"];
	NodeMul94 -> NodeAdd95[color="/dark28/4" photon_data="EDGE,SrcNode:94,SrcNodePort:result"];
	NodeAdd95 -> NodeCast96[color="/dark28/5" photon_data="EDGE,SrcNode:95,SrcNodePort:result"];
	NodeROM156 -> NodeAdd97[color="/dark28/6" photon_data="EDGE,SrcNode:156,SrcNodePort:dout"];
	NodeCast96 -> NodeAdd97[color="/dark28/7" photon_data="EDGE,SrcNode:96,SrcNodePort:o"];
	NodeCast96 -> NodeMul98[color="/dark28/8" photon_data="EDGE,SrcNode:96,SrcNodePort:o"];
	NodeROM156 -> NodeMul98[color="/dark28/1" photon_data="EDGE,SrcNode:156,SrcNodePort:dout"];
	NodeAdd97 -> NodeAdd99[color="/dark28/2" photon_data="EDGE,SrcNode:97,SrcNodePort:result"];
	NodeMul98 -> NodeAdd99[color="/dark28/3" photon_data="EDGE,SrcNode:98,SrcNodePort:result"];
	NodeAdd99 -> NodeCast100[color="/dark28/4" photon_data="EDGE,SrcNode:99,SrcNodePort:result"];
	NodeCast100 -> NodeCast101[color="/dark28/5" photon_data="EDGE,SrcNode:100,SrcNodePort:o"];
	NodeCast101 -> NodeGteInlined502[color="/dark28/6" photon_data="EDGE,SrcNode:101,SrcNodePort:o"];
	NodeConstantRawBits640 -> NodeGteInlined502[color="/dark28/7" photon_data="EDGE,SrcNode:640,SrcNodePort:value"];
	NodeCast107 -> NodeCondTriAdd526[color="/dark28/8" photon_data="EDGE,SrcNode:107,SrcNodePort:o"];
	NodeConstantRawBits110 -> NodeCondTriAdd526[color="/dark28/1" photon_data="EDGE,SrcNode:110,SrcNodePort:value"];
	NodeConstantRawBits521 -> NodeCondTriAdd526[color="/dark28/2" photon_data="EDGE,SrcNode:521,SrcNodePort:value"];
	NodeGteInlined502 -> NodeCondTriAdd526[color="/dark28/3" photon_data="EDGE,SrcNode:502,SrcNodePort:result"];
	NodeCondTriAdd526 -> NodeSlice503[color="/dark28/4" photon_data="EDGE,SrcNode:526,SrcNodePort:result"];
	NodeSlice503 -> NodeReinterpret504[color="/dark28/5" photon_data="EDGE,SrcNode:503,SrcNodePort:result"];
	NodePO2FPMult529 -> NodeGt72[color="/dark28/6" photon_data="EDGE,SrcNode:529,SrcNodePort:floatOut"];
	NodeConstantRawBits639 -> NodeGt72[color="/dark28/7" photon_data="EDGE,SrcNode:639,SrcNodePort:value"];
	NodeGt72 -> NodeFIFO571[headport="n" color="/dark28/8" photon_data="EDGE,SrcNode:72,SrcNodePort:result"];
	NodeCast70 -> NodeDoubtBitOp73[color="/dark28/1" style=dashed photon_data="EDGE,SrcNode:70,SrcNodePort:o"];
	NodeFIFO571 -> NodeAnd74[tailport="s" color="/dark28/2" photon_data="EDGE,SrcNode:571,SrcNodePort:output"];
	NodeDoubtBitOp73 -> NodeAnd74[color="/dark28/3" photon_data="EDGE,SrcNode:73,SrcNodePort:output"];
	NodeAnd74 -> NodeFIFO572[headport="n" color="/dark28/4" photon_data="EDGE,SrcNode:74,SrcNodePort:result"];
	NodeFIFO572 -> NodeNot116[tailport="s" color="/dark28/5" photon_data="EDGE,SrcNode:572,SrcNodePort:output"];
	NodeReinterpret504 -> NodeAnd117[color="/dark28/6" photon_data="EDGE,SrcNode:504,SrcNodePort:output"];
	NodeNot116 -> NodeAnd117[color="/dark28/7" photon_data="EDGE,SrcNode:116,SrcNodePort:result"];
	NodePO2FPMult529 -> NodeLt76[color="/dark28/8" photon_data="EDGE,SrcNode:529,SrcNodePort:floatOut"];
	NodeConstantRawBits638 -> NodeLt76[color="/dark28/1" photon_data="EDGE,SrcNode:638,SrcNodePort:value"];
	NodeLt76 -> NodeFIFO573[headport="n" color="/dark28/2" photon_data="EDGE,SrcNode:76,SrcNodePort:result"];
	NodeCast70 -> NodeDoubtBitOp77[color="/dark28/3" style=dashed photon_data="EDGE,SrcNode:70,SrcNodePort:o"];
	NodeFIFO573 -> NodeAnd78[tailport="s" color="/dark28/4" photon_data="EDGE,SrcNode:573,SrcNodePort:output"];
	NodeDoubtBitOp77 -> NodeAnd78[color="/dark28/5" photon_data="EDGE,SrcNode:77,SrcNodePort:output"];
	NodeAnd78 -> NodeFIFO574[headport="n" color="/dark28/6" photon_data="EDGE,SrcNode:78,SrcNodePort:result"];
	NodeAnd117 -> NodeOr118[color="/dark28/7" photon_data="EDGE,SrcNode:117,SrcNodePort:result"];
	NodeFIFO574 -> NodeOr118[tailport="s" color="/dark28/8" photon_data="EDGE,SrcNode:574,SrcNodePort:output"];
	NodeCondTriAdd526 -> NodeGteInlined505[color="/dark28/1" photon_data="EDGE,SrcNode:526,SrcNodePort:result"];
	NodeConstantRawBits637 -> NodeGteInlined505[color="/dark28/2" photon_data="EDGE,SrcNode:637,SrcNodePort:value"];
	NodeFIFO574 -> NodeNot125[tailport="s" color="/dark28/3" photon_data="EDGE,SrcNode:574,SrcNodePort:output"];
	NodeGteInlined505 -> NodeAnd126[color="/dark28/4" photon_data="EDGE,SrcNode:505,SrcNodePort:result"];
	NodeNot125 -> NodeAnd126[color="/dark28/5" photon_data="EDGE,SrcNode:125,SrcNodePort:result"];
	NodeAnd126 -> NodeOr127[color="/dark28/6" photon_data="EDGE,SrcNode:126,SrcNodePort:result"];
	NodeFIFO572 -> NodeOr127[tailport="s" color="/dark28/7" photon_data="EDGE,SrcNode:572,SrcNodePort:output"];
	NodeOr118 -> NodeCat128[color="/dark28/8" photon_data="EDGE,SrcNode:118,SrcNodePort:result"];
	NodeOr127 -> NodeCat128[color="/dark28/1" photon_data="EDGE,SrcNode:127,SrcNodePort:result"];
	NodeCondTriAdd526 -> NodeCast119[color="/dark28/2" photon_data="EDGE,SrcNode:526,SrcNodePort:result"];
	NodeGteInlined502 -> NodeMux105[headport="w" color="/dark28/3" photon_data="EDGE,SrcNode:502,SrcNodePort:result"];
	NodeCast101 -> NodeMux105[color="/dark28/4" photon_data="EDGE,SrcNode:101,SrcNodePort:o"];
	NodeConstantRawBits104 -> NodeMux105[color="/dark28/5" photon_data="EDGE,SrcNode:104,SrcNodePort:value"];
	NodeMux105 -> NodeCast106[color="/dark28/6" photon_data="EDGE,SrcNode:105,SrcNodePort:result"];
	NodeConstantRawBits120 -> NodeCat121[color="/dark28/7" photon_data="EDGE,SrcNode:120,SrcNodePort:value"];
	NodeCast119 -> NodeCat121[color="/dark28/8" photon_data="EDGE,SrcNode:119,SrcNodePort:o"];
	NodeCast106 -> NodeCat121[color="/dark28/1" photon_data="EDGE,SrcNode:106,SrcNodePort:o"];
	NodeCat121 -> NodeReinterpret122[color="/dark28/2" photon_data="EDGE,SrcNode:121,SrcNodePort:result"];
	NodeConstantRawBits129 -> NodeCat506[color="/dark28/3" photon_data="EDGE,SrcNode:129,SrcNodePort:value"];
	NodeConstantRawBits130 -> NodeCat506[color="/dark28/4" photon_data="EDGE,SrcNode:130,SrcNodePort:value"];
	NodeConstantRawBits132 -> NodeCat506[color="/dark28/5" photon_data="EDGE,SrcNode:132,SrcNodePort:value"];
	NodeCat506 -> NodeReinterpret134[color="/dark28/6" photon_data="EDGE,SrcNode:506,SrcNodePort:result"];
	NodeCat128 -> NodeMux137[headport="w" color="/dark28/7" photon_data="EDGE,SrcNode:128,SrcNodePort:result"];
	NodeReinterpret122 -> NodeMux137[color="/dark28/8" photon_data="EDGE,SrcNode:122,SrcNodePort:output"];
	NodeReinterpret134 -> NodeMux137[color="/dark28/1" photon_data="EDGE,SrcNode:134,SrcNodePort:output"];
	NodeConstantRawBits487 -> NodeMux137[color="/dark28/2" photon_data="EDGE,SrcNode:487,SrcNodePort:value"];
	NodeReinterpret134 -> NodeMux137[color="/dark28/3" photon_data="EDGE,SrcNode:134,SrcNodePort:output"];
	NodeFIFO577 -> NodeMux147[tailport="s" headport="w" color="/dark28/4" photon_data="EDGE,SrcNode:577,SrcNodePort:output"];
	NodeMux137 -> NodeMux147[color="/dark28/5" photon_data="EDGE,SrcNode:137,SrcNodePort:result"];
	NodeConstantRawBits636 -> NodeMux147[color="/dark28/6" photon_data="EDGE,SrcNode:636,SrcNodePort:value"];
	NodeMux147 -> NodeAdd158[color="/dark28/7" photon_data="EDGE,SrcNode:147,SrcNodePort:result"];
	NodeConstantRawBits635 -> NodeAdd158[color="/dark28/8" photon_data="EDGE,SrcNode:635,SrcNodePort:value"];
	NodeConstantRawBits642 -> NodeDiv160[color="/dark28/1" photon_data="EDGE,SrcNode:642,SrcNodePort:value"];
	NodeAdd158 -> NodeDiv160[color="/dark28/2" photon_data="EDGE,SrcNode:158,SrcNodePort:result"];
	NodeConstantRawBits643 -> NodeSub162[color="/dark28/3" photon_data="EDGE,SrcNode:643,SrcNodePort:value"];
	NodeDiv160 -> NodeSub162[color="/dark28/4" photon_data="EDGE,SrcNode:160,SrcNodePort:result"];
	NodeConstantRawBits644 -> NodeAdd164[color="/dark28/5" photon_data="EDGE,SrcNode:644,SrcNodePort:value"];
	NodeSub162 -> NodeAdd164[color="/dark28/6" photon_data="EDGE,SrcNode:162,SrcNodePort:result"];
	NodeConstantRawBits35 -> NodeMul165[color="/dark28/7" photon_data="EDGE,SrcNode:35,SrcNodePort:value"];
	NodeAdd164 -> NodeMul165[color="/dark28/8" photon_data="EDGE,SrcNode:164,SrcNodePort:result"];
	NodeConstantRawBits4 -> NodeAdd166[color="/dark28/1" photon_data="EDGE,SrcNode:4,SrcNodePort:value"];
	NodeMul165 -> NodeAdd166[color="/dark28/2" photon_data="EDGE,SrcNode:165,SrcNodePort:result"];
	NodeSub296 -> NodeDiv297[color="/dark28/3" photon_data="EDGE,SrcNode:296,SrcNodePort:result"];
	NodeAdd166 -> NodeDiv297[color="/dark28/4" photon_data="EDGE,SrcNode:166,SrcNodePort:result"];
	NodeFIFO567 -> NodeNeg294[tailport="s" color="/dark28/5" photon_data="EDGE,SrcNode:567,SrcNodePort:output"];
	NodeNeg294 -> NodeDiv295[color="/dark28/6" photon_data="EDGE,SrcNode:294,SrcNodePort:result"];
	NodeConstantRawBits3 -> NodeDiv295[color="/dark28/7" photon_data="EDGE,SrcNode:3,SrcNodePort:value"];
	NodeGt293 -> NodeMux298[headport="w" color="/dark28/8" photon_data="EDGE,SrcNode:293,SrcNodePort:result"];
	NodeDiv297 -> NodeMux298[color="/dark28/1" photon_data="EDGE,SrcNode:297,SrcNodePort:result"];
	NodeDiv295 -> NodeMux298[color="/dark28/2" photon_data="EDGE,SrcNode:295,SrcNodePort:result"];
	NodeMux298 -> NodeMul410[color="/dark28/3" photon_data="EDGE,SrcNode:298,SrcNodePort:result"];
	NodeCast45 -> NodeMul410[color="/dark28/4" photon_data="EDGE,SrcNode:45,SrcNodePort:o"];
	NodeFIFO615 -> NodeAdd411[tailport="s" color="/dark28/5" photon_data="EDGE,SrcNode:615,SrcNodePort:output"];
	NodeMul410 -> NodeAdd411[color="/dark28/6" photon_data="EDGE,SrcNode:410,SrcNodePort:result"];
	NodeAdd411 -> NodeFIFO562[headport="n" color="/dark28/7" photon_data="EDGE,SrcNode:411,SrcNodePort:result"];
	NodeFIFO562 -> NodeNeg429[tailport="s" color="/dark28/8" photon_data="EDGE,SrcNode:562,SrcNodePort:output"];
	NodeCounter42 -> NodeEqInlined507[color="/dark28/1" photon_data="EDGE,SrcNode:42,SrcNodePort:count"];
	NodeConstantRawBits634 -> NodeEqInlined507[color="/dark28/2" photon_data="EDGE,SrcNode:634,SrcNodePort:value"];
	NodeFIFO581 -> NodeStreamOffset540[tailport="s" headport="n" tailport="s" color=red photon_data="EDGE,SrcNode:581,SrcNodePort:output"];
	NodeStreamOffset540 -> NodeFIFO604[headport="n" color="/dark28/3" photon_data="EDGE,SrcNode:540,SrcNodePort:output"];
	NodeFIFO604 -> NodeFIFO616[tailport="s" headport="n" color="/dark28/4" photon_data="EDGE,SrcNode:604,SrcNodePort:output"];
	NodeEqInlined507 -> NodeMux57[headport="w" color="/dark28/5" photon_data="EDGE,SrcNode:507,SrcNodePort:result"];
	NodeFIFO616 -> NodeMux57[tailport="s" color="/dark28/6" photon_data="EDGE,SrcNode:616,SrcNodePort:output"];
	NodeConstantRawBits37 -> NodeMux57[color="/dark28/7" photon_data="EDGE,SrcNode:37,SrcNodePort:value"];
	NodeMux57 -> NodeFIFO593[headport="n" color="/dark28/8" photon_data="EDGE,SrcNode:57,SrcNodePort:result"];
	NodeFIFO593 -> NodeFIFO617[tailport="s" headport="n" color="/dark28/1" photon_data="EDGE,SrcNode:593,SrcNodePort:output"];
	NodeMux48 -> NodeSub299[color="/dark28/2" photon_data="EDGE,SrcNode:48,SrcNodePort:result"];
	NodeConstantRawBits27 -> NodeSub299[color="/dark28/3" photon_data="EDGE,SrcNode:27,SrcNodePort:value"];
	NodeConstantRawBits24 -> NodeMul300[color="/dark28/4" photon_data="EDGE,SrcNode:24,SrcNodePort:value"];
	NodeSub299 -> NodeMul300[color="/dark28/5" photon_data="EDGE,SrcNode:299,SrcNodePort:result"];
	NodeMul300 -> NodePO2FPMult530[color="/dark28/6" photon_data="EDGE,SrcNode:300,SrcNodePort:result"];
	NodePO2FPMult530 -> NodeSlice379[color="/dark28/7" photon_data="EDGE,SrcNode:530,SrcNodePort:floatOut"];
	NodeSlice379 -> NodeEqInlined508[color="/dark28/8" photon_data="EDGE,SrcNode:379,SrcNodePort:result"];
	NodeConstantRawBits380 -> NodeEqInlined508[color="/dark28/1" photon_data="EDGE,SrcNode:380,SrcNodePort:value"];
	NodePO2FPMult530 -> NodeSlice378[color="/dark28/2" photon_data="EDGE,SrcNode:530,SrcNodePort:floatOut"];
	NodeSlice378 -> NodeNeqInlined509[color="/dark28/3" photon_data="EDGE,SrcNode:378,SrcNodePort:result"];
	NodeConstantRawBits630 -> NodeNeqInlined509[color="/dark28/4" photon_data="EDGE,SrcNode:630,SrcNodePort:value"];
	NodeEqInlined508 -> NodeAnd384[color="/dark28/5" photon_data="EDGE,SrcNode:508,SrcNodePort:result"];
	NodeNeqInlined509 -> NodeAnd384[color="/dark28/6" photon_data="EDGE,SrcNode:509,SrcNodePort:result"];
	NodeAnd384 -> NodeFIFO592[headport="n" color="/dark28/7" photon_data="EDGE,SrcNode:384,SrcNodePort:result"];
	NodePO2FPMult530 -> NodeDoubtBitOp304[color="/dark28/8" photon_data="EDGE,SrcNode:530,SrcNodePort:floatOut"];
	NodeConstantRawBits303 -> NodeDoubtBitOp304[color="/dark28/1" photon_data="EDGE,SrcNode:303,SrcNodePort:value"];
	NodeDoubtBitOp304 -> NodeCast305[color="/dark28/2" style=dashed photon_data="EDGE,SrcNode:304,SrcNodePort:output"];
	NodeCast305 -> NodeMul307[color="/dark28/3" style=dashed photon_data="EDGE,SrcNode:305,SrcNodePort:o"];
	NodeConstantRawBits308 -> NodeMul307[color="/dark28/4" photon_data="EDGE,SrcNode:308,SrcNodePort:value"];
	NodeMul307 -> NodeCast309[color="/dark28/5" style=dashed photon_data="EDGE,SrcNode:307,SrcNodePort:result"];
	NodeCast309 -> NodeDoubtBitOp318[color="/dark28/6" style=dashed photon_data="EDGE,SrcNode:309,SrcNodePort:o"];
	NodeDoubtBitOp318 -> NodeCast319[color="/dark28/7" photon_data="EDGE,SrcNode:318,SrcNodePort:output"];
	NodeCast319 -> NodeFIFO583[headport="n" color="/dark28/8" photon_data="EDGE,SrcNode:319,SrcNodePort:o"];
	NodeFIFO583 -> NodeCast346[tailport="s" color="/dark28/1" photon_data="EDGE,SrcNode:583,SrcNodePort:output"];
	NodeDoubtBitOp318 -> NodeCast322[color="/dark28/2" photon_data="EDGE,SrcNode:318,SrcNodePort:output"];
	NodeCast322 -> NodeReinterpret394[color="/dark28/3" photon_data="EDGE,SrcNode:322,SrcNodePort:o"];
	NodeReinterpret394 -> NodeROM395[color="/dark28/4" photon_data="EDGE,SrcNode:394,SrcNodePort:output"];
	NodeDoubtBitOp318 -> NodeCast321[color="/dark28/5" photon_data="EDGE,SrcNode:318,SrcNodePort:output"];
	NodeCast321 -> NodeReinterpret391[color="/dark28/6" photon_data="EDGE,SrcNode:321,SrcNodePort:o"];
	NodeReinterpret391 -> NodeROM392[color="/dark28/7" photon_data="EDGE,SrcNode:391,SrcNodePort:output"];
	NodeDoubtBitOp318 -> NodeCast320[color="/dark28/8" photon_data="EDGE,SrcNode:318,SrcNodePort:output"];
	NodeCast320 -> NodeReinterpret388[color="/dark28/1" photon_data="EDGE,SrcNode:320,SrcNodePort:o"];
	NodeReinterpret388 -> NodeROM389[color="/dark28/2" photon_data="EDGE,SrcNode:388,SrcNodePort:output"];
	NodeDoubtBitOp318 -> NodeCast323[color="/dark28/3" photon_data="EDGE,SrcNode:318,SrcNodePort:output"];
	NodeConstantRawBits326 -> NodeMul325[color="/dark28/4" photon_data="EDGE,SrcNode:326,SrcNodePort:value"];
	NodeCast323 -> NodeMul325[color="/dark28/5" photon_data="EDGE,SrcNode:323,SrcNodePort:o"];
	NodeMul325 -> NodeCast327[color="/dark28/6" photon_data="EDGE,SrcNode:325,SrcNodePort:result"];
	NodeCast327 -> NodeFIFO584[headport="n" color="/dark28/7" photon_data="EDGE,SrcNode:327,SrcNodePort:o"];
	NodeROM389 -> NodeAdd328[color="/dark28/8" photon_data="EDGE,SrcNode:389,SrcNodePort:dout"];
	NodeFIFO584 -> NodeAdd328[tailport="s" color="/dark28/1" photon_data="EDGE,SrcNode:584,SrcNodePort:output"];
	NodeFIFO584 -> NodeMul329[tailport="s" color="/dark28/2" photon_data="EDGE,SrcNode:584,SrcNodePort:output"];
	NodeROM389 -> NodeMul329[color="/dark28/3" photon_data="EDGE,SrcNode:389,SrcNodePort:dout"];
	NodeAdd328 -> NodeAdd330[color="/dark28/4" photon_data="EDGE,SrcNode:328,SrcNodePort:result"];
	NodeMul329 -> NodeAdd330[color="/dark28/5" photon_data="EDGE,SrcNode:329,SrcNodePort:result"];
	NodeAdd330 -> NodeCast331[color="/dark28/6" photon_data="EDGE,SrcNode:330,SrcNodePort:result"];
	NodeROM392 -> NodeAdd332[color="/dark28/7" photon_data="EDGE,SrcNode:392,SrcNodePort:dout"];
	NodeCast331 -> NodeAdd332[color="/dark28/8" photon_data="EDGE,SrcNode:331,SrcNodePort:o"];
	NodeCast331 -> NodeMul333[color="/dark28/1" photon_data="EDGE,SrcNode:331,SrcNodePort:o"];
	NodeROM392 -> NodeMul333[color="/dark28/2" photon_data="EDGE,SrcNode:392,SrcNodePort:dout"];
	NodeAdd332 -> NodeAdd334[color="/dark28/3" photon_data="EDGE,SrcNode:332,SrcNodePort:result"];
	NodeMul333 -> NodeAdd334[color="/dark28/4" photon_data="EDGE,SrcNode:333,SrcNodePort:result"];
	NodeAdd334 -> NodeCast335[color="/dark28/5" photon_data="EDGE,SrcNode:334,SrcNodePort:result"];
	NodeROM395 -> NodeAdd336[color="/dark28/6" photon_data="EDGE,SrcNode:395,SrcNodePort:dout"];
	NodeCast335 -> NodeAdd336[color="/dark28/7" photon_data="EDGE,SrcNode:335,SrcNodePort:o"];
	NodeCast335 -> NodeMul337[color="/dark28/8" photon_data="EDGE,SrcNode:335,SrcNodePort:o"];
	NodeROM395 -> NodeMul337[color="/dark28/1" photon_data="EDGE,SrcNode:395,SrcNodePort:dout"];
	NodeAdd336 -> NodeAdd338[color="/dark28/2" photon_data="EDGE,SrcNode:336,SrcNodePort:result"];
	NodeMul337 -> NodeAdd338[color="/dark28/3" photon_data="EDGE,SrcNode:337,SrcNodePort:result"];
	NodeAdd338 -> NodeCast339[color="/dark28/4" photon_data="EDGE,SrcNode:338,SrcNodePort:result"];
	NodeCast339 -> NodeCast340[color="/dark28/5" photon_data="EDGE,SrcNode:339,SrcNodePort:o"];
	NodeCast340 -> NodeGteInlined510[color="/dark28/6" photon_data="EDGE,SrcNode:340,SrcNodePort:o"];
	NodeConstantRawBits629 -> NodeGteInlined510[color="/dark28/7" photon_data="EDGE,SrcNode:629,SrcNodePort:value"];
	NodeCast346 -> NodeCondTriAdd525[color="/dark28/8" photon_data="EDGE,SrcNode:346,SrcNodePort:o"];
	NodeConstantRawBits349 -> NodeCondTriAdd525[color="/dark28/1" photon_data="EDGE,SrcNode:349,SrcNodePort:value"];
	NodeConstantRawBits523 -> NodeCondTriAdd525[color="/dark28/2" photon_data="EDGE,SrcNode:523,SrcNodePort:value"];
	NodeGteInlined510 -> NodeCondTriAdd525[color="/dark28/3" photon_data="EDGE,SrcNode:510,SrcNodePort:result"];
	NodeCondTriAdd525 -> NodeSlice511[color="/dark28/4" photon_data="EDGE,SrcNode:525,SrcNodePort:result"];
	NodeSlice511 -> NodeReinterpret512[color="/dark28/5" photon_data="EDGE,SrcNode:511,SrcNodePort:result"];
	NodePO2FPMult530 -> NodeGt311[color="/dark28/6" photon_data="EDGE,SrcNode:530,SrcNodePort:floatOut"];
	NodeConstantRawBits628 -> NodeGt311[color="/dark28/7" photon_data="EDGE,SrcNode:628,SrcNodePort:value"];
	NodeGt311 -> NodeFIFO586[headport="n" color="/dark28/8" photon_data="EDGE,SrcNode:311,SrcNodePort:result"];
	NodeCast309 -> NodeDoubtBitOp312[color="/dark28/1" style=dashed photon_data="EDGE,SrcNode:309,SrcNodePort:o"];
	NodeFIFO586 -> NodeAnd313[tailport="s" color="/dark28/2" photon_data="EDGE,SrcNode:586,SrcNodePort:output"];
	NodeDoubtBitOp312 -> NodeAnd313[color="/dark28/3" photon_data="EDGE,SrcNode:312,SrcNodePort:output"];
	NodeAnd313 -> NodeFIFO587[headport="n" color="/dark28/4" photon_data="EDGE,SrcNode:313,SrcNodePort:result"];
	NodeFIFO587 -> NodeNot355[tailport="s" color="/dark28/5" photon_data="EDGE,SrcNode:587,SrcNodePort:output"];
	NodeReinterpret512 -> NodeAnd356[color="/dark28/6" photon_data="EDGE,SrcNode:512,SrcNodePort:output"];
	NodeNot355 -> NodeAnd356[color="/dark28/7" photon_data="EDGE,SrcNode:355,SrcNodePort:result"];
	NodePO2FPMult530 -> NodeLt315[color="/dark28/8" photon_data="EDGE,SrcNode:530,SrcNodePort:floatOut"];
	NodeConstantRawBits627 -> NodeLt315[color="/dark28/1" photon_data="EDGE,SrcNode:627,SrcNodePort:value"];
	NodeLt315 -> NodeFIFO588[headport="n" color="/dark28/2" photon_data="EDGE,SrcNode:315,SrcNodePort:result"];
	NodeCast309 -> NodeDoubtBitOp316[color="/dark28/3" style=dashed photon_data="EDGE,SrcNode:309,SrcNodePort:o"];
	NodeFIFO588 -> NodeAnd317[tailport="s" color="/dark28/4" photon_data="EDGE,SrcNode:588,SrcNodePort:output"];
	NodeDoubtBitOp316 -> NodeAnd317[color="/dark28/5" photon_data="EDGE,SrcNode:316,SrcNodePort:output"];
	NodeAnd317 -> NodeFIFO589[headport="n" color="/dark28/6" photon_data="EDGE,SrcNode:317,SrcNodePort:result"];
	NodeAnd356 -> NodeOr357[color="/dark28/7" photon_data="EDGE,SrcNode:356,SrcNodePort:result"];
	NodeFIFO589 -> NodeOr357[tailport="s" color="/dark28/8" photon_data="EDGE,SrcNode:589,SrcNodePort:output"];
	NodeCondTriAdd525 -> NodeGteInlined513[color="/dark28/1" photon_data="EDGE,SrcNode:525,SrcNodePort:result"];
	NodeConstantRawBits626 -> NodeGteInlined513[color="/dark28/2" photon_data="EDGE,SrcNode:626,SrcNodePort:value"];
	NodeFIFO589 -> NodeNot364[tailport="s" color="/dark28/3" photon_data="EDGE,SrcNode:589,SrcNodePort:output"];
	NodeGteInlined513 -> NodeAnd365[color="/dark28/4" photon_data="EDGE,SrcNode:513,SrcNodePort:result"];
	NodeNot364 -> NodeAnd365[color="/dark28/5" photon_data="EDGE,SrcNode:364,SrcNodePort:result"];
	NodeAnd365 -> NodeOr366[color="/dark28/6" photon_data="EDGE,SrcNode:365,SrcNodePort:result"];
	NodeFIFO587 -> NodeOr366[tailport="s" color="/dark28/7" photon_data="EDGE,SrcNode:587,SrcNodePort:output"];
	NodeOr357 -> NodeCat367[color="/dark28/8" photon_data="EDGE,SrcNode:357,SrcNodePort:result"];
	NodeOr366 -> NodeCat367[color="/dark28/1" photon_data="EDGE,SrcNode:366,SrcNodePort:result"];
	NodeCondTriAdd525 -> NodeCast358[color="/dark28/2" photon_data="EDGE,SrcNode:525,SrcNodePort:result"];
	NodeGteInlined510 -> NodeMux344[headport="w" color="/dark28/3" photon_data="EDGE,SrcNode:510,SrcNodePort:result"];
	NodeCast340 -> NodeMux344[color="/dark28/4" photon_data="EDGE,SrcNode:340,SrcNodePort:o"];
	NodeConstantRawBits343 -> NodeMux344[color="/dark28/5" photon_data="EDGE,SrcNode:343,SrcNodePort:value"];
	NodeMux344 -> NodeCast345[color="/dark28/6" photon_data="EDGE,SrcNode:344,SrcNodePort:result"];
	NodeConstantRawBits359 -> NodeCat360[color="/dark28/7" photon_data="EDGE,SrcNode:359,SrcNodePort:value"];
	NodeCast358 -> NodeCat360[color="/dark28/8" photon_data="EDGE,SrcNode:358,SrcNodePort:o"];
	NodeCast345 -> NodeCat360[color="/dark28/1" photon_data="EDGE,SrcNode:345,SrcNodePort:o"];
	NodeCat360 -> NodeReinterpret361[color="/dark28/2" photon_data="EDGE,SrcNode:360,SrcNodePort:result"];
	NodeConstantRawBits368 -> NodeCat514[color="/dark28/3" photon_data="EDGE,SrcNode:368,SrcNodePort:value"];
	NodeConstantRawBits369 -> NodeCat514[color="/dark28/4" photon_data="EDGE,SrcNode:369,SrcNodePort:value"];
	NodeConstantRawBits371 -> NodeCat514[color="/dark28/5" photon_data="EDGE,SrcNode:371,SrcNodePort:value"];
	NodeCat514 -> NodeReinterpret373[color="/dark28/6" photon_data="EDGE,SrcNode:514,SrcNodePort:result"];
	NodeCat367 -> NodeMux376[headport="w" color="/dark28/7" photon_data="EDGE,SrcNode:367,SrcNodePort:result"];
	NodeReinterpret361 -> NodeMux376[color="/dark28/8" photon_data="EDGE,SrcNode:361,SrcNodePort:output"];
	NodeReinterpret373 -> NodeMux376[color="/dark28/1" photon_data="EDGE,SrcNode:373,SrcNodePort:output"];
	NodeConstantRawBits488 -> NodeMux376[color="/dark28/2" photon_data="EDGE,SrcNode:488,SrcNodePort:value"];
	NodeReinterpret373 -> NodeMux376[color="/dark28/3" photon_data="EDGE,SrcNode:373,SrcNodePort:output"];
	NodeFIFO592 -> NodeMux386[tailport="s" headport="w" color="/dark28/4" photon_data="EDGE,SrcNode:592,SrcNodePort:output"];
	NodeMux376 -> NodeMux386[color="/dark28/5" photon_data="EDGE,SrcNode:376,SrcNodePort:result"];
	NodeConstantRawBits625 -> NodeMux386[color="/dark28/6" photon_data="EDGE,SrcNode:625,SrcNodePort:value"];
	NodeMux386 -> NodeAdd397[color="/dark28/7" photon_data="EDGE,SrcNode:386,SrcNodePort:result"];
	NodeConstantRawBits624 -> NodeAdd397[color="/dark28/8" photon_data="EDGE,SrcNode:624,SrcNodePort:value"];
	NodeConstantRawBits631 -> NodeDiv399[color="/dark28/1" photon_data="EDGE,SrcNode:631,SrcNodePort:value"];
	NodeAdd397 -> NodeDiv399[color="/dark28/2" photon_data="EDGE,SrcNode:397,SrcNodePort:result"];
	NodeConstantRawBits632 -> NodeSub401[color="/dark28/3" photon_data="EDGE,SrcNode:632,SrcNodePort:value"];
	NodeDiv399 -> NodeSub401[color="/dark28/4" photon_data="EDGE,SrcNode:399,SrcNodePort:result"];
	NodeConstantRawBits633 -> NodeAdd403[color="/dark28/5" photon_data="EDGE,SrcNode:633,SrcNodePort:value"];
	NodeSub401 -> NodeAdd403[color="/dark28/6" photon_data="EDGE,SrcNode:401,SrcNodePort:result"];
	NodeAdd403 -> NodePO2FPMult531[color="/dark28/7" photon_data="EDGE,SrcNode:403,SrcNodePort:result"];
	NodePO2FPMult531 -> NodeSub406[color="/dark28/8" photon_data="EDGE,SrcNode:531,SrcNodePort:floatOut"];
	NodeFIFO593 -> NodeSub406[tailport="s" color="/dark28/1" photon_data="EDGE,SrcNode:593,SrcNodePort:output"];
	NodeFIFO605 -> NodeGt274[tailport="s" color="/dark28/2" photon_data="EDGE,SrcNode:605,SrcNodePort:output"];
	NodeConstantRawBits18 -> NodeGt274[color="/dark28/3" photon_data="EDGE,SrcNode:18,SrcNodePort:value"];
	NodeGt274 -> NodeMux275[headport="w" color="/dark28/4" photon_data="EDGE,SrcNode:274,SrcNodePort:result"];
	NodeConstantRawBits6 -> NodeMux275[color="/dark28/5" photon_data="EDGE,SrcNode:6,SrcNodePort:value"];
	NodeConstantRawBits7 -> NodeMux275[color="/dark28/6" photon_data="EDGE,SrcNode:7,SrcNodePort:value"];
	NodeSub406 -> NodeDiv407[color="/dark28/7" photon_data="EDGE,SrcNode:406,SrcNodePort:result"];
	NodeMux275 -> NodeDiv407[color="/dark28/8" photon_data="EDGE,SrcNode:275,SrcNodePort:result"];
	NodeDiv407 -> NodeMul412[color="/dark28/1" photon_data="EDGE,SrcNode:407,SrcNodePort:result"];
	NodeCast45 -> NodeMul412[color="/dark28/2" photon_data="EDGE,SrcNode:45,SrcNodePort:o"];
	NodeFIFO617 -> NodeAdd413[tailport="s" color="/dark28/3" photon_data="EDGE,SrcNode:617,SrcNodePort:output"];
	NodeMul412 -> NodeAdd413[color="/dark28/4" photon_data="EDGE,SrcNode:412,SrcNodePort:result"];
	NodeAdd413 -> NodeFIFO581[headport="n" color="/dark28/5" photon_data="EDGE,SrcNode:413,SrcNodePort:result"];
	NodeNeg429 -> NodeMul430[color="/dark28/6" photon_data="EDGE,SrcNode:429,SrcNodePort:result"];
	NodeFIFO581 -> NodeMul430[tailport="s" color="/dark28/7" photon_data="EDGE,SrcNode:581,SrcNodePort:output"];
	NodeMul430 -> NodeDiv431[color="/dark28/8" photon_data="EDGE,SrcNode:430,SrcNodePort:result"];
	NodeConstantRawBits13 -> NodeDiv431[color="/dark28/1" photon_data="EDGE,SrcNode:13,SrcNodePort:value"];
	NodeGt428 -> NodeMux433[headport="w" color="/dark28/2" photon_data="EDGE,SrcNode:428,SrcNodePort:result"];
	NodeConstantRawBits432 -> NodeMux433[color="/dark28/3" photon_data="EDGE,SrcNode:432,SrcNodePort:value"];
	NodeDiv431 -> NodeMux433[color="/dark28/4" photon_data="EDGE,SrcNode:431,SrcNodePort:result"];
	NodeAdd434 -> NodeAdd435[color="/dark28/5" photon_data="EDGE,SrcNode:434,SrcNodePort:result"];
	NodeMux433 -> NodeAdd435[color="/dark28/6" photon_data="EDGE,SrcNode:433,SrcNodePort:result"];
	NodeAdd435 -> NodeMul436[color="/dark28/7" photon_data="EDGE,SrcNode:435,SrcNodePort:result"];
	NodeCast45 -> NodeMul436[color="/dark28/8" photon_data="EDGE,SrcNode:45,SrcNodePort:o"];
	NodeFIFO612 -> NodeSub437[tailport="s" color="/dark28/1" photon_data="EDGE,SrcNode:612,SrcNodePort:output"];
	NodeMul436 -> NodeSub437[color="/dark28/2" photon_data="EDGE,SrcNode:436,SrcNodePort:result"];
	NodeSub437 -> NodeCast442[color="/dark28/3" photon_data="EDGE,SrcNode:437,SrcNodePort:result"];
	NodeCast442 -> NodeOutput449[color="/dark28/4" photon_data="EDGE,SrcNode:442,SrcNodePort:o"];
	NodeConstantRawBits618 -> NodeSub452[color="/dark28/5" photon_data="EDGE,SrcNode:618,SrcNodePort:value"];
	NodeConstantRawBits623 -> NodeSub452[color="/dark28/6" photon_data="EDGE,SrcNode:623,SrcNodePort:value"];
	NodeFIFO541 -> NodeEqInlined515[tailport="s" color="/dark28/7" photon_data="EDGE,SrcNode:541,SrcNodePort:output"];
	NodeSub452 -> NodeEqInlined515[color="/dark28/8" photon_data="EDGE,SrcNode:452,SrcNodePort:result"];
	NodeEqInlined515 -> NodeOutput457[headport="w" color="/dark28/1" ];
	NodeFIFO600 -> NodeCast450[tailport="s" color="/dark28/2" photon_data="EDGE,SrcNode:600,SrcNodePort:output"];
	NodeCast450 -> NodeOutput457[color="/dark28/3" photon_data="EDGE,SrcNode:450,SrcNodePort:o"];
	NodeConstantRawBits618 -> NodeSub460[color="/dark28/4" photon_data="EDGE,SrcNode:618,SrcNodePort:value"];
	NodeConstantRawBits622 -> NodeSub460[color="/dark28/5" photon_data="EDGE,SrcNode:622,SrcNodePort:value"];
	NodeFIFO541 -> NodeEqInlined516[tailport="s" color="/dark28/6" photon_data="EDGE,SrcNode:541,SrcNodePort:output"];
	NodeSub460 -> NodeEqInlined516[color="/dark28/7" photon_data="EDGE,SrcNode:460,SrcNodePort:result"];
	NodeEqInlined516 -> NodeOutput465[headport="w" color="/dark28/8" ];
	NodeFIFO602 -> NodeCast458[tailport="s" color="/dark28/1" photon_data="EDGE,SrcNode:602,SrcNodePort:output"];
	NodeCast458 -> NodeOutput465[color="/dark28/2" photon_data="EDGE,SrcNode:458,SrcNodePort:o"];
	NodeConstantRawBits618 -> NodeSub468[color="/dark28/3" photon_data="EDGE,SrcNode:618,SrcNodePort:value"];
	NodeConstantRawBits621 -> NodeSub468[color="/dark28/4" photon_data="EDGE,SrcNode:621,SrcNodePort:value"];
	NodeFIFO541 -> NodeEqInlined517[tailport="s" color="/dark28/5" photon_data="EDGE,SrcNode:541,SrcNodePort:output"];
	NodeSub468 -> NodeEqInlined517[color="/dark28/6" photon_data="EDGE,SrcNode:468,SrcNodePort:result"];
	NodeEqInlined517 -> NodeOutput473[headport="w" color="/dark28/7" ];
	NodeFIFO604 -> NodeCast466[tailport="s" color="/dark28/8" photon_data="EDGE,SrcNode:604,SrcNodePort:output"];
	NodeCast466 -> NodeOutput473[color="/dark28/1" photon_data="EDGE,SrcNode:466,SrcNodePort:o"];
}
