digraph fifoReportGraph {
	NodeKarmaKernel62KarmaManager18KarmaManager32 [shape=invhouse, label="karma.model.cell.KarmaKernel.<init>(KarmaKernel.maxj:62)\n"];
	NodeKarmaKernel80KarmaManager18KarmaManager32 [shape=house, label="karma.model.cell.KarmaKernel.<init>(KarmaKernel.maxj:80)\n"];
	NodeKarmaManager17KarmaManager32 [shape=house, label="karma.model.cell.KarmaManager.<init>(KarmaManager.maxj:17)\nkarma.model.cell.KarmaManager.main(KarmaManager.maxj:32)\n"];
	NodeKarmaKernel63KarmaManager18KarmaManager32 [shape=invhouse, label="karma.model.cell.KarmaKernel.<init>(KarmaKernel.maxj:63)\n"];
	NodeKarmaKernel120KarmaKernel70KarmaManager18KarmaManager32 [shape=hexagon, orientation=90, label="karma.model.cell.KarmaKernel.tanh(KarmaKernel.maxj:120)\nkarma.model.cell.KarmaKernel.<init>(KarmaKernel.maxj:70)\n"];
	NodeKarmaKernel119KarmaKernel70KarmaManager18KarmaManager32 [shape=invhouse, label="karma.model.cell.KarmaKernel.tanh(KarmaKernel.maxj:119)\nkarma.model.cell.KarmaKernel.<init>(KarmaKernel.maxj:70)\n"];
	NodeKarmaKernel109KarmaKernel107KarmaKernel107KarmaKernel67KarmaManager18KarmaManager32 [shape=house, label="karma.model.cell.KarmaKernel.pow(KarmaKernel.maxj:109)\nkarma.model.cell.KarmaKernel.pow(KarmaKernel.maxj:107)\nkarma.model.cell.KarmaKernel.pow(KarmaKernel.maxj:107)\nkarma.model.cell.KarmaKernel.<init>(KarmaKernel.maxj:67)\n"];
	NodeKarmaKernel70KarmaManager18KarmaManager32 [shape=house, label="karma.model.cell.KarmaKernel.<init>(KarmaKernel.maxj:70)\n"];
	NodeKarmaKernel111KarmaKernel107KarmaKernel67KarmaManager18KarmaManager32 [shape=house, label="karma.model.cell.KarmaKernel.pow(KarmaKernel.maxj:111)\nkarma.model.cell.KarmaKernel.pow(KarmaKernel.maxj:107)\nkarma.model.cell.KarmaKernel.<init>(KarmaKernel.maxj:67)\n"];
	NodeKarmaKernel94KarmaManager18KarmaManager32 [shape=invhouse, label="karma.model.cell.KarmaKernel.<init>(KarmaKernel.maxj:94)\n"];
	NodeKarmaKernel95KarmaManager18KarmaManager32 [shape=invhouse, label="karma.model.cell.KarmaKernel.<init>(KarmaKernel.maxj:95)\n"];
	NodeKarmaKernel72KarmaManager18KarmaManager32 [shape=house, label="karma.model.cell.KarmaKernel.<init>(KarmaKernel.maxj:72)\n"];
	NodeKarmaKernel75KarmaManager18KarmaManager32 [shape=house, label="karma.model.cell.KarmaKernel.<init>(KarmaKernel.maxj:75)\n"];
	NodeKarmaKernel63KarmaManager18KarmaManager32NodeKarmaKernel80KarmaManager18KarmaManager32FIFO [shape=box, label="TotalCosts: 1 \n    Costs: 1 Count: 1 Depth: 10 Width: 20 ID: 529    \n"];
	NodeKarmaKernel120KarmaKernel70KarmaManager18KarmaManager32NodeKarmaKernel120KarmaKernel70KarmaManager18KarmaManager32FIFO [shape=box, label="TotalCosts: 2 \n    Costs: 1 Count: 2 Depth: 6 Width: 1 ID: 538    \n    Costs: 1 Count: 1 Depth: 8 Width: 1 ID: 542    \n"];
	NodeKarmaKernel119KarmaKernel70KarmaManager18KarmaManager32NodeKarmaManager17KarmaManager32FIFO [shape=box, label="TotalCosts: 1 \n    Costs: 1 Count: 1 Depth: 8 Width: 4 ID: 550    \n"];
	NodeKarmaKernel63KarmaManager18KarmaManager32NodeKarmaKernel75KarmaManager18KarmaManager32FIFO [shape=box, label="TotalCosts: 1 \n    Costs: 1 Count: 1 Depth: 10 Width: 20 ID: 529    \n"];
	NodeKarmaKernel62KarmaManager18KarmaManager32NodeKarmaKernel70KarmaManager18KarmaManager32FIFO [shape=box, label="TotalCosts: 2 \n    Costs: 2 Count: 2 Depth: 9 Width: 20 ID: 543    \n"];
	NodeKarmaKernel62KarmaManager18KarmaManager32NodeKarmaKernel72KarmaManager18KarmaManager32FIFO [shape=box, label="TotalCosts: 1 \n    Costs: 1 Count: 1 Depth: 9 Width: 20 ID: 543    \n"];
	NodeKarmaKernel63KarmaManager18KarmaManager32NodeKarmaKernel111KarmaKernel107KarmaKernel67KarmaManager18KarmaManager32FIFO [shape=box, label="TotalCosts: 1 \n    Costs: 1 Count: 1 Depth: 10 Width: 20 ID: 529    \n"];
	NodeKarmaKernel63KarmaManager18KarmaManager32NodeKarmaKernel109KarmaKernel107KarmaKernel107KarmaKernel67KarmaManager18KarmaManager32FIFO [shape=box, label="TotalCosts: 2 \n    Costs: 2 Count: 2 Depth: 10 Width: 20 ID: 529    \n"];
	NodeKarmaKernel63KarmaManager18KarmaManager32 -> NodeKarmaKernel63KarmaManager18KarmaManager32NodeKarmaKernel80KarmaManager18KarmaManager32FIFO[color="/dark28/1"]
	NodeKarmaKernel63KarmaManager18KarmaManager32NodeKarmaKernel80KarmaManager18KarmaManager32FIFO -> NodeKarmaKernel80KarmaManager18KarmaManager32[color="/dark28/2"]
	NodeKarmaKernel120KarmaKernel70KarmaManager18KarmaManager32 -> NodeKarmaKernel120KarmaKernel70KarmaManager18KarmaManager32NodeKarmaKernel120KarmaKernel70KarmaManager18KarmaManager32FIFO[color="/dark28/3"]
	NodeKarmaKernel120KarmaKernel70KarmaManager18KarmaManager32NodeKarmaKernel120KarmaKernel70KarmaManager18KarmaManager32FIFO -> NodeKarmaKernel120KarmaKernel70KarmaManager18KarmaManager32[color="/dark28/4"]
	NodeKarmaKernel119KarmaKernel70KarmaManager18KarmaManager32 -> NodeKarmaKernel119KarmaKernel70KarmaManager18KarmaManager32NodeKarmaManager17KarmaManager32FIFO[color="/dark28/5"]
	NodeKarmaKernel119KarmaKernel70KarmaManager18KarmaManager32NodeKarmaManager17KarmaManager32FIFO -> NodeKarmaManager17KarmaManager32[color="/dark28/6"]
	NodeKarmaKernel63KarmaManager18KarmaManager32 -> NodeKarmaKernel63KarmaManager18KarmaManager32NodeKarmaKernel75KarmaManager18KarmaManager32FIFO[color="/dark28/7"]
	NodeKarmaKernel63KarmaManager18KarmaManager32NodeKarmaKernel75KarmaManager18KarmaManager32FIFO -> NodeKarmaKernel75KarmaManager18KarmaManager32[color="/dark28/8"]
	NodeKarmaKernel62KarmaManager18KarmaManager32 -> NodeKarmaKernel62KarmaManager18KarmaManager32NodeKarmaKernel70KarmaManager18KarmaManager32FIFO[color="/dark28/1"]
	NodeKarmaKernel62KarmaManager18KarmaManager32NodeKarmaKernel70KarmaManager18KarmaManager32FIFO -> NodeKarmaKernel70KarmaManager18KarmaManager32[color="/dark28/2"]
	NodeKarmaKernel62KarmaManager18KarmaManager32 -> NodeKarmaKernel62KarmaManager18KarmaManager32NodeKarmaKernel72KarmaManager18KarmaManager32FIFO[color="/dark28/3"]
	NodeKarmaKernel62KarmaManager18KarmaManager32NodeKarmaKernel72KarmaManager18KarmaManager32FIFO -> NodeKarmaKernel72KarmaManager18KarmaManager32[color="/dark28/4"]
	NodeKarmaKernel63KarmaManager18KarmaManager32 -> NodeKarmaKernel63KarmaManager18KarmaManager32NodeKarmaKernel111KarmaKernel107KarmaKernel67KarmaManager18KarmaManager32FIFO[color="/dark28/5"]
	NodeKarmaKernel63KarmaManager18KarmaManager32NodeKarmaKernel111KarmaKernel107KarmaKernel67KarmaManager18KarmaManager32FIFO -> NodeKarmaKernel111KarmaKernel107KarmaKernel67KarmaManager18KarmaManager32[color="/dark28/6"]
	NodeKarmaKernel63KarmaManager18KarmaManager32 -> NodeKarmaKernel63KarmaManager18KarmaManager32NodeKarmaKernel109KarmaKernel107KarmaKernel107KarmaKernel67KarmaManager18KarmaManager32FIFO[color="/dark28/7"]
	NodeKarmaKernel63KarmaManager18KarmaManager32NodeKarmaKernel109KarmaKernel107KarmaKernel107KarmaKernel67KarmaManager18KarmaManager32FIFO -> NodeKarmaKernel109KarmaKernel107KarmaKernel107KarmaKernel67KarmaManager18KarmaManager32[color="/dark28/8"]
}
