digraph manager_compiler_graph {
BeelerReuterDFEKernel[shape=plaintext, label=<<TABLE  BORDER="1" CELLPADDING="1" CELLSPACING="1"><TR><TD BGCOLOR="white" BORDER="0" PORT="node_info" ROWSPAN="1" COLSPAN="1">Kernel : BeelerReuterDFEKernel</TD></TR><TR><TD BGCOLOR="white" BORDER="0" PORT="outputs" ROWSPAN="1" COLSPAN="1"><TABLE  BORDER="1" CELLPADDING="1" CELLSPACING="4"><TR><TD BGCOLOR="white" BORDER="1" PORT="u_out" ROWSPAN="1" COLSPAN="1">u_out<BR/>clk=STREAM (100.0MHz)<BR/>width=64<BR/>PUSH 5</TD><TD BGCOLOR="white" BORDER="1" PORT="ca_out" ROWSPAN="1" COLSPAN="1">ca_out<BR/>clk=STREAM (100.0MHz)<BR/>width=64<BR/>PUSH 5</TD><TD BGCOLOR="white" BORDER="1" PORT="x1_out" ROWSPAN="1" COLSPAN="1">x1_out<BR/>clk=STREAM (100.0MHz)<BR/>width=64<BR/>PUSH 5</TD><TD BGCOLOR="white" BORDER="1" PORT="m_out" ROWSPAN="1" COLSPAN="1">m_out<BR/>clk=STREAM (100.0MHz)<BR/>width=64<BR/>PUSH 5</TD><TD BGCOLOR="white" BORDER="1" PORT="f_out" ROWSPAN="1" COLSPAN="1">f_out<BR/>clk=STREAM (100.0MHz)<BR/>width=64<BR/>PUSH 5</TD><TD BGCOLOR="white" BORDER="1" PORT="h_out" ROWSPAN="1" COLSPAN="1">h_out<BR/>clk=STREAM (100.0MHz)<BR/>width=64<BR/>PUSH 5</TD><TD BGCOLOR="white" BORDER="1" PORT="d_out" ROWSPAN="1" COLSPAN="1">d_out<BR/>clk=STREAM (100.0MHz)<BR/>width=64<BR/>PUSH 5</TD><TD BGCOLOR="white" BORDER="1" PORT="j_out" ROWSPAN="1" COLSPAN="1">j_out<BR/>clk=STREAM (100.0MHz)<BR/>width=64<BR/>PUSH 5</TD></TR></TABLE></TD></TR></TABLE>>];
u_out[shape=plaintext, label=<<TABLE  BORDER="1" CELLPADDING="1" CELLSPACING="1"><TR><TD BGCOLOR="white" BORDER="0" PORT="inputs" ROWSPAN="1" COLSPAN="1"><TABLE  BORDER="1" CELLPADDING="1" CELLSPACING="4"><TR><TD BGCOLOR="white" BORDER="1" PORT="u_out" ROWSPAN="1" COLSPAN="1">u_out<BR/>clk=PCIE (125.0MHz)<BR/>width=128<BR/>PUSH 1</TD></TR></TABLE></TD></TR><TR><TD BGCOLOR="white" BORDER="0" PORT="node_info" ROWSPAN="1" COLSPAN="1">PCIe_To_Host : u_out</TD></TR></TABLE>>];
x1_out[shape=plaintext, label=<<TABLE  BORDER="1" CELLPADDING="1" CELLSPACING="1"><TR><TD BGCOLOR="white" BORDER="0" PORT="inputs" ROWSPAN="1" COLSPAN="1"><TABLE  BORDER="1" CELLPADDING="1" CELLSPACING="4"><TR><TD BGCOLOR="white" BORDER="1" PORT="x1_out" ROWSPAN="1" COLSPAN="1">x1_out<BR/>clk=PCIE (125.0MHz)<BR/>width=128<BR/>PUSH 1</TD></TR></TABLE></TD></TR><TR><TD BGCOLOR="white" BORDER="0" PORT="node_info" ROWSPAN="1" COLSPAN="1">PCIe_To_Host : x1_out</TD></TR></TABLE>>];
m_out[shape=plaintext, label=<<TABLE  BORDER="1" CELLPADDING="1" CELLSPACING="1"><TR><TD BGCOLOR="white" BORDER="0" PORT="inputs" ROWSPAN="1" COLSPAN="1"><TABLE  BORDER="1" CELLPADDING="1" CELLSPACING="4"><TR><TD BGCOLOR="white" BORDER="1" PORT="m_out" ROWSPAN="1" COLSPAN="1">m_out<BR/>clk=PCIE (125.0MHz)<BR/>width=128<BR/>PUSH 1</TD></TR></TABLE></TD></TR><TR><TD BGCOLOR="white" BORDER="0" PORT="node_info" ROWSPAN="1" COLSPAN="1">PCIe_To_Host : m_out</TD></TR></TABLE>>];
h_out[shape=plaintext, label=<<TABLE  BORDER="1" CELLPADDING="1" CELLSPACING="1"><TR><TD BGCOLOR="white" BORDER="0" PORT="inputs" ROWSPAN="1" COLSPAN="1"><TABLE  BORDER="1" CELLPADDING="1" CELLSPACING="4"><TR><TD BGCOLOR="white" BORDER="1" PORT="h_out" ROWSPAN="1" COLSPAN="1">h_out<BR/>clk=PCIE (125.0MHz)<BR/>width=128<BR/>PUSH 1</TD></TR></TABLE></TD></TR><TR><TD BGCOLOR="white" BORDER="0" PORT="node_info" ROWSPAN="1" COLSPAN="1">PCIe_To_Host : h_out</TD></TR></TABLE>>];
j_out[shape=plaintext, label=<<TABLE  BORDER="1" CELLPADDING="1" CELLSPACING="1"><TR><TD BGCOLOR="white" BORDER="0" PORT="inputs" ROWSPAN="1" COLSPAN="1"><TABLE  BORDER="1" CELLPADDING="1" CELLSPACING="4"><TR><TD BGCOLOR="white" BORDER="1" PORT="j_out" ROWSPAN="1" COLSPAN="1">j_out<BR/>clk=PCIE (125.0MHz)<BR/>width=128<BR/>PUSH 1</TD></TR></TABLE></TD></TR><TR><TD BGCOLOR="white" BORDER="0" PORT="node_info" ROWSPAN="1" COLSPAN="1">PCIe_To_Host : j_out</TD></TR></TABLE>>];
d_out[shape=plaintext, label=<<TABLE  BORDER="1" CELLPADDING="1" CELLSPACING="1"><TR><TD BGCOLOR="white" BORDER="0" PORT="inputs" ROWSPAN="1" COLSPAN="1"><TABLE  BORDER="1" CELLPADDING="1" CELLSPACING="4"><TR><TD BGCOLOR="white" BORDER="1" PORT="d_out" ROWSPAN="1" COLSPAN="1">d_out<BR/>clk=PCIE (125.0MHz)<BR/>width=128<BR/>PUSH 1</TD></TR></TABLE></TD></TR><TR><TD BGCOLOR="white" BORDER="0" PORT="node_info" ROWSPAN="1" COLSPAN="1">PCIe_To_Host : d_out</TD></TR></TABLE>>];
f_out[shape=plaintext, label=<<TABLE  BORDER="1" CELLPADDING="1" CELLSPACING="1"><TR><TD BGCOLOR="white" BORDER="0" PORT="inputs" ROWSPAN="1" COLSPAN="1"><TABLE  BORDER="1" CELLPADDING="1" CELLSPACING="4"><TR><TD BGCOLOR="white" BORDER="1" PORT="f_out" ROWSPAN="1" COLSPAN="1">f_out<BR/>clk=PCIE (125.0MHz)<BR/>width=128<BR/>PUSH 1</TD></TR></TABLE></TD></TR><TR><TD BGCOLOR="white" BORDER="0" PORT="node_info" ROWSPAN="1" COLSPAN="1">PCIe_To_Host : f_out</TD></TR></TABLE>>];
ca_out[shape=plaintext, label=<<TABLE  BORDER="1" CELLPADDING="1" CELLSPACING="1"><TR><TD BGCOLOR="white" BORDER="0" PORT="inputs" ROWSPAN="1" COLSPAN="1"><TABLE  BORDER="1" CELLPADDING="1" CELLSPACING="4"><TR><TD BGCOLOR="white" BORDER="1" PORT="ca_out" ROWSPAN="1" COLSPAN="1">ca_out<BR/>clk=PCIE (125.0MHz)<BR/>width=128<BR/>PUSH 1</TD></TR></TABLE></TD></TR><TR><TD BGCOLOR="white" BORDER="0" PORT="node_info" ROWSPAN="1" COLSPAN="1">PCIe_To_Host : ca_out</TD></TR></TABLE>>];
Stream_2[shape=plaintext, label=<<TABLE  BORDER="1" CELLPADDING="1" CELLSPACING="1"><TR><TD BGCOLOR="white" BORDER="0" PORT="inputs" ROWSPAN="1" COLSPAN="1"><TABLE  BORDER="1" CELLPADDING="1" CELLSPACING="4"><TR><TD BGCOLOR="white" BORDER="1" PORT="input" ROWSPAN="1" COLSPAN="1">input<BR/>clk=PCIE (125.0MHz)<BR/>width=64<BR/>PULL el=1</TD></TR></TABLE></TD></TR><TR><TD BGCOLOR="white" BORDER="0" PORT="node_info" ROWSPAN="1" COLSPAN="1">DualAspectReg : Stream_2</TD></TR><TR><TD BGCOLOR="white" BORDER="0" PORT="outputs" ROWSPAN="1" COLSPAN="1"><TABLE  BORDER="1" CELLPADDING="1" CELLSPACING="4"><TR><TD BGCOLOR="white" BORDER="1" PORT="output" ROWSPAN="1" COLSPAN="1">output<BR/>clk=PCIE (125.0MHz)<BR/>width=128<BR/>PULL el=1</TD></TR></TABLE></TD></TR></TABLE>>];
Stream_23[shape=plaintext, label=<<TABLE  BORDER="1" CELLPADDING="1" CELLSPACING="1"><TR><TD BGCOLOR="white" BORDER="0" PORT="inputs" ROWSPAN="1" COLSPAN="1"><TABLE  BORDER="1" CELLPADDING="1" CELLSPACING="4"><TR><TD BGCOLOR="white" BORDER="1" PORT="input" ROWSPAN="1" COLSPAN="1">input<BR/>clk=PCIE (125.0MHz)<BR/>width=64<BR/>PULL el=1</TD></TR></TABLE></TD></TR><TR><TD BGCOLOR="white" BORDER="0" PORT="node_info" ROWSPAN="1" COLSPAN="1">DualAspectReg : Stream_23</TD></TR><TR><TD BGCOLOR="white" BORDER="0" PORT="outputs" ROWSPAN="1" COLSPAN="1"><TABLE  BORDER="1" CELLPADDING="1" CELLSPACING="4"><TR><TD BGCOLOR="white" BORDER="1" PORT="output" ROWSPAN="1" COLSPAN="1">output<BR/>clk=PCIE (125.0MHz)<BR/>width=128<BR/>PULL el=1</TD></TR></TABLE></TD></TR></TABLE>>];
Stream_5[shape=plaintext, label=<<TABLE  BORDER="1" CELLPADDING="1" CELLSPACING="1"><TR><TD BGCOLOR="white" BORDER="0" PORT="inputs" ROWSPAN="1" COLSPAN="1"><TABLE  BORDER="1" CELLPADDING="1" CELLSPACING="4"><TR><TD BGCOLOR="white" BORDER="1" PORT="input" ROWSPAN="1" COLSPAN="1">input<BR/>clk=PCIE (125.0MHz)<BR/>width=64<BR/>PULL el=1</TD></TR></TABLE></TD></TR><TR><TD BGCOLOR="white" BORDER="0" PORT="node_info" ROWSPAN="1" COLSPAN="1">DualAspectReg : Stream_5</TD></TR><TR><TD BGCOLOR="white" BORDER="0" PORT="outputs" ROWSPAN="1" COLSPAN="1"><TABLE  BORDER="1" CELLPADDING="1" CELLSPACING="4"><TR><TD BGCOLOR="white" BORDER="1" PORT="output" ROWSPAN="1" COLSPAN="1">output<BR/>clk=PCIE (125.0MHz)<BR/>width=128<BR/>PULL el=1</TD></TR></TABLE></TD></TR></TABLE>>];
Stream_8[shape=plaintext, label=<<TABLE  BORDER="1" CELLPADDING="1" CELLSPACING="1"><TR><TD BGCOLOR="white" BORDER="0" PORT="inputs" ROWSPAN="1" COLSPAN="1"><TABLE  BORDER="1" CELLPADDING="1" CELLSPACING="4"><TR><TD BGCOLOR="white" BORDER="1" PORT="input" ROWSPAN="1" COLSPAN="1">input<BR/>clk=PCIE (125.0MHz)<BR/>width=64<BR/>PULL el=1</TD></TR></TABLE></TD></TR><TR><TD BGCOLOR="white" BORDER="0" PORT="node_info" ROWSPAN="1" COLSPAN="1">DualAspectReg : Stream_8</TD></TR><TR><TD BGCOLOR="white" BORDER="0" PORT="outputs" ROWSPAN="1" COLSPAN="1"><TABLE  BORDER="1" CELLPADDING="1" CELLSPACING="4"><TR><TD BGCOLOR="white" BORDER="1" PORT="output" ROWSPAN="1" COLSPAN="1">output<BR/>clk=PCIE (125.0MHz)<BR/>width=128<BR/>PULL el=1</TD></TR></TABLE></TD></TR></TABLE>>];
Stream_20[shape=plaintext, label=<<TABLE  BORDER="1" CELLPADDING="1" CELLSPACING="1"><TR><TD BGCOLOR="white" BORDER="0" PORT="inputs" ROWSPAN="1" COLSPAN="1"><TABLE  BORDER="1" CELLPADDING="1" CELLSPACING="4"><TR><TD BGCOLOR="white" BORDER="1" PORT="input" ROWSPAN="1" COLSPAN="1">input<BR/>clk=PCIE (125.0MHz)<BR/>width=64<BR/>PULL el=1</TD></TR></TABLE></TD></TR><TR><TD BGCOLOR="white" BORDER="0" PORT="node_info" ROWSPAN="1" COLSPAN="1">DualAspectReg : Stream_20</TD></TR><TR><TD BGCOLOR="white" BORDER="0" PORT="outputs" ROWSPAN="1" COLSPAN="1"><TABLE  BORDER="1" CELLPADDING="1" CELLSPACING="4"><TR><TD BGCOLOR="white" BORDER="1" PORT="output" ROWSPAN="1" COLSPAN="1">output<BR/>clk=PCIE (125.0MHz)<BR/>width=128<BR/>PULL el=1</TD></TR></TABLE></TD></TR></TABLE>>];
Stream_11[shape=plaintext, label=<<TABLE  BORDER="1" CELLPADDING="1" CELLSPACING="1"><TR><TD BGCOLOR="white" BORDER="0" PORT="inputs" ROWSPAN="1" COLSPAN="1"><TABLE  BORDER="1" CELLPADDING="1" CELLSPACING="4"><TR><TD BGCOLOR="white" BORDER="1" PORT="input" ROWSPAN="1" COLSPAN="1">input<BR/>clk=PCIE (125.0MHz)<BR/>width=64<BR/>PULL el=1</TD></TR></TABLE></TD></TR><TR><TD BGCOLOR="white" BORDER="0" PORT="node_info" ROWSPAN="1" COLSPAN="1">DualAspectReg : Stream_11</TD></TR><TR><TD BGCOLOR="white" BORDER="0" PORT="outputs" ROWSPAN="1" COLSPAN="1"><TABLE  BORDER="1" CELLPADDING="1" CELLSPACING="4"><TR><TD BGCOLOR="white" BORDER="1" PORT="output" ROWSPAN="1" COLSPAN="1">output<BR/>clk=PCIE (125.0MHz)<BR/>width=128<BR/>PULL el=1</TD></TR></TABLE></TD></TR></TABLE>>];
Stream_17[shape=plaintext, label=<<TABLE  BORDER="1" CELLPADDING="1" CELLSPACING="1"><TR><TD BGCOLOR="white" BORDER="0" PORT="inputs" ROWSPAN="1" COLSPAN="1"><TABLE  BORDER="1" CELLPADDING="1" CELLSPACING="4"><TR><TD BGCOLOR="white" BORDER="1" PORT="input" ROWSPAN="1" COLSPAN="1">input<BR/>clk=PCIE (125.0MHz)<BR/>width=64<BR/>PULL el=1</TD></TR></TABLE></TD></TR><TR><TD BGCOLOR="white" BORDER="0" PORT="node_info" ROWSPAN="1" COLSPAN="1">DualAspectReg : Stream_17</TD></TR><TR><TD BGCOLOR="white" BORDER="0" PORT="outputs" ROWSPAN="1" COLSPAN="1"><TABLE  BORDER="1" CELLPADDING="1" CELLSPACING="4"><TR><TD BGCOLOR="white" BORDER="1" PORT="output" ROWSPAN="1" COLSPAN="1">output<BR/>clk=PCIE (125.0MHz)<BR/>width=128<BR/>PULL el=1</TD></TR></TABLE></TD></TR></TABLE>>];
Stream_14[shape=plaintext, label=<<TABLE  BORDER="1" CELLPADDING="1" CELLSPACING="1"><TR><TD BGCOLOR="white" BORDER="0" PORT="inputs" ROWSPAN="1" COLSPAN="1"><TABLE  BORDER="1" CELLPADDING="1" CELLSPACING="4"><TR><TD BGCOLOR="white" BORDER="1" PORT="input" ROWSPAN="1" COLSPAN="1">input<BR/>clk=PCIE (125.0MHz)<BR/>width=64<BR/>PULL el=1</TD></TR></TABLE></TD></TR><TR><TD BGCOLOR="white" BORDER="0" PORT="node_info" ROWSPAN="1" COLSPAN="1">DualAspectReg : Stream_14</TD></TR><TR><TD BGCOLOR="white" BORDER="0" PORT="outputs" ROWSPAN="1" COLSPAN="1"><TABLE  BORDER="1" CELLPADDING="1" CELLSPACING="4"><TR><TD BGCOLOR="white" BORDER="1" PORT="output" ROWSPAN="1" COLSPAN="1">output<BR/>clk=PCIE (125.0MHz)<BR/>width=128<BR/>PULL el=1</TD></TR></TABLE></TD></TR></TABLE>>];
Stream_28[shape=plaintext, label=<<TABLE  BORDER="1" CELLPADDING="1" CELLSPACING="1"><TR><TD BGCOLOR="white" BORDER="0" PORT="inputs" ROWSPAN="1" COLSPAN="1"><TABLE  BORDER="1" CELLPADDING="1" CELLSPACING="4"><TR><TD BGCOLOR="white" BORDER="1" PORT="input" ROWSPAN="1" COLSPAN="1">input<BR/>clk=PCIE (125.0MHz)<BR/>width=128<BR/>PULL el=1</TD></TR></TABLE></TD></TR><TR><TD BGCOLOR="white" BORDER="0" PORT="node_info" ROWSPAN="1" COLSPAN="1">StreamPullPushAdapter : Stream_28</TD></TR><TR><TD BGCOLOR="white" BORDER="0" PORT="outputs" ROWSPAN="1" COLSPAN="1"><TABLE  BORDER="1" CELLPADDING="1" CELLSPACING="4"><TR><TD BGCOLOR="white" BORDER="1" PORT="output" ROWSPAN="1" COLSPAN="1">output<BR/>clk=PCIE (125.0MHz)<BR/>width=128<BR/>PUSH 1</TD></TR></TABLE></TD></TR></TABLE>>];
Stream_32[shape=plaintext, label=<<TABLE  BORDER="1" CELLPADDING="1" CELLSPACING="1"><TR><TD BGCOLOR="white" BORDER="0" PORT="inputs" ROWSPAN="1" COLSPAN="1"><TABLE  BORDER="1" CELLPADDING="1" CELLSPACING="4"><TR><TD BGCOLOR="white" BORDER="1" PORT="input" ROWSPAN="1" COLSPAN="1">input<BR/>clk=PCIE (125.0MHz)<BR/>width=128<BR/>PULL el=1</TD></TR></TABLE></TD></TR><TR><TD BGCOLOR="white" BORDER="0" PORT="node_info" ROWSPAN="1" COLSPAN="1">StreamPullPushAdapter : Stream_32</TD></TR><TR><TD BGCOLOR="white" BORDER="0" PORT="outputs" ROWSPAN="1" COLSPAN="1"><TABLE  BORDER="1" CELLPADDING="1" CELLSPACING="4"><TR><TD BGCOLOR="white" BORDER="1" PORT="output" ROWSPAN="1" COLSPAN="1">output<BR/>clk=PCIE (125.0MHz)<BR/>width=128<BR/>PUSH 1</TD></TR></TABLE></TD></TR></TABLE>>];
Stream_36[shape=plaintext, label=<<TABLE  BORDER="1" CELLPADDING="1" CELLSPACING="1"><TR><TD BGCOLOR="white" BORDER="0" PORT="inputs" ROWSPAN="1" COLSPAN="1"><TABLE  BORDER="1" CELLPADDING="1" CELLSPACING="4"><TR><TD BGCOLOR="white" BORDER="1" PORT="input" ROWSPAN="1" COLSPAN="1">input<BR/>clk=PCIE (125.0MHz)<BR/>width=128<BR/>PULL el=1</TD></TR></TABLE></TD></TR><TR><TD BGCOLOR="white" BORDER="0" PORT="node_info" ROWSPAN="1" COLSPAN="1">StreamPullPushAdapter : Stream_36</TD></TR><TR><TD BGCOLOR="white" BORDER="0" PORT="outputs" ROWSPAN="1" COLSPAN="1"><TABLE  BORDER="1" CELLPADDING="1" CELLSPACING="4"><TR><TD BGCOLOR="white" BORDER="1" PORT="output" ROWSPAN="1" COLSPAN="1">output<BR/>clk=PCIE (125.0MHz)<BR/>width=128<BR/>PUSH 1</TD></TR></TABLE></TD></TR></TABLE>>];
Stream_40[shape=plaintext, label=<<TABLE  BORDER="1" CELLPADDING="1" CELLSPACING="1"><TR><TD BGCOLOR="white" BORDER="0" PORT="inputs" ROWSPAN="1" COLSPAN="1"><TABLE  BORDER="1" CELLPADDING="1" CELLSPACING="4"><TR><TD BGCOLOR="white" BORDER="1" PORT="input" ROWSPAN="1" COLSPAN="1">input<BR/>clk=PCIE (125.0MHz)<BR/>width=128<BR/>PULL el=1</TD></TR></TABLE></TD></TR><TR><TD BGCOLOR="white" BORDER="0" PORT="node_info" ROWSPAN="1" COLSPAN="1">StreamPullPushAdapter : Stream_40</TD></TR><TR><TD BGCOLOR="white" BORDER="0" PORT="outputs" ROWSPAN="1" COLSPAN="1"><TABLE  BORDER="1" CELLPADDING="1" CELLSPACING="4"><TR><TD BGCOLOR="white" BORDER="1" PORT="output" ROWSPAN="1" COLSPAN="1">output<BR/>clk=PCIE (125.0MHz)<BR/>width=128<BR/>PUSH 1</TD></TR></TABLE></TD></TR></TABLE>>];
Stream_44[shape=plaintext, label=<<TABLE  BORDER="1" CELLPADDING="1" CELLSPACING="1"><TR><TD BGCOLOR="white" BORDER="0" PORT="inputs" ROWSPAN="1" COLSPAN="1"><TABLE  BORDER="1" CELLPADDING="1" CELLSPACING="4"><TR><TD BGCOLOR="white" BORDER="1" PORT="input" ROWSPAN="1" COLSPAN="1">input<BR/>clk=PCIE (125.0MHz)<BR/>width=128<BR/>PULL el=1</TD></TR></TABLE></TD></TR><TR><TD BGCOLOR="white" BORDER="0" PORT="node_info" ROWSPAN="1" COLSPAN="1">StreamPullPushAdapter : Stream_44</TD></TR><TR><TD BGCOLOR="white" BORDER="0" PORT="outputs" ROWSPAN="1" COLSPAN="1"><TABLE  BORDER="1" CELLPADDING="1" CELLSPACING="4"><TR><TD BGCOLOR="white" BORDER="1" PORT="output" ROWSPAN="1" COLSPAN="1">output<BR/>clk=PCIE (125.0MHz)<BR/>width=128<BR/>PUSH 1</TD></TR></TABLE></TD></TR></TABLE>>];
Stream_48[shape=plaintext, label=<<TABLE  BORDER="1" CELLPADDING="1" CELLSPACING="1"><TR><TD BGCOLOR="white" BORDER="0" PORT="inputs" ROWSPAN="1" COLSPAN="1"><TABLE  BORDER="1" CELLPADDING="1" CELLSPACING="4"><TR><TD BGCOLOR="white" BORDER="1" PORT="input" ROWSPAN="1" COLSPAN="1">input<BR/>clk=PCIE (125.0MHz)<BR/>width=128<BR/>PULL el=1</TD></TR></TABLE></TD></TR><TR><TD BGCOLOR="white" BORDER="0" PORT="node_info" ROWSPAN="1" COLSPAN="1">StreamPullPushAdapter : Stream_48</TD></TR><TR><TD BGCOLOR="white" BORDER="0" PORT="outputs" ROWSPAN="1" COLSPAN="1"><TABLE  BORDER="1" CELLPADDING="1" CELLSPACING="4"><TR><TD BGCOLOR="white" BORDER="1" PORT="output" ROWSPAN="1" COLSPAN="1">output<BR/>clk=PCIE (125.0MHz)<BR/>width=128<BR/>PUSH 1</TD></TR></TABLE></TD></TR></TABLE>>];
Stream_52[shape=plaintext, label=<<TABLE  BORDER="1" CELLPADDING="1" CELLSPACING="1"><TR><TD BGCOLOR="white" BORDER="0" PORT="inputs" ROWSPAN="1" COLSPAN="1"><TABLE  BORDER="1" CELLPADDING="1" CELLSPACING="4"><TR><TD BGCOLOR="white" BORDER="1" PORT="input" ROWSPAN="1" COLSPAN="1">input<BR/>clk=PCIE (125.0MHz)<BR/>width=128<BR/>PULL el=1</TD></TR></TABLE></TD></TR><TR><TD BGCOLOR="white" BORDER="0" PORT="node_info" ROWSPAN="1" COLSPAN="1">StreamPullPushAdapter : Stream_52</TD></TR><TR><TD BGCOLOR="white" BORDER="0" PORT="outputs" ROWSPAN="1" COLSPAN="1"><TABLE  BORDER="1" CELLPADDING="1" CELLSPACING="4"><TR><TD BGCOLOR="white" BORDER="1" PORT="output" ROWSPAN="1" COLSPAN="1">output<BR/>clk=PCIE (125.0MHz)<BR/>width=128<BR/>PUSH 1</TD></TR></TABLE></TD></TR></TABLE>>];
Stream_56[shape=plaintext, label=<<TABLE  BORDER="1" CELLPADDING="1" CELLSPACING="1"><TR><TD BGCOLOR="white" BORDER="0" PORT="inputs" ROWSPAN="1" COLSPAN="1"><TABLE  BORDER="1" CELLPADDING="1" CELLSPACING="4"><TR><TD BGCOLOR="white" BORDER="1" PORT="input" ROWSPAN="1" COLSPAN="1">input<BR/>clk=PCIE (125.0MHz)<BR/>width=128<BR/>PULL el=1</TD></TR></TABLE></TD></TR><TR><TD BGCOLOR="white" BORDER="0" PORT="node_info" ROWSPAN="1" COLSPAN="1">StreamPullPushAdapter : Stream_56</TD></TR><TR><TD BGCOLOR="white" BORDER="0" PORT="outputs" ROWSPAN="1" COLSPAN="1"><TABLE  BORDER="1" CELLPADDING="1" CELLSPACING="4"><TR><TD BGCOLOR="white" BORDER="1" PORT="output" ROWSPAN="1" COLSPAN="1">output<BR/>clk=PCIE (125.0MHz)<BR/>width=128<BR/>PUSH 1</TD></TR></TABLE></TD></TR></TABLE>>];
BeelerReuterDFEKernel -> Stream_2 [headport="input" tailport="u_out" label="{D{data:1}}"]
BeelerReuterDFEKernel -> Stream_5 [headport="input" tailport="x1_out" label="{D{data:1}}"]
BeelerReuterDFEKernel -> Stream_8 [headport="input" tailport="m_out" label="{D{data:1}}"]
BeelerReuterDFEKernel -> Stream_11 [headport="input" tailport="h_out" label="{D{data:1}}"]
BeelerReuterDFEKernel -> Stream_14 [headport="input" tailport="j_out" label="{D{data:1}}"]
BeelerReuterDFEKernel -> Stream_17 [headport="input" tailport="d_out" label="{D{data:1}}"]
BeelerReuterDFEKernel -> Stream_20 [headport="input" tailport="f_out" label="{D{data:1}}"]
BeelerReuterDFEKernel -> Stream_23 [headport="input" tailport="ca_out" label="{D{data:1}}"]
Stream_2 -> Stream_28 [headport="input" tailport="output" label="{D{data:1}}"]
Stream_23 -> Stream_32 [headport="input" tailport="output" label="{D{data:1}}"]
Stream_5 -> Stream_36 [headport="input" tailport="output" label="{D{data:1}}"]
Stream_8 -> Stream_40 [headport="input" tailport="output" label="{D{data:1}}"]
Stream_20 -> Stream_44 [headport="input" tailport="output" label="{D{data:1}}"]
Stream_11 -> Stream_48 [headport="input" tailport="output" label="{D{data:1}}"]
Stream_17 -> Stream_52 [headport="input" tailport="output" label="{D{data:1}}"]
Stream_14 -> Stream_56 [headport="input" tailport="output" label="{D{data:1}}"]
Stream_28 -> u_out [headport="u_out" tailport="output" label="{D{data:1}}"]
Stream_32 -> ca_out [headport="ca_out" tailport="output" label="{D{data:1}}"]
Stream_36 -> x1_out [headport="x1_out" tailport="output" label="{D{data:1}}"]
Stream_40 -> m_out [headport="m_out" tailport="output" label="{D{data:1}}"]
Stream_44 -> f_out [headport="f_out" tailport="output" label="{D{data:1}}"]
Stream_48 -> h_out [headport="h_out" tailport="output" label="{D{data:1}}"]
Stream_52 -> d_out [headport="d_out" tailport="output" label="{D{data:1}}"]
Stream_56 -> j_out [headport="j_out" tailport="output" label="{D{data:1}}"]
}
