              NodeID Stall origin Node ID
                 744                 none
                  41                 none
                 876                 none
                 766                 none
                  46                 none
                  38                 none
                  45                 none
                 778                 none
                 861                 none
                 862                 none
                 863                 none
                 864                 none
                 745                 none
                 768                 none
                  39                 none
                 949                 none
                  43                 none
                  44                 none
                 769                 none
                 746                 none
                 948                 none
                 688                 none
                 775                 none
                 759                 none
                 614                 none
                 772                 none
                 947                 none
                 616                 none
                 689                 none
                 774                 none
                  47                 none
                 666                 none
                  55                 none
                  56                 none
                 849                 none
                 865                 none
                 866                 none
                 867                 none
                 868                 none
                 869                 none
                  15                 none
                 581                 none
                  34                 none
                 618                 none
                 760                 none
                 946                 none
                 620                 none
                 690                 none
                  48                 none
                 669                 none
                 780                 none
                  57                 none
                  58                 none
                 781                 none
                 454                 none
                  17                 none
                 445                 none
                  35                 none
                 446                 none
                 457                 none
                  16                 none
                 225                 none
                   1                 none
                   2                 none
                 226                 none
                 458                 none
                 455                 none
                   0                 none
                 456                 none
                 459                 none
                  36                 none
                 575                 none
                 576                 none
                 777                 none
                 582                 none
                 583                 none
                 584                 none
                  28                 none
                 585                 none
                 586                 none
                   8                 none
                 587                 none
                 588                 none
                  19                 none
                 589                 none
                  21                 none
                 443                 none
                   9                 none
                  10                 none
                 444                 none
                 593                 none
                 945                 none
                  11                 none
                  31                 none
                 944                 none
                 943                 none
                 942                 none
                  24                 none
                  29                 none
                 334                 none
                 335                 none
                 735                 none
                 414                 none
                 415                 none
                 691                 none
                 413                 none
                 941                 none
                 692                 none
                 419                 none
                 798                 none
                 338                 none
                 339                 none
                 340                 none
                 343                 none
                 342                 none
                 344                 none
                 353                 none
                 354                 none
                 789                 none
                 381                 none
                 384                 none
                 726                 none
                 357                 none
                 429                 none
                 430                 none
                 356                 none
                 426                 none
                 427                 none
                 355                 none
                 423                 none
                 424                 none
                 361                 none
                 358                 none
                 360                 none
                 362                 none
                 790                 none
                 363                 none
                 364                 none
                 365                 none
                 366                 none
                 367                 none
                 368                 none
                 369                 none
                 370                 none
                 371                 none
                 372                 none
                 373                 none
                 374                 none
                 375                 none
                 940                 none
                 693                 none
                 734                 none
                 694                 none
                 695                 none
                 939                 none
                 346                 none
                 792                 none
                 347                 none
                 348                 none
                 793                 none
                 390                 none
                 391                 none
                 938                 none
                 350                 none
                 794                 none
                 351                 none
                 352                 none
                 795                 none
                 392                 none
                 937                 none
                 696                 none
                 399                 none
                 400                 none
                 401                 none
                 402                 none
                 394                 none
                 393                 none
                 378                 none
                 379                 none
                 380                 none
                 395                 none
                 396                 none
                 403                 none
                 404                 none
                 406                 none
                 697                 none
                 408                 none
                 685                 none
                 411                 none
                 936                 none
                 421                 none
                 935                 none
                 432                 none
                 434                 none
                 436                 none
                 438                 none
                 439                 none
                 440                 none
                 591                 none
                 594                 none
                 601                 none
                  20                 none
                 595                 none
                 599                 none
                 622                 none
                 761                 none
                 934                 none
                 624                 none
                 698                 none
                  49                 none
                 668                 none
                 803                 none
                  59                 none
                  60                 none
                 807                 none
                 870                 none
                  18                 none
                 460                 none
                  33                 none
                 447                 none
                 933                 none
                  14                 none
                 448                 none
                 450                 none
                  32                 none
                 451                 none
                 452                 none
                 453                 none
                 463                 none
                   4                 none
                  30                 none
                 932                 none
                 931                 none
                 930                 none
                  22                 none
                  25                 none
                 227                 none
                 228                 none
                 736                 none
                 307                 none
                 308                 none
                 699                 none
                 306                 none
                 929                 none
                 700                 none
                 312                 none
                 817                 none
                 231                 none
                 232                 none
                 233                 none
                 236                 none
                 235                 none
                 237                 none
                 246                 none
                 247                 none
                 808                 none
                 274                 none
                 277                 none
                 728                 none
                 250                 none
                 322                 none
                 323                 none
                 249                 none
                 319                 none
                 320                 none
                 248                 none
                 316                 none
                 317                 none
                 254                 none
                 251                 none
                 253                 none
                 255                 none
                 809                 none
                 256                 none
                 257                 none
                 258                 none
                 259                 none
                 260                 none
                 261                 none
                 262                 none
                 263                 none
                 264                 none
                 265                 none
                 266                 none
                 267                 none
                 268                 none
                 928                 none
                 701                 none
                 733                 none
                 702                 none
                 703                 none
                 927                 none
                 239                 none
                 811                 none
                 240                 none
                 241                 none
                 812                 none
                 283                 none
                 284                 none
                 926                 none
                 243                 none
                 813                 none
                 244                 none
                 245                 none
                 814                 none
                 285                 none
                 925                 none
                 704                 none
                 292                 none
                 293                 none
                 294                 none
                 295                 none
                 287                 none
                 286                 none
                 271                 none
                 272                 none
                 273                 none
                 288                 none
                 289                 none
                 296                 none
                 297                 none
                 299                 none
                 705                 none
                 301                 none
                 686                 none
                 304                 none
                 924                 none
                 314                 none
                 923                 none
                 325                 none
                 327                 none
                 329                 none
                 331                 none
                 332                 none
                 333                 none
                 464                 none
                 461                 none
                   3                 none
                 462                 none
                 465                 none
                 577                 none
                 578                 none
                 800                 none
                 596                 none
                 626                 none
                 762                 none
                 922                 none
                 628                 none
                 706                 none
                  50                 none
                 670                 none
                  61                 none
                  62                 none
                 832                 none
                 871                 none
                 921                 none
                 920                 none
                 919                 none
                  23                 none
                  26                 none
                 466                 none
                 467                 none
                 737                 none
                 546                 none
                 547                 none
                 707                 none
                 545                 none
                 918                 none
                 708                 none
                 551                 none
                 831                 none
                 470                 none
                 471                 none
                 472                 none
                 475                 none
                 474                 none
                 476                 none
                 485                 none
                 486                 none
                 822                 none
                 513                 none
                 516                 none
                 730                 none
                 489                 none
                 561                 none
                 562                 none
                 488                 none
                 558                 none
                 559                 none
                 487                 none
                 555                 none
                 556                 none
                 493                 none
                 490                 none
                 492                 none
                 494                 none
                 823                 none
                 495                 none
                 496                 none
                 497                 none
                 498                 none
                 499                 none
                 500                 none
                 501                 none
                 502                 none
                 503                 none
                 504                 none
                 505                 none
                 506                 none
                 507                 none
                 917                 none
                 709                 none
                 732                 none
                 710                 none
                 711                 none
                 916                 none
                 478                 none
                 825                 none
                 479                 none
                 480                 none
                 826                 none
                 522                 none
                 523                 none
                 915                 none
                 482                 none
                 827                 none
                 483                 none
                 484                 none
                 828                 none
                 524                 none
                 914                 none
                 712                 none
                 531                 none
                 532                 none
                 533                 none
                 534                 none
                 526                 none
                 525                 none
                 510                 none
                 511                 none
                 512                 none
                 527                 none
                 528                 none
                 535                 none
                 536                 none
                 538                 none
                 713                 none
                 540                 none
                 687                 none
                 543                 none
                 913                 none
                 553                 none
                 912                 none
                 564                 none
                 566                 none
                 568                 none
                 570                 none
                 738                 none
                 573                 none
                 441                 none
                   6                 none
                   7                 none
                 442                 none
                 574                 none
                 579                 none
                 580                 none
                 597                 none
                  13                 none
                 598                 none
                 600                 none
                 602                 none
                 911                 none
                 714                 none
                 630                 none
                 763                 none
                 836                 none
                 910                 none
                 632                 none
                 715                 none
                  51                 none
                 671                 none
                  65                 none
                  66                 none
                 837                 none
                  71                 none
                 909                 none
                  81                 none
                  83                 none
                  82                 none
                  84                 none
                 908                 none
                  76                 none
                  78                 none
                  77                 none
                  79                 none
                  86                 none
                  85                 none
                  87                 none
                  88                 none
                  89                 none
                 907                 none
                 906                 none
                 716                 none
                 634                 none
                 764                 none
                 840                 none
                 905                 none
                 636                 none
                 717                 none
                  52                 none
                 672                 none
                  69                 none
                  70                 none
                  72                 none
                 838                 none
                 904                 none
                  91                 none
                 903                 none
                  98                 none
                 100                 none
                  99                 none
                 101                 none
                 902                 none
                  93                 none
                  95                 none
                  94                 none
                  96                 none
                 103                 none
                 102                 none
                 104                 none
                 105                 none
                 106                 none
                 108                 none
                 109                 none
                 901                 none
                 111                 none
                 900                 none
                 118                 none
                 120                 none
                 119                 none
                 121                 none
                 899                 none
                 113                 none
                 115                 none
                 114                 none
                 116                 none
                 123                 none
                 122                 none
                 124                 none
                 125                 none
                 126                 none
                 898                 none
                 897                 none
                 128                 none
                 896                 none
                 135                 none
                 137                 none
                 136                 none
                 138                 none
                 895                 none
                 130                 none
                 132                 none
                 131                 none
                 133                 none
                 140                 none
                 139                 none
                 141                 none
                 142                 none
                 143                 none
                 145                 none
                 146                 none
                 147                 none
                 894                 none
                 149                 none
                 893                 none
                 156                 none
                 158                 none
                 157                 none
                 159                 none
                 892                 none
                 151                 none
                 153                 none
                 152                 none
                 154                 none
                 161                 none
                 160                 none
                 162                 none
                 163                 none
                 164                 none
                 891                 none
                 890                 none
                 166                 none
                 889                 none
                 173                 none
                 175                 none
                 174                 none
                 176                 none
                 888                 none
                 168                 none
                 170                 none
                 169                 none
                 171                 none
                 178                 none
                 177                 none
                 179                 none
                 180                 none
                 181                 none
                 183                 none
                 184                 none
                 185                 none
                 887                 none
                 187                 none
                 886                 none
                 718                 none
                 190                 none
                 192                 none
                 191                 none
                 193                 none
                 603                 none
                 604                 none
                 605                 none
                 885                 none
                 719                 none
                 884                 none
                 210                 none
                 720                 none
                  37                 none
                 195                 none
                 883                 none
                 197                 none
                 198                 none
                 667                 none
                 199                 none
                 200                 none
                 218                 none
                 739                 none
                 221                 none
                 222                 none
                 740                 none
                 851                 none
                 741                 none
                 216                 none
                 217                 none
                 223                 none
                 742                 none
                 853                 none
                 743                 none
                 207                 none
                 208                 none
                 224                 none
                 606                 none
                 765                 none
                 848                 none
                 874                 none
                 875                 none
                 747                 none
                 872                 none
                 748                 none
                 873                 none
                 749                 none
                 750                 none
                 194                 none
                 882                 none
                 639                 none
                 721                 none
                 641                 none
                 642                 none
                 643                 none
                 857                 none
                 644                 none
                 881                 none
                 646                 none
                 722                 none
                 648                 none
                 649                 none
                 650                 none
                 858                 none
                 651                 none
                 880                 none
                 653                 none
                 723                 none
                 655                 none
                 656                 none
                 657                 none
                 859                 none
                 658                 none
                 879                 none
                 660                 none
                 724                 none
                 662                 none
                 663                 none
                 664                 none
                 860                 none
                 665                 none
                 677                 none
                 878                 none
                 674                 none
                 675                 none
                 676                 none
                 678                 none
                 877                 none
                 680                 none
                 681                 none
                 683                 none
                 725                 none
                 682                 none
