digraph fifoReportGraph {
	NodeKarmaKernel62 [shape=invhouse, label="KarmaKernel.maxj\nline: 62"];
	NodeKarmaKernel95 [shape=invhouse, label="KarmaKernel.maxj\nline: 95"];
	NodeKarmaKernel72 [shape=house, label="KarmaKernel.maxj\nline: 72"];
	NodeKarmaKernel94 [shape=invhouse, label="KarmaKernel.maxj\nline: 94"];
	NodeKarmaKernel70 [shape=house, label="KarmaKernel.maxj\nline: 70"];
	NodeKarmaKernel80 [shape=house, label="KarmaKernel.maxj\nline: 80"];
	NodeKarmaKernel75 [shape=house, label="KarmaKernel.maxj\nline: 75"];
	NodeKarmaKernel63 [shape=invhouse, label="KarmaKernel.maxj\nline: 63"];
	NodeKarmaManager17 [shape=house, label="KarmaManager.maxj\nline: 17"];
	NodeKarmaKernel120 [shape=hexagon, orientation=90, label="KarmaKernel.maxj\nline: 120"];
	NodeKarmaKernel111 [shape=house, label="KarmaKernel.maxj\nline: 111"];
	NodeKarmaKernel119 [shape=invhouse, label="KarmaKernel.maxj\nline: 119"];
	NodeKarmaKernel109 [shape=house, label="KarmaKernel.maxj\nline: 109"];
	NodeKarmaKernel62NodeKarmaKernel70FIFO [shape=box, label="TotalCosts: 2 \n"];
	NodeKarmaKernel120NodeKarmaKernel120FIFO [shape=box, label="TotalCosts: 2 \n"];
	NodeKarmaKernel63NodeKarmaKernel109FIFO [shape=box, label="TotalCosts: 2 \n"];
	NodeKarmaKernel62NodeKarmaKernel72FIFO [shape=box, label="TotalCosts: 1 \n"];
	NodeKarmaKernel63NodeKarmaKernel111FIFO [shape=box, label="TotalCosts: 1 \n"];
	NodeKarmaKernel63NodeKarmaKernel80FIFO [shape=box, label="TotalCosts: 1 \n"];
	NodeKarmaKernel119NodeKarmaManager17FIFO [shape=box, label="TotalCosts: 1 \n"];
	NodeKarmaKernel63NodeKarmaKernel75FIFO [shape=box, label="TotalCosts: 1 \n"];
	NodeKarmaKernel62 -> NodeKarmaKernel62NodeKarmaKernel70FIFO[color="/dark28/1"]
	NodeKarmaKernel62NodeKarmaKernel70FIFO -> NodeKarmaKernel70[color="/dark28/2"]
	NodeKarmaKernel62 -> NodeKarmaKernel62NodeKarmaKernel72FIFO[color="/dark28/3"]
	NodeKarmaKernel62NodeKarmaKernel72FIFO -> NodeKarmaKernel72[color="/dark28/4"]
	NodeKarmaKernel120 -> NodeKarmaKernel120NodeKarmaKernel120FIFO[color="/dark28/5"]
	NodeKarmaKernel120NodeKarmaKernel120FIFO -> NodeKarmaKernel120[color="/dark28/6"]
	NodeKarmaKernel63 -> NodeKarmaKernel63NodeKarmaKernel111FIFO[color="/dark28/7"]
	NodeKarmaKernel63NodeKarmaKernel111FIFO -> NodeKarmaKernel111[color="/dark28/8"]
	NodeKarmaKernel63 -> NodeKarmaKernel63NodeKarmaKernel80FIFO[color="/dark28/1"]
	NodeKarmaKernel63NodeKarmaKernel80FIFO -> NodeKarmaKernel80[color="/dark28/2"]
	NodeKarmaKernel119 -> NodeKarmaKernel119NodeKarmaManager17FIFO[color="/dark28/3"]
	NodeKarmaKernel119NodeKarmaManager17FIFO -> NodeKarmaManager17[color="/dark28/4"]
	NodeKarmaKernel63 -> NodeKarmaKernel63NodeKarmaKernel75FIFO[color="/dark28/5"]
	NodeKarmaKernel63NodeKarmaKernel75FIFO -> NodeKarmaKernel75[color="/dark28/6"]
	NodeKarmaKernel63 -> NodeKarmaKernel63NodeKarmaKernel109FIFO[color="/dark28/7"]
	NodeKarmaKernel63NodeKarmaKernel109FIFO -> NodeKarmaKernel109[color="/dark28/8"]
}
