digraph KarmaDFEKernel_validated_fifos{
	NodeConstantRawBits522 [shape=box, label="1.0\nID: 522"];
	NodeConstantRawBits14 [shape=box, label="1.0\nID: 14"];
	NodeEvalStreamOffset13 [label="EvalStreamOffset(loopLength)\nID: 13"];
	NodeCounter17 [shape=hexagon, label="cnt\nID: 17"];
	NodeInputMappedReg15 [shape=box, peripheries=2, label="num_iteration\nID: 15"];
	NodeCounter16 [shape=hexagon, label="cnt\nID: 16"];
	NodeConstantDouble20 [shape=box, label="0.0\nID: 20"];
	NodeEqInlined355 [label="==\nID: 355"];
	NodeInputMappedReg18 [shape=box, peripheries=2, label="dt\nID: 18"];
	NodeCast19 [label="{HWFloat:8, 12}\nID: 19"];
	NodeConstantRawBits6 [shape=box, label="0.800048828125\nID: 6"];
	NodeConstantDouble24 [shape=box, label="0.0\nID: 24"];
	NodeEqInlined356 [label="==\nID: 356"];
	NodeConstantDouble315 [shape=box, label="1.428554778\nID: 315"];
	NodeConstantRawBits5 [shape=box, label="1.0\nID: 5"];
	NodeGt313 [label=">\nID: 313"];
	NodeCast314 [label="{HWFloat:8, 12}\nID: 314"];
	NodeMul316 [label="*\nID: 316"];
	NodeSub317 [label="-\nID: 317"];
	NodeConstantRawBits3 [shape=box, label="0.0039997100830078125\nID: 3"];
	NodeMul319 [label="*\nID: 319"];
	NodeMul322 [label="*\nID: 322"];
	NodeAdd323 [label="+\nID: 323"];
	NodeStreamOffset523 [shape=diamond, label="-loopLength\nID: 523"];
	NodeConstantRawBits26 [shape=box, label="0.0\nID: 26"];
	NodeMux27 [shape=invtrapezium, height=0.5, label="MUX\nID: 27"];
	NodeMul32 [label="*\nID: 32"];
	NodeMul33 [label="*\nID: 33"];
	NodeMul34 [label="*\nID: 34"];
	NodeMul35 [label="*\nID: 35"];
	NodeSub310 [label="-\nID: 310"];
	NodeConstantDouble303 [shape=box, label="1.0\nID: 303"];
	NodeConstantDouble300 [shape=box, label="1.0\nID: 300"];
	NodeConstantDouble298 [shape=box, label="2.0\nID: 298"];
	NodeSlice285 [label="[18:11]\nID: 285"];
	NodeConstantRawBits286 [shape=box, label="0xff\nID: 286"];
	NodeEqInlined357 [label="==\nID: 357"];
	NodeSlice284 [label="[10:0]\nID: 284"];
	NodeConstantDouble288 [shape=box, label="0.0\nID: 288"];
	NodeNeqInlined358 [label="!=\nID: 358"];
	NodeAnd290 [label="&\nID: 290"];
	NodeSlice44 [label="[1:1]\nID: 44"];
	NodeReinterpret45 [label="<{HWOffsetFix:1, 0, UNSIGNED}>\nID: 45"];
	NodeConstantRawBits46 [shape=box, label="511.99993896484375\nID: 46"];
	NodeSlice359 [label="[23:23]\nID: 359"];
	NodeNot360 [label="~\nID: 360"];
	NodeCat383 [label="@\nID: 383"];
	NodeReinterpret72 [label="<{HWOffsetFix:24, -14, TWOSCOMPLEMENT}>\nID: 72"];
	NodeXor73 [label="^\nID: 73"];
	NodeMux74 [shape=invtrapezium, height=0.5, label="MUX\nID: 74"];
	NodeConstantRawBits77 [shape=box, label="1.4426950216293335\nID: 77"];
	NodeMul76 [label="*\nID: 76"];
	NodeConstantRawBits79 [shape=box, label="1023.9999999999927\nID: 79"];
	NodeSlice384 [label="[47:47]\nID: 384"];
	NodeNot385 [label="~\nID: 385"];
	NodeCat432 [label="@\nID: 432"];
	NodeReinterpret129 [label="<{HWOffsetFix:48, -37, TWOSCOMPLEMENT}>\nID: 129"];
	NodeXor130 [label="^\nID: 130"];
	NodeMux131 [shape=invtrapezium, height=0.5, label="MUX\nID: 131"];
	NodeCast132 [label="{HWOffsetFix:24, -14, TWOSCOMPLEMENT}\nID: 132"];
	NodeConstantRawBits134 [shape=box, label="511.99993896484375\nID: 134"];
	NodeSlice433 [label="[23:23]\nID: 433"];
	NodeNot434 [label="~\nID: 434"];
	NodeCat457 [label="@\nID: 457"];
	NodeReinterpret160 [label="<{HWOffsetFix:24, -14, TWOSCOMPLEMENT}>\nID: 160"];
	NodeXor161 [label="^\nID: 161"];
	NodeMux162 [shape=invtrapezium, height=0.5, label="MUX\nID: 162"];
	NodeDoubtBitOp171 [label="DoubtBitOp(REMOVE_DOUBT)\nID: 171"];
	NodeCast172 [label="{HWOffsetFix:10, 0, TWOSCOMPLEMENT}\nID: 172"];
	NodeCast204 [label="{HWOffsetFix:11, 0, TWOSCOMPLEMENT}\nID: 204"];
	NodeConstantDouble205 [shape=box, label="127.0\nID: 205"];
	NodeAdd206 [label="+\nID: 206"];
	NodeConstantRawBits208 [shape=box, label="1023.0\nID: 208"];
	NodeSlice458 [label="[10:10]\nID: 458"];
	NodeNot459 [label="~\nID: 459"];
	NodeCat469 [label="@\nID: 469"];
	NodeReinterpret221 [label="<{HWOffsetFix:11, 0, TWOSCOMPLEMENT}>\nID: 221"];
	NodeXor222 [label="^\nID: 222"];
	NodeMux223 [shape=invtrapezium, height=0.5, label="MUX\nID: 223"];
	NodeConstantRawBits224 [shape=box, label="1.0\nID: 224"];
	NodeCast173 [label="{HWOffsetFix:6, -6, UNSIGNED}\nID: 173"];
	NodeReinterpret294 [label="<{HWOffsetFix:6, 0, UNSIGNED}>\nID: 294"];
	NodeROM295 [label="ROM\nID: 295"];
	NodeConstantRawBits177 [shape=box, label="0.69140625\nID: 177"];
	NodeCast174 [label="{HWOffsetFix:8, -14, UNSIGNED}\nID: 174"];
	NodeMul176 [label="*\nID: 176"];
	NodeCast178 [label="{HWOffsetFix:8, -14, UNSIGNED}\nID: 178"];
	NodeConstantRawBits180 [shape=box, label="0.01556396484375\nID: 180"];
	NodeMux181 [shape=invtrapezium, height=0.5, label="MUX\nID: 181"];
	NodeAdd182 [label="+\nID: 182"];
	NodeMul183 [label="*\nID: 183"];
	NodeAdd184 [label="+\nID: 184"];
	NodeConstantRawBits186 [shape=box, label="1.9999999850988388\nID: 186"];
	NodeMux187 [shape=invtrapezium, height=0.5, label="MUX\nID: 187"];
	NodeCast188 [label="{HWOffsetFix:15, -14, UNSIGNED}\nID: 188"];
	NodeConstantRawBits190 [shape=box, label="1.99993896484375\nID: 190"];
	NodeMux191 [shape=invtrapezium, height=0.5, label="MUX\nID: 191"];
	NodeCast192 [label="{HWOffsetFix:12, -11, UNSIGNED}\nID: 192"];
	NodeConstantRawBits194 [shape=box, label="1.99951171875\nID: 194"];
	NodeMux195 [shape=invtrapezium, height=0.5, label="MUX\nID: 195"];
	NodeConstantDouble196 [shape=box, label="1.0\nID: 196"];
	NodeGteInlined470 [label=">=\nID: 470"];
	NodeCondAdd500 [label="+/0\nID: 500"];
	NodeConstantRawBits229 [shape=box, label="1023.0\nID: 229"];
	NodeSlice471 [label="[10:10]\nID: 471"];
	NodeNot472 [label="~\nID: 472"];
	NodeCat482 [label="@\nID: 482"];
	NodeReinterpret242 [label="<{HWOffsetFix:11, 0, TWOSCOMPLEMENT}>\nID: 242"];
	NodeXor243 [label="^\nID: 243"];
	NodeMux244 [shape=invtrapezium, height=0.5, label="MUX\nID: 244"];
	NodeSlice483 [label="[10:10]\nID: 483"];
	NodeReinterpret484 [label="<{HWOffsetFix:1, 0, UNSIGNED}>\nID: 484"];
	NodeConstantDouble163 [shape=box, label="0.0\nID: 163"];
	NodeGt164 [label=">\nID: 164"];
	NodeDoubtBitOp165 [label="DoubtBitOp(GET_DOUBT)\nID: 165"];
	NodeAnd166 [label="&\nID: 166"];
	NodeNot247 [label="~\nID: 247"];
	NodeAnd248 [label="&\nID: 248"];
	NodeConstantDouble167 [shape=box, label="0.0\nID: 167"];
	NodeLt168 [label="<\nID: 168"];
	NodeDoubtBitOp169 [label="DoubtBitOp(GET_DOUBT)\nID: 169"];
	NodeAnd170 [label="&\nID: 170"];
	NodeOr249 [label="|\nID: 249"];
	NodeConstantDouble268 [shape=box, label="255.0\nID: 268"];
	NodeGteInlined485 [label=">=\nID: 485"];
	NodeNot270 [label="~\nID: 270"];
	NodeAnd271 [label="&\nID: 271"];
	NodeOr272 [label="|\nID: 272"];
	NodeCat273 [label="@\nID: 273"];
	NodeConstantRawBits265 [shape=box, label="0.0\nID: 265"];
	NodeCast250 [label="{HWOffsetFix:8, 0, TWOSCOMPLEMENT}\nID: 250"];
	NodeConstantRawBits252 [shape=box, label="127.0\nID: 252"];
	NodeSlice486 [label="[7:7]\nID: 486"];
	NodeNot487 [label="~\nID: 487"];
	NodeCat494 [label="@\nID: 494"];
	NodeReinterpret262 [label="<{HWOffsetFix:8, 0, TWOSCOMPLEMENT}>\nID: 262"];
	NodeXor263 [label="^\nID: 263"];
	NodeMux264 [shape=invtrapezium, height=0.5, label="MUX\nID: 264"];
	NodeConstantRawBits198 [shape=box, label="0.0\nID: 198"];
	NodeMux199 [shape=invtrapezium, height=0.5, label="MUX\nID: 199"];
	NodeCast200 [label="{HWOffsetFix:11, -11, UNSIGNED}\nID: 200"];
	NodeConstantRawBits202 [shape=box, label="0.99951171875\nID: 202"];
	NodeMux203 [shape=invtrapezium, height=0.5, label="MUX\nID: 203"];
	NodeCat266 [label="@\nID: 266"];
	NodeReinterpret267 [label="<{HWFloat:8, 12}>\nID: 267"];
	NodeConstantRawBits274 [shape=box, label="0.0\nID: 274"];
	NodeConstantRawBits275 [shape=box, label="255.0\nID: 275"];
	NodeConstantRawBits277 [shape=box, label="0.0\nID: 277"];
	NodeCat495 [label="@\nID: 495"];
	NodeReinterpret279 [label="<{HWFloat:8, 12}>\nID: 279"];
	NodeConstantRawBits354 [shape=box, label="0.0\nID: 354"];
	NodeMux282 [shape=invtrapezium, height=0.5, label="MUX\nID: 282"];
	NodeConstantDouble291 [shape=box, label="NaN\nID: 291"];
	NodeMux292 [shape=invtrapezium, height=0.5, label="MUX\nID: 292"];
	NodeConstantDouble296 [shape=box, label="1.0\nID: 296"];
	NodeAdd297 [label="+\nID: 297"];
	NodeDiv299 [label="/\nID: 299"];
	NodeSub301 [label="-\nID: 301"];
	NodeSub304 [label="-\nID: 304"];
	NodeMul305 [label="*\nID: 305"];
	NodeMul306 [label="*\nID: 306"];
	NodePO2FPMult502 [label="PO2FPMult_N-1\nID: 502"];
	NodeMul311 [label="*\nID: 311"];
	NodeSub496 [label="-\nID: 496"];
	NodeConstantRawBits2 [shape=box, label="0.4000244140625\nID: 2"];
	NodeMul318 [label="*\nID: 318"];
	NodeMul320 [label="*\nID: 320"];
	NodeAdd321 [label="+\nID: 321"];
	NodeStreamOffset524 [shape=diamond, label="-loopLength\nID: 524"];
	NodeConstantRawBits22 [shape=box, label="1.5\nID: 22"];
	NodeMux23 [shape=invtrapezium, height=0.5, label="MUX\nID: 23"];
	NodeConstantRawBits4 [shape=box, label="3.0\nID: 4"];
	NodeSub38 [label="-\nID: 38"];
	NodePO2FPMult501 [label="PO2FPMult_N1\nID: 501"];
	NodeConstantRawBits41 [shape=box, label="0.0\nID: 41"];
	NodeDoubtBitOp42 [label="DoubtBitOp(ADD_DOUBT)\nID: 42"];
	NodeCast43 [label="{HWOffsetFix:24, -14, TWOSCOMPLEMENT}\nID: 43"];
	NodeExceptionMask506 [label="NodeExceptionMask\nID: 506"];
	NodeExceptionMask507 [label="NodeExceptionMask\nID: 507"];
	NodeExceptionMask508 [label="NodeExceptionMask\nID: 508"];
	NodeExceptionMask510 [label="NodeExceptionMask\nID: 510"];
	NodeExceptionMask511 [label="NodeExceptionMask\nID: 511"];
	NodeExceptionMask512 [label="NodeExceptionMask\nID: 512"];
	NodeExceptionMask513 [label="NodeExceptionMask\nID: 513"];
	NodeExceptionMask516 [label="NodeExceptionMask\nID: 516"];
	NodeExceptionMask509 [label="NodeExceptionMask\nID: 509"];
	NodeExceptionMask515 [label="NodeExceptionMask\nID: 515"];
	NodeExceptionMask517 [label="NodeExceptionMask\nID: 517"];
	NodeExceptionMask518 [label="NodeExceptionMask\nID: 518"];
	NodeExceptionMask519 [label="NodeExceptionMask\nID: 519"];
	NodeExceptionMask514 [label="NodeExceptionMask\nID: 514"];
	NodeExceptionMask505 [label="NodeExceptionMask\nID: 505"];
	NodeNumericExceptionsSim520 [label="NodeNumericExceptionsSim\nID: 520"];
	NodeOutputMappedReg521 [label="Scalar output (all_numeric_exceptions)\nID: 521"];
	NodeConstantDouble328 [shape=box, label="1.0\nID: 328"];
	NodeSub329 [label="-\nID: 329"];
	NodeEqInlined497 [label="==\nID: 497"];
	NodeCast326 [label="{HWFloat:8, 24}\nID: 326"];
	NodeOutput334 [shape=house, label="u_out\nID: 334"];
	NodeConstantDouble335 [shape=box, label="1.0\nID: 335"];
	NodeSub336 [label="-\nID: 336"];
	NodeEqInlined498 [label="==\nID: 498"];
	NodeCast327 [label="{HWFloat:8, 24}\nID: 327"];
	NodeOutput341 [shape=house, label="v_out\nID: 341"];
	NodeConstantRawBits14 -> NodeCounter17[label="enable" color="/dark28/1" photon_data="EDGE,SrcNode:14,SrcNodePort:value"];
	NodeEvalStreamOffset13 -> NodeCounter17[label="max" color="/dark28/2" photon_data="EDGE,SrcNode:13,SrcNodePort:output"];
	NodeCounter17 -> NodeCounter16[label="enable" color="/dark28/3" photon_data="EDGE,SrcNode:17,SrcNodePort:wrap"];
	NodeInputMappedReg15 -> NodeCounter16[label="max" color="/dark28/4" photon_data="EDGE,SrcNode:15,SrcNodePort:num_iteration"];
	NodeCounter16 -> NodeEqInlined355[color="/dark28/5" photon_data="EDGE,SrcNode:16,SrcNodePort:count"];
	NodeConstantDouble20 -> NodeEqInlined355[color="/dark28/6" photon_data="EDGE,SrcNode:20,SrcNodePort:value"];
	NodeInputMappedReg18 -> NodeCast19[color="/dark28/7" photon_data="EDGE,SrcNode:18,SrcNodePort:dt"];
	NodeCounter16 -> NodeEqInlined356[color="/dark28/8" photon_data="EDGE,SrcNode:16,SrcNodePort:count"];
	NodeConstantDouble24 -> NodeEqInlined356[color="/dark28/1" photon_data="EDGE,SrcNode:24,SrcNodePort:value"];
	NodeMux23 -> NodeGt313[headport="n" tailport="s" color=red photon_data="EDGE,SrcNode:23,SrcNodePort:result"];
	NodeConstantRawBits5 -> NodeGt313[color="/dark28/2" photon_data="EDGE,SrcNode:5,SrcNodePort:value"];
	NodeGt313 -> NodeCast314[color="/dark28/3" photon_data="EDGE,SrcNode:313,SrcNodePort:result"];
	NodeConstantDouble315 -> NodeMul316[color="/dark28/4" photon_data="EDGE,SrcNode:315,SrcNodePort:value"];
	NodeCast314 -> NodeMul316[color="/dark28/5" photon_data="EDGE,SrcNode:314,SrcNodePort:o"];
	NodeMul316 -> NodeSub317[color="/dark28/6" photon_data="EDGE,SrcNode:316,SrcNodePort:result"];
	NodeMux27 -> NodeSub317[headport="n" tailport="s" color=red photon_data="EDGE,SrcNode:27,SrcNodePort:result"];
	NodeSub317 -> NodeMul319[color="/dark28/7" photon_data="EDGE,SrcNode:317,SrcNodePort:result"];
	NodeConstantRawBits3 -> NodeMul319[color="/dark28/8" photon_data="EDGE,SrcNode:3,SrcNodePort:value"];
	NodeCast19 -> NodeMul322[color="/dark28/1" photon_data="EDGE,SrcNode:19,SrcNodePort:o"];
	NodeMul319 -> NodeMul322[color="/dark28/2" photon_data="EDGE,SrcNode:319,SrcNodePort:result"];
	NodeMux27 -> NodeAdd323[headport="n" tailport="s" color=red photon_data="EDGE,SrcNode:27,SrcNodePort:result"];
	NodeMul322 -> NodeAdd323[color="/dark28/3" photon_data="EDGE,SrcNode:322,SrcNodePort:result"];
	NodeAdd323 -> NodeStreamOffset523[color="/dark28/4" photon_data="EDGE,SrcNode:323,SrcNodePort:result"];
	NodeEqInlined356 -> NodeMux27[headport="w" color="/dark28/5" photon_data="EDGE,SrcNode:356,SrcNodePort:result"];
	NodeStreamOffset523 -> NodeMux27[color="/dark28/6" photon_data="EDGE,SrcNode:523,SrcNodePort:output"];
	NodeConstantRawBits26 -> NodeMux27[color="/dark28/7" photon_data="EDGE,SrcNode:26,SrcNodePort:value"];
	NodeMux27 -> NodeMul32[color="/dark28/8" photon_data="EDGE,SrcNode:27,SrcNodePort:result"];
	NodeMux27 -> NodeMul32[color="/dark28/1" photon_data="EDGE,SrcNode:27,SrcNodePort:result"];
	NodeMux27 -> NodeMul33[color="/dark28/2" photon_data="EDGE,SrcNode:27,SrcNodePort:result"];
	NodeMul32 -> NodeMul33[color="/dark28/3" photon_data="EDGE,SrcNode:32,SrcNodePort:result"];
	NodeMul33 -> NodeMul34[color="/dark28/4" photon_data="EDGE,SrcNode:33,SrcNodePort:result"];
	NodeMul32 -> NodeMul34[color="/dark28/5" photon_data="EDGE,SrcNode:32,SrcNodePort:result"];
	NodeMul34 -> NodeMul35[color="/dark28/6" photon_data="EDGE,SrcNode:34,SrcNodePort:result"];
	NodeMul34 -> NodeMul35[color="/dark28/7" photon_data="EDGE,SrcNode:34,SrcNodePort:result"];
	NodeConstantRawBits6 -> NodeSub310[color="/dark28/8" photon_data="EDGE,SrcNode:6,SrcNodePort:value"];
	NodeMul35 -> NodeSub310[color="/dark28/1" photon_data="EDGE,SrcNode:35,SrcNodePort:result"];
	NodePO2FPMult501 -> NodeSlice285[headport="n" tailport="s" color=red photon_data="EDGE,SrcNode:501,SrcNodePort:floatOut"];
	NodeSlice285 -> NodeEqInlined357[color="/dark28/2" photon_data="EDGE,SrcNode:285,SrcNodePort:result"];
	NodeConstantRawBits286 -> NodeEqInlined357[color="/dark28/3" photon_data="EDGE,SrcNode:286,SrcNodePort:value"];
	NodePO2FPMult501 -> NodeSlice284[headport="n" tailport="s" color=red photon_data="EDGE,SrcNode:501,SrcNodePort:floatOut"];
	NodeSlice284 -> NodeNeqInlined358[color="/dark28/4" photon_data="EDGE,SrcNode:284,SrcNodePort:result"];
	NodeConstantDouble288 -> NodeNeqInlined358[color="/dark28/5" photon_data="EDGE,SrcNode:288,SrcNodePort:value"];
	NodeEqInlined357 -> NodeAnd290[color="/dark28/6" photon_data="EDGE,SrcNode:357,SrcNodePort:result"];
	NodeNeqInlined358 -> NodeAnd290[color="/dark28/7" photon_data="EDGE,SrcNode:358,SrcNodePort:result"];
	NodeCast43 -> NodeSlice44[headport="n" tailport="s" color=red photon_data="EDGE,SrcNode:43,SrcNodePort:exception"];
	NodeSlice44 -> NodeReinterpret45[color="/dark28/8" photon_data="EDGE,SrcNode:44,SrcNodePort:result"];
	NodeCast43 -> NodeSlice359[headport="n" tailport="s" color=red style=dashed photon_data="EDGE,SrcNode:43,SrcNodePort:o"];
	NodeSlice359 -> NodeNot360[color="/dark28/1" style=dashed photon_data="EDGE,SrcNode:359,SrcNodePort:result"];
	NodeNot360 -> NodeCat383[color="/dark28/2" style=dashed photon_data="EDGE,SrcNode:360,SrcNodePort:result"];
	NodeNot360 -> NodeCat383[color="/dark28/3" style=dashed photon_data="EDGE,SrcNode:360,SrcNodePort:result"];
	NodeNot360 -> NodeCat383[color="/dark28/4" style=dashed photon_data="EDGE,SrcNode:360,SrcNodePort:result"];
	NodeNot360 -> NodeCat383[color="/dark28/5" style=dashed photon_data="EDGE,SrcNode:360,SrcNodePort:result"];
	NodeNot360 -> NodeCat383[color="/dark28/6" style=dashed photon_data="EDGE,SrcNode:360,SrcNodePort:result"];
	NodeNot360 -> NodeCat383[color="/dark28/7" style=dashed photon_data="EDGE,SrcNode:360,SrcNodePort:result"];
	NodeNot360 -> NodeCat383[color="/dark28/8" style=dashed photon_data="EDGE,SrcNode:360,SrcNodePort:result"];
	NodeNot360 -> NodeCat383[color="/dark28/1" style=dashed photon_data="EDGE,SrcNode:360,SrcNodePort:result"];
	NodeNot360 -> NodeCat383[color="/dark28/2" style=dashed photon_data="EDGE,SrcNode:360,SrcNodePort:result"];
	NodeNot360 -> NodeCat383[color="/dark28/3" style=dashed photon_data="EDGE,SrcNode:360,SrcNodePort:result"];
	NodeNot360 -> NodeCat383[color="/dark28/4" style=dashed photon_data="EDGE,SrcNode:360,SrcNodePort:result"];
	NodeNot360 -> NodeCat383[color="/dark28/5" style=dashed photon_data="EDGE,SrcNode:360,SrcNodePort:result"];
	NodeNot360 -> NodeCat383[color="/dark28/6" style=dashed photon_data="EDGE,SrcNode:360,SrcNodePort:result"];
	NodeNot360 -> NodeCat383[color="/dark28/7" style=dashed photon_data="EDGE,SrcNode:360,SrcNodePort:result"];
	NodeNot360 -> NodeCat383[color="/dark28/8" style=dashed photon_data="EDGE,SrcNode:360,SrcNodePort:result"];
	NodeNot360 -> NodeCat383[color="/dark28/1" style=dashed photon_data="EDGE,SrcNode:360,SrcNodePort:result"];
	NodeNot360 -> NodeCat383[color="/dark28/2" style=dashed photon_data="EDGE,SrcNode:360,SrcNodePort:result"];
	NodeNot360 -> NodeCat383[color="/dark28/3" style=dashed photon_data="EDGE,SrcNode:360,SrcNodePort:result"];
	NodeNot360 -> NodeCat383[color="/dark28/4" style=dashed photon_data="EDGE,SrcNode:360,SrcNodePort:result"];
	NodeNot360 -> NodeCat383[color="/dark28/5" style=dashed photon_data="EDGE,SrcNode:360,SrcNodePort:result"];
	NodeNot360 -> NodeCat383[color="/dark28/6" style=dashed photon_data="EDGE,SrcNode:360,SrcNodePort:result"];
	NodeNot360 -> NodeCat383[color="/dark28/7" style=dashed photon_data="EDGE,SrcNode:360,SrcNodePort:result"];
	NodeNot360 -> NodeCat383[color="/dark28/8" style=dashed photon_data="EDGE,SrcNode:360,SrcNodePort:result"];
	NodeNot360 -> NodeCat383[color="/dark28/1" style=dashed photon_data="EDGE,SrcNode:360,SrcNodePort:result"];
	NodeCat383 -> NodeReinterpret72[color="/dark28/2" style=dashed photon_data="EDGE,SrcNode:383,SrcNodePort:result"];
	NodeConstantRawBits46 -> NodeXor73[color="/dark28/3" photon_data="EDGE,SrcNode:46,SrcNodePort:value"];
	NodeReinterpret72 -> NodeXor73[color="/dark28/4" style=dashed photon_data="EDGE,SrcNode:72,SrcNodePort:output"];
	NodeReinterpret45 -> NodeMux74[headport="w" color="/dark28/5" photon_data="EDGE,SrcNode:45,SrcNodePort:output"];
	NodeCast43 -> NodeMux74[headport="n" tailport="s" color=red style=dashed photon_data="EDGE,SrcNode:43,SrcNodePort:o"];
	NodeXor73 -> NodeMux74[color="/dark28/6" style=dashed photon_data="EDGE,SrcNode:73,SrcNodePort:result"];
	NodeMux74 -> NodeMul76[color="/dark28/7" style=dashed photon_data="EDGE,SrcNode:74,SrcNodePort:result"];
	NodeConstantRawBits77 -> NodeMul76[color="/dark28/8" photon_data="EDGE,SrcNode:77,SrcNodePort:value"];
	NodeMul76 -> NodeSlice384[color="/dark28/1" style=dashed photon_data="EDGE,SrcNode:76,SrcNodePort:result"];
	NodeSlice384 -> NodeNot385[color="/dark28/2" style=dashed photon_data="EDGE,SrcNode:384,SrcNodePort:result"];
	NodeNot385 -> NodeCat432[color="/dark28/3" style=dashed photon_data="EDGE,SrcNode:385,SrcNodePort:result"];
	NodeNot385 -> NodeCat432[color="/dark28/4" style=dashed photon_data="EDGE,SrcNode:385,SrcNodePort:result"];
	NodeNot385 -> NodeCat432[color="/dark28/5" style=dashed photon_data="EDGE,SrcNode:385,SrcNodePort:result"];
	NodeNot385 -> NodeCat432[color="/dark28/6" style=dashed photon_data="EDGE,SrcNode:385,SrcNodePort:result"];
	NodeNot385 -> NodeCat432[color="/dark28/7" style=dashed photon_data="EDGE,SrcNode:385,SrcNodePort:result"];
	NodeNot385 -> NodeCat432[color="/dark28/8" style=dashed photon_data="EDGE,SrcNode:385,SrcNodePort:result"];
	NodeNot385 -> NodeCat432[color="/dark28/1" style=dashed photon_data="EDGE,SrcNode:385,SrcNodePort:result"];
	NodeNot385 -> NodeCat432[color="/dark28/2" style=dashed photon_data="EDGE,SrcNode:385,SrcNodePort:result"];
	NodeNot385 -> NodeCat432[color="/dark28/3" style=dashed photon_data="EDGE,SrcNode:385,SrcNodePort:result"];
	NodeNot385 -> NodeCat432[color="/dark28/4" style=dashed photon_data="EDGE,SrcNode:385,SrcNodePort:result"];
	NodeNot385 -> NodeCat432[color="/dark28/5" style=dashed photon_data="EDGE,SrcNode:385,SrcNodePort:result"];
	NodeNot385 -> NodeCat432[color="/dark28/6" style=dashed photon_data="EDGE,SrcNode:385,SrcNodePort:result"];
	NodeNot385 -> NodeCat432[color="/dark28/7" style=dashed photon_data="EDGE,SrcNode:385,SrcNodePort:result"];
	NodeNot385 -> NodeCat432[color="/dark28/8" style=dashed photon_data="EDGE,SrcNode:385,SrcNodePort:result"];
	NodeNot385 -> NodeCat432[color="/dark28/1" style=dashed photon_data="EDGE,SrcNode:385,SrcNodePort:result"];
	NodeNot385 -> NodeCat432[color="/dark28/2" style=dashed photon_data="EDGE,SrcNode:385,SrcNodePort:result"];
	NodeNot385 -> NodeCat432[color="/dark28/3" style=dashed photon_data="EDGE,SrcNode:385,SrcNodePort:result"];
	NodeNot385 -> NodeCat432[color="/dark28/4" style=dashed photon_data="EDGE,SrcNode:385,SrcNodePort:result"];
	NodeNot385 -> NodeCat432[color="/dark28/5" style=dashed photon_data="EDGE,SrcNode:385,SrcNodePort:result"];
	NodeNot385 -> NodeCat432[color="/dark28/6" style=dashed photon_data="EDGE,SrcNode:385,SrcNodePort:result"];
	NodeNot385 -> NodeCat432[color="/dark28/7" style=dashed photon_data="EDGE,SrcNode:385,SrcNodePort:result"];
	NodeNot385 -> NodeCat432[color="/dark28/8" style=dashed photon_data="EDGE,SrcNode:385,SrcNodePort:result"];
	NodeNot385 -> NodeCat432[color="/dark28/1" style=dashed photon_data="EDGE,SrcNode:385,SrcNodePort:result"];
	NodeNot385 -> NodeCat432[color="/dark28/2" style=dashed photon_data="EDGE,SrcNode:385,SrcNodePort:result"];
	NodeNot385 -> NodeCat432[color="/dark28/3" style=dashed photon_data="EDGE,SrcNode:385,SrcNodePort:result"];
	NodeNot385 -> NodeCat432[color="/dark28/4" style=dashed photon_data="EDGE,SrcNode:385,SrcNodePort:result"];
	NodeNot385 -> NodeCat432[color="/dark28/5" style=dashed photon_data="EDGE,SrcNode:385,SrcNodePort:result"];
	NodeNot385 -> NodeCat432[color="/dark28/6" style=dashed photon_data="EDGE,SrcNode:385,SrcNodePort:result"];
	NodeNot385 -> NodeCat432[color="/dark28/7" style=dashed photon_data="EDGE,SrcNode:385,SrcNodePort:result"];
	NodeNot385 -> NodeCat432[color="/dark28/8" style=dashed photon_data="EDGE,SrcNode:385,SrcNodePort:result"];
	NodeNot385 -> NodeCat432[color="/dark28/1" style=dashed photon_data="EDGE,SrcNode:385,SrcNodePort:result"];
	NodeNot385 -> NodeCat432[color="/dark28/2" style=dashed photon_data="EDGE,SrcNode:385,SrcNodePort:result"];
	NodeNot385 -> NodeCat432[color="/dark28/3" style=dashed photon_data="EDGE,SrcNode:385,SrcNodePort:result"];
	NodeNot385 -> NodeCat432[color="/dark28/4" style=dashed photon_data="EDGE,SrcNode:385,SrcNodePort:result"];
	NodeNot385 -> NodeCat432[color="/dark28/5" style=dashed photon_data="EDGE,SrcNode:385,SrcNodePort:result"];
	NodeNot385 -> NodeCat432[color="/dark28/6" style=dashed photon_data="EDGE,SrcNode:385,SrcNodePort:result"];
	NodeNot385 -> NodeCat432[color="/dark28/7" style=dashed photon_data="EDGE,SrcNode:385,SrcNodePort:result"];
	NodeNot385 -> NodeCat432[color="/dark28/8" style=dashed photon_data="EDGE,SrcNode:385,SrcNodePort:result"];
	NodeNot385 -> NodeCat432[color="/dark28/1" style=dashed photon_data="EDGE,SrcNode:385,SrcNodePort:result"];
	NodeNot385 -> NodeCat432[color="/dark28/2" style=dashed photon_data="EDGE,SrcNode:385,SrcNodePort:result"];
	NodeNot385 -> NodeCat432[color="/dark28/3" style=dashed photon_data="EDGE,SrcNode:385,SrcNodePort:result"];
	NodeNot385 -> NodeCat432[color="/dark28/4" style=dashed photon_data="EDGE,SrcNode:385,SrcNodePort:result"];
	NodeNot385 -> NodeCat432[color="/dark28/5" style=dashed photon_data="EDGE,SrcNode:385,SrcNodePort:result"];
	NodeNot385 -> NodeCat432[color="/dark28/6" style=dashed photon_data="EDGE,SrcNode:385,SrcNodePort:result"];
	NodeNot385 -> NodeCat432[color="/dark28/7" style=dashed photon_data="EDGE,SrcNode:385,SrcNodePort:result"];
	NodeNot385 -> NodeCat432[color="/dark28/8" style=dashed photon_data="EDGE,SrcNode:385,SrcNodePort:result"];
	NodeNot385 -> NodeCat432[color="/dark28/1" style=dashed photon_data="EDGE,SrcNode:385,SrcNodePort:result"];
	NodeNot385 -> NodeCat432[color="/dark28/2" style=dashed photon_data="EDGE,SrcNode:385,SrcNodePort:result"];
	NodeCat432 -> NodeReinterpret129[color="/dark28/3" style=dashed photon_data="EDGE,SrcNode:432,SrcNodePort:result"];
	NodeConstantRawBits79 -> NodeXor130[color="/dark28/4" photon_data="EDGE,SrcNode:79,SrcNodePort:value"];
	NodeReinterpret129 -> NodeXor130[color="/dark28/5" style=dashed photon_data="EDGE,SrcNode:129,SrcNodePort:output"];
	NodeMul76 -> NodeMux131[headport="w" color="/dark28/6" photon_data="EDGE,SrcNode:76,SrcNodePort:exception"];
	NodeMul76 -> NodeMux131[color="/dark28/7" style=dashed photon_data="EDGE,SrcNode:76,SrcNodePort:result"];
	NodeXor130 -> NodeMux131[color="/dark28/8" style=dashed photon_data="EDGE,SrcNode:130,SrcNodePort:result"];
	NodeMux131 -> NodeCast132[color="/dark28/1" style=dashed photon_data="EDGE,SrcNode:131,SrcNodePort:result"];
	NodeCast132 -> NodeSlice433[color="/dark28/2" style=dashed photon_data="EDGE,SrcNode:132,SrcNodePort:o"];
	NodeSlice433 -> NodeNot434[color="/dark28/3" style=dashed photon_data="EDGE,SrcNode:433,SrcNodePort:result"];
	NodeNot434 -> NodeCat457[color="/dark28/4" style=dashed photon_data="EDGE,SrcNode:434,SrcNodePort:result"];
	NodeNot434 -> NodeCat457[color="/dark28/5" style=dashed photon_data="EDGE,SrcNode:434,SrcNodePort:result"];
	NodeNot434 -> NodeCat457[color="/dark28/6" style=dashed photon_data="EDGE,SrcNode:434,SrcNodePort:result"];
	NodeNot434 -> NodeCat457[color="/dark28/7" style=dashed photon_data="EDGE,SrcNode:434,SrcNodePort:result"];
	NodeNot434 -> NodeCat457[color="/dark28/8" style=dashed photon_data="EDGE,SrcNode:434,SrcNodePort:result"];
	NodeNot434 -> NodeCat457[color="/dark28/1" style=dashed photon_data="EDGE,SrcNode:434,SrcNodePort:result"];
	NodeNot434 -> NodeCat457[color="/dark28/2" style=dashed photon_data="EDGE,SrcNode:434,SrcNodePort:result"];
	NodeNot434 -> NodeCat457[color="/dark28/3" style=dashed photon_data="EDGE,SrcNode:434,SrcNodePort:result"];
	NodeNot434 -> NodeCat457[color="/dark28/4" style=dashed photon_data="EDGE,SrcNode:434,SrcNodePort:result"];
	NodeNot434 -> NodeCat457[color="/dark28/5" style=dashed photon_data="EDGE,SrcNode:434,SrcNodePort:result"];
	NodeNot434 -> NodeCat457[color="/dark28/6" style=dashed photon_data="EDGE,SrcNode:434,SrcNodePort:result"];
	NodeNot434 -> NodeCat457[color="/dark28/7" style=dashed photon_data="EDGE,SrcNode:434,SrcNodePort:result"];
	NodeNot434 -> NodeCat457[color="/dark28/8" style=dashed photon_data="EDGE,SrcNode:434,SrcNodePort:result"];
	NodeNot434 -> NodeCat457[color="/dark28/1" style=dashed photon_data="EDGE,SrcNode:434,SrcNodePort:result"];
	NodeNot434 -> NodeCat457[color="/dark28/2" style=dashed photon_data="EDGE,SrcNode:434,SrcNodePort:result"];
	NodeNot434 -> NodeCat457[color="/dark28/3" style=dashed photon_data="EDGE,SrcNode:434,SrcNodePort:result"];
	NodeNot434 -> NodeCat457[color="/dark28/4" style=dashed photon_data="EDGE,SrcNode:434,SrcNodePort:result"];
	NodeNot434 -> NodeCat457[color="/dark28/5" style=dashed photon_data="EDGE,SrcNode:434,SrcNodePort:result"];
	NodeNot434 -> NodeCat457[color="/dark28/6" style=dashed photon_data="EDGE,SrcNode:434,SrcNodePort:result"];
	NodeNot434 -> NodeCat457[color="/dark28/7" style=dashed photon_data="EDGE,SrcNode:434,SrcNodePort:result"];
	NodeNot434 -> NodeCat457[color="/dark28/8" style=dashed photon_data="EDGE,SrcNode:434,SrcNodePort:result"];
	NodeNot434 -> NodeCat457[color="/dark28/1" style=dashed photon_data="EDGE,SrcNode:434,SrcNodePort:result"];
	NodeNot434 -> NodeCat457[color="/dark28/2" style=dashed photon_data="EDGE,SrcNode:434,SrcNodePort:result"];
	NodeNot434 -> NodeCat457[color="/dark28/3" style=dashed photon_data="EDGE,SrcNode:434,SrcNodePort:result"];
	NodeCat457 -> NodeReinterpret160[color="/dark28/4" style=dashed photon_data="EDGE,SrcNode:457,SrcNodePort:result"];
	NodeConstantRawBits134 -> NodeXor161[color="/dark28/5" photon_data="EDGE,SrcNode:134,SrcNodePort:value"];
	NodeReinterpret160 -> NodeXor161[color="/dark28/6" style=dashed photon_data="EDGE,SrcNode:160,SrcNodePort:output"];
	NodeCast132 -> NodeMux162[headport="w" color="/dark28/7" photon_data="EDGE,SrcNode:132,SrcNodePort:exception"];
	NodeCast132 -> NodeMux162[color="/dark28/8" style=dashed photon_data="EDGE,SrcNode:132,SrcNodePort:o"];
	NodeXor161 -> NodeMux162[color="/dark28/1" style=dashed photon_data="EDGE,SrcNode:161,SrcNodePort:result"];
	NodeMux162 -> NodeDoubtBitOp171[color="/dark28/2" style=dashed photon_data="EDGE,SrcNode:162,SrcNodePort:result"];
	NodeDoubtBitOp171 -> NodeCast172[color="/dark28/3" photon_data="EDGE,SrcNode:171,SrcNodePort:output"];
	NodeCast172 -> NodeCast204[color="/dark28/4" photon_data="EDGE,SrcNode:172,SrcNodePort:o"];
	NodeCast204 -> NodeAdd206[color="/dark28/5" photon_data="EDGE,SrcNode:204,SrcNodePort:o"];
	NodeConstantDouble205 -> NodeAdd206[color="/dark28/6" photon_data="EDGE,SrcNode:205,SrcNodePort:value"];
	NodeAdd206 -> NodeSlice458[color="/dark28/7" photon_data="EDGE,SrcNode:206,SrcNodePort:result"];
	NodeSlice458 -> NodeNot459[color="/dark28/8" photon_data="EDGE,SrcNode:458,SrcNodePort:result"];
	NodeNot459 -> NodeCat469[color="/dark28/1" photon_data="EDGE,SrcNode:459,SrcNodePort:result"];
	NodeNot459 -> NodeCat469[color="/dark28/2" photon_data="EDGE,SrcNode:459,SrcNodePort:result"];
	NodeNot459 -> NodeCat469[color="/dark28/3" photon_data="EDGE,SrcNode:459,SrcNodePort:result"];
	NodeNot459 -> NodeCat469[color="/dark28/4" photon_data="EDGE,SrcNode:459,SrcNodePort:result"];
	NodeNot459 -> NodeCat469[color="/dark28/5" photon_data="EDGE,SrcNode:459,SrcNodePort:result"];
	NodeNot459 -> NodeCat469[color="/dark28/6" photon_data="EDGE,SrcNode:459,SrcNodePort:result"];
	NodeNot459 -> NodeCat469[color="/dark28/7" photon_data="EDGE,SrcNode:459,SrcNodePort:result"];
	NodeNot459 -> NodeCat469[color="/dark28/8" photon_data="EDGE,SrcNode:459,SrcNodePort:result"];
	NodeNot459 -> NodeCat469[color="/dark28/1" photon_data="EDGE,SrcNode:459,SrcNodePort:result"];
	NodeNot459 -> NodeCat469[color="/dark28/2" photon_data="EDGE,SrcNode:459,SrcNodePort:result"];
	NodeNot459 -> NodeCat469[color="/dark28/3" photon_data="EDGE,SrcNode:459,SrcNodePort:result"];
	NodeCat469 -> NodeReinterpret221[color="/dark28/4" photon_data="EDGE,SrcNode:469,SrcNodePort:result"];
	NodeConstantRawBits208 -> NodeXor222[color="/dark28/5" photon_data="EDGE,SrcNode:208,SrcNodePort:value"];
	NodeReinterpret221 -> NodeXor222[color="/dark28/6" photon_data="EDGE,SrcNode:221,SrcNodePort:output"];
	NodeAdd206 -> NodeMux223[headport="w" color="/dark28/7" photon_data="EDGE,SrcNode:206,SrcNodePort:exception"];
	NodeAdd206 -> NodeMux223[color="/dark28/8" photon_data="EDGE,SrcNode:206,SrcNodePort:result"];
	NodeXor222 -> NodeMux223[color="/dark28/1" photon_data="EDGE,SrcNode:222,SrcNodePort:result"];
	NodeDoubtBitOp171 -> NodeCast173[color="/dark28/2" photon_data="EDGE,SrcNode:171,SrcNodePort:output"];
	NodeCast173 -> NodeReinterpret294[color="/dark28/3" photon_data="EDGE,SrcNode:173,SrcNodePort:o"];
	NodeReinterpret294 -> NodeROM295[color="/dark28/4" photon_data="EDGE,SrcNode:294,SrcNodePort:output"];
	NodeDoubtBitOp171 -> NodeCast174[color="/dark28/5" photon_data="EDGE,SrcNode:171,SrcNodePort:output"];
	NodeConstantRawBits177 -> NodeMul176[color="/dark28/6" photon_data="EDGE,SrcNode:177,SrcNodePort:value"];
	NodeCast174 -> NodeMul176[color="/dark28/7" photon_data="EDGE,SrcNode:174,SrcNodePort:o"];
	NodeMul176 -> NodeCast178[color="/dark28/8" photon_data="EDGE,SrcNode:176,SrcNodePort:result"];
	NodeCast178 -> NodeMux181[headport="w" color="/dark28/1" photon_data="EDGE,SrcNode:178,SrcNodePort:exception"];
	NodeCast178 -> NodeMux181[color="/dark28/2" photon_data="EDGE,SrcNode:178,SrcNodePort:o"];
	NodeConstantRawBits180 -> NodeMux181[color="/dark28/3" photon_data="EDGE,SrcNode:180,SrcNodePort:value"];
	NodeROM295 -> NodeAdd182[color="/dark28/4" photon_data="EDGE,SrcNode:295,SrcNodePort:dout"];
	NodeMux181 -> NodeAdd182[color="/dark28/5" photon_data="EDGE,SrcNode:181,SrcNodePort:result"];
	NodeMux181 -> NodeMul183[color="/dark28/6" photon_data="EDGE,SrcNode:181,SrcNodePort:result"];
	NodeROM295 -> NodeMul183[color="/dark28/7" photon_data="EDGE,SrcNode:295,SrcNodePort:dout"];
	NodeAdd182 -> NodeAdd184[color="/dark28/8" photon_data="EDGE,SrcNode:182,SrcNodePort:result"];
	NodeMul183 -> NodeAdd184[color="/dark28/1" photon_data="EDGE,SrcNode:183,SrcNodePort:result"];
	NodeAdd184 -> NodeMux187[headport="w" color="/dark28/2" photon_data="EDGE,SrcNode:184,SrcNodePort:exception"];
	NodeAdd184 -> NodeMux187[color="/dark28/3" photon_data="EDGE,SrcNode:184,SrcNodePort:result"];
	NodeConstantRawBits186 -> NodeMux187[color="/dark28/4" photon_data="EDGE,SrcNode:186,SrcNodePort:value"];
	NodeMux187 -> NodeCast188[color="/dark28/5" photon_data="EDGE,SrcNode:187,SrcNodePort:result"];
	NodeCast188 -> NodeMux191[headport="w" color="/dark28/6" photon_data="EDGE,SrcNode:188,SrcNodePort:exception"];
	NodeCast188 -> NodeMux191[color="/dark28/7" photon_data="EDGE,SrcNode:188,SrcNodePort:o"];
	NodeConstantRawBits190 -> NodeMux191[color="/dark28/8" photon_data="EDGE,SrcNode:190,SrcNodePort:value"];
	NodeMux191 -> NodeCast192[color="/dark28/1" photon_data="EDGE,SrcNode:191,SrcNodePort:result"];
	NodeCast192 -> NodeMux195[headport="w" color="/dark28/2" photon_data="EDGE,SrcNode:192,SrcNodePort:exception"];
	NodeCast192 -> NodeMux195[color="/dark28/3" photon_data="EDGE,SrcNode:192,SrcNodePort:o"];
	NodeConstantRawBits194 -> NodeMux195[color="/dark28/4" photon_data="EDGE,SrcNode:194,SrcNodePort:value"];
	NodeMux195 -> NodeGteInlined470[color="/dark28/5" photon_data="EDGE,SrcNode:195,SrcNodePort:result"];
	NodeConstantDouble196 -> NodeGteInlined470[color="/dark28/6" photon_data="EDGE,SrcNode:196,SrcNodePort:value"];
	NodeMux223 -> NodeCondAdd500[color="/dark28/7" photon_data="EDGE,SrcNode:223,SrcNodePort:result"];
	NodeConstantRawBits224 -> NodeCondAdd500[color="/dark28/8" photon_data="EDGE,SrcNode:224,SrcNodePort:value"];
	NodeGteInlined470 -> NodeCondAdd500[color="/dark28/1" photon_data="EDGE,SrcNode:470,SrcNodePort:result"];
	NodeCondAdd500 -> NodeSlice471[color="/dark28/2" photon_data="EDGE,SrcNode:500,SrcNodePort:result"];
	NodeSlice471 -> NodeNot472[color="/dark28/3" photon_data="EDGE,SrcNode:471,SrcNodePort:result"];
	NodeNot472 -> NodeCat482[color="/dark28/4" photon_data="EDGE,SrcNode:472,SrcNodePort:result"];
	NodeNot472 -> NodeCat482[color="/dark28/5" photon_data="EDGE,SrcNode:472,SrcNodePort:result"];
	NodeNot472 -> NodeCat482[color="/dark28/6" photon_data="EDGE,SrcNode:472,SrcNodePort:result"];
	NodeNot472 -> NodeCat482[color="/dark28/7" photon_data="EDGE,SrcNode:472,SrcNodePort:result"];
	NodeNot472 -> NodeCat482[color="/dark28/8" photon_data="EDGE,SrcNode:472,SrcNodePort:result"];
	NodeNot472 -> NodeCat482[color="/dark28/1" photon_data="EDGE,SrcNode:472,SrcNodePort:result"];
	NodeNot472 -> NodeCat482[color="/dark28/2" photon_data="EDGE,SrcNode:472,SrcNodePort:result"];
	NodeNot472 -> NodeCat482[color="/dark28/3" photon_data="EDGE,SrcNode:472,SrcNodePort:result"];
	NodeNot472 -> NodeCat482[color="/dark28/4" photon_data="EDGE,SrcNode:472,SrcNodePort:result"];
	NodeNot472 -> NodeCat482[color="/dark28/5" photon_data="EDGE,SrcNode:472,SrcNodePort:result"];
	NodeNot472 -> NodeCat482[color="/dark28/6" photon_data="EDGE,SrcNode:472,SrcNodePort:result"];
	NodeCat482 -> NodeReinterpret242[color="/dark28/7" photon_data="EDGE,SrcNode:482,SrcNodePort:result"];
	NodeConstantRawBits229 -> NodeXor243[color="/dark28/8" photon_data="EDGE,SrcNode:229,SrcNodePort:value"];
	NodeReinterpret242 -> NodeXor243[color="/dark28/1" photon_data="EDGE,SrcNode:242,SrcNodePort:output"];
	NodeCondAdd500 -> NodeMux244[headport="w" color="/dark28/2" photon_data="EDGE,SrcNode:500,SrcNodePort:exception"];
	NodeCondAdd500 -> NodeMux244[color="/dark28/3" photon_data="EDGE,SrcNode:500,SrcNodePort:result"];
	NodeXor243 -> NodeMux244[color="/dark28/4" photon_data="EDGE,SrcNode:243,SrcNodePort:result"];
	NodeMux244 -> NodeSlice483[color="/dark28/5" photon_data="EDGE,SrcNode:244,SrcNodePort:result"];
	NodeSlice483 -> NodeReinterpret484[color="/dark28/6" photon_data="EDGE,SrcNode:483,SrcNodePort:result"];
	NodePO2FPMult501 -> NodeGt164[headport="n" tailport="s" color=red photon_data="EDGE,SrcNode:501,SrcNodePort:floatOut"];
	NodeConstantDouble163 -> NodeGt164[color="/dark28/7" photon_data="EDGE,SrcNode:163,SrcNodePort:value"];
	NodeMux162 -> NodeDoubtBitOp165[color="/dark28/8" style=dashed photon_data="EDGE,SrcNode:162,SrcNodePort:result"];
	NodeGt164 -> NodeAnd166[color="/dark28/1" photon_data="EDGE,SrcNode:164,SrcNodePort:result"];
	NodeDoubtBitOp165 -> NodeAnd166[color="/dark28/2" photon_data="EDGE,SrcNode:165,SrcNodePort:output"];
	NodeAnd166 -> NodeNot247[color="/dark28/3" photon_data="EDGE,SrcNode:166,SrcNodePort:result"];
	NodeReinterpret484 -> NodeAnd248[color="/dark28/4" photon_data="EDGE,SrcNode:484,SrcNodePort:output"];
	NodeNot247 -> NodeAnd248[color="/dark28/5" photon_data="EDGE,SrcNode:247,SrcNodePort:result"];
	NodePO2FPMult501 -> NodeLt168[headport="n" tailport="s" color=red photon_data="EDGE,SrcNode:501,SrcNodePort:floatOut"];
	NodeConstantDouble167 -> NodeLt168[color="/dark28/6" photon_data="EDGE,SrcNode:167,SrcNodePort:value"];
	NodeMux162 -> NodeDoubtBitOp169[color="/dark28/7" style=dashed photon_data="EDGE,SrcNode:162,SrcNodePort:result"];
	NodeLt168 -> NodeAnd170[color="/dark28/8" photon_data="EDGE,SrcNode:168,SrcNodePort:result"];
	NodeDoubtBitOp169 -> NodeAnd170[color="/dark28/1" photon_data="EDGE,SrcNode:169,SrcNodePort:output"];
	NodeAnd248 -> NodeOr249[color="/dark28/2" photon_data="EDGE,SrcNode:248,SrcNodePort:result"];
	NodeAnd170 -> NodeOr249[color="/dark28/3" photon_data="EDGE,SrcNode:170,SrcNodePort:result"];
	NodeMux244 -> NodeGteInlined485[color="/dark28/4" photon_data="EDGE,SrcNode:244,SrcNodePort:result"];
	NodeConstantDouble268 -> NodeGteInlined485[color="/dark28/5" photon_data="EDGE,SrcNode:268,SrcNodePort:value"];
	NodeAnd170 -> NodeNot270[color="/dark28/6" photon_data="EDGE,SrcNode:170,SrcNodePort:result"];
	NodeGteInlined485 -> NodeAnd271[color="/dark28/7" photon_data="EDGE,SrcNode:485,SrcNodePort:result"];
	NodeNot270 -> NodeAnd271[color="/dark28/8" photon_data="EDGE,SrcNode:270,SrcNodePort:result"];
	NodeAnd271 -> NodeOr272[color="/dark28/1" photon_data="EDGE,SrcNode:271,SrcNodePort:result"];
	NodeAnd166 -> NodeOr272[color="/dark28/2" photon_data="EDGE,SrcNode:166,SrcNodePort:result"];
	NodeOr249 -> NodeCat273[color="/dark28/3" photon_data="EDGE,SrcNode:249,SrcNodePort:result"];
	NodeOr272 -> NodeCat273[color="/dark28/4" photon_data="EDGE,SrcNode:272,SrcNodePort:result"];
	NodeMux244 -> NodeCast250[color="/dark28/5" photon_data="EDGE,SrcNode:244,SrcNodePort:result"];
	NodeCast250 -> NodeSlice486[color="/dark28/6" photon_data="EDGE,SrcNode:250,SrcNodePort:o"];
	NodeSlice486 -> NodeNot487[color="/dark28/7" photon_data="EDGE,SrcNode:486,SrcNodePort:result"];
	NodeNot487 -> NodeCat494[color="/dark28/8" photon_data="EDGE,SrcNode:487,SrcNodePort:result"];
	NodeNot487 -> NodeCat494[color="/dark28/1" photon_data="EDGE,SrcNode:487,SrcNodePort:result"];
	NodeNot487 -> NodeCat494[color="/dark28/2" photon_data="EDGE,SrcNode:487,SrcNodePort:result"];
	NodeNot487 -> NodeCat494[color="/dark28/3" photon_data="EDGE,SrcNode:487,SrcNodePort:result"];
	NodeNot487 -> NodeCat494[color="/dark28/4" photon_data="EDGE,SrcNode:487,SrcNodePort:result"];
	NodeNot487 -> NodeCat494[color="/dark28/5" photon_data="EDGE,SrcNode:487,SrcNodePort:result"];
	NodeNot487 -> NodeCat494[color="/dark28/6" photon_data="EDGE,SrcNode:487,SrcNodePort:result"];
	NodeNot487 -> NodeCat494[color="/dark28/7" photon_data="EDGE,SrcNode:487,SrcNodePort:result"];
	NodeCat494 -> NodeReinterpret262[color="/dark28/8" photon_data="EDGE,SrcNode:494,SrcNodePort:result"];
	NodeConstantRawBits252 -> NodeXor263[color="/dark28/1" photon_data="EDGE,SrcNode:252,SrcNodePort:value"];
	NodeReinterpret262 -> NodeXor263[color="/dark28/2" photon_data="EDGE,SrcNode:262,SrcNodePort:output"];
	NodeCast250 -> NodeMux264[headport="w" color="/dark28/3" photon_data="EDGE,SrcNode:250,SrcNodePort:exception"];
	NodeCast250 -> NodeMux264[color="/dark28/4" photon_data="EDGE,SrcNode:250,SrcNodePort:o"];
	NodeXor263 -> NodeMux264[color="/dark28/5" photon_data="EDGE,SrcNode:263,SrcNodePort:result"];
	NodeGteInlined470 -> NodeMux199[headport="w" color="/dark28/6" photon_data="EDGE,SrcNode:470,SrcNodePort:result"];
	NodeMux195 -> NodeMux199[color="/dark28/7" photon_data="EDGE,SrcNode:195,SrcNodePort:result"];
	NodeConstantRawBits198 -> NodeMux199[color="/dark28/8" photon_data="EDGE,SrcNode:198,SrcNodePort:value"];
	NodeMux199 -> NodeCast200[color="/dark28/1" photon_data="EDGE,SrcNode:199,SrcNodePort:result"];
	NodeCast200 -> NodeMux203[headport="w" color="/dark28/2" photon_data="EDGE,SrcNode:200,SrcNodePort:exception"];
	NodeCast200 -> NodeMux203[color="/dark28/3" photon_data="EDGE,SrcNode:200,SrcNodePort:o"];
	NodeConstantRawBits202 -> NodeMux203[color="/dark28/4" photon_data="EDGE,SrcNode:202,SrcNodePort:value"];
	NodeConstantRawBits265 -> NodeCat266[color="/dark28/5" photon_data="EDGE,SrcNode:265,SrcNodePort:value"];
	NodeMux264 -> NodeCat266[color="/dark28/6" photon_data="EDGE,SrcNode:264,SrcNodePort:result"];
	NodeMux203 -> NodeCat266[color="/dark28/7" photon_data="EDGE,SrcNode:203,SrcNodePort:result"];
	NodeCat266 -> NodeReinterpret267[color="/dark28/8" photon_data="EDGE,SrcNode:266,SrcNodePort:result"];
	NodeConstantRawBits274 -> NodeCat495[color="/dark28/1" photon_data="EDGE,SrcNode:274,SrcNodePort:value"];
	NodeConstantRawBits275 -> NodeCat495[color="/dark28/2" photon_data="EDGE,SrcNode:275,SrcNodePort:value"];
	NodeConstantRawBits277 -> NodeCat495[color="/dark28/3" photon_data="EDGE,SrcNode:277,SrcNodePort:value"];
	NodeCat495 -> NodeReinterpret279[color="/dark28/4" photon_data="EDGE,SrcNode:495,SrcNodePort:result"];
	NodeCat273 -> NodeMux282[headport="w" color="/dark28/5" photon_data="EDGE,SrcNode:273,SrcNodePort:result"];
	NodeReinterpret267 -> NodeMux282[color="/dark28/6" photon_data="EDGE,SrcNode:267,SrcNodePort:output"];
	NodeReinterpret279 -> NodeMux282[color="/dark28/7" photon_data="EDGE,SrcNode:279,SrcNodePort:output"];
	NodeConstantRawBits354 -> NodeMux282[color="/dark28/8" photon_data="EDGE,SrcNode:354,SrcNodePort:value"];
	NodeReinterpret279 -> NodeMux282[color="/dark28/1" photon_data="EDGE,SrcNode:279,SrcNodePort:output"];
	NodeAnd290 -> NodeMux292[headport="w" color="/dark28/2" photon_data="EDGE,SrcNode:290,SrcNodePort:result"];
	NodeMux282 -> NodeMux292[color="/dark28/3" photon_data="EDGE,SrcNode:282,SrcNodePort:result"];
	NodeConstantDouble291 -> NodeMux292[color="/dark28/4" photon_data="EDGE,SrcNode:291,SrcNodePort:value"];
	NodeMux292 -> NodeAdd297[color="/dark28/5" photon_data="EDGE,SrcNode:292,SrcNodePort:result"];
	NodeConstantDouble296 -> NodeAdd297[color="/dark28/6" photon_data="EDGE,SrcNode:296,SrcNodePort:value"];
	NodeConstantDouble298 -> NodeDiv299[color="/dark28/7" photon_data="EDGE,SrcNode:298,SrcNodePort:value"];
	NodeAdd297 -> NodeDiv299[color="/dark28/8" photon_data="EDGE,SrcNode:297,SrcNodePort:result"];
	NodeConstantDouble300 -> NodeSub301[color="/dark28/1" photon_data="EDGE,SrcNode:300,SrcNodePort:value"];
	NodeDiv299 -> NodeSub301[color="/dark28/2" photon_data="EDGE,SrcNode:299,SrcNodePort:result"];
	NodeConstantDouble303 -> NodeSub304[color="/dark28/3" photon_data="EDGE,SrcNode:303,SrcNodePort:value"];
	NodeSub301 -> NodeSub304[color="/dark28/4" photon_data="EDGE,SrcNode:301,SrcNodePort:result"];
	NodeSub304 -> NodeMul305[color="/dark28/5" photon_data="EDGE,SrcNode:304,SrcNodePort:result"];
	NodeMux23 -> NodeMul305[headport="n" tailport="s" color=red photon_data="EDGE,SrcNode:23,SrcNodePort:result"];
	NodeMul305 -> NodeMul306[color="/dark28/6" photon_data="EDGE,SrcNode:305,SrcNodePort:result"];
	NodeMux23 -> NodeMul306[headport="n" tailport="s" color=red photon_data="EDGE,SrcNode:23,SrcNodePort:result"];
	NodeMul306 -> NodePO2FPMult502[color="/dark28/7" photon_data="EDGE,SrcNode:306,SrcNodePort:result"];
	NodeSub310 -> NodeMul311[color="/dark28/8" photon_data="EDGE,SrcNode:310,SrcNodePort:result"];
	NodePO2FPMult502 -> NodeMul311[color="/dark28/1" photon_data="EDGE,SrcNode:502,SrcNodePort:floatOut"];
	NodeMul311 -> NodeSub496[color="/dark28/2" photon_data="EDGE,SrcNode:311,SrcNodePort:result"];
	NodeMux23 -> NodeSub496[headport="n" tailport="s" color=red photon_data="EDGE,SrcNode:23,SrcNodePort:result"];
	NodeSub496 -> NodeMul318[color="/dark28/3" photon_data="EDGE,SrcNode:496,SrcNodePort:result"];
	NodeConstantRawBits2 -> NodeMul318[color="/dark28/4" photon_data="EDGE,SrcNode:2,SrcNodePort:value"];
	NodeCast19 -> NodeMul320[color="/dark28/5" photon_data="EDGE,SrcNode:19,SrcNodePort:o"];
	NodeMul318 -> NodeMul320[color="/dark28/6" photon_data="EDGE,SrcNode:318,SrcNodePort:result"];
	NodeMux23 -> NodeAdd321[headport="n" tailport="s" color=red photon_data="EDGE,SrcNode:23,SrcNodePort:result"];
	NodeMul320 -> NodeAdd321[color="/dark28/7" photon_data="EDGE,SrcNode:320,SrcNodePort:result"];
	NodeAdd321 -> NodeStreamOffset524[color="/dark28/8" photon_data="EDGE,SrcNode:321,SrcNodePort:result"];
	NodeEqInlined355 -> NodeMux23[headport="w" color="/dark28/1" photon_data="EDGE,SrcNode:355,SrcNodePort:result"];
	NodeStreamOffset524 -> NodeMux23[color="/dark28/2" photon_data="EDGE,SrcNode:524,SrcNodePort:output"];
	NodeConstantRawBits22 -> NodeMux23[color="/dark28/3" photon_data="EDGE,SrcNode:22,SrcNodePort:value"];
	NodeMux23 -> NodeSub38[color="/dark28/4" photon_data="EDGE,SrcNode:23,SrcNodePort:result"];
	NodeConstantRawBits4 -> NodeSub38[color="/dark28/5" photon_data="EDGE,SrcNode:4,SrcNodePort:value"];
	NodeSub38 -> NodePO2FPMult501[color="/dark28/6" photon_data="EDGE,SrcNode:38,SrcNodePort:result"];
	NodePO2FPMult501 -> NodeDoubtBitOp42[color="/dark28/7" photon_data="EDGE,SrcNode:501,SrcNodePort:floatOut"];
	NodeConstantRawBits41 -> NodeDoubtBitOp42[color="/dark28/8" photon_data="EDGE,SrcNode:41,SrcNodePort:value"];
	NodeDoubtBitOp42 -> NodeCast43[color="/dark28/1" style=dashed photon_data="EDGE,SrcNode:42,SrcNodePort:output"];
	NodeCast43 -> NodeExceptionMask506[color="/dark28/2" photon_data="EDGE,SrcNode:43,SrcNodePort:exception"];
	NodeMul76 -> NodeExceptionMask507[color="/dark28/3" photon_data="EDGE,SrcNode:76,SrcNodePort:exception"];
	NodeCast132 -> NodeExceptionMask508[color="/dark28/4" photon_data="EDGE,SrcNode:132,SrcNodePort:exception"];
	NodeCast178 -> NodeExceptionMask510[color="/dark28/5" photon_data="EDGE,SrcNode:178,SrcNodePort:exception"];
	NodeAdd184 -> NodeExceptionMask511[color="/dark28/6" photon_data="EDGE,SrcNode:184,SrcNodePort:exception"];
	NodeCast188 -> NodeExceptionMask512[color="/dark28/7" photon_data="EDGE,SrcNode:188,SrcNodePort:exception"];
	NodeCast192 -> NodeExceptionMask513[color="/dark28/8" photon_data="EDGE,SrcNode:192,SrcNodePort:exception"];
	NodeCast200 -> NodeExceptionMask516[color="/dark28/1" photon_data="EDGE,SrcNode:200,SrcNodePort:exception"];
	NodeAdd206 -> NodeExceptionMask509[color="/dark28/2" photon_data="EDGE,SrcNode:206,SrcNodePort:exception"];
	NodeCast250 -> NodeExceptionMask515[color="/dark28/3" photon_data="EDGE,SrcNode:250,SrcNodePort:exception"];
	NodeAdd297 -> NodeExceptionMask517[color="/dark28/4" photon_data="EDGE,SrcNode:297,SrcNodePort:exception"];
	NodeDiv299 -> NodeExceptionMask518[color="/dark28/5" photon_data="EDGE,SrcNode:299,SrcNodePort:exception"];
	NodeSub301 -> NodeExceptionMask519[color="/dark28/6" photon_data="EDGE,SrcNode:301,SrcNodePort:exception"];
	NodeCondAdd500 -> NodeExceptionMask514[color="/dark28/7" photon_data="EDGE,SrcNode:500,SrcNodePort:exception"];
	NodePO2FPMult501 -> NodeExceptionMask505[color="/dark28/8" photon_data="EDGE,SrcNode:501,SrcNodePort:exception"];
	NodeExceptionMask506 -> NodeNumericExceptionsSim520[color="/dark28/1" photon_data="EDGE,SrcNode:506,SrcNodePort:exceptionOccurred"];
	NodeExceptionMask507 -> NodeNumericExceptionsSim520[color="/dark28/2" photon_data="EDGE,SrcNode:507,SrcNodePort:exceptionOccurred"];
	NodeExceptionMask508 -> NodeNumericExceptionsSim520[color="/dark28/3" photon_data="EDGE,SrcNode:508,SrcNodePort:exceptionOccurred"];
	NodeExceptionMask510 -> NodeNumericExceptionsSim520[color="/dark28/4" photon_data="EDGE,SrcNode:510,SrcNodePort:exceptionOccurred"];
	NodeExceptionMask511 -> NodeNumericExceptionsSim520[color="/dark28/5" photon_data="EDGE,SrcNode:511,SrcNodePort:exceptionOccurred"];
	NodeExceptionMask512 -> NodeNumericExceptionsSim520[color="/dark28/6" photon_data="EDGE,SrcNode:512,SrcNodePort:exceptionOccurred"];
	NodeExceptionMask513 -> NodeNumericExceptionsSim520[color="/dark28/7" photon_data="EDGE,SrcNode:513,SrcNodePort:exceptionOccurred"];
	NodeExceptionMask516 -> NodeNumericExceptionsSim520[color="/dark28/8" photon_data="EDGE,SrcNode:516,SrcNodePort:exceptionOccurred"];
	NodeExceptionMask509 -> NodeNumericExceptionsSim520[color="/dark28/1" photon_data="EDGE,SrcNode:509,SrcNodePort:exceptionOccurred"];
	NodeExceptionMask515 -> NodeNumericExceptionsSim520[color="/dark28/2" photon_data="EDGE,SrcNode:515,SrcNodePort:exceptionOccurred"];
	NodeExceptionMask517 -> NodeNumericExceptionsSim520[color="/dark28/3" photon_data="EDGE,SrcNode:517,SrcNodePort:exceptionOccurred"];
	NodeExceptionMask518 -> NodeNumericExceptionsSim520[color="/dark28/4" photon_data="EDGE,SrcNode:518,SrcNodePort:exceptionOccurred"];
	NodeExceptionMask519 -> NodeNumericExceptionsSim520[color="/dark28/5" photon_data="EDGE,SrcNode:519,SrcNodePort:exceptionOccurred"];
	NodeExceptionMask514 -> NodeNumericExceptionsSim520[color="/dark28/6" photon_data="EDGE,SrcNode:514,SrcNodePort:exceptionOccurred"];
	NodeExceptionMask505 -> NodeNumericExceptionsSim520[color="/dark28/7" photon_data="EDGE,SrcNode:505,SrcNodePort:exceptionOccurred"];
	NodeConstantRawBits522 -> NodeOutputMappedReg521[color="/dark28/8" photon_data="EDGE,SrcNode:522,SrcNodePort:value"];
	NodeNumericExceptionsSim520 -> NodeOutputMappedReg521[color="/dark28/1" photon_data="EDGE,SrcNode:520,SrcNodePort:all_exceptions"];
	NodeEvalStreamOffset13 -> NodeSub329[color="/dark28/2" photon_data="EDGE,SrcNode:13,SrcNodePort:output"];
	NodeConstantDouble328 -> NodeSub329[color="/dark28/3" photon_data="EDGE,SrcNode:328,SrcNodePort:value"];
	NodeCounter17 -> NodeEqInlined497[color="/dark28/4" photon_data="EDGE,SrcNode:17,SrcNodePort:count"];
	NodeSub329 -> NodeEqInlined497[color="/dark28/5" photon_data="EDGE,SrcNode:329,SrcNodePort:result"];
	NodeEqInlined497 -> NodeOutput334[headport="w" color="/dark28/6" ];
	NodeAdd321 -> NodeCast326[color="/dark28/7" photon_data="EDGE,SrcNode:321,SrcNodePort:result"];
	NodeCast326 -> NodeOutput334[color="/dark28/8" photon_data="EDGE,SrcNode:326,SrcNodePort:o"];
	NodeEvalStreamOffset13 -> NodeSub336[color="/dark28/1" photon_data="EDGE,SrcNode:13,SrcNodePort:output"];
	NodeConstantDouble335 -> NodeSub336[color="/dark28/2" photon_data="EDGE,SrcNode:335,SrcNodePort:value"];
	NodeCounter17 -> NodeEqInlined498[color="/dark28/3" photon_data="EDGE,SrcNode:17,SrcNodePort:count"];
	NodeSub336 -> NodeEqInlined498[color="/dark28/4" photon_data="EDGE,SrcNode:336,SrcNodePort:result"];
	NodeEqInlined498 -> NodeOutput341[headport="w" color="/dark28/5" ];
	NodeAdd323 -> NodeCast327[color="/dark28/6" photon_data="EDGE,SrcNode:323,SrcNodePort:result"];
	NodeCast327 -> NodeOutput341[color="/dark28/7" photon_data="EDGE,SrcNode:327,SrcNodePort:o"];
}
