digraph fifoReportGraph {
	NodeMinimalModelKernel155MinimalModelManager18MinimalModelManager42 [shape=invhouse, label="minimal.model.cell.MinimalModelKernel.<init>(MinimalModelKernel.maxj:155)\n"];
	NodeMinimalModelKernel212MinimalModelManager18MinimalModelManager42 [shape=house, label="minimal.model.cell.MinimalModelKernel.<init>(MinimalModelKernel.maxj:212)\n"];
	NodeMinimalModelKernel157MinimalModelManager18MinimalModelManager42 [shape=invhouse, label="minimal.model.cell.MinimalModelKernel.<init>(MinimalModelKernel.maxj:157)\n"];
	NodeMinimalModelKernel176MinimalModelManager18MinimalModelManager42 [shape=house, label="minimal.model.cell.MinimalModelKernel.<init>(MinimalModelKernel.maxj:176)\n"];
	NodeMinimalModelKernel231MinimalModelManager18MinimalModelManager42 [shape=invhouse, label="minimal.model.cell.MinimalModelKernel.<init>(MinimalModelKernel.maxj:231)\n"];
	NodeMinimalModelKernel202MinimalModelManager18MinimalModelManager42 [shape=hexagon, orientation=90, label="minimal.model.cell.MinimalModelKernel.<init>(MinimalModelKernel.maxj:202)\n"];
	NodeMinimalModelKernel493MinimalModelKernel166MinimalModelManager18MinimalModelManager42 [shape=hexagon, orientation=90, label="minimal.model.cell.MinimalModelKernel.tanh(MinimalModelKernel.maxj:493)\nminimal.model.cell.MinimalModelKernel.<init>(MinimalModelKernel.maxj:166)\n"];
	NodeMinimalModelKernel168MinimalModelManager18MinimalModelManager42 [shape=house, label="minimal.model.cell.MinimalModelKernel.<init>(MinimalModelKernel.maxj:168)\n"];
	NodeMinimalModelKernel206MinimalModelManager18MinimalModelManager42 [shape=house, label="minimal.model.cell.MinimalModelKernel.<init>(MinimalModelKernel.maxj:206)\n"];
	NodeMinimalModelKernel221MinimalModelManager18MinimalModelManager42 [shape=house, label="minimal.model.cell.MinimalModelKernel.<init>(MinimalModelKernel.maxj:221)\n"];
	NodeMinimalModelKernel213MinimalModelManager18MinimalModelManager42 [shape=house, label="minimal.model.cell.MinimalModelKernel.<init>(MinimalModelKernel.maxj:213)\n"];
	NodeMinimalModelKernel493MinimalModelKernel177MinimalModelManager18MinimalModelManager42 [shape=hexagon, orientation=90, label="minimal.model.cell.MinimalModelKernel.tanh(MinimalModelKernel.maxj:493)\nminimal.model.cell.MinimalModelKernel.<init>(MinimalModelKernel.maxj:177)\n"];
	NodeMinimalModelKernel156MinimalModelManager18MinimalModelManager42 [shape=hexagon, orientation=90, label="minimal.model.cell.MinimalModelKernel.<init>(MinimalModelKernel.maxj:156)\n"];
	NodeMinimalModelKernel158MinimalModelManager18MinimalModelManager42 [shape=hexagon, orientation=90, label="minimal.model.cell.MinimalModelKernel.<init>(MinimalModelKernel.maxj:158)\n"];
	NodeMinimalModelKernel177MinimalModelManager18MinimalModelManager42 [shape=house, label="minimal.model.cell.MinimalModelKernel.<init>(MinimalModelKernel.maxj:177)\n"];
	NodeMinimalModelKernel232MinimalModelManager18MinimalModelManager42 [shape=house, label="minimal.model.cell.MinimalModelKernel.<init>(MinimalModelKernel.maxj:232)\n"];
	NodeMinimalModelKernel234MinimalModelManager18MinimalModelManager42 [shape=house, label="minimal.model.cell.MinimalModelKernel.<init>(MinimalModelKernel.maxj:234)\n"];
	NodeMinimalModelKernel215MinimalModelManager18MinimalModelManager42 [shape=house, label="minimal.model.cell.MinimalModelKernel.<init>(MinimalModelKernel.maxj:215)\n"];
	NodeMinimalModelKernel201MinimalModelManager18MinimalModelManager42 [shape=house, label="minimal.model.cell.MinimalModelKernel.<init>(MinimalModelKernel.maxj:201)\n"];
	NodeMinimalModelKernel203MinimalModelManager18MinimalModelManager42 [shape=hexagon, orientation=90, label="minimal.model.cell.MinimalModelKernel.<init>(MinimalModelKernel.maxj:203)\n"];
	NodeMinimalModelKernel493MinimalModelKernel167MinimalModelManager18MinimalModelManager42 [shape=hexagon, orientation=90, label="minimal.model.cell.MinimalModelKernel.tanh(MinimalModelKernel.maxj:493)\nminimal.model.cell.MinimalModelKernel.<init>(MinimalModelKernel.maxj:167)\n"];
	NodeMinimalModelKernel167MinimalModelManager18MinimalModelManager42 [shape=house, label="minimal.model.cell.MinimalModelKernel.<init>(MinimalModelKernel.maxj:167)\n"];
	NodeMinimalModelKernel169MinimalModelManager18MinimalModelManager42 [shape=house, label="minimal.model.cell.MinimalModelKernel.<init>(MinimalModelKernel.maxj:169)\n"];
	NodeMinimalModelKernel172MinimalModelManager18MinimalModelManager42 [shape=house, label="minimal.model.cell.MinimalModelKernel.<init>(MinimalModelKernel.maxj:172)\n"];
	NodeMinimalModelKernel220MinimalModelManager18MinimalModelManager42 [shape=invhouse, label="minimal.model.cell.MinimalModelKernel.<init>(MinimalModelKernel.maxj:220)\n"];
	NodeMinimalModelKernel222MinimalModelManager18MinimalModelManager42 [shape=hexagon, orientation=90, label="minimal.model.cell.MinimalModelKernel.<init>(MinimalModelKernel.maxj:222)\n"];
	NodeMinimalModelKernel493MinimalModelKernel167MinimalModelManager18MinimalModelManager42NodeMinimalModelKernel493MinimalModelKernel167MinimalModelManager18MinimalModelManager42FIFO [shape=box, label="TotalCosts: 2 \n    Costs: 1 Count: 2 Depth: 6 Width: 1 ID: 556    \n    Costs: 1 Count: 1 Depth: 8 Width: 1 ID: 560    \n"];
	NodeMinimalModelKernel202MinimalModelManager18MinimalModelManager42NodeMinimalModelKernel221MinimalModelManager18MinimalModelManager42FIFO [shape=box, label="TotalCosts: 4 \n    Costs: 2 Count: 1 Depth: 110 Width: 64 ID: 609    \n    Costs: 2 Count: 1 Depth: 17 Width: 64 ID: 579    \n"];
	NodeMinimalModelKernel158MinimalModelManager18MinimalModelManager42NodeMinimalModelKernel203MinimalModelManager18MinimalModelManager42FIFO [shape=box, label="TotalCosts: 4 \n    Costs: 2 Count: 1 Depth: 12 Width: 64 ID: 610    \n    Costs: 2 Count: 1 Depth: 10 Width: 64 ID: 592    \n"];
	NodeMinimalModelKernel155MinimalModelManager18MinimalModelManager42NodeMinimalModelKernel176MinimalModelManager18MinimalModelManager42FIFO [shape=box, label="TotalCosts: 2 \n    Costs: 2 Count: 1 Depth: 9 Width: 64 ID: 563    \n"];
	NodeMinimalModelKernel203MinimalModelManager18MinimalModelManager42NodeMinimalModelKernel213MinimalModelManager18MinimalModelManager42FIFO [shape=box, label="TotalCosts: 2 \n    Costs: 2 Count: 1 Depth: 16 Width: 64 ID: 580    \n"];
	NodeMinimalModelKernel155MinimalModelManager18MinimalModelManager42NodeMinimalModelKernel172MinimalModelManager18MinimalModelManager42FIFO [shape=box, label="TotalCosts: 4 \n    Costs: 4 Count: 2 Depth: 9 Width: 64 ID: 563    \n"];
	NodeMinimalModelKernel155MinimalModelManager18MinimalModelManager42NodeMinimalModelKernel168MinimalModelManager18MinimalModelManager42FIFO [shape=box, label="TotalCosts: 2 \n    Costs: 2 Count: 1 Depth: 9 Width: 64 ID: 563    \n"];
	NodeMinimalModelKernel158MinimalModelManager18MinimalModelManager42NodeMinimalModelKernel177MinimalModelManager18MinimalModelManager42FIFO [shape=box, label="TotalCosts: 2 \n    Costs: 2 Count: 1 Depth: 10 Width: 64 ID: 592    \n"];
	NodeMinimalModelKernel155MinimalModelManager18MinimalModelManager42NodeMinimalModelKernel206MinimalModelManager18MinimalModelManager42FIFO [shape=box, label="TotalCosts: 6 \n    Costs: 2 Count: 1 Depth: 55 Width: 64 ID: 605    \n    Costs: 2 Count: 1 Depth: 12 Width: 64 ID: 602    \n    Costs: 2 Count: 1 Depth: 9 Width: 64 ID: 604    \n"];
	NodeMinimalModelKernel493MinimalModelKernel166MinimalModelManager18MinimalModelManager42NodeMinimalModelKernel493MinimalModelKernel166MinimalModelManager18MinimalModelManager42FIFO [shape=box, label="TotalCosts: 2 \n    Costs: 1 Count: 2 Depth: 6 Width: 1 ID: 572    \n    Costs: 1 Count: 1 Depth: 8 Width: 1 ID: 576    \n"];
	NodeMinimalModelKernel155MinimalModelManager18MinimalModelManager42NodeMinimalModelKernel215MinimalModelManager18MinimalModelManager42FIFO [shape=box, label="TotalCosts: 4 \n    Costs: 2 Count: 1 Depth: 29 Width: 64 ID: 607    \n    Costs: 2 Count: 1 Depth: 14 Width: 64 ID: 606    \n"];
	NodeMinimalModelKernel222MinimalModelManager18MinimalModelManager42NodeMinimalModelKernel158MinimalModelManager18MinimalModelManager42FIFO [shape=box, label="TotalCosts: 2 \n    Costs: 2 Count: 1 Depth: 110 Width: 64 ID: 581    \n"];
	NodeMinimalModelKernel156MinimalModelManager18MinimalModelManager42NodeMinimalModelKernel201MinimalModelManager18MinimalModelManager42FIFO [shape=box, label="TotalCosts: 2 \n    Costs: 2 Count: 1 Depth: 12 Width: 64 ID: 544    \n"];
	NodeMinimalModelKernel155MinimalModelManager18MinimalModelManager42NodeMinimalModelKernel213MinimalModelManager18MinimalModelManager42FIFO [shape=box, label="TotalCosts: 4 \n    Costs: 2 Count: 1 Depth: 55 Width: 64 ID: 605    \n    Costs: 2 Count: 1 Depth: 14 Width: 64 ID: 606    \n"];
	NodeMinimalModelKernel222MinimalModelManager18MinimalModelManager42NodeMinimalModelKernel234MinimalModelManager18MinimalModelManager42FIFO [shape=box, label="TotalCosts: 2 \n    Costs: 2 Count: 1 Depth: 110 Width: 64 ID: 581    \n"];
	NodeMinimalModelKernel157MinimalModelManager18MinimalModelManager42NodeMinimalModelKernel176MinimalModelManager18MinimalModelManager42FIFO [shape=box, label="TotalCosts: 4 \n    Costs: 4 Count: 2 Depth: 9 Width: 64 ID: 566    \n"];
	NodeMinimalModelKernel493MinimalModelKernel177MinimalModelManager18MinimalModelManager42NodeMinimalModelKernel493MinimalModelKernel177MinimalModelManager18MinimalModelManager42FIFO [shape=box, label="TotalCosts: 2 \n    Costs: 1 Count: 2 Depth: 6 Width: 1 ID: 587    \n    Costs: 1 Count: 1 Depth: 8 Width: 1 ID: 591    \n"];
	NodeMinimalModelKernel155MinimalModelManager18MinimalModelManager42NodeMinimalModelKernel167MinimalModelManager18MinimalModelManager42FIFO [shape=box, label="TotalCosts: 4 \n    Costs: 2 Count: 1 Depth: 17 Width: 64 ID: 603    \n    Costs: 2 Count: 1 Depth: 12 Width: 64 ID: 602    \n"];
	NodeMinimalModelKernel155MinimalModelManager18MinimalModelManager42NodeMinimalModelKernel169MinimalModelManager18MinimalModelManager42FIFO [shape=box, label="TotalCosts: 4 \n    Costs: 2 Count: 1 Depth: 17 Width: 64 ID: 603    \n    Costs: 2 Count: 1 Depth: 9 Width: 64 ID: 604    \n"];
	NodeMinimalModelKernel157MinimalModelManager18MinimalModelManager42NodeMinimalModelKernel202MinimalModelManager18MinimalModelManager42FIFO [shape=box, label="TotalCosts: 4 \n    Costs: 2 Count: 1 Depth: 12 Width: 64 ID: 608    \n    Costs: 2 Count: 1 Depth: 9 Width: 64 ID: 566    \n"];
	NodeMinimalModelKernel203MinimalModelManager18MinimalModelManager42NodeMinimalModelKernel222MinimalModelManager18MinimalModelManager42FIFO [shape=box, label="TotalCosts: 2 \n    Costs: 2 Count: 1 Depth: 16 Width: 64 ID: 580    \n"];
	NodeMinimalModelKernel202MinimalModelManager18MinimalModelManager42NodeMinimalModelKernel213MinimalModelManager18MinimalModelManager42FIFO [shape=box, label="TotalCosts: 2 \n    Costs: 2 Count: 1 Depth: 17 Width: 64 ID: 579    \n"];
	NodeMinimalModelKernel220MinimalModelManager18MinimalModelManager42NodeMinimalModelKernel156MinimalModelManager18MinimalModelManager42FIFO [shape=box, label="TotalCosts: 2 \n    Costs: 2 Count: 1 Depth: 136 Width: 64 ID: 543    \n"];
	NodeMinimalModelKernel155MinimalModelManager18MinimalModelManager42NodeMinimalModelKernel212MinimalModelManager18MinimalModelManager42FIFO [shape=box, label="TotalCosts: 4 \n    Costs: 2 Count: 1 Depth: 55 Width: 64 ID: 605    \n    Costs: 2 Count: 1 Depth: 9 Width: 64 ID: 604    \n"];
	NodeMinimalModelKernel220MinimalModelManager18MinimalModelManager42NodeMinimalModelKernel232MinimalModelManager18MinimalModelManager42FIFO [shape=box, label="TotalCosts: 2 \n    Costs: 2 Count: 1 Depth: 136 Width: 64 ID: 543    \n"];
	NodeMinimalModelKernel493MinimalModelKernel167MinimalModelManager18MinimalModelManager42 -> NodeMinimalModelKernel493MinimalModelKernel167MinimalModelManager18MinimalModelManager42NodeMinimalModelKernel493MinimalModelKernel167MinimalModelManager18MinimalModelManager42FIFO[color="/dark28/1"]
	NodeMinimalModelKernel493MinimalModelKernel167MinimalModelManager18MinimalModelManager42NodeMinimalModelKernel493MinimalModelKernel167MinimalModelManager18MinimalModelManager42FIFO -> NodeMinimalModelKernel493MinimalModelKernel167MinimalModelManager18MinimalModelManager42[color="/dark28/2"]
	NodeMinimalModelKernel202MinimalModelManager18MinimalModelManager42 -> NodeMinimalModelKernel202MinimalModelManager18MinimalModelManager42NodeMinimalModelKernel221MinimalModelManager18MinimalModelManager42FIFO[color="/dark28/3"]
	NodeMinimalModelKernel202MinimalModelManager18MinimalModelManager42NodeMinimalModelKernel221MinimalModelManager18MinimalModelManager42FIFO -> NodeMinimalModelKernel221MinimalModelManager18MinimalModelManager42[color="/dark28/4"]
	NodeMinimalModelKernel158MinimalModelManager18MinimalModelManager42 -> NodeMinimalModelKernel158MinimalModelManager18MinimalModelManager42NodeMinimalModelKernel203MinimalModelManager18MinimalModelManager42FIFO[color="/dark28/5"]
	NodeMinimalModelKernel158MinimalModelManager18MinimalModelManager42NodeMinimalModelKernel203MinimalModelManager18MinimalModelManager42FIFO -> NodeMinimalModelKernel203MinimalModelManager18MinimalModelManager42[color="/dark28/6"]
	NodeMinimalModelKernel155MinimalModelManager18MinimalModelManager42 -> NodeMinimalModelKernel155MinimalModelManager18MinimalModelManager42NodeMinimalModelKernel176MinimalModelManager18MinimalModelManager42FIFO[color="/dark28/7"]
	NodeMinimalModelKernel155MinimalModelManager18MinimalModelManager42NodeMinimalModelKernel176MinimalModelManager18MinimalModelManager42FIFO -> NodeMinimalModelKernel176MinimalModelManager18MinimalModelManager42[color="/dark28/8"]
	NodeMinimalModelKernel203MinimalModelManager18MinimalModelManager42 -> NodeMinimalModelKernel203MinimalModelManager18MinimalModelManager42NodeMinimalModelKernel213MinimalModelManager18MinimalModelManager42FIFO[color="/dark28/1"]
	NodeMinimalModelKernel203MinimalModelManager18MinimalModelManager42NodeMinimalModelKernel213MinimalModelManager18MinimalModelManager42FIFO -> NodeMinimalModelKernel213MinimalModelManager18MinimalModelManager42[color="/dark28/2"]
	NodeMinimalModelKernel155MinimalModelManager18MinimalModelManager42 -> NodeMinimalModelKernel155MinimalModelManager18MinimalModelManager42NodeMinimalModelKernel172MinimalModelManager18MinimalModelManager42FIFO[color="/dark28/3"]
	NodeMinimalModelKernel155MinimalModelManager18MinimalModelManager42NodeMinimalModelKernel172MinimalModelManager18MinimalModelManager42FIFO -> NodeMinimalModelKernel172MinimalModelManager18MinimalModelManager42[color="/dark28/4"]
	NodeMinimalModelKernel155MinimalModelManager18MinimalModelManager42 -> NodeMinimalModelKernel155MinimalModelManager18MinimalModelManager42NodeMinimalModelKernel168MinimalModelManager18MinimalModelManager42FIFO[color="/dark28/5"]
	NodeMinimalModelKernel155MinimalModelManager18MinimalModelManager42NodeMinimalModelKernel168MinimalModelManager18MinimalModelManager42FIFO -> NodeMinimalModelKernel168MinimalModelManager18MinimalModelManager42[color="/dark28/6"]
	NodeMinimalModelKernel158MinimalModelManager18MinimalModelManager42 -> NodeMinimalModelKernel158MinimalModelManager18MinimalModelManager42NodeMinimalModelKernel177MinimalModelManager18MinimalModelManager42FIFO[color="/dark28/7"]
	NodeMinimalModelKernel158MinimalModelManager18MinimalModelManager42NodeMinimalModelKernel177MinimalModelManager18MinimalModelManager42FIFO -> NodeMinimalModelKernel177MinimalModelManager18MinimalModelManager42[color="/dark28/8"]
	NodeMinimalModelKernel155MinimalModelManager18MinimalModelManager42 -> NodeMinimalModelKernel155MinimalModelManager18MinimalModelManager42NodeMinimalModelKernel206MinimalModelManager18MinimalModelManager42FIFO[color="/dark28/1"]
	NodeMinimalModelKernel155MinimalModelManager18MinimalModelManager42NodeMinimalModelKernel206MinimalModelManager18MinimalModelManager42FIFO -> NodeMinimalModelKernel206MinimalModelManager18MinimalModelManager42[color="/dark28/2"]
	NodeMinimalModelKernel493MinimalModelKernel166MinimalModelManager18MinimalModelManager42 -> NodeMinimalModelKernel493MinimalModelKernel166MinimalModelManager18MinimalModelManager42NodeMinimalModelKernel493MinimalModelKernel166MinimalModelManager18MinimalModelManager42FIFO[color="/dark28/3"]
	NodeMinimalModelKernel493MinimalModelKernel166MinimalModelManager18MinimalModelManager42NodeMinimalModelKernel493MinimalModelKernel166MinimalModelManager18MinimalModelManager42FIFO -> NodeMinimalModelKernel493MinimalModelKernel166MinimalModelManager18MinimalModelManager42[color="/dark28/4"]
	NodeMinimalModelKernel155MinimalModelManager18MinimalModelManager42 -> NodeMinimalModelKernel155MinimalModelManager18MinimalModelManager42NodeMinimalModelKernel215MinimalModelManager18MinimalModelManager42FIFO[color="/dark28/5"]
	NodeMinimalModelKernel155MinimalModelManager18MinimalModelManager42NodeMinimalModelKernel215MinimalModelManager18MinimalModelManager42FIFO -> NodeMinimalModelKernel215MinimalModelManager18MinimalModelManager42[color="/dark28/6"]
	NodeMinimalModelKernel222MinimalModelManager18MinimalModelManager42 -> NodeMinimalModelKernel222MinimalModelManager18MinimalModelManager42NodeMinimalModelKernel158MinimalModelManager18MinimalModelManager42FIFO[color="/dark28/7"]
	NodeMinimalModelKernel222MinimalModelManager18MinimalModelManager42NodeMinimalModelKernel158MinimalModelManager18MinimalModelManager42FIFO -> NodeMinimalModelKernel158MinimalModelManager18MinimalModelManager42[color="/dark28/8"]
	NodeMinimalModelKernel156MinimalModelManager18MinimalModelManager42 -> NodeMinimalModelKernel156MinimalModelManager18MinimalModelManager42NodeMinimalModelKernel201MinimalModelManager18MinimalModelManager42FIFO[color="/dark28/1"]
	NodeMinimalModelKernel156MinimalModelManager18MinimalModelManager42NodeMinimalModelKernel201MinimalModelManager18MinimalModelManager42FIFO -> NodeMinimalModelKernel201MinimalModelManager18MinimalModelManager42[color="/dark28/2"]
	NodeMinimalModelKernel155MinimalModelManager18MinimalModelManager42 -> NodeMinimalModelKernel155MinimalModelManager18MinimalModelManager42NodeMinimalModelKernel213MinimalModelManager18MinimalModelManager42FIFO[color="/dark28/3"]
	NodeMinimalModelKernel155MinimalModelManager18MinimalModelManager42NodeMinimalModelKernel213MinimalModelManager18MinimalModelManager42FIFO -> NodeMinimalModelKernel213MinimalModelManager18MinimalModelManager42[color="/dark28/4"]
	NodeMinimalModelKernel222MinimalModelManager18MinimalModelManager42 -> NodeMinimalModelKernel222MinimalModelManager18MinimalModelManager42NodeMinimalModelKernel234MinimalModelManager18MinimalModelManager42FIFO[color="/dark28/5"]
	NodeMinimalModelKernel222MinimalModelManager18MinimalModelManager42NodeMinimalModelKernel234MinimalModelManager18MinimalModelManager42FIFO -> NodeMinimalModelKernel234MinimalModelManager18MinimalModelManager42[color="/dark28/6"]
	NodeMinimalModelKernel157MinimalModelManager18MinimalModelManager42 -> NodeMinimalModelKernel157MinimalModelManager18MinimalModelManager42NodeMinimalModelKernel176MinimalModelManager18MinimalModelManager42FIFO[color="/dark28/7"]
	NodeMinimalModelKernel157MinimalModelManager18MinimalModelManager42NodeMinimalModelKernel176MinimalModelManager18MinimalModelManager42FIFO -> NodeMinimalModelKernel176MinimalModelManager18MinimalModelManager42[color="/dark28/8"]
	NodeMinimalModelKernel493MinimalModelKernel177MinimalModelManager18MinimalModelManager42 -> NodeMinimalModelKernel493MinimalModelKernel177MinimalModelManager18MinimalModelManager42NodeMinimalModelKernel493MinimalModelKernel177MinimalModelManager18MinimalModelManager42FIFO[color="/dark28/1"]
	NodeMinimalModelKernel493MinimalModelKernel177MinimalModelManager18MinimalModelManager42NodeMinimalModelKernel493MinimalModelKernel177MinimalModelManager18MinimalModelManager42FIFO -> NodeMinimalModelKernel493MinimalModelKernel177MinimalModelManager18MinimalModelManager42[color="/dark28/2"]
	NodeMinimalModelKernel155MinimalModelManager18MinimalModelManager42 -> NodeMinimalModelKernel155MinimalModelManager18MinimalModelManager42NodeMinimalModelKernel167MinimalModelManager18MinimalModelManager42FIFO[color="/dark28/3"]
	NodeMinimalModelKernel155MinimalModelManager18MinimalModelManager42NodeMinimalModelKernel167MinimalModelManager18MinimalModelManager42FIFO -> NodeMinimalModelKernel167MinimalModelManager18MinimalModelManager42[color="/dark28/4"]
	NodeMinimalModelKernel155MinimalModelManager18MinimalModelManager42 -> NodeMinimalModelKernel155MinimalModelManager18MinimalModelManager42NodeMinimalModelKernel169MinimalModelManager18MinimalModelManager42FIFO[color="/dark28/5"]
	NodeMinimalModelKernel155MinimalModelManager18MinimalModelManager42NodeMinimalModelKernel169MinimalModelManager18MinimalModelManager42FIFO -> NodeMinimalModelKernel169MinimalModelManager18MinimalModelManager42[color="/dark28/6"]
	NodeMinimalModelKernel157MinimalModelManager18MinimalModelManager42 -> NodeMinimalModelKernel157MinimalModelManager18MinimalModelManager42NodeMinimalModelKernel202MinimalModelManager18MinimalModelManager42FIFO[color="/dark28/7"]
	NodeMinimalModelKernel157MinimalModelManager18MinimalModelManager42NodeMinimalModelKernel202MinimalModelManager18MinimalModelManager42FIFO -> NodeMinimalModelKernel202MinimalModelManager18MinimalModelManager42[color="/dark28/8"]
	NodeMinimalModelKernel203MinimalModelManager18MinimalModelManager42 -> NodeMinimalModelKernel203MinimalModelManager18MinimalModelManager42NodeMinimalModelKernel222MinimalModelManager18MinimalModelManager42FIFO[color="/dark28/1"]
	NodeMinimalModelKernel203MinimalModelManager18MinimalModelManager42NodeMinimalModelKernel222MinimalModelManager18MinimalModelManager42FIFO -> NodeMinimalModelKernel222MinimalModelManager18MinimalModelManager42[color="/dark28/2"]
	NodeMinimalModelKernel202MinimalModelManager18MinimalModelManager42 -> NodeMinimalModelKernel202MinimalModelManager18MinimalModelManager42NodeMinimalModelKernel213MinimalModelManager18MinimalModelManager42FIFO[color="/dark28/3"]
	NodeMinimalModelKernel202MinimalModelManager18MinimalModelManager42NodeMinimalModelKernel213MinimalModelManager18MinimalModelManager42FIFO -> NodeMinimalModelKernel213MinimalModelManager18MinimalModelManager42[color="/dark28/4"]
	NodeMinimalModelKernel220MinimalModelManager18MinimalModelManager42 -> NodeMinimalModelKernel220MinimalModelManager18MinimalModelManager42NodeMinimalModelKernel156MinimalModelManager18MinimalModelManager42FIFO[color="/dark28/5"]
	NodeMinimalModelKernel220MinimalModelManager18MinimalModelManager42NodeMinimalModelKernel156MinimalModelManager18MinimalModelManager42FIFO -> NodeMinimalModelKernel156MinimalModelManager18MinimalModelManager42[color="/dark28/6"]
	NodeMinimalModelKernel155MinimalModelManager18MinimalModelManager42 -> NodeMinimalModelKernel155MinimalModelManager18MinimalModelManager42NodeMinimalModelKernel212MinimalModelManager18MinimalModelManager42FIFO[color="/dark28/7"]
	NodeMinimalModelKernel155MinimalModelManager18MinimalModelManager42NodeMinimalModelKernel212MinimalModelManager18MinimalModelManager42FIFO -> NodeMinimalModelKernel212MinimalModelManager18MinimalModelManager42[color="/dark28/8"]
	NodeMinimalModelKernel220MinimalModelManager18MinimalModelManager42 -> NodeMinimalModelKernel220MinimalModelManager18MinimalModelManager42NodeMinimalModelKernel232MinimalModelManager18MinimalModelManager42FIFO[color="/dark28/1"]
	NodeMinimalModelKernel220MinimalModelManager18MinimalModelManager42NodeMinimalModelKernel232MinimalModelManager18MinimalModelManager42FIFO -> NodeMinimalModelKernel232MinimalModelManager18MinimalModelManager42[color="/dark28/2"]
}
