digraph manager_compiler_graph {
MinimalModel64DFEKernel[shape=plaintext, label=<<TABLE  BORDER="1" CELLPADDING="1" CELLSPACING="1"><TR><TD BGCOLOR="white" BORDER="0" PORT="node_info" ROWSPAN="1" COLSPAN="1">Kernel : MinimalModel64DFEKernel</TD></TR></TABLE>>];
}
