digraph CellCableDFEKernel_illegalLoop{
	NodeAdd615 [color=red, style="bold, filled", fillcolor=yellow, label="+\nID: 615"];
	NodeSub614 [color=red, style="bold, filled", fillcolor=yellow, label="-\nID: 614"];
	NodeMul613 [color=red, style="bold, filled", fillcolor=yellow, label="*\nID: 613"];
	NodeSub612 [color=red, style="bold, filled", fillcolor=yellow, label="-\nID: 612"];
	NodeAdd611 [color=red, style="bold, filled", fillcolor=yellow, label="+\nID: 611"];
	NodeMux609 [color=red, style="bold, filled", fillcolor=yellow, shape=invtrapezium, height=0.5, label="MUX\nID: 609"];
	NodeDiv607 [color=red, style="bold, filled", fillcolor=yellow, label="/\nID: 607"];
	NodeMul606 [color=red, style="bold, filled", fillcolor=yellow, label="*\nID: 606"];
	NodeNeg605 [color=red, style="bold, filled", fillcolor=yellow, label="(-)\nID: 605"];
	NodeAdd587 [color=red, style="bold, filled", fillcolor=yellow, label="+\nID: 587"];
	NodeMul586 [color=red, style="bold, filled", fillcolor=yellow, label="*\nID: 586"];
	NodeRegister582 [color=red, style="bold, filled", fillcolor=yellow, label="NodeRegister\nID: 582"];
	NodeMux471 [color=red, style="bold, filled", fillcolor=yellow, shape=invtrapezium, height=0.5, label="MUX\nID: 471"];
	NodeDiv470 [color=red, style="bold, filled", fillcolor=yellow, label="/\nID: 470"];
	NodeRegister445 [color=red, style="bold, filled", fillcolor=yellow, label="NodeRegister\nID: 445"];
	NodeAdd332 [color=red, style="bold, filled", fillcolor=yellow, label="+\nID: 332"];
	NodeMul331 [color=red, style="bold, filled", fillcolor=yellow, label="*\nID: 331"];
	NodeAdd330 [color=red, style="bold, filled", fillcolor=yellow, label="+\nID: 330"];
	NodeSub328 [color=red, style="bold, filled", fillcolor=yellow, label="-\nID: 328"];
	NodeDiv326 [color=red, style="bold, filled", fillcolor=yellow, label="/\nID: 326"];
	NodeAdd324 [color=red, style="bold, filled", fillcolor=yellow, label="+\nID: 324"];
	NodeMux313 [color=red, style="bold, filled", fillcolor=yellow, shape=invtrapezium, height=0.5, label="MUX\nID: 313"];
	NodeMux303 [color=red, style="bold, filled", fillcolor=yellow, shape=invtrapezium, height=0.5, label="MUX\nID: 303"];
	NodeCat294 [color=red, style="bold, filled", fillcolor=yellow, label="@\nID: 294"];
	NodeOr293 [color=red, style="bold, filled", fillcolor=yellow, label="|\nID: 293"];
	NodeAnd292 [color=red, style="bold, filled", fillcolor=yellow, label="&\nID: 292"];
	NodeGteInlined714 [color=red, style="bold, filled", fillcolor=yellow, label=">=\nID: 714"];
	NodeCondTriAdd742 [color=red, style="bold, filled", fillcolor=yellow, label="3 +/0\nID: 742"];
	NodeGteInlined711 [color=red, style="bold, filled", fillcolor=yellow, label=">=\nID: 711"];
	NodeCast267 [color=red, style="bold, filled", fillcolor=yellow, label="{HWOffsetFix:53, -52, UNSIGNED}\nID: 267"];
	NodeCast266 [color=red, style="bold, filled", fillcolor=yellow, label="{HWOffsetFix:60, -57, UNSIGNED}\nID: 266"];
	NodeAdd265 [color=red, style="bold, filled", fillcolor=yellow, label="+\nID: 265"];
	NodeMul264 [color=red, style="bold, filled", fillcolor=yellow, label="*\nID: 264"];
	NodeCast262 [color=red, style="bold, filled", fillcolor=yellow, label="{HWOffsetFix:59, -57, UNSIGNED}\nID: 262"];
	NodeAdd261 [color=red, style="bold, filled", fillcolor=yellow, label="+\nID: 261"];
	NodeMul260 [color=red, style="bold, filled", fillcolor=yellow, label="*\nID: 260"];
	NodeCast258 [color=red, style="bold, filled", fillcolor=yellow, label="{HWOffsetFix:58, -57, UNSIGNED}\nID: 258"];
	NodeAdd257 [color=red, style="bold, filled", fillcolor=yellow, label="+\nID: 257"];
	NodeMul256 [color=red, style="bold, filled", fillcolor=yellow, label="*\nID: 256"];
	NodeCast254 [color=red, style="bold, filled", fillcolor=yellow, label="{HWOffsetFix:26, -51, UNSIGNED}\nID: 254"];
	NodeMul252 [color=red, style="bold, filled", fillcolor=yellow, label="*\nID: 252"];
	NodeCast250 [color=red, style="bold, filled", fillcolor=yellow, label="{HWOffsetFix:26, -51, UNSIGNED}\nID: 250"];
	NodeDoubtBitOp245 [color=red, style="bold, filled", fillcolor=yellow, label="DoubtBitOp(REMOVE_DOUBT)\nID: 245"];
	NodeCast236 [color=red, style="bold, filled", fillcolor=yellow, label="{HWOffsetFix:64, -51, TWOSCOMPLEMENT}\nID: 236"];
	NodeMul234 [color=red, style="bold, filled", fillcolor=yellow, label="*\nID: 234"];
	NodeCast232 [color=red, style="bold, filled", fillcolor=yellow, label="{HWOffsetFix:64, -51, TWOSCOMPLEMENT}\nID: 232"];
	NodeDoubtBitOp231 [color=red, style="bold, filled", fillcolor=yellow, label="DoubtBitOp(ADD_DOUBT)\nID: 231"];
	NodePO2FPMult745 [color=red, style="bold, filled", fillcolor=yellow, label="PO2FPMult_N1\nID: 745"];
	NodeMul227 [color=red, style="bold, filled", fillcolor=yellow, label="*\nID: 227"];
	NodeSub226 [color=red, style="bold, filled", fillcolor=yellow, label="-\nID: 226"];
	NodeMux59 [color=red, style="bold, filled", fillcolor=yellow, shape=invtrapezium, height=0.5, label="MUX\nID: 59"];
	NodeRAM675 [color=red, style="bold, filled", fillcolor=yellow, label="RAM(RAM_TWO_PORT)\nID: 675"];
	NodeSub614 -> NodeAdd615[label="(7)" color=red style=bold photon_data="EDGE,SrcNode:614,SrcNodePort:result"];
	NodeMux223 [shape=point];
	NodeMux223 -> NodeAdd615[label="(1)" color="/dark28/1" photon_data="EDGE,SrcNode:223,SrcNodePort:result"];
	NodeStreamOffset616 [shape=point];
	NodeAdd615 -> NodeStreamOffset616 [label="(7)"];
	NodeOutput653 [shape=point];
	NodeAdd615 -> NodeOutput653 [label="(7)"];
	NodeRAM676 [shape=point];
	NodeAdd615 -> NodeRAM676 [label="(7)"];
	NodeMux59 -> NodeSub614[label="(1)" color=red style=bold photon_data="EDGE,SrcNode:59,SrcNodePort:result"];
	NodeMul613 -> NodeSub614[label="(6)" color=red style=bold photon_data="EDGE,SrcNode:613,SrcNodePort:result"];
	NodeSub612 -> NodeMul613[label="(7)" color=red style=bold photon_data="EDGE,SrcNode:612,SrcNodePort:result"];
	NodeInputMappedReg36 [shape=point];
	NodeInputMappedReg36 -> NodeMul613[label="(0)" color="/dark28/2" photon_data="EDGE,SrcNode:36,SrcNodePort:dt"];
	NodeAdd611 -> NodeSub612[label="(7)" color=red style=bold photon_data="EDGE,SrcNode:611,SrcNodePort:result"];
	NodeMux196 [shape=point];
	NodeMux196 -> NodeSub612[label="(1)" color="/dark28/3" photon_data="EDGE,SrcNode:196,SrcNodePort:result"];
	NodeAdd610 [shape=point];
	NodeAdd610 -> NodeAdd611[label="(7)" color="/dark28/4" photon_data="EDGE,SrcNode:610,SrcNodePort:result"];
	NodeMux609 -> NodeAdd611[label="(1)" color=red style=bold photon_data="EDGE,SrcNode:609,SrcNodePort:result"];
	NodeGt604 [shape=point];
	NodeGt604 -> NodeMux609[label="(1)" headport="w" color="/dark28/5" photon_data="EDGE,SrcNode:604,SrcNodePort:result"];
	NodeConstantRawBits608 [shape=point];
	NodeConstantRawBits608 -> NodeMux609[label="(0)" color="/dark28/6" photon_data="EDGE,SrcNode:608,SrcNodePort:value"];
	NodeDiv607 -> NodeMux609[label="(28)" color=red style=bold photon_data="EDGE,SrcNode:607,SrcNodePort:result"];
	NodeMul606 -> NodeDiv607[label="(6)" color=red style=bold photon_data="EDGE,SrcNode:606,SrcNodePort:result"];
	NodeConstantRawBits13 [shape=point];
	NodeConstantRawBits13 -> NodeDiv607[label="(0)" color="/dark28/7" photon_data="EDGE,SrcNode:13,SrcNodePort:value"];
	NodeNeg605 -> NodeMul606[label="(0)" color=red style=bold photon_data="EDGE,SrcNode:605,SrcNodePort:result"];
	NodeAdd589 [shape=point];
	NodeAdd589 -> NodeMul606[label="(14)" color="/dark28/8" photon_data="EDGE,SrcNode:589,SrcNodePort:result"];
	NodeAdd587 -> NodeNeg605[label="(14)" color=red style=bold photon_data="EDGE,SrcNode:587,SrcNodePort:result"];
	NodeMux63 [shape=point];
	NodeMux63 -> NodeAdd587[label="(1)" color="/dark28/1" photon_data="EDGE,SrcNode:63,SrcNodePort:result"];
	NodeMul586 -> NodeAdd587[label="(12)" color=red style=bold photon_data="EDGE,SrcNode:586,SrcNodePort:result"];
	NodeOutput667 [shape=point];
	NodeAdd587 -> NodeOutput667 [label="(14)"];
	NodeRAM677 [shape=point];
	NodeAdd587 -> NodeRAM677 [label="(14)"];
	NodeRegister582 -> NodeMul586[label="(1)" color=red style=bold photon_data="EDGE,SrcNode:582,SrcNodePort:output"];
	NodeInputMappedReg36 [shape=point];
	NodeInputMappedReg36 -> NodeMul586[label="(0)" color="/dark28/2" photon_data="EDGE,SrcNode:36,SrcNodePort:dt"];
	NodeMux471 -> NodeRegister582[label="(1)" color=red style=bold photon_data="EDGE,SrcNode:471,SrcNodePort:result"];
	NodeGt466 [shape=point];
	NodeGt466 -> NodeMux471[label="(1)" headport="w" color="/dark28/3" photon_data="EDGE,SrcNode:466,SrcNodePort:result"];
	NodeDiv470 -> NodeMux471[label="(28)" color=red style=bold photon_data="EDGE,SrcNode:470,SrcNodePort:result"];
	NodeDiv468 [shape=point];
	NodeDiv468 -> NodeMux471[label="(28)" color="/dark28/4" photon_data="EDGE,SrcNode:468,SrcNodePort:result"];
	NodeSub469 [shape=point];
	NodeSub469 -> NodeDiv470[label="(7)" color="/dark28/5" photon_data="EDGE,SrcNode:469,SrcNodePort:result"];
	NodeRegister445 -> NodeDiv470[label="(1)" color=red style=bold photon_data="EDGE,SrcNode:445,SrcNodePort:output"];
	NodeAdd332 -> NodeRegister445[label="(7)" color=red style=bold photon_data="EDGE,SrcNode:332,SrcNodePort:result"];
	NodeConstantRawBits4 [shape=point];
	NodeConstantRawBits4 -> NodeAdd332[label="(0)" color="/dark28/6" photon_data="EDGE,SrcNode:4,SrcNodePort:value"];
	NodeMul331 -> NodeAdd332[label="(6)" color=red style=bold photon_data="EDGE,SrcNode:331,SrcNodePort:result"];
	NodeConstantRawBits30 [shape=point];
	NodeConstantRawBits30 -> NodeMul331[label="(0)" color="/dark28/7" photon_data="EDGE,SrcNode:30,SrcNodePort:value"];
	NodeAdd330 -> NodeMul331[label="(7)" color=red style=bold photon_data="EDGE,SrcNode:330,SrcNodePort:result"];
	NodeConstantDouble329 [shape=point];
	NodeConstantDouble329 -> NodeAdd330[label="(0)" color="/dark28/8" photon_data="EDGE,SrcNode:329,SrcNodePort:value"];
	NodeSub328 -> NodeAdd330[label="(7)" color=red style=bold photon_data="EDGE,SrcNode:328,SrcNodePort:result"];
	NodeConstantDouble327 [shape=point];
	NodeConstantDouble327 -> NodeSub328[label="(0)" color="/dark28/1" photon_data="EDGE,SrcNode:327,SrcNodePort:value"];
	NodeDiv326 -> NodeSub328[label="(28)" color=red style=bold photon_data="EDGE,SrcNode:326,SrcNodePort:result"];
	NodeConstantDouble325 [shape=point];
	NodeConstantDouble325 -> NodeDiv326[label="(0)" color="/dark28/2" photon_data="EDGE,SrcNode:325,SrcNodePort:value"];
	NodeAdd324 -> NodeDiv326[label="(7)" color=red style=bold photon_data="EDGE,SrcNode:324,SrcNodePort:result"];
	NodeMux313 -> NodeAdd324[label="(1)" color=red style=bold photon_data="EDGE,SrcNode:313,SrcNodePort:result"];
	NodeConstantDouble323 [shape=point];
	NodeConstantDouble323 -> NodeAdd324[label="(0)" color="/dark28/3" photon_data="EDGE,SrcNode:323,SrcNodePort:value"];
	NodeAnd311 [shape=point];
	NodeAnd311 -> NodeMux313[label="(0)" headport="w" color="/dark28/4" photon_data="EDGE,SrcNode:311,SrcNodePort:result"];
	NodeMux303 -> NodeMux313[label="(1)" color=red style=bold photon_data="EDGE,SrcNode:303,SrcNodePort:result"];
	NodeConstantDouble312 [shape=point];
	NodeConstantDouble312 -> NodeMux313[label="(0)" color="/dark28/5" photon_data="EDGE,SrcNode:312,SrcNodePort:value"];
	NodeCat294 -> NodeMux303[label="(0)" headport="w" color=red style=bold photon_data="EDGE,SrcNode:294,SrcNodePort:result"];
	NodeReinterpret288 [shape=point];
	NodeReinterpret288 -> NodeMux303[label="(0)" color="/dark28/6" photon_data="EDGE,SrcNode:288,SrcNodePort:output"];
	NodeReinterpret300 [shape=point];
	NodeReinterpret300 -> NodeMux303[label="(0)" color="/dark28/7" photon_data="EDGE,SrcNode:300,SrcNodePort:output"];
	NodeConstantRawBits695 [shape=point];
	NodeConstantRawBits695 -> NodeMux303[label="(0)" color="/dark28/8" photon_data="EDGE,SrcNode:695,SrcNodePort:value"];
	NodeReinterpret300 [shape=point];
	NodeReinterpret300 -> NodeMux303[label="(0)" color="/dark28/1" photon_data="EDGE,SrcNode:300,SrcNodePort:output"];
	NodeOr284 [shape=point];
	NodeOr284 -> NodeCat294[label="(0)" color="/dark28/2" photon_data="EDGE,SrcNode:284,SrcNodePort:result"];
	NodeOr293 -> NodeCat294[label="(0)" color=red style=bold photon_data="EDGE,SrcNode:293,SrcNodePort:result"];
	NodeAnd292 -> NodeOr293[label="(0)" color=red style=bold photon_data="EDGE,SrcNode:292,SrcNodePort:result"];
	NodeAnd240 [shape=point];
	NodeAnd240 -> NodeOr293[label="(0)" color="/dark28/3" photon_data="EDGE,SrcNode:240,SrcNodePort:result"];
	NodeGteInlined714 -> NodeAnd292[label="(1)" color=red style=bold photon_data="EDGE,SrcNode:714,SrcNodePort:result"];
	NodeNot291 [shape=point];
	NodeNot291 -> NodeAnd292[label="(0)" color="/dark28/4" photon_data="EDGE,SrcNode:291,SrcNodePort:result"];
	NodeCondTriAdd742 -> NodeGteInlined714[label="(1)" color=red style=bold photon_data="EDGE,SrcNode:742,SrcNodePort:result"];
	NodeConstantDouble289 [shape=point];
	NodeConstantDouble289 -> NodeGteInlined714[label="(0)" color="/dark28/5" photon_data="EDGE,SrcNode:289,SrcNodePort:value"];
	NodeCast273 [shape=point];
	NodeCast273 -> NodeCondTriAdd742[label="(0)" color="/dark28/6" photon_data="EDGE,SrcNode:273,SrcNodePort:o"];
	NodeConstantRawBits276 [shape=point];
	NodeConstantRawBits276 -> NodeCondTriAdd742[label="(0)" color="/dark28/7" photon_data="EDGE,SrcNode:276,SrcNodePort:value"];
	NodeConstantRawBits737 [shape=point];
	NodeConstantRawBits737 -> NodeCondTriAdd742[label="(0)" color="/dark28/8" photon_data="EDGE,SrcNode:737,SrcNodePort:value"];
	NodeGteInlined711 -> NodeCondTriAdd742[label="(1)" color=red style=bold photon_data="EDGE,SrcNode:711,SrcNodePort:result"];
	NodeCast285 [shape=point];
	NodeCondTriAdd742 -> NodeCast285 [label="(1)"];
	NodeSlice712 [shape=point];
	NodeCondTriAdd742 -> NodeSlice712 [label="(1)"];
	NodeCast267 -> NodeGteInlined711[label="(1)" color=red style=bold photon_data="EDGE,SrcNode:267,SrcNodePort:o"];
	NodeConstantDouble268 [shape=point];
	NodeConstantDouble268 -> NodeGteInlined711[label="(0)" color="/dark28/1" photon_data="EDGE,SrcNode:268,SrcNodePort:value"];
	NodeMux271 [shape=point];
	NodeGteInlined711 -> NodeMux271 [label="(1)"];
	NodeCast266 -> NodeCast267[label="(1)" color=red style=bold photon_data="EDGE,SrcNode:266,SrcNodePort:o"];
	NodeMux271 [shape=point];
	NodeCast267 -> NodeMux271 [label="(1)"];
	NodeAdd265 -> NodeCast266[label="(2)" color=red style=bold photon_data="EDGE,SrcNode:265,SrcNodePort:result"];
	NodeAdd263 [shape=point];
	NodeAdd263 -> NodeAdd265[label="(1)" color="/dark28/2" photon_data="EDGE,SrcNode:263,SrcNodePort:result"];
	NodeMul264 -> NodeAdd265[label="(5)" color=red style=bold photon_data="EDGE,SrcNode:264,SrcNodePort:result"];
	NodeCast262 -> NodeMul264[label="(1)" color=red style=bold photon_data="EDGE,SrcNode:262,SrcNodePort:o"];
	NodeROM322 [shape=point];
	NodeROM322 -> NodeMul264[label="(2)" color="/dark28/3" photon_data="EDGE,SrcNode:322,SrcNodePort:dout"];
	NodeAdd261 -> NodeCast262[label="(2)" color=red style=bold photon_data="EDGE,SrcNode:261,SrcNodePort:result"];
	NodeAdd263 [shape=point];
	NodeCast262 -> NodeAdd263 [label="(1)"];
	NodeAdd259 [shape=point];
	NodeAdd259 -> NodeAdd261[label="(1)" color="/dark28/4" photon_data="EDGE,SrcNode:259,SrcNodePort:result"];
	NodeMul260 -> NodeAdd261[label="(6)" color=red style=bold photon_data="EDGE,SrcNode:260,SrcNodePort:result"];
	NodeCast258 -> NodeMul260[label="(1)" color=red style=bold photon_data="EDGE,SrcNode:258,SrcNodePort:o"];
	NodeROM319 [shape=point];
	NodeROM319 -> NodeMul260[label="(2)" color="/dark28/5" photon_data="EDGE,SrcNode:319,SrcNodePort:dout"];
	NodeAdd257 -> NodeCast258[label="(2)" color=red style=bold photon_data="EDGE,SrcNode:257,SrcNodePort:result"];
	NodeAdd259 [shape=point];
	NodeCast258 -> NodeAdd259 [label="(1)"];
	NodeAdd255 [shape=point];
	NodeAdd255 -> NodeAdd257[label="(1)" color="/dark28/6" photon_data="EDGE,SrcNode:255,SrcNodePort:result"];
	NodeMul256 -> NodeAdd257[label="(4)" color=red style=bold photon_data="EDGE,SrcNode:256,SrcNodePort:result"];
	NodeCast254 -> NodeMul256[label="(1)" color=red style=bold photon_data="EDGE,SrcNode:254,SrcNodePort:o"];
	NodeROM316 [shape=point];
	NodeROM316 -> NodeMul256[label="(2)" color="/dark28/7" photon_data="EDGE,SrcNode:316,SrcNodePort:dout"];
	NodeMul252 -> NodeCast254[label="(2)" color=red style=bold photon_data="EDGE,SrcNode:252,SrcNodePort:result"];
	NodeAdd255 [shape=point];
	NodeCast254 -> NodeAdd255 [label="(1)"];
	NodeConstantRawBits253 [shape=point];
	NodeConstantRawBits253 -> NodeMul252[label="(0)" color="/dark28/8" photon_data="EDGE,SrcNode:253,SrcNodePort:value"];
	NodeCast250 -> NodeMul252[label="(0)" color=red style=bold photon_data="EDGE,SrcNode:250,SrcNodePort:o"];
	NodeDoubtBitOp245 -> NodeCast250[label="(0)" color=red style=bold photon_data="EDGE,SrcNode:245,SrcNodePort:output"];
	NodeCast236 -> NodeDoubtBitOp245[label="(1)" color=red style=dashed photon_data="EDGE,SrcNode:236,SrcNodePort:o"];
	NodeCast246 [shape=point];
	NodeDoubtBitOp245 -> NodeCast246 [label="(0)"];
	NodeCast247 [shape=point];
	NodeDoubtBitOp245 -> NodeCast247 [label="(0)"];
	NodeCast248 [shape=point];
	NodeDoubtBitOp245 -> NodeCast248 [label="(0)"];
	NodeCast249 [shape=point];
	NodeDoubtBitOp245 -> NodeCast249 [label="(0)"];
	NodeMul234 -> NodeCast236[label="(7)" color=red style=dashed photon_data="EDGE,SrcNode:234,SrcNodePort:result"];
	NodeDoubtBitOp239 [shape=point];
	NodeCast236 -> NodeDoubtBitOp239 [label="(1)"];
	NodeDoubtBitOp243 [shape=point];
	NodeCast236 -> NodeDoubtBitOp243 [label="(1)"];
	NodeCast232 -> NodeMul234[label="(6)" color=red style=dashed photon_data="EDGE,SrcNode:232,SrcNodePort:o"];
	NodeConstantRawBits235 [shape=point];
	NodeConstantRawBits235 -> NodeMul234[label="(0)" color="/dark28/1" photon_data="EDGE,SrcNode:235,SrcNodePort:value"];
	NodeDoubtBitOp231 -> NodeCast232[label="(0)" color=red style=dashed photon_data="EDGE,SrcNode:231,SrcNodePort:output"];
	NodePO2FPMult745 -> NodeDoubtBitOp231[label="(1)" color=red style=bold photon_data="EDGE,SrcNode:745,SrcNodePort:floatOut"];
	NodeConstantRawBits230 [shape=point];
	NodeConstantRawBits230 -> NodeDoubtBitOp231[label="(0)" color="/dark28/2" photon_data="EDGE,SrcNode:230,SrcNodePort:value"];
	NodeMul227 -> NodePO2FPMult745[label="(6)" color=red style=bold photon_data="EDGE,SrcNode:227,SrcNodePort:result"];
	NodeGt238 [shape=point];
	NodePO2FPMult745 -> NodeGt238 [label="(1)"];
	NodeLt242 [shape=point];
	NodePO2FPMult745 -> NodeLt242 [label="(1)"];
	NodeSlice305 [shape=point];
	NodePO2FPMult745 -> NodeSlice305 [label="(1)"];
	NodeSlice306 [shape=point];
	NodePO2FPMult745 -> NodeSlice306 [label="(1)"];
	NodeConstantRawBits22 [shape=point];
	NodeConstantRawBits22 -> NodeMul227[label="(0)" color="/dark28/3" photon_data="EDGE,SrcNode:22,SrcNodePort:value"];
	NodeSub226 -> NodeMul227[label="(7)" color=red style=bold photon_data="EDGE,SrcNode:226,SrcNodePort:result"];
	NodeMux59 -> NodeSub226[label="(1)" color=red style=bold photon_data="EDGE,SrcNode:59,SrcNodePort:result"];
	NodeConstantRawBits25 [shape=point];
	NodeConstantRawBits25 -> NodeSub226[label="(0)" color="/dark28/4" photon_data="EDGE,SrcNode:25,SrcNodePort:value"];
	NodeEqInlined698 [shape=point];
	NodeEqInlined698 -> NodeMux59[label="(1)" headport="w" color="/dark28/5" photon_data="EDGE,SrcNode:698,SrcNodePort:result"];
	NodeRAM675 -> NodeMux59[label="(2)" color=red style=bold photon_data="EDGE,SrcNode:675,SrcNodePort:doutb"];
	NodeConstantRawBits58 [shape=point];
	NodeConstantRawBits58 -> NodeMux59[label="(0)" color="/dark28/6" photon_data="EDGE,SrcNode:58,SrcNodePort:value"];
	NodeGt224 [shape=point];
	NodeMux59 -> NodeGt224 [label="(1)"];
	NodeSub333 [shape=point];
	NodeMux59 -> NodeSub333 [label="(1)"];
	NodeGt440 [shape=point];
	NodeMux59 -> NodeGt440 [label="(1)"];
	NodeGt442 [shape=point];
	NodeMux59 -> NodeGt442 [label="(1)"];
	NodeGt449 [shape=point];
	NodeMux59 -> NodeGt449 [label="(1)"];
	NodeGt451 [shape=point];
	NodeMux59 -> NodeGt451 [label="(1)"];
	NodeDiv452 [shape=point];
	NodeMux59 -> NodeDiv452 [label="(1)"];
	NodeGt460 [shape=point];
	NodeMux59 -> NodeGt460 [label="(1)"];
	NodeGt466 [shape=point];
	NodeMux59 -> NodeGt466 [label="(1)"];
	NodeSub472 [shape=point];
	NodeMux59 -> NodeSub472 [label="(1)"];
	NodeGt590 [shape=point];
	NodeMux59 -> NodeGt590 [label="(1)"];
	NodeSub592 [shape=point];
	NodeMux59 -> NodeSub592 [label="(1)"];
	NodeSub594 [shape=point];
	NodeMux59 -> NodeSub594 [label="(1)"];
	NodeGt598 [shape=point];
	NodeMux59 -> NodeGt598 [label="(1)"];
	NodeGt604 [shape=point];
	NodeMux59 -> NodeGt604 [label="(1)"];
	NodeDiv602 [shape=point];
	NodeMux59 -> NodeDiv602 [label="(1)"];
	NodePO2FPMult748 [shape=point];
	NodeMux59 -> NodePO2FPMult748 [label="(1)"];
	NodePO2FPMult749 [shape=point];
	NodeMux59 -> NodePO2FPMult749 [label="(1)"];
	NodePO2FPMult751 [shape=point];
	NodeMux59 -> NodePO2FPMult751 [label="(1)"];
	NodeCast623 [shape=point];
	NodeCast623 -> NodeRAM675[label="(0)" color="/dark28/7" photon_data="EDGE,SrcNode:623,SrcNodePort:o"];
	NodeAdd615 -> NodeRAM675[label="(7)" headport="n" tailport="s" color=red style=bold photon_data="EDGE,SrcNode:615,SrcNodePort:result"];
	NodeEqInlined699 [shape=point];
	NodeEqInlined699 -> NodeRAM675[label="(1)" color="/dark28/8" photon_data="EDGE,SrcNode:699,SrcNodePort:result"];
	NodeCast47 [shape=point];
	NodeCast47 -> NodeRAM675[label="(0)" color="/dark28/1" photon_data="EDGE,SrcNode:47,SrcNodePort:o"];
}
