digraph fifoReportGraph {
	NodeBeelerReuterKernel84 [shape=hexagon, orientation=90, style=filled, fillcolor=red, label="BeelerReuterKernel.maxj\nline: 84"];
	NodeBeelerReuterKernel85 [shape=hexagon, orientation=90, style=filled, fillcolor=red, label="BeelerReuterKernel.maxj\nline: 85"];
	NodeBeelerReuterKernel87 [shape=hexagon, orientation=90, style=filled, fillcolor=red, label="BeelerReuterKernel.maxj\nline: 87"];
	NodeBeelerReuterKernel105 [shape=house, style=filled, fillcolor=red, label="BeelerReuterKernel.maxj\nline: 105"];
	NodeBeelerReuterKernel149 [shape=invhouse, label="BeelerReuterKernel.maxj\nline: 149"];
	NodeBeelerReuterKernel88 [shape=hexagon, orientation=90, label="BeelerReuterKernel.maxj\nline: 88"];
	NodeBeelerReuterKernel104 [shape=house, style=filled, fillcolor=red, label="BeelerReuterKernel.maxj\nline: 104"];
	NodeBeelerReuterKernel148 [shape=invhouse, label="BeelerReuterKernel.maxj\nline: 148"];
	NodeBeelerReuterKernel107 [shape=house, style=filled, fillcolor=red, label="BeelerReuterKernel.maxj\nline: 107"];
	NodeBeelerReuterKernel106 [shape=house, style=filled, fillcolor=red, label="BeelerReuterKernel.maxj\nline: 106"];
	NodeBeelerReuterKernel150 [shape=invhouse, label="BeelerReuterKernel.maxj\nline: 150"];
	NodeBeelerReuterKernel111 [shape=house, label="BeelerReuterKernel.maxj\nline: 111"];
	NodeBeelerReuterKernel114 [shape=hexagon, orientation=90, label="BeelerReuterKernel.maxj\nline: 114"];
	NodeBeelerReuterKernel152 [shape=invhouse, label="BeelerReuterKernel.maxj\nline: 152"];
	NodeBeelerReuterKernel80 [shape=invhouse, style=filled, fillcolor=red, label="BeelerReuterKernel.maxj\nline: 80"];
	NodeBeelerReuterKernel151 [shape=invhouse, label="BeelerReuterKernel.maxj\nline: 151"];
	NodeBeelerReuterKernel110 [shape=house, label="BeelerReuterKernel.maxj\nline: 110"];
	NodeBeelerReuterKernel94 [shape=hexagon, orientation=90, style=filled, fillcolor=red, label="BeelerReuterKernel.maxj\nline: 94"];
	NodeBeelerReuterKernel73 [shape=invhouse, style=filled, fillcolor=red, label="BeelerReuterKernel.maxj\nline: 73"];
	NodeBeelerReuterKernel96 [shape=hexagon, orientation=90, label="BeelerReuterKernel.maxj\nline: 96"];
	NodeBeelerReuterKernel74 [shape=invhouse, label="BeelerReuterKernel.maxj\nline: 74"];
	NodeBeelerReuterKernel75 [shape=invhouse, style=filled, fillcolor=red, label="BeelerReuterKernel.maxj\nline: 75"];
	NodeBeelerReuterKernel97 [shape=hexagon, orientation=90, label="BeelerReuterKernel.maxj\nline: 97"];
	NodeBeelerReuterKernel76 [shape=invhouse, style=filled, fillcolor=red, label="BeelerReuterKernel.maxj\nline: 76"];
	NodeBeelerReuterKernel115 [shape=hexagon, orientation=90, label="BeelerReuterKernel.maxj\nline: 115"];
	NodeBeelerReuterKernel77 [shape=invhouse, style=filled, fillcolor=red, label="BeelerReuterKernel.maxj\nline: 77"];
	NodeBeelerReuterKernel99 [shape=hexagon, orientation=90, label="BeelerReuterKernel.maxj\nline: 99"];
	NodeBeelerReuterKernel118 [shape=hexagon, orientation=90, label="BeelerReuterKernel.maxj\nline: 118"];
	NodeBeelerReuterKernel78 [shape=invhouse, style=filled, fillcolor=red, label="BeelerReuterKernel.maxj\nline: 78"];
	NodeBeelerReuterKernel79 [shape=invhouse, style=filled, fillcolor=red, label="BeelerReuterKernel.maxj\nline: 79"];
	NodeBeelerReuterKernel100 [shape=hexagon, orientation=90, label="BeelerReuterKernel.maxj\nline: 100"];
	NodeBeelerReuterKernel103 [shape=house, style=filled, fillcolor=red, label="BeelerReuterKernel.maxj\nline: 103"];
	NodeBeelerReuterKernel147 [shape=invhouse, label="BeelerReuterKernel.maxj\nline: 147"];
	NodeBeelerReuterKernel102 [shape=house, style=filled, fillcolor=red, label="BeelerReuterKernel.maxj\nline: 102"];
	NodeBeelerReuterKernel146 [shape=invhouse, label="BeelerReuterKernel.maxj\nline: 146"];
	NodeBeelerReuterKernel90 [shape=hexagon, orientation=90, label="BeelerReuterKernel.maxj\nline: 90"];
	NodeBeelerReuterKernel91 [shape=hexagon, orientation=90, label="BeelerReuterKernel.maxj\nline: 91"];
	NodeBeelerReuterKernel120 [shape=hexagon, orientation=90, label="BeelerReuterKernel.maxj\nline: 120"];
	NodeBeelerReuterKernel93 [shape=hexagon, orientation=90, label="BeelerReuterKernel.maxj\nline: 93"];
	NodeBeelerReuterKernel78NodeBeelerReuterKernel104FIFO [shape=box, style=filled, fillcolor=red, label="TotalCosts: 3 \n"];
	NodeBeelerReuterKernel76NodeBeelerReuterKernel103FIFO [shape=box, style=filled, fillcolor=red, label="TotalCosts: 3 \n"];
	NodeBeelerReuterKernel80NodeBeelerReuterKernel105FIFO [shape=box, style=filled, fillcolor=red, label="TotalCosts: 3 \n"];
	NodeBeelerReuterKernel75NodeBeelerReuterKernel102FIFO [shape=box, style=filled, fillcolor=red, label="TotalCosts: 3 \n"];
	NodeBeelerReuterKernel79NodeBeelerReuterKernel106FIFO [shape=box, style=filled, fillcolor=red, label="TotalCosts: 3 \n"];
	NodeBeelerReuterKernel77NodeBeelerReuterKernel107FIFO [shape=box, style=filled, fillcolor=red, label="TotalCosts: 3 \n"];
	NodeBeelerReuterKernel118NodeBeelerReuterKernel118FIFO [shape=box, style=filled, fillcolor=red, label="TotalCosts: 2 \n"];
	NodeBeelerReuterKernel114NodeBeelerReuterKernel114FIFO [shape=box, style=filled, fillcolor=red, label="TotalCosts: 2 \n"];
	NodeBeelerReuterKernel85NodeBeelerReuterKernel85FIFO [shape=box, style=filled, fillcolor=red, label="TotalCosts: 2 \n"];
	NodeBeelerReuterKernel87NodeBeelerReuterKernel87FIFO [shape=box, style=filled, fillcolor=red, label="TotalCosts: 2 \n"];
	NodeBeelerReuterKernel90NodeBeelerReuterKernel90FIFO [shape=box, label="TotalCosts: 2 \n"];
	NodeBeelerReuterKernel94NodeBeelerReuterKernel94FIFO [shape=box, label="TotalCosts: 2 \n"];
	NodeBeelerReuterKernel96NodeBeelerReuterKernel96FIFO [shape=box, label="TotalCosts: 2 \n"];
	NodeBeelerReuterKernel74NodeBeelerReuterKernel110FIFO [shape=box, label="TotalCosts: 2 \n"];
	NodeBeelerReuterKernel115NodeBeelerReuterKernel115FIFO [shape=box, label="TotalCosts: 2 \n"];
	NodeBeelerReuterKernel120NodeBeelerReuterKernel120FIFO [shape=box, label="TotalCosts: 2 \n"];
	NodeBeelerReuterKernel100NodeBeelerReuterKernel100FIFO [shape=box, label="TotalCosts: 2 \n"];
	NodeBeelerReuterKernel84NodeBeelerReuterKernel84FIFO [shape=box, label="TotalCosts: 2 \n"];
	NodeBeelerReuterKernel88NodeBeelerReuterKernel88FIFO [shape=box, label="TotalCosts: 2 \n"];
	NodeBeelerReuterKernel91NodeBeelerReuterKernel91FIFO [shape=box, label="TotalCosts: 2 \n"];
	NodeBeelerReuterKernel93NodeBeelerReuterKernel93FIFO [shape=box, label="TotalCosts: 2 \n"];
	NodeBeelerReuterKernel97NodeBeelerReuterKernel97FIFO [shape=box, label="TotalCosts: 2 \n"];
	NodeBeelerReuterKernel99NodeBeelerReuterKernel99FIFO [shape=box, label="TotalCosts: 2 \n"];
	NodeBeelerReuterKernel73NodeBeelerReuterKernel111FIFO [shape=box, label="TotalCosts: 1 \n"];
	NodeBeelerReuterKernel73NodeBeelerReuterKernel87FIFO [shape=box, label="TotalCosts: 1 \n"];
	NodeBeelerReuterKernel78 -> NodeBeelerReuterKernel78NodeBeelerReuterKernel104FIFO[color="/dark28/1"]
	NodeBeelerReuterKernel78NodeBeelerReuterKernel104FIFO -> NodeBeelerReuterKernel104[color="/dark28/2"]
	NodeBeelerReuterKernel73 -> NodeBeelerReuterKernel73NodeBeelerReuterKernel111FIFO[color="/dark28/3"]
	NodeBeelerReuterKernel73NodeBeelerReuterKernel111FIFO -> NodeBeelerReuterKernel111[color="/dark28/4"]
	NodeBeelerReuterKernel76 -> NodeBeelerReuterKernel76NodeBeelerReuterKernel103FIFO[color="/dark28/5"]
	NodeBeelerReuterKernel76NodeBeelerReuterKernel103FIFO -> NodeBeelerReuterKernel103[color="/dark28/6"]
	NodeBeelerReuterKernel118 -> NodeBeelerReuterKernel118NodeBeelerReuterKernel118FIFO[color="/dark28/7"]
	NodeBeelerReuterKernel118NodeBeelerReuterKernel118FIFO -> NodeBeelerReuterKernel118[color="/dark28/8"]
	NodeBeelerReuterKernel114 -> NodeBeelerReuterKernel114NodeBeelerReuterKernel114FIFO[color="/dark28/1"]
	NodeBeelerReuterKernel114NodeBeelerReuterKernel114FIFO -> NodeBeelerReuterKernel114[color="/dark28/2"]
	NodeBeelerReuterKernel73 -> NodeBeelerReuterKernel73NodeBeelerReuterKernel87FIFO[color="/dark28/3"]
	NodeBeelerReuterKernel73NodeBeelerReuterKernel87FIFO -> NodeBeelerReuterKernel87[color="/dark28/4"]
	NodeBeelerReuterKernel85 -> NodeBeelerReuterKernel85NodeBeelerReuterKernel85FIFO[color="/dark28/5"]
	NodeBeelerReuterKernel85NodeBeelerReuterKernel85FIFO -> NodeBeelerReuterKernel85[color="/dark28/6"]
	NodeBeelerReuterKernel87 -> NodeBeelerReuterKernel87NodeBeelerReuterKernel87FIFO[color="/dark28/7"]
	NodeBeelerReuterKernel87NodeBeelerReuterKernel87FIFO -> NodeBeelerReuterKernel87[color="/dark28/8"]
	NodeBeelerReuterKernel90 -> NodeBeelerReuterKernel90NodeBeelerReuterKernel90FIFO[color="/dark28/1"]
	NodeBeelerReuterKernel90NodeBeelerReuterKernel90FIFO -> NodeBeelerReuterKernel90[color="/dark28/2"]
	NodeBeelerReuterKernel94 -> NodeBeelerReuterKernel94NodeBeelerReuterKernel94FIFO[color="/dark28/3"]
	NodeBeelerReuterKernel94NodeBeelerReuterKernel94FIFO -> NodeBeelerReuterKernel94[color="/dark28/4"]
	NodeBeelerReuterKernel96 -> NodeBeelerReuterKernel96NodeBeelerReuterKernel96FIFO[color="/dark28/5"]
	NodeBeelerReuterKernel96NodeBeelerReuterKernel96FIFO -> NodeBeelerReuterKernel96[color="/dark28/6"]
	NodeBeelerReuterKernel80 -> NodeBeelerReuterKernel80NodeBeelerReuterKernel105FIFO[color="/dark28/7"]
	NodeBeelerReuterKernel80NodeBeelerReuterKernel105FIFO -> NodeBeelerReuterKernel105[color="/dark28/8"]
	NodeBeelerReuterKernel75 -> NodeBeelerReuterKernel75NodeBeelerReuterKernel102FIFO[color="/dark28/1"]
	NodeBeelerReuterKernel75NodeBeelerReuterKernel102FIFO -> NodeBeelerReuterKernel102[color="/dark28/2"]
	NodeBeelerReuterKernel79 -> NodeBeelerReuterKernel79NodeBeelerReuterKernel106FIFO[color="/dark28/3"]
	NodeBeelerReuterKernel79NodeBeelerReuterKernel106FIFO -> NodeBeelerReuterKernel106[color="/dark28/4"]
	NodeBeelerReuterKernel74 -> NodeBeelerReuterKernel74NodeBeelerReuterKernel110FIFO[color="/dark28/5"]
	NodeBeelerReuterKernel74NodeBeelerReuterKernel110FIFO -> NodeBeelerReuterKernel110[color="/dark28/6"]
	NodeBeelerReuterKernel77 -> NodeBeelerReuterKernel77NodeBeelerReuterKernel107FIFO[color="/dark28/7"]
	NodeBeelerReuterKernel77NodeBeelerReuterKernel107FIFO -> NodeBeelerReuterKernel107[color="/dark28/8"]
	NodeBeelerReuterKernel115 -> NodeBeelerReuterKernel115NodeBeelerReuterKernel115FIFO[color="/dark28/1"]
	NodeBeelerReuterKernel115NodeBeelerReuterKernel115FIFO -> NodeBeelerReuterKernel115[color="/dark28/2"]
	NodeBeelerReuterKernel120 -> NodeBeelerReuterKernel120NodeBeelerReuterKernel120FIFO[color="/dark28/3"]
	NodeBeelerReuterKernel120NodeBeelerReuterKernel120FIFO -> NodeBeelerReuterKernel120[color="/dark28/4"]
	NodeBeelerReuterKernel100 -> NodeBeelerReuterKernel100NodeBeelerReuterKernel100FIFO[color="/dark28/5"]
	NodeBeelerReuterKernel100NodeBeelerReuterKernel100FIFO -> NodeBeelerReuterKernel100[color="/dark28/6"]
	NodeBeelerReuterKernel84 -> NodeBeelerReuterKernel84NodeBeelerReuterKernel84FIFO[color="/dark28/7"]
	NodeBeelerReuterKernel84NodeBeelerReuterKernel84FIFO -> NodeBeelerReuterKernel84[color="/dark28/8"]
	NodeBeelerReuterKernel88 -> NodeBeelerReuterKernel88NodeBeelerReuterKernel88FIFO[color="/dark28/1"]
	NodeBeelerReuterKernel88NodeBeelerReuterKernel88FIFO -> NodeBeelerReuterKernel88[color="/dark28/2"]
	NodeBeelerReuterKernel91 -> NodeBeelerReuterKernel91NodeBeelerReuterKernel91FIFO[color="/dark28/3"]
	NodeBeelerReuterKernel91NodeBeelerReuterKernel91FIFO -> NodeBeelerReuterKernel91[color="/dark28/4"]
	NodeBeelerReuterKernel93 -> NodeBeelerReuterKernel93NodeBeelerReuterKernel93FIFO[color="/dark28/5"]
	NodeBeelerReuterKernel93NodeBeelerReuterKernel93FIFO -> NodeBeelerReuterKernel93[color="/dark28/6"]
	NodeBeelerReuterKernel97 -> NodeBeelerReuterKernel97NodeBeelerReuterKernel97FIFO[color="/dark28/7"]
	NodeBeelerReuterKernel97NodeBeelerReuterKernel97FIFO -> NodeBeelerReuterKernel97[color="/dark28/8"]
	NodeBeelerReuterKernel99 -> NodeBeelerReuterKernel99NodeBeelerReuterKernel99FIFO[color="/dark28/1"]
	NodeBeelerReuterKernel99NodeBeelerReuterKernel99FIFO -> NodeBeelerReuterKernel99[color="/dark28/2"]
}
