digraph manager_compiler_graph {
BeelerReuterKernel[shape=plaintext, label=<<TABLE  BORDER="1" CELLPADDING="1" CELLSPACING="1"><TR><TD BGCOLOR="white" BORDER="0" PORT="node_info" ROWSPAN="1" COLSPAN="1">Kernel : BeelerReuterKernel</TD></TR><TR><TD BGCOLOR="white" BORDER="0" PORT="outputs" ROWSPAN="1" COLSPAN="1"><TABLE  BORDER="1" CELLPADDING="1" CELLSPACING="4"><TR><TD BGCOLOR="white" BORDER="1" PORT="u_out" ROWSPAN="1" COLSPAN="1">u_out<BR/>clk=STREAM (100.0MHz)<BR/>width=32<BR/>PUSH 5</TD><TD BGCOLOR="white" BORDER="1" PORT="ca_out" ROWSPAN="1" COLSPAN="1">ca_out<BR/>clk=STREAM (100.0MHz)<BR/>width=32<BR/>PUSH 5</TD><TD BGCOLOR="white" BORDER="1" PORT="x1_out" ROWSPAN="1" COLSPAN="1">x1_out<BR/>clk=STREAM (100.0MHz)<BR/>width=32<BR/>PUSH 5</TD><TD BGCOLOR="white" BORDER="1" PORT="m_out" ROWSPAN="1" COLSPAN="1">m_out<BR/>clk=STREAM (100.0MHz)<BR/>width=32<BR/>PUSH 5</TD><TD BGCOLOR="white" BORDER="1" PORT="f_out" ROWSPAN="1" COLSPAN="1">f_out<BR/>clk=STREAM (100.0MHz)<BR/>width=32<BR/>PUSH 5</TD><TD BGCOLOR="white" BORDER="1" PORT="h_out" ROWSPAN="1" COLSPAN="1">h_out<BR/>clk=STREAM (100.0MHz)<BR/>width=32<BR/>PUSH 5</TD><TD BGCOLOR="white" BORDER="1" PORT="d_out" ROWSPAN="1" COLSPAN="1">d_out<BR/>clk=STREAM (100.0MHz)<BR/>width=32<BR/>PUSH 5</TD><TD BGCOLOR="white" BORDER="1" PORT="j_out" ROWSPAN="1" COLSPAN="1">j_out<BR/>clk=STREAM (100.0MHz)<BR/>width=32<BR/>PUSH 5</TD></TR></TABLE></TD></TR></TABLE>>];
BeelerReuterKernel_assign -> u_out_assign[color=green headport="assignment_2" tailport="assignment_33"];
BeelerReuterKernel_assign -> ca_out_assign[color=green headport="assignment_5" tailport="assignment_33"];
BeelerReuterKernel_assign -> x1_out_assign[color=green headport="assignment_8" tailport="assignment_33"];
BeelerReuterKernel_assign -> m_out_assign[color=green headport="assignment_11" tailport="assignment_33"];
BeelerReuterKernel_assign -> f_out_assign[color=green headport="assignment_14" tailport="assignment_33"];
BeelerReuterKernel_assign -> h_out_assign[color=green headport="assignment_17" tailport="assignment_33"];
BeelerReuterKernel_assign -> d_out_assign[color=green headport="assignment_20" tailport="assignment_33"];
BeelerReuterKernel_assign -> j_out_assign[color=green headport="assignment_23" tailport="assignment_33"];
BeelerReuterKernel_assign[shape=plaintext, label=<<TABLE  BORDER="0" CELLPADDING="0" CELLSPACING="0"><TR><TD BGCOLOR="green" BORDER="1" PORT="assignment_33" ROWSPAN="1" COLSPAN="1">25856 : width_out_u_out=32 width_out_ca_out=32 width_out_x1_out=32 width_out_m_out=32 width_out_f_out=32 width_out_h_out=32 width_out_d_out=32 width_out_j_out=32 clk=STREAM </TD></TR></TABLE>>];
BeelerReuterKernel_assign -> BeelerReuterKernel[color=gray];
u_out[shape=plaintext, label=<<TABLE  BORDER="1" CELLPADDING="1" CELLSPACING="1"><TR><TD BGCOLOR="white" BORDER="0" PORT="inputs" ROWSPAN="1" COLSPAN="1"><TABLE  BORDER="1" CELLPADDING="1" CELLSPACING="4"><TR><TD BGCOLOR="white" BORDER="1" PORT="u_out" ROWSPAN="1" COLSPAN="1">u_out<BR/>clk=PCIE (125.0MHz)<BR/>width=128<BR/>PUSH 1</TD></TR></TABLE></TD></TR><TR><TD BGCOLOR="white" BORDER="0" PORT="node_info" ROWSPAN="1" COLSPAN="1">PCIe_To_Host : u_out</TD></TR></TABLE>>];
u_out_assign[shape=plaintext, label=<<TABLE  BORDER="0" CELLPADDING="0" CELLSPACING="0"><TR><TD BGCOLOR="green" BORDER="1" PORT="assignment_2" ROWSPAN="1" COLSPAN="1">0 : width=128 clk=PCIE </TD></TR></TABLE>>];
u_out_assign -> u_out[color=gray];
x1_out[shape=plaintext, label=<<TABLE  BORDER="1" CELLPADDING="1" CELLSPACING="1"><TR><TD BGCOLOR="white" BORDER="0" PORT="inputs" ROWSPAN="1" COLSPAN="1"><TABLE  BORDER="1" CELLPADDING="1" CELLSPACING="4"><TR><TD BGCOLOR="white" BORDER="1" PORT="x1_out" ROWSPAN="1" COLSPAN="1">x1_out<BR/>clk=PCIE (125.0MHz)<BR/>width=128<BR/>PUSH 1</TD></TR></TABLE></TD></TR><TR><TD BGCOLOR="white" BORDER="0" PORT="node_info" ROWSPAN="1" COLSPAN="1">PCIe_To_Host : x1_out</TD></TR></TABLE>>];
x1_out_assign[shape=plaintext, label=<<TABLE  BORDER="0" CELLPADDING="0" CELLSPACING="0"><TR><TD BGCOLOR="green" BORDER="1" PORT="assignment_8" ROWSPAN="1" COLSPAN="1">0 : width=128 clk=PCIE </TD></TR></TABLE>>];
x1_out_assign -> x1_out[color=gray];
m_out[shape=plaintext, label=<<TABLE  BORDER="1" CELLPADDING="1" CELLSPACING="1"><TR><TD BGCOLOR="white" BORDER="0" PORT="inputs" ROWSPAN="1" COLSPAN="1"><TABLE  BORDER="1" CELLPADDING="1" CELLSPACING="4"><TR><TD BGCOLOR="white" BORDER="1" PORT="m_out" ROWSPAN="1" COLSPAN="1">m_out<BR/>clk=PCIE (125.0MHz)<BR/>width=128<BR/>PUSH 1</TD></TR></TABLE></TD></TR><TR><TD BGCOLOR="white" BORDER="0" PORT="node_info" ROWSPAN="1" COLSPAN="1">PCIe_To_Host : m_out</TD></TR></TABLE>>];
m_out_assign[shape=plaintext, label=<<TABLE  BORDER="0" CELLPADDING="0" CELLSPACING="0"><TR><TD BGCOLOR="green" BORDER="1" PORT="assignment_11" ROWSPAN="1" COLSPAN="1">0 : width=128 clk=PCIE </TD></TR></TABLE>>];
m_out_assign -> m_out[color=gray];
h_out[shape=plaintext, label=<<TABLE  BORDER="1" CELLPADDING="1" CELLSPACING="1"><TR><TD BGCOLOR="white" BORDER="0" PORT="inputs" ROWSPAN="1" COLSPAN="1"><TABLE  BORDER="1" CELLPADDING="1" CELLSPACING="4"><TR><TD BGCOLOR="white" BORDER="1" PORT="h_out" ROWSPAN="1" COLSPAN="1">h_out<BR/>clk=PCIE (125.0MHz)<BR/>width=128<BR/>PUSH 1</TD></TR></TABLE></TD></TR><TR><TD BGCOLOR="white" BORDER="0" PORT="node_info" ROWSPAN="1" COLSPAN="1">PCIe_To_Host : h_out</TD></TR></TABLE>>];
h_out_assign[shape=plaintext, label=<<TABLE  BORDER="0" CELLPADDING="0" CELLSPACING="0"><TR><TD BGCOLOR="green" BORDER="1" PORT="assignment_17" ROWSPAN="1" COLSPAN="1">0 : width=128 clk=PCIE </TD></TR></TABLE>>];
h_out_assign -> h_out[color=gray];
j_out[shape=plaintext, label=<<TABLE  BORDER="1" CELLPADDING="1" CELLSPACING="1"><TR><TD BGCOLOR="white" BORDER="0" PORT="inputs" ROWSPAN="1" COLSPAN="1"><TABLE  BORDER="1" CELLPADDING="1" CELLSPACING="4"><TR><TD BGCOLOR="white" BORDER="1" PORT="j_out" ROWSPAN="1" COLSPAN="1">j_out<BR/>clk=PCIE (125.0MHz)<BR/>width=128<BR/>PUSH 1</TD></TR></TABLE></TD></TR><TR><TD BGCOLOR="white" BORDER="0" PORT="node_info" ROWSPAN="1" COLSPAN="1">PCIe_To_Host : j_out</TD></TR></TABLE>>];
j_out_assign[shape=plaintext, label=<<TABLE  BORDER="0" CELLPADDING="0" CELLSPACING="0"><TR><TD BGCOLOR="green" BORDER="1" PORT="assignment_23" ROWSPAN="1" COLSPAN="1">0 : width=128 clk=PCIE </TD></TR></TABLE>>];
j_out_assign -> j_out[color=gray];
d_out[shape=plaintext, label=<<TABLE  BORDER="1" CELLPADDING="1" CELLSPACING="1"><TR><TD BGCOLOR="white" BORDER="0" PORT="inputs" ROWSPAN="1" COLSPAN="1"><TABLE  BORDER="1" CELLPADDING="1" CELLSPACING="4"><TR><TD BGCOLOR="white" BORDER="1" PORT="d_out" ROWSPAN="1" COLSPAN="1">d_out<BR/>clk=PCIE (125.0MHz)<BR/>width=128<BR/>PUSH 1</TD></TR></TABLE></TD></TR><TR><TD BGCOLOR="white" BORDER="0" PORT="node_info" ROWSPAN="1" COLSPAN="1">PCIe_To_Host : d_out</TD></TR></TABLE>>];
d_out_assign[shape=plaintext, label=<<TABLE  BORDER="0" CELLPADDING="0" CELLSPACING="0"><TR><TD BGCOLOR="green" BORDER="1" PORT="assignment_20" ROWSPAN="1" COLSPAN="1">0 : width=128 clk=PCIE </TD></TR></TABLE>>];
d_out_assign -> d_out[color=gray];
f_out[shape=plaintext, label=<<TABLE  BORDER="1" CELLPADDING="1" CELLSPACING="1"><TR><TD BGCOLOR="white" BORDER="0" PORT="inputs" ROWSPAN="1" COLSPAN="1"><TABLE  BORDER="1" CELLPADDING="1" CELLSPACING="4"><TR><TD BGCOLOR="white" BORDER="1" PORT="f_out" ROWSPAN="1" COLSPAN="1">f_out<BR/>clk=PCIE (125.0MHz)<BR/>width=128<BR/>PUSH 1</TD></TR></TABLE></TD></TR><TR><TD BGCOLOR="white" BORDER="0" PORT="node_info" ROWSPAN="1" COLSPAN="1">PCIe_To_Host : f_out</TD></TR></TABLE>>];
f_out_assign[shape=plaintext, label=<<TABLE  BORDER="0" CELLPADDING="0" CELLSPACING="0"><TR><TD BGCOLOR="green" BORDER="1" PORT="assignment_14" ROWSPAN="1" COLSPAN="1">0 : width=128 clk=PCIE </TD></TR></TABLE>>];
f_out_assign -> f_out[color=gray];
ca_out[shape=plaintext, label=<<TABLE  BORDER="1" CELLPADDING="1" CELLSPACING="1"><TR><TD BGCOLOR="white" BORDER="0" PORT="inputs" ROWSPAN="1" COLSPAN="1"><TABLE  BORDER="1" CELLPADDING="1" CELLSPACING="4"><TR><TD BGCOLOR="white" BORDER="1" PORT="ca_out" ROWSPAN="1" COLSPAN="1">ca_out<BR/>clk=PCIE (125.0MHz)<BR/>width=128<BR/>PUSH 1</TD></TR></TABLE></TD></TR><TR><TD BGCOLOR="white" BORDER="0" PORT="node_info" ROWSPAN="1" COLSPAN="1">PCIe_To_Host : ca_out</TD></TR></TABLE>>];
ca_out_assign[shape=plaintext, label=<<TABLE  BORDER="0" CELLPADDING="0" CELLSPACING="0"><TR><TD BGCOLOR="green" BORDER="1" PORT="assignment_5" ROWSPAN="1" COLSPAN="1">0 : width=128 clk=PCIE </TD></TR></TABLE>>];
ca_out_assign -> ca_out[color=gray];
BeelerReuterKernel -> u_out [headport="u_out" tailport="u_out" label="{D{data:1}}"]
BeelerReuterKernel -> x1_out [headport="x1_out" tailport="x1_out" label="{D{data:1}}"]
BeelerReuterKernel -> m_out [headport="m_out" tailport="m_out" label="{D{data:1}}"]
BeelerReuterKernel -> h_out [headport="h_out" tailport="h_out" label="{D{data:1}}"]
BeelerReuterKernel -> j_out [headport="j_out" tailport="j_out" label="{D{data:1}}"]
BeelerReuterKernel -> d_out [headport="d_out" tailport="d_out" label="{D{data:1}}"]
BeelerReuterKernel -> f_out [headport="f_out" tailport="f_out" label="{D{data:1}}"]
BeelerReuterKernel -> ca_out [headport="ca_out" tailport="ca_out" label="{D{data:1}}"]
}
