digraph CellCableDFE32Kernel_validated_fifos{
	NodeInputMappedReg36 [shape=box, peripheries=2, label="dt\nID: 36"];
	NodeInputMappedReg37 [shape=box, peripheries=2, label="ddt_o_dx2\nID: 37"];
	NodeInputMappedReg38 [shape=box, peripheries=2, label="nx\nID: 38"];
	NodeInputMappedReg39 [shape=box, peripheries=2, label="simTime\nID: 39"];
}
